<?xml version="1.0" encoding="utf-8"?>
<!-- Generator: Adobe Illustrator 21.0.2, SVG Export Plug-In . SVG Version: 6.00 Build 0)  -->
<svg version="1.1" xmlns="http://www.w3.org/2000/svg" xmlns:xlink="http://www.w3.org/1999/xlink" x="0px" y="0px" width="24px"
	 height="24px" viewBox="0 0 24 24" enable-background="new 0 0 24 24" xml:space="preserve">
<g id="Black">
	<g>
		<g>
			
				<rect x="2" y="5" transform="matrix(6.123234e-17 -1 1 6.123234e-17 -4.5 13.5)" fill="none" stroke="#58595B" stroke-linecap="round" stroke-linejoin="round" stroke-miterlimit="10" width="5" height="8"/>
			<polyline fill="none" stroke="#58595B" stroke-linecap="round" stroke-linejoin="round" stroke-miterlimit="10" points="
				1.855,6.5 2.561,3.25 10.379,4.947 9.318,9.834 8.515,9.659 			"/>
			<polyline fill="none" stroke="#58595B" stroke-linecap="round" stroke-linejoin="round" stroke-miterlimit="10" points="
				4.75,3.725 6.22,0.5 13.5,3.818 11.427,8.367 9.797,7.625 			"/>
			<g>
				<path fill="#58595B" d="M4.501,8.001c-0.051,0-0.102,0.019-0.141,0.059L3.56,8.859c-0.078,0.078-0.078,0.205,0,0.283
					l0.799,0.799c0.039,0.039,0.09,0.059,0.141,0.059c0.051,0,0.102-0.019,0.141-0.059l0.799-0.799c0.078-0.078,0.078-0.205,0-0.283
					L4.642,8.059C4.603,8.02,4.552,8.001,4.501,8.001L4.501,8.001z"/>
			</g>
		</g>
		<g>
			<polygon fill="none" stroke="#58595B" stroke-linejoin="round" stroke-miterlimit="10" points="22.5,5.5 20.5,6.5 18.5,5.5 
				18.5,2.5 20.5,1.5 22.5,2.5 			"/>
			
				<line fill="none" stroke="#58595B" stroke-linecap="round" stroke-linejoin="round" stroke-miterlimit="10" x1="18.5" y1="3" x2="22.5" y2="4"/>
			
				<line fill="none" stroke="#58595B" stroke-linecap="round" stroke-linejoin="round" stroke-miterlimit="10" x1="20.5" y1="9.5" x2="20.5" y2="12.5"/>
			
				<line fill="none" stroke="#58595B" stroke-linecap="round" stroke-linejoin="round" stroke-miterlimit="10" x1="17.5" y1="15.5" x2="23.5" y2="15.5"/>
			<polyline fill="none" stroke="#58595B" stroke-linecap="round" stroke-linejoin="round" stroke-miterlimit="10" points="
				17.5,11.5 17.5,23.5 20.5,17.5 23.5,23.5 23.5,11.5 			"/>
			<polyline fill="none" stroke="#58595B" stroke-linecap="round" stroke-linejoin="round" stroke-miterlimit="10" points="
				17.5,12.5 12,8.5 20.5,7.5 23.469,8.188 			"/>
		</g>
	</g>
</g>
<g id="Frames-24px">
	<rect fill="none" width="24" height="24"/>
</g>
</svg>
