<svg xmlns="http://www.w3.org/2000/svg" width="24" height="24" viewBox="0 0 24 24">
  <title>window-hierarchy-1</title>
  <g id="Duotone">
    <rect x="0.5" y="3.5" width="23" height="18" fill="#fff"/>
    <path d="M7.5,17.239V18.5H5.429L.5,21.5h23V7.5Zm6,1.261h-3v-3h3Zm6,0h-3v-3h3Z" fill="#cce7ff"/>
    <g>
      <polyline points="13.5 11.5 17.5 13.5 17.5 15.5" fill="none" stroke="#1078ff" stroke-linecap="round" stroke-linejoin="round"/>
      <polyline points="10.5 11.5 6.5 13.5 6.5 15.5" fill="none" stroke="#1078ff" stroke-linecap="round" stroke-linejoin="round"/>
      <line x1="11.5" y1="12.5" x2="11.5" y2="15.5" fill="none" stroke="#1078ff" stroke-linejoin="round"/>
      <line x1="2.5" y1="5.5" x2="3.5" y2="5.5" fill="none" stroke="#1078ff" stroke-linecap="round" stroke-miterlimit="10"/>
      <line x1="5.5" y1="5.5" x2="6.5" y2="5.5" fill="none" stroke="#1078ff" stroke-linecap="round" stroke-miterlimit="10"/>
      <line x1="8.5" y1="5.5" x2="9.5" y2="5.5" fill="none" stroke="#1078ff" stroke-linecap="round" stroke-miterlimit="10"/>
      <rect x="0.5" y="3.5" width="23" height="18" fill="none" stroke="#1078ff" stroke-linecap="round" stroke-linejoin="round"/>
      <line x1="0.5" y1="7.5" x2="23.5" y2="7.5" fill="none" stroke="#1078ff" stroke-linecap="round" stroke-linejoin="round"/>
      <rect x="4.5" y="15.5" width="3" height="3" fill="none" stroke="#1078ff" stroke-linecap="round" stroke-linejoin="round"/>
      <rect x="10.5" y="15.5" width="3" height="3" fill="none" stroke="#1078ff" stroke-linecap="round" stroke-linejoin="round"/>
      <rect x="16.5" y="15.5" width="3" height="3" fill="none" stroke="#1078ff" stroke-linecap="round" stroke-linejoin="round"/>
      <rect x="10.5" y="9.5" width="3" height="3" fill="none" stroke="#1078ff" stroke-linecap="round" stroke-linejoin="round"/>
    </g>
  </g>
  <g id="Frames-24px">
    <rect width="24" height="24" fill="none"/>
  </g>
</svg>
