<svg xmlns="http://www.w3.org/2000/svg" width="24" height="24" viewBox="0 0 24 24">
  <title>window-favorite-star</title>
  <g id="Duotone">
    <polygon points="23.5 15.5 20 15.5 19.5 14.328 19.5 0.5 0.5 0.5 0.5 15.5 13.5 15.5 16.5 17.997 15 22 18.5 19.502 22 22 20.5 17.997 23.5 15.5" fill="#fff"/>
    <polygon points="17 15.5 18.507 12 19.5 14.328 19.5 4.5 0.5 15.5 17 15.5" fill="#cce7ff"/>
    <polygon points="20.373 15.5 15.676 20.197 15 22 18.5 19.502 22 22 20.5 17.997 23.5 15.5 20.373 15.5" fill="#cce7ff"/>
    <g>
      <polyline points="10.5 15.5 0.5 15.5 0.5 0.5 19.5 0.5 19.5 9.5" fill="none" stroke="#1078ff" stroke-linecap="round" stroke-linejoin="round"/>
      <line x1="0.5" y1="4.5" x2="19.5" y2="4.5" fill="none" stroke="#1078ff" stroke-linecap="round" stroke-linejoin="round"/>
      <line x1="2.5" y1="2.5" x2="3.5" y2="2.5" fill="none" stroke="#1078ff" stroke-linecap="round" stroke-linejoin="round"/>
      <line x1="5.5" y1="2.5" x2="6.5" y2="2.5" fill="none" stroke="#1078ff" stroke-linecap="round" stroke-linejoin="round"/>
      <line x1="8.5" y1="2.5" x2="9.5" y2="2.5" fill="none" stroke="#1078ff" stroke-linecap="round" stroke-linejoin="round"/>
      <polygon points="18.507 12 20 15.5 23.5 15.5 20.5 17.997 22 22 18.5 19.503 15 22 16.5 17.997 13.5 15.5 17 15.5 18.507 12" fill="none" stroke="#1078ff" stroke-linecap="round" stroke-linejoin="round"/>
    </g>
  </g>
  <g id="Frames-24px">
    <rect width="24" height="24" fill="none"/>
  </g>
</svg>
