<svg xmlns="http://www.w3.org/2000/svg" width="24" height="24" viewBox="0 0 24 24">
  <title>window-favorite</title>
  <g id="Duotone">
    <rect x="0.5" y="3.5" width="23" height="18" fill="#fff"/>
    <polygon points="15.286 12.5 16 12.5 13.732 14.355 15 17.5 12 15.773 9 17.5 9.627 15.944 0.5 21.5 23.5 21.5 23.5 7.5 15.286 12.5" fill="#cce7ff"/>
    <g>
      <line x1="2.5" y1="5.5" x2="3.5" y2="5.5" fill="none" stroke="#1078ff" stroke-linecap="round" stroke-miterlimit="10"/>
      <line x1="5.5" y1="5.5" x2="6.5" y2="5.5" fill="none" stroke="#1078ff" stroke-linecap="round" stroke-miterlimit="10"/>
      <line x1="8.5" y1="5.5" x2="9.5" y2="5.5" fill="none" stroke="#1078ff" stroke-linecap="round" stroke-miterlimit="10"/>
      <rect x="0.5" y="3.5" width="23" height="18" fill="none" stroke="#1078ff" stroke-linecap="round" stroke-linejoin="round"/>
      <line x1="0.5" y1="7.5" x2="23.5" y2="7.5" fill="none" stroke="#1078ff" stroke-linecap="round" stroke-linejoin="round"/>
      <polygon points="16 12.5 13.058 12.5 12 9.5 10.942 12.5 8 12.5 10.268 14.355 9 17.5 12 15.773 15 17.5 13.732 14.355 16 12.5" fill="none" stroke="#1078ff" stroke-linejoin="round"/>
    </g>
  </g>
  <g id="Frames-24px">
    <rect width="24" height="24" fill="none"/>
  </g>
</svg>
