<svg xmlns="http://www.w3.org/2000/svg" width="24" height="24" viewBox="0 0 24 24">
  <title>window-download-1</title>
  <g id="Duotone">
    <rect x="0.5" y="3.5" width="23" height="18" fill="#fff"/>
    <polygon points="23.5 7.5 23.5 21.5 0.5 21.5 23.5 7.5" fill="#cce7ff"/>
    <g>
      <g>
        <line x1="12.5" y1="16.5" x2="12.5" y2="10.492" fill="none" stroke="#1078ff" stroke-linecap="round" stroke-linejoin="round"/>
        <polyline points="15.5 13.492 12.5 16.5 9.5 13.492" fill="none" stroke="#1078ff" stroke-linecap="round" stroke-linejoin="round"/>
      </g>
      <polyline points="7.5 16.5 7.5 18.492 17.5 18.492 17.5 16.5" fill="none" stroke="#1078ff" stroke-linecap="round" stroke-linejoin="round"/>
      <line x1="2.5" y1="5.492" x2="3.5" y2="5.492" fill="none" stroke="#1078ff" stroke-linecap="round" stroke-miterlimit="10"/>
      <line x1="5.5" y1="5.492" x2="6.5" y2="5.492" fill="none" stroke="#1078ff" stroke-linecap="round" stroke-miterlimit="10"/>
      <line x1="8.5" y1="5.492" x2="9.5" y2="5.492" fill="none" stroke="#1078ff" stroke-linecap="round" stroke-miterlimit="10"/>
      <rect x="0.5" y="3.492" width="23" height="18" fill="none" stroke="#1078ff" stroke-linecap="round" stroke-linejoin="round"/>
      <line x1="0.5" y1="7.492" x2="23.5" y2="7.492" fill="none" stroke="#1078ff" stroke-linecap="round" stroke-linejoin="round"/>
    </g>
  </g>
  <g id="Frames-24px">
    <rect width="24" height="24" fill="none"/>
  </g>
</svg>
