<svg xmlns="http://www.w3.org/2000/svg" width="24" height="24" viewBox="0 0 24 24">
  <title>window-link</title>
  <g id="Duotone">
    <rect x="0.5" y="0.5" width="19" height="15" fill="#fff"/>
    <polygon points="0.5 15.5 19.5 15.5 19.5 4.5 0.5 15.5" fill="#cce7ff"/>
    <g>
      <g>
        <polyline points="21 18.5 23.5 16 23.5 12.5 20 12.5 17.5 15" fill="none" stroke="#1078ff" stroke-linecap="round" stroke-linejoin="round"/>
        <polyline points="16 16.5 13.5 19 13.5 22.5 17 22.5 19.5 20" fill="none" stroke="#1078ff" stroke-linecap="round" stroke-linejoin="round"/>
        <line x1="21" y1="15" x2="16" y2="20" fill="none" stroke="#1078ff" stroke-linecap="round" stroke-linejoin="round"/>
      </g>
      <polyline points="13.5 15.5 0.5 15.5 0.5 0.5 19.5 0.5 19.5 9.5" fill="none" stroke="#1078ff" stroke-linecap="round" stroke-linejoin="round"/>
      <line x1="0.5" y1="4.5" x2="19.5" y2="4.5" fill="none" stroke="#1078ff" stroke-linecap="round" stroke-linejoin="round"/>
      <line x1="2.5" y1="2.5" x2="3.5" y2="2.5" fill="none" stroke="#1078ff" stroke-linecap="round" stroke-linejoin="round"/>
      <line x1="5.5" y1="2.5" x2="6.5" y2="2.5" fill="none" stroke="#1078ff" stroke-linecap="round" stroke-linejoin="round"/>
      <line x1="8.5" y1="2.5" x2="9.5" y2="2.5" fill="none" stroke="#1078ff" stroke-linecap="round" stroke-linejoin="round"/>
    </g>
  </g>
  <g id="Frames-24px">
    <rect width="24" height="24" fill="none"/>
  </g>
</svg>
