<svg xmlns="http://www.w3.org/2000/svg" width="24" height="24" viewBox="0 0 24 24">
  <title>window-setting</title>
  <g id="Duotone">
    <path d="M22.5,15.513l1-1.1-.762-1.292-1.478.353-1.678-.9-.082-.267V.5H.5v15H14.488l.012.013v1.973l-1,1.1.762,1.292,1.478-.353,1.678.9L17.75,21.5h1.5l.332-1.079,1.678-.9,1.478.353.762-1.292-1-1.1Zm-2,2.1-2,1.132-2-1.132V15.5h3v-.684l1,.566Z" fill="#fff"/>
    <g>
      <polygon points="19.5 14.816 18.5 14.25 16.5 15.382 16.5 15.5 19.5 15.5 19.5 14.816" fill="#cce7ff"/>
      <polygon points="13.5 14.417 14.262 13.125 15.74 13.478 17.418 12.579 17.75 11.5 19.25 11.5 19.5 12.313 19.5 4.5 0.5 15.5 14.488 15.5 13.5 14.417" fill="#cce7ff"/>
    </g>
    <polygon points="23.5 14.417 22.738 13.125 21.36 13.454 19.818 14.996 20.5 15.382 20.5 17.618 18.5 18.75 16.944 17.87 15.151 19.663 15.74 19.522 17.418 20.421 17.75 21.5 19.25 21.5 19.582 20.421 21.26 19.522 22.738 19.875 23.5 18.583 22.5 17.487 22.5 15.513 23.5 14.417" fill="#cce7ff"/>
    <g>
      <polyline points="10.5 15.5 0.5 15.5 0.5 0.5 19.5 0.5 19.5 8.5" fill="none" stroke="#1078ff" stroke-linecap="round" stroke-linejoin="round"/>
      <line x1="0.5" y1="4.5" x2="19.5" y2="4.5" fill="none" stroke="#1078ff" stroke-linecap="round" stroke-linejoin="round"/>
      <line x1="2.5" y1="2.5" x2="3.5" y2="2.5" fill="none" stroke="#1078ff" stroke-linecap="round" stroke-linejoin="round"/>
      <line x1="5.5" y1="2.5" x2="6.5" y2="2.5" fill="none" stroke="#1078ff" stroke-linecap="round" stroke-linejoin="round"/>
      <line x1="8.5" y1="2.5" x2="9.5" y2="2.5" fill="none" stroke="#1078ff" stroke-linecap="round" stroke-linejoin="round"/>
      <g>
        <polygon points="22.5 15.513 23.5 14.417 22.738 13.125 21.26 13.478 19.582 12.579 19.25 11.5 17.75 11.5 17.418 12.579 15.74 13.478 14.262 13.125 13.5 14.417 14.5 15.513 14.5 17.487 13.5 18.583 14.262 19.875 15.74 19.522 17.418 20.421 17.75 21.5 19.25 21.5 19.582 20.421 21.26 19.522 22.738 19.875 23.5 18.583 22.5 17.487 22.5 15.513" fill="none" stroke="#1078ff" stroke-linecap="round" stroke-linejoin="round"/>
        <polygon points="16.5 15.382 18.5 14.25 20.5 15.382 20.5 17.618 18.5 18.75 16.5 17.618 16.5 15.382" fill="none" stroke="#1078ff" stroke-linecap="round" stroke-linejoin="round"/>
      </g>
    </g>
  </g>
  <g id="Frames-24px">
    <rect width="24" height="24" fill="none"/>
  </g>
</svg>
