<?xml version="1.0" encoding="utf-8"?>
<!-- Generator: Adobe Illustrator 21.0.2, SVG Export Plug-In . SVG Version: 6.00 Build 0)  -->
<svg version="1.1" xmlns="http://www.w3.org/2000/svg" xmlns:xlink="http://www.w3.org/1999/xlink" x="0px" y="0px"
	 viewBox="0 0 24 24" style="enable-background:new 0 0 24 24;" xml:space="preserve">
<style type="text/css">
	.st0{fill:#FFFFFF;}
	.st1{fill:#CCE7FF;}
	.st2{fill:none;stroke:#1078FF;stroke-linecap:round;stroke-linejoin:round;stroke-miterlimit:10;}
	.st3{fill:none;}
</style>
<g id="Duotone">
	<g>
		<polygon class="st0" points="21.5,19.5 11.5,17.5 1.5,19.5 0.5,23.5 22.5,23.5 		"/>
		<polygon class="st0" points="20.5,7.5 17.5,7.5 17.5,3 11.5,0.5 5.5,3.1 5.5,8.5 3.5,8.5 3.5,11 5.5,12 5.5,14 11.5,16.5 17.5,14 
			17.5,11.5 20.5,11.5 21.5,9.5 		"/>
	</g>
	<polygon class="st1" points="13,23.5 11.5,21.5 10,23.5 	"/>
	<polygon class="st1" points="17.5,9.5 17.5,11.5 20.5,11.5 21.5,9.5 	"/>
	<polygon class="st1" points="5.5,5.1 5.5,8.5 8,6.5 11,7.5 17.5,7.5 17.5,5 11.5,2.5 	"/>
	<polygon class="st1" points="11.5,21.5 10,19.5 11.5,17.5 13,19.5 	"/>
	<polyline class="st2" points="11.5,14.5 17.5,14.5 19.5,11.5 	"/>
	<polygon class="st2" points="11.5,21.5 10,19.5 11.5,17.5 13,19.5 	"/>
	<polyline class="st2" points="13,23.5 11.5,21.5 10,23.5 	"/>
	<line class="st2" x1="15.5" y1="22.5" x2="18.5" y2="22.5"/>
	<polyline class="st2" points="12.7,16 11.5,16.5 5.5,14 5.5,8.5 	"/>
	<polyline class="st2" points="5.5,8.5 3.5,8.5 3.5,11 5.5,12 	"/>
	<line class="st2" x1="9.5" y1="9.5" x2="9.5" y2="10.5"/>
	<line class="st2" x1="13.5" y1="9.5" x2="13.5" y2="10.5"/>
	<polyline class="st2" points="22.5,23.5 21.5,19.5 11.5,17.5 1.5,19.5 0.5,23.5 	"/>
	<polygon class="st2" points="8,6.5 5.5,8.5 5.5,3.1 11.5,0.5 17.5,3 17.5,7.5 11,7.5 	"/>
	<polygon class="st2" points="17.5,7.5 20.5,7.5 21.5,9.5 20.5,11.5 17.5,11.5 	"/>
</g>
<g id="Frames-24px">
	<rect x="0" class="st3" width="24" height="24"/>
</g>
</svg>
