<?xml version="1.0" encoding="utf-8"?>
<!-- Generator: Adobe Illustrator 21.0.2, SVG Export Plug-In . SVG Version: 6.00 Build 0)  -->
<svg version="1.1" xmlns="http://www.w3.org/2000/svg" xmlns:xlink="http://www.w3.org/1999/xlink" x="0px" y="0px" width="24px"
	 height="24px" viewBox="0 0 24 24" enable-background="new 0 0 24 24" xml:space="preserve">
<g id="Black">
	<g>
		
			<polyline fill="none" stroke="#58595B" stroke-width="0.9847" stroke-linecap="round" stroke-linejoin="round" stroke-miterlimit="10" points="
			18.5,19.5 18.5,11.5 4.5,11.5 4.5,19.5 		"/>
		<polygon fill="none" stroke="#58595B" stroke-linecap="round" stroke-linejoin="round" stroke-miterlimit="10" points="20.5,23.5 
			18.5,19.5 4.5,19.5 2.5,23.5 		"/>
		
			<line fill="none" stroke="#58595B" stroke-linecap="round" stroke-linejoin="round" stroke-miterlimit="10" x1="10.5" y1="21.5" x2="12.5" y2="21.5"/>
		
			<rect x="0.5" y="2.5" fill="none" stroke="#58595B" stroke-width="0.9847" stroke-linecap="round" stroke-linejoin="round" stroke-miterlimit="10" width="6" height="4"/>
		
			<polyline fill="none" stroke="#58595B" stroke-width="0.9847" stroke-linecap="round" stroke-linejoin="round" stroke-miterlimit="10" points="
			0.5,2.5 3.5,5 6.5,2.5 		"/>
		
			<rect x="16.5" y="2.5" fill="none" stroke="#58595B" stroke-width="0.9847" stroke-linecap="round" stroke-linejoin="round" stroke-miterlimit="10" width="6" height="4"/>
		
			<polyline fill="none" stroke="#58595B" stroke-width="0.9847" stroke-linecap="round" stroke-linejoin="round" stroke-miterlimit="10" points="
			16.5,2.5 19.5,5 22.5,2.5 		"/>
		
			<rect x="8.5" y="0.5" fill="none" stroke="#58595B" stroke-width="0.9847" stroke-linecap="round" stroke-linejoin="round" stroke-miterlimit="10" width="6" height="4"/>
		
			<polyline fill="none" stroke="#58595B" stroke-width="0.9847" stroke-linecap="round" stroke-linejoin="round" stroke-miterlimit="10" points="
			8.5,0.5 11.5,3 14.5,0.5 		"/>
		
			<line fill="none" stroke="#58595B" stroke-width="0.9847" stroke-linecap="round" stroke-linejoin="round" stroke-miterlimit="10" x1="11.5" y1="9.5" x2="11.5" y2="6.5"/>
		
			<line fill="none" stroke="#58595B" stroke-width="0.9847" stroke-linecap="round" stroke-linejoin="round" stroke-miterlimit="10" x1="14.379" y1="9.5" x2="16" y2="8"/>
		
			<line fill="none" stroke="#58595B" stroke-width="0.9847" stroke-linecap="round" stroke-linejoin="round" stroke-miterlimit="10" x1="8.621" y1="9.5" x2="7" y2="8"/>
	</g>
</g>
<g id="Frames-24px">
	<rect fill="none" width="24" height="24"/>
</g>
</svg>
