<?xml version="1.0" encoding="utf-8"?>
<!-- Generator: Adobe Illustrator 21.0.2, SVG Export Plug-In . SVG Version: 6.00 Build 0)  -->
<svg version="1.1" xmlns="http://www.w3.org/2000/svg" xmlns:xlink="http://www.w3.org/1999/xlink" x="0px" y="0px" width="24px"
	 height="24px" viewBox="0 0 24 24" enable-background="new 0 0 24 24" xml:space="preserve">
<g id="Black">
	<g>
		
			<polygon fill="none" stroke="#58595B" stroke-width="0.9847" stroke-linecap="round" stroke-linejoin="round" stroke-miterlimit="10" points="
			4,23.5 13.5,8.651 23,23.5 		"/>
		
			<polyline fill="none" stroke="#58595B" stroke-width="0.9847" stroke-linecap="round" stroke-linejoin="round" stroke-miterlimit="10" points="
			4,23.5 0.5,23.5 5,16.5 6.743,19.212 		"/>
		
			<polyline fill="none" stroke="#58595B" stroke-width="0.9847" stroke-linecap="round" stroke-linejoin="round" stroke-miterlimit="10" points="
			9.462,14.962 11.5,17 13.5,15 15.5,17 17.538,14.962 		"/>
		
			<line fill="none" stroke="#58595B" stroke-width="0.9847" stroke-linecap="round" stroke-linejoin="round" stroke-miterlimit="10" x1="13.5" y1="8.651" x2="13.5" y2="2"/>
		
			<rect x="13.5" y="0.5" fill="none" stroke="#58595B" stroke-width="0.9847" stroke-linecap="round" stroke-linejoin="round" stroke-miterlimit="10" width="5" height="5"/>
		
			<rect x="18.5" y="1.5" fill="none" stroke="#58595B" stroke-width="0.9847" stroke-linecap="round" stroke-linejoin="round" stroke-miterlimit="10" width="3" height="5"/>
	</g>
</g>
<g id="Frames-24px">
	<rect fill="none" width="24" height="24"/>
</g>
</svg>
