<?xml version="1.0" encoding="utf-8"?>
<!-- Generator: Adobe Illustrator 21.0.2, SVG Export Plug-In . SVG Version: 6.00 Build 0)  -->
<svg version="1.1" xmlns="http://www.w3.org/2000/svg" xmlns:xlink="http://www.w3.org/1999/xlink" x="0px" y="0px" width="24px"
	 height="24px" viewBox="0 0 24 24" enable-background="new 0 0 24 24" xml:space="preserve">
<g id="Black">
	<g>
		<path fill="none" stroke="#58595B" stroke-linejoin="round" stroke-miterlimit="10" d="M2.207,21.793
			c-0.109-0.108-0.192-0.242-0.242-0.391l-1.414-4.243c-0.12-0.359-0.026-0.756,0.242-1.023l4.95-4.95l1.768,1.768l-4.42,4.419
			l0.884,2.652l2.652,0.884l4.419-4.419l1.768,1.768l-4.95,4.95c-0.268,0.268-0.664,0.361-1.023,0.242l-4.243-1.414
			C2.449,21.985,2.316,21.901,2.207,21.793z"/>
		
			<line fill="none" stroke="#58595B" stroke-linejoin="round" stroke-miterlimit="10" x1="4.329" y1="12.6" x2="6.096" y2="14.368"/>
		
			<line fill="none" stroke="#58595B" stroke-linejoin="round" stroke-miterlimit="10" x1="9.632" y1="17.904" x2="11.4" y2="19.671"/>
		
			<line fill="none" stroke="#58595B" stroke-linecap="round" stroke-linejoin="round" stroke-miterlimit="10" x1="7.49" y1="10.01" x2="8" y2="9.5"/>
		
			<line fill="none" stroke="#58595B" stroke-linecap="round" stroke-linejoin="round" stroke-miterlimit="10" x1="9.016" y1="11.483" x2="9.5" y2="11"/>
		<g>
			<g>
				
					<rect x="11.257" y="1.429" transform="matrix(0.7071 -0.7071 0.7071 0.7071 -1.4706 13.4497)" fill="none" stroke="#58595B" stroke-linecap="round" stroke-linejoin="round" stroke-miterlimit="10" width="8.485" height="14.142"/>
			</g>
			
				<rect x="14.5" y="7.5" fill="none" stroke="#58595B" stroke-linecap="round" stroke-linejoin="round" stroke-miterlimit="10" width="2" height="2"/>
			
				<line fill="none" stroke="#58595B" stroke-linecap="round" stroke-linejoin="round" stroke-miterlimit="10" x1="21.5" y1="8.5" x2="21.5" y2="12.5"/>
			
				<line fill="none" stroke="#58595B" stroke-linecap="round" stroke-linejoin="round" stroke-miterlimit="10" x1="15.5" y1="14.5" x2="19.5" y2="14.5"/>
			
				<line fill="none" stroke="#58595B" stroke-linecap="round" stroke-linejoin="round" stroke-miterlimit="10" x1="9.5" y1="4.5" x2="9.5" y2="8.5"/>
			
				<line fill="none" stroke="#58595B" stroke-linecap="round" stroke-linejoin="round" stroke-miterlimit="10" x1="11.5" y1="2.5" x2="15.5" y2="2.5"/>
		</g>
		
			<line fill="none" stroke="#58595B" stroke-linecap="round" stroke-linejoin="round" stroke-miterlimit="10" x1="12.009" y1="14.991" x2="12.5" y2="14.5"/>
		
			<line fill="none" stroke="#58595B" stroke-linecap="round" stroke-linejoin="round" stroke-miterlimit="10" x1="13.504" y1="16.496" x2="14" y2="16"/>
	</g>
</g>
<g id="Frames-24px">
	<rect fill="none" width="24" height="24"/>
</g>
</svg>
