<?xml version="1.0" encoding="utf-8"?>
<!-- Generator: Adobe Illustrator 21.0.2, SVG Export Plug-In . SVG Version: 6.00 Build 0)  -->
<svg version="1.1" xmlns="http://www.w3.org/2000/svg" xmlns:xlink="http://www.w3.org/1999/xlink" x="0px" y="0px"
	 viewBox="0 0 24 24" style="enable-background:new 0 0 24 24;" xml:space="preserve">
<style type="text/css">
	.st0{fill:#FFFFFF;}
	.st1{fill:#CCE7FF;}
	.st2{fill:none;stroke:#1078FF;stroke-linecap:round;stroke-linejoin:round;stroke-miterlimit:10;}
	.st3{fill:none;}
</style>
<g id="Duotone">
	<polygon class="st0" points="22,14.5 20.5,10.5 14.5,10.5 9,6.5 4.5,8.5 1.5,8.5 0.5,10.5 3.5,20.5 22.5,20.5 23.5,17.5 23.5,14.5 
			"/>
	<polygon class="st1" points="2.9,18.5 3.5,20.5 22.5,20.5 23.2,18.5 	"/>
	<polygon class="st1" points="8.5,12.5 6.8,7.5 4.5,8.5 6.5,14.5 22,14.5 21.3,12.5 	"/>
	<g>
		<polygon class="st2" points="6.5,14.5 4.5,8.5 1.5,8.5 0.5,10.5 3.5,20.5 22.5,20.5 23.5,17.5 23.5,14.5 		"/>
		<polyline class="st2" points="4.5,8.5 9,6.5 14.5,10.5 20.5,10.5 22,14.5 		"/>
		<line class="st2" x1="5" y1="23.5" x2="6" y2="20.5"/>
		<line class="st2" x1="20.5" y1="20.5" x2="21.5" y2="23.5"/>
		<line class="st2" x1="7.5" y1="17.5" x2="23.5" y2="17.5"/>
	</g>
</g>
<g id="Frames-24px">
	<rect class="st3" width="24" height="24"/>
</g>
</svg>
