<?xml version="1.0" encoding="utf-8"?>
<!-- Generator: Adobe Illustrator 21.0.2, SVG Export Plug-In . SVG Version: 6.00 Build 0)  -->
<svg version="1.1" xmlns="http://www.w3.org/2000/svg" xmlns:xlink="http://www.w3.org/1999/xlink" x="0px" y="0px"
	 viewBox="0 0 24 24" style="enable-background:new 0 0 24 24;" xml:space="preserve">
<style type="text/css">
	.st0{fill:#FFFFFF;}
	.st1{fill:#CCE7FF;}
	.st2{fill:none;stroke:#1078FF;stroke-linecap:round;stroke-linejoin:round;stroke-miterlimit:10;}
	.st3{fill:none;}
</style>
<g id="Duotone">
	<polygon class="st0" points="18.5,19.5 4.5,19.5 3.5,12.5 19.5,12.5 	"/>
	<rect x="6.5" y="0.5" class="st0" width="10" height="6"/>
	<polygon class="st1" points="4.2,17.5 4.5,19.5 18.5,19.5 18.8,17.5 	"/>
	<g>
		<polygon class="st2" points="18.5,19.5 4.5,19.5 3.5,12.5 19.5,12.5 		"/>
		<line class="st2" x1="6" y1="19.5" x2="4.5" y2="23.5"/>
		<line class="st2" x1="17" y1="19.5" x2="18.5" y2="23.5"/>
		<line class="st2" x1="10.5" y1="15.5" x2="12.5" y2="15.5"/>
		<polyline class="st2" points="7.5,12.5 11.5,9.5 15.5,12.5 		"/>
		<line class="st2" x1="11.5" y1="9.5" x2="11.5" y2="6.5"/>
		<rect x="6.5" y="0.5" class="st2" width="10" height="6"/>
		<line class="st2" x1="9.5" y1="6.5" x2="9.5" y2="3.5"/>
		<line class="st2" x1="11.5" y1="6.5" x2="11.5" y2="3.5"/>
		<line class="st2" x1="13.5" y1="6.5" x2="13.5" y2="3.5"/>
	</g>
</g>
<g id="Frames-24px">
	<rect class="st3" width="24" height="24"/>
</g>
</svg>
