<svg xmlns="http://www.w3.org/2000/svg" width="24" height="24" viewBox="0 0 24 24">
  <title>bomberman-flame</title>
  <g id="Duotone">
    <polygon points="15.5 23.52 4.5 23.52 0.5 19.52 0.5 11.52 8.5 3.52 8.5 9.52 14.5 4.52 14.5 9.52 19.5 6.52 19.5 19.52 15.5 23.52" fill="#fff"/>
    <path d="M14.5,12.5v-5l-6,5v-6l-8,8v5l4,4h11l4-4V9.5Zm-5,8h-4l-2-3h8Z" fill="#cce7ff"/>
    <polygon points="15.5 23.5 4.5 23.5 0.5 19.5 0.5 11.5 8.5 3.5 8.5 9.5 14.5 4.5 14.5 9.5 19.5 6.5 19.5 19.5 15.5 23.5" fill="none" stroke="#1078ff" stroke-linecap="round" stroke-linejoin="round"/>
    <line x1="9.5" y1="1.5" x2="12.5" y2="0.5" fill="none" stroke="#1078ff" stroke-linecap="round" stroke-linejoin="round"/>
    <line x1="15.5" y1="2.5" x2="18.5" y2="1.5" fill="none" stroke="#1078ff" stroke-linecap="round" stroke-linejoin="round"/>
    <line x1="21" y1="5" x2="23.5" y2="4" fill="none" stroke="#1078ff" stroke-linecap="round" stroke-linejoin="round"/>
    <line x1="4.5" y1="12.5" x2="4.5" y2="15.5" fill="none" stroke="#1078ff" stroke-linecap="round" stroke-linejoin="round"/>
    <line x1="9.5" y1="12.5" x2="9.5" y2="15.5" fill="none" stroke="#1078ff" stroke-linecap="round" stroke-linejoin="round"/>
    <polygon points="3.5 17.5 11.5 17.5 9.5 20.5 5.5 20.5 3.5 17.5" fill="none" stroke="#1078ff" stroke-linecap="round" stroke-linejoin="round"/>
  </g>
  <g id="Frames-24px">
    <rect width="24" height="24" fill="none"/>
  </g>
</svg>
