<svg xmlns="http://www.w3.org/2000/svg" width="24" height="24" viewBox="0 0 24 24">
  <title>loot-bag-gem</title>
  <g id="Duotone">
    <polygon points="21.5 23.52 17.5 10.52 13.5 8.52 9.5 8.52 5.5 10.52 1.5 23.52 21.5 23.52" fill="#fff"/>
    <polygon points="14.5 4.52 15.5 3.52 17.5 0.52 5.5 0.52 7.5 3.52 8.5 4.52 14.5 4.52" fill="#fff"/>
    <polygon points="11.5 11 11.5 21 11.5 21 13.5 19 13.5 13 11.5 11 11.5 11" fill="#cce7ff"/>
    <polygon points="14.5 4.5 13.5 8.5 9.5 8.5 8.5 4.5 14.5 4.5" fill="#cce7ff"/>
    <polygon points="11.5 11 9.5 13 9.5 19 11.5 21 13.5 19 13.5 13 11.5 11" fill="none" stroke="#1078ff" stroke-linecap="round" stroke-linejoin="round"/>
    <polygon points="21.5 23.5 17.5 10.5 13.5 8.5 9.5 8.5 5.5 10.5 1.5 23.5 21.5 23.5" fill="none" stroke="#1078ff" stroke-linecap="round" stroke-linejoin="round"/>
    <polygon points="14.5 4.5 15.5 3.5 17.5 0.5 5.5 0.5 7.5 3.5 8.5 4.5 14.5 4.5" fill="none" stroke="#1078ff" stroke-linecap="round" stroke-linejoin="round"/>
    <line x1="9" y1="6.5" x2="14" y2="6.5" fill="none" stroke="#1078ff" stroke-linecap="round" stroke-linejoin="round"/>
    <polyline points="9.5 13 11.5 14 13.5 13" fill="none" stroke="#1078ff" stroke-linecap="round" stroke-linejoin="round"/>
    <polyline points="9.5 19 11.5 18 13.5 19" fill="none" stroke="#1078ff" stroke-linecap="round" stroke-linejoin="round"/>
    <line x1="11.5" y1="14" x2="11.5" y2="18" fill="none" stroke="#1078ff" stroke-linecap="round" stroke-linejoin="round"/>
    <polygon points="14.5 4.5 13.5 8.5 9.5 8.5 8.5 4.5 14.5 4.5" fill="none" stroke="#1078ff" stroke-linecap="round" stroke-linejoin="round"/>
  </g>
  <g id="Frames-24px">
    <rect width="24" height="24" fill="none"/>
  </g>
</svg>
