<svg xmlns="http://www.w3.org/2000/svg" width="24" height="24" viewBox="0 0 24 24">
  <title>mario-question-box</title>
  <g id="Duotone">
    <rect x="0.5" y="0.52" width="23" height="23" fill="#fff"/>
    <polygon points="0.5 23.5 3 21 21 21 23.5 23.5 0.5 23.5" fill="#cce7ff"/>
    <polygon points="7.5 9.5 9.5 9.5 9.5 7.5 12 6 14.5 7.5 14.5 9.5 10.5 11.5 10.5 15.5 12.5 15.5 12.5 13 16.5 11 16.5 6.5 12 3.5 7.5 6.5 7.5 9.5" fill="#cce7ff"/>
    <rect x="10.439" y="17.939" width="2.121" height="2.121" transform="translate(-10.067 13.697) rotate(-45)" fill="#cce7ff"/>
    <rect x="0.5" y="0.5" width="23" height="23" fill="none" stroke="#1078ff" stroke-linecap="round" stroke-linejoin="round"/>
    <line x1="2.5" y1="2.5" x2="4.5" y2="4.5" fill="none" stroke="#1078ff" stroke-linecap="round" stroke-linejoin="round"/>
    <line x1="4.5" y1="2.5" x2="2.5" y2="4.5" fill="none" stroke="#1078ff" stroke-linecap="round" stroke-linejoin="round"/>
    <line x1="19.5" y1="2.5" x2="21.5" y2="4.5" fill="none" stroke="#1078ff" stroke-linecap="round" stroke-linejoin="round"/>
    <line x1="21.5" y1="2.5" x2="19.5" y2="4.5" fill="none" stroke="#1078ff" stroke-linecap="round" stroke-linejoin="round"/>
    <line x1="2.5" y1="19.5" x2="4.5" y2="21.5" fill="none" stroke="#1078ff" stroke-linecap="round" stroke-linejoin="round"/>
    <line x1="4.5" y1="19.5" x2="2.5" y2="21.5" fill="none" stroke="#1078ff" stroke-linecap="round" stroke-linejoin="round"/>
    <line x1="19.5" y1="19.5" x2="21.5" y2="21.5" fill="none" stroke="#1078ff" stroke-linecap="round" stroke-linejoin="round"/>
    <line x1="21.5" y1="19.5" x2="19.5" y2="21.5" fill="none" stroke="#1078ff" stroke-linecap="round" stroke-linejoin="round"/>
    <polygon points="7.5 9.5 9.5 9.5 9.5 7.5 12 6 14.5 7.5 14.5 9.5 10.5 11.5 10.5 15.5 12.5 15.5 12.5 13 16.5 11 16.5 6.5 12 3.5 7.5 6.5 7.5 9.5" fill="none" stroke="#1078ff" stroke-linecap="round" stroke-linejoin="round"/>
    <rect x="10.439" y="17.939" width="2.121" height="2.121" transform="translate(-10.067 13.697) rotate(-45)" fill="none" stroke="#1078ff" stroke-linecap="round" stroke-linejoin="round"/>
  </g>
  <g id="Frames-24px">
    <rect width="24" height="24" fill="none"/>
  </g>
</svg>
