<svg xmlns="http://www.w3.org/2000/svg" width="24" height="24" viewBox="0 0 24 24">
  <title>mario-turtle</title>
  <g id="Duotone">
    <polygon points="19.5 2.52 16.5 4.52 16.5 7.02 16.5 10.52 14.5 10.52 8 7.02 1.5 10.52 1.5 18.52 0.5 18.52 2.5 21.52 13.5 21.52 15.25 19.52 18.5 19.52 21.5 15.02 21.5 9.52 22.5 9.52 23.5 8.52 23.5 4.52 19.5 2.52" fill="#fff"/>
    <polygon points="1.5 12.5 1.5 18.5 12.5 18.5 14.5 16.5 14.5 12.5 8 9 1.5 12.5" fill="#cce7ff"/>
    <polygon points="0.5 23.5 2.5 21.5 5.5 21.5 5.5 23.5 0.5 23.5" fill="#cce7ff"/>
    <polygon points="15.5 23.5 13.5 21.5 10.5 21.5 10.5 23.5 15.5 23.5" fill="#cce7ff"/>
    <polygon points="17 17.5 15.25 19.5 18.5 19.5 21.5 15 21.5 9.5 19.5 11 19.5 14.5 17.5 17.5 17 17.5" fill="#cce7ff"/>
    <polygon points="0.5 23.5 2.5 21.5 5.5 21.5 5.5 23.5 0.5 23.5" fill="none" stroke="#1078ff" stroke-linecap="round" stroke-linejoin="round"/>
    <polygon points="15.5 23.5 13.5 21.5 10.5 21.5 10.5 23.5 15.5 23.5" fill="none" stroke="#1078ff" stroke-linecap="round" stroke-linejoin="round"/>
    <polygon points="2.5 21.5 0.5 18.5 12.5 18.5 14.5 16.5 14.5 10.5 16.5 10.5 17 17.5 13.5 21.5 2.5 21.5" fill="none" stroke="#1078ff" stroke-linecap="round" stroke-linejoin="round"/>
    <polyline points="15.25 19.5 18.5 19.5 21.5 15 21.5 9.5" fill="none" stroke="#1078ff" stroke-linecap="round" stroke-linejoin="round"/>
    <polyline points="20.5 9.5 22.5 9.5 23.5 8.5 23.5 4.5 19.5 2.5 16.5 4.5 16.5 10.5" fill="none" stroke="#1078ff" stroke-linecap="round" stroke-linejoin="round"/>
    <polygon points="14.5 10.5 8 7 1.5 10.5 1.5 18.5 12.5 18.5 14.5 16.5 14.5 10.5" fill="none" stroke="#1078ff" stroke-linecap="round" stroke-linejoin="round"/>
    <line x1="11.236" y1="8.743" x2="1.5" y2="13.985" fill="none" stroke="#1078ff" stroke-linecap="round" stroke-linejoin="round"/>
    <line x1="14.022" y1="10.243" x2="1.5" y2="16.985" fill="none" stroke="#1078ff" stroke-linecap="round" stroke-linejoin="round"/>
    <line x1="14.499" y1="13.392" x2="5.013" y2="18.5" fill="none" stroke="#1078ff" stroke-linecap="round" stroke-linejoin="round"/>
    <line x1="20.5" y1="5.5" x2="20.5" y2="6.5" fill="none" stroke="#1078ff" stroke-linecap="round" stroke-linejoin="round"/>
  </g>
  <g id="Frames-24px">
    <rect width="24" height="24" fill="none"/>
  </g>
</svg>
