<svg xmlns="http://www.w3.org/2000/svg" width="24" height="24" viewBox="0 0 24 24">
  <title>mario-cloud</title>
  <g id="Duotone">
    <polygon points="16 21.52 18 19.52 20.5 19.52 22.5 15.02 20.5 10.52 16.5 10.52 16.5 6.52 11.5 3.52 6.5 6.52 6.5 10.52 2.5 10.52 0.5 15.02 2.5 19.52 5 19.52 7 21.52 16 21.52" fill="#fff"/>
    <polygon points="20 15 19 17.5 16.5 17.5 14.5 19.5 8.5 19.5 6.5 17.5 4 17.5 3 15 0.5 15 2.5 19.5 5 19.5 7 21.5 11.5 21.5 16 21.5 18 19.5 20.5 19.5 22.5 15 20 15" fill="#cce7ff"/>
    <g>
      <line x1="9.5" y1="10.5" x2="9.5" y2="12.5" fill="none" stroke="#1078ff" stroke-linecap="round" stroke-linejoin="round"/>
      <line x1="13.5" y1="10.5" x2="13.5" y2="12.5" fill="none" stroke="#1078ff" stroke-linecap="round" stroke-linejoin="round"/>
      <polyline points="7.5 15.5 9.5 17.5 13.5 17.5 15.5 15.5" fill="none" stroke="#1078ff" stroke-linecap="round" stroke-linejoin="round"/>
    </g>
    <polygon points="16 21.5 18 19.5 20.5 19.5 22.5 15 20.5 10.5 16.5 10.5 16.5 6.5 11.5 3.5 6.5 6.5 6.5 10.5 2.5 10.5 0.5 15 2.5 19.5 5 19.5 7 21.5 16 21.5" fill="none" stroke="#1078ff" stroke-linecap="round" stroke-linejoin="round"/>
  </g>
  <g id="Frames-24px">
    <rect width="24" height="24" fill="none"/>
  </g>
</svg>
