<svg xmlns="http://www.w3.org/2000/svg" width="24" height="24" viewBox="0 0 24 24">
  <title>monster-fire</title>
  <g id="Duotone">
    <polygon points="17.5 17.495 13 19.969 8.5 17.495 8.5 12.544 13 10.069 17.5 12.544 17.5 17.495" fill="#fff"/>
    <polygon points="8.5 17.475 10 16.5 13 18 16 16.5 17.5 17.475 13 20 8.5 17.475" fill="#cce7ff"/>
    <path d="M18.5,9.5,16.5,8l-1-5L10.5.5l2,3.5-1,3.351-2,1.133L8.5,5l-3-2L7,6.5,6.5,10l-1,.75v8.5L13,23.5l7.5-4.25V6.5Zm-1,7.975L13,19.95,8.5,17.475v-4.95L13,10.05l4.5,2.475Z" fill="#cce7ff"/>
    <polygon points="20.5 19.25 13 23.5 5.5 19.25 5.5 10.75 6.5 10 7 6.5 5.5 3 8.5 5 9.5 8.483 11.5 7.351 12.5 4 10.5 0.5 15.5 3 16.5 8 18.5 9.5 20.5 6.5 20.5 19.25" fill="none" stroke="#1078ff" stroke-linecap="round" stroke-linejoin="round"/>
    <line x1="11.5" y1="13.5" x2="11.5" y2="15.5" fill="none" stroke="#1078ff" stroke-linecap="round" stroke-linejoin="round"/>
    <line x1="14.5" y1="13.5" x2="14.5" y2="15.5" fill="none" stroke="#1078ff" stroke-linecap="round" stroke-linejoin="round"/>
    <polygon points="17.5 17.475 13 19.95 8.5 17.475 8.5 12.525 13 10.05 17.5 12.525 17.5 17.475" fill="none" stroke="#1078ff" stroke-linecap="round" stroke-linejoin="round"/>
    <line x1="2.5" y1="5.5" x2="2.5" y2="9.5" fill="none" stroke="#1078ff" stroke-linecap="round" stroke-linejoin="round"/>
    <line x1="0.5" y1="7.5" x2="4.5" y2="7.5" fill="none" stroke="#1078ff" stroke-linecap="round" stroke-linejoin="round"/>
    <line x1="21.5" y1="0.5" x2="21.5" y2="4.5" fill="none" stroke="#1078ff" stroke-linecap="round" stroke-linejoin="round"/>
    <line x1="19.5" y1="2.5" x2="23.5" y2="2.5" fill="none" stroke="#1078ff" stroke-linecap="round" stroke-linejoin="round"/>
  </g>
  <g id="Frames-24px">
    <rect width="24" height="24" fill="none"/>
  </g>
</svg>
