<svg xmlns="http://www.w3.org/2000/svg" width="24" height="24" viewBox="0 0 24 24">
  <title>symbol-steam</title>
  <g id="Duotone">
    <polygon points="5.5 11.02 3 12.52 0.5 11.02 0.5 8.02 3 6.52 5.5 8.02 5.5 11.02" fill="#fff"/>
    <polygon points="12.5 19.77 8.5 22.02 4.5 19.77 4.5 15.27 8.5 13.02 12.5 15.27 12.5 19.77" fill="#fff"/>
    <polygon points="23.5 10.52 17.5 14.02 11.5 10.52 11.5 4.02 17.5 0.52 23.5 4.02 23.5 10.52" fill="#fff"/>
    <polygon points="7.54 13.54 5.187 11.188 3.403 12.258 4.581 15.205 7.54 13.54" fill="#cce7ff"/>
    <polygon points="16.816 13.601 12.501 16.766 12.5 15.25 9.119 13.348 11.5 10.5 16.816 13.601" fill="#cce7ff"/>
    <polygon points="10.5 18.5 8.5 19.75 6.5 18.5 6.5 16.5 8.5 15.25 10.5 16.5 10.5 18.5" fill="#cce7ff"/>
    <polygon points="21.5 9.5 17.5 11.75 13.5 9.5 13.5 5 17.5 2.75 21.5 5 21.5 9.5" fill="#cce7ff"/>
    <polygon points="5.5 11 3 12.5 0.5 11 0.5 8 3 6.5 5.5 8 5.5 11" fill="none" stroke="#1078ff" stroke-linecap="round" stroke-linejoin="round"/>
    <polygon points="7.54 13.54 5.187 11.188 3.403 12.258 4.581 15.205 7.54 13.54" fill="none" stroke="#1078ff" stroke-linecap="round" stroke-linejoin="round"/>
    <polygon points="16.816 13.601 12.501 16.766 12.5 15.25 9.119 13.348 11.5 10.5 16.816 13.601" fill="none" stroke="#1078ff" stroke-linecap="round" stroke-linejoin="round"/>
    <path d="M3,8.5a.2.2,0,0,0-.141.059l-.8.8a.2.2,0,0,0,0,.283l.8.8a.2.2,0,0,0,.283,0l.8-.8a.2.2,0,0,0,0-.283l-.8-.8A.2.2,0,0,0,3,8.5Z" fill="#1078ff"/>
    <polygon points="12.5 19.75 8.5 22 4.5 19.75 4.5 15.25 8.5 13 12.5 15.25 12.5 19.75" fill="none" stroke="#1078ff" stroke-linecap="round" stroke-linejoin="round"/>
    <polygon points="10.5 18.5 8.5 19.75 6.5 18.5 6.5 16.5 8.5 15.25 10.5 16.5 10.5 18.5" fill="none" stroke="#1078ff" stroke-linecap="round" stroke-linejoin="round"/>
    <polygon points="21.5 9.5 17.5 11.75 13.5 9.5 13.5 5 17.5 2.75 21.5 5 21.5 9.5" fill="none" stroke="#1078ff" stroke-linecap="round" stroke-linejoin="round"/>
    <polygon points="23.5 10.5 17.5 14 11.5 10.5 11.5 4 17.5 0.5 23.5 4 23.5 10.5" fill="none" stroke="#1078ff" stroke-linecap="round" stroke-linejoin="round"/>
  </g>
  <g id="Frames-24px">
    <rect width="24" height="24" fill="none"/>
  </g>
</svg>
