<svg xmlns="http://www.w3.org/2000/svg" width="24" height="24" viewBox="0 0 24 24">
  <title>tamagochi</title>
  <g id="Duotone">
    <polygon points="21.5 15.02 19 21.02 12 23.52 5 21.02 2.5 15.02 5 5.52 12.046 0.5 19 5.52 21.5 15.02" fill="#fff"/>
    <polygon points="6.5 16.5 17.5 16.5 16.5 7.5 6.5 16.5" fill="#cce7ff"/>
    <polygon points="2.5 15 5 15 7 19.5 12 21.5 17 19.5 19 15 21.5 15 19 21 12 23.5 5 21 2.5 15" fill="#cce7ff"/>
    <polygon points="21.5 15 19 21 12 23.5 5 21 2.5 15 5 5.5 12.046 0.481 19 5.5 21.5 15" fill="none" stroke="#1078ff" stroke-linecap="round" stroke-linejoin="round"/>
    <polygon points="6.5 16.5 17.5 16.5 16.5 7.5 7.5 7.5 6.5 16.5" fill="none" stroke="#1078ff" stroke-linecap="round" stroke-linejoin="round"/>
    <path d="M8.51,18.789h0M8,18a.278.278,0,0,0-.2.081l-.721.721a.28.28,0,0,0,0,.395l.721.721a.28.28,0,0,0,.395,0l.721-.721a.28.28,0,0,0,0-.395L8.2,18.081A.278.278,0,0,0,8,18Z" fill="#1078ff"/>
    <path d="M12.51,19.789h0M12,19a.278.278,0,0,0-.2.081l-.721.721a.28.28,0,0,0,0,.395l.721.721a.28.28,0,0,0,.395,0l.721-.721a.28.28,0,0,0,0-.395l-.721-.721A.278.278,0,0,0,12,19Z" fill="#1078ff"/>
    <path d="M16.51,18.789h0M16,18a.278.278,0,0,0-.2.081l-.721.721a.28.28,0,0,0,0,.395l.721.721a.28.28,0,0,0,.395,0l.721-.721a.28.28,0,0,0,0-.395l-.721-.721A.278.278,0,0,0,16,18Z" fill="#1078ff"/>
  </g>
  <g id="Frames-24px">
    <rect width="24" height="24" fill="none"/>
  </g>
</svg>
