<svg xmlns="http://www.w3.org/2000/svg" width="24" height="24" viewBox="0 0 24 24">
  <title>tetris</title>
  <g id="Duotone">
    <polygon points="16.5 19.52 16.5 15.52 12.5 15.52 12.5 19.52 8.5 19.52 8.5 23.52 20.5 23.52 20.5 19.52 16.5 19.52" fill="#fff"/>
    <rect x="0.5" y="15.52" width="8" height="8" fill="#fff"/>
    <polygon points="4.5 7.52 4.5 3.52 0.5 3.52 0.5 11.52 12.5 11.52 12.5 7.52 4.5 7.52" fill="#fff"/>
    <polygon points="0.5 11.5 0.5 15.5 8.5 15.5 8.5 19.5 12.5 19.5 12.5 11.5 0.5 11.5" fill="#cce7ff"/>
    <polygon points="19.5 4.5 19.5 0.5 15.5 0.5 15.5 8.5 19.5 8.5 19.5 12.5 23.5 12.5 23.5 4.5 19.5 4.5" fill="#cce7ff"/>
    <polygon points="16.5 19.5 16.5 15.5 12.5 15.5 12.5 19.5 8.5 19.5 8.5 23.5 20.5 23.5 20.5 19.5 16.5 19.5" fill="none" stroke="#1078ff" stroke-linecap="round" stroke-linejoin="round"/>
    <polygon points="19.5 4.5 19.5 0.5 15.5 0.5 15.5 8.5 19.5 8.5 19.5 12.5 23.5 12.5 23.5 4.5 19.5 4.5" fill="none" stroke="#1078ff" stroke-linecap="round" stroke-linejoin="round"/>
    <polygon points="4.5 7.5 4.5 3.5 0.5 3.5 0.5 11.5 12.5 11.5 12.5 7.5 4.5 7.5" fill="none" stroke="#1078ff" stroke-linecap="round" stroke-linejoin="round"/>
    <polygon points="0.5 11.5 0.5 15.5 8.5 15.5 8.5 19.5 12.5 19.5 12.5 11.5 0.5 11.5" fill="none" stroke="#1078ff" stroke-linecap="round" stroke-linejoin="round"/>
    <rect x="0.5" y="15.5" width="8" height="8" fill="none" stroke="#1078ff" stroke-linecap="round" stroke-linejoin="round"/>
  </g>
  <g id="Frames-24px">
    <rect width="24" height="24" fill="none"/>
  </g>
</svg>
