<?xml version="1.0" encoding="utf-8"?>
<!-- Generator: Adobe Illustrator 21.0.2, SVG Export Plug-In . SVG Version: 6.00 Build 0)  -->
<svg version="1.1" xmlns="http://www.w3.org/2000/svg" xmlns:xlink="http://www.w3.org/1999/xlink" x="0px" y="0px" width="24px"
	 height="24px" viewBox="0 0 24 24" enable-background="new 0 0 24 24" xml:space="preserve">
<g id="Duotone">
	<g>
		<rect x="14.5" y="17.5" fill="#FFFFFF" width="8" height="6"/>
	</g>
	<rect x="18.5" y="17.5" fill="#CCE7FF" width="4" height="6"/>
	<g>
		<g>
			<polyline fill="none" stroke="#1078FF" stroke-linecap="round" stroke-linejoin="round" stroke-miterlimit="10" points="
				12.5,21.5 0.5,21.5 0.5,1.5 20.5,1.5 20.5,12.5 			"/>
			
				<line fill="none" stroke="#1078FF" stroke-linecap="round" stroke-linejoin="round" stroke-miterlimit="10" x1="0.5" y1="6.5" x2="20.5" y2="6.5"/>
			
				<line fill="none" stroke="#1078FF" stroke-linecap="round" stroke-linejoin="round" stroke-miterlimit="10" x1="0.5" y1="11.5" x2="20.5" y2="11.5"/>
			
				<line fill="none" stroke="#1078FF" stroke-linecap="round" stroke-linejoin="round" stroke-miterlimit="10" x1="0.5" y1="16.5" x2="12.5" y2="16.5"/>
			
				<line fill="none" stroke="#1078FF" stroke-linecap="round" stroke-linejoin="round" stroke-miterlimit="10" x1="15.5" y1="1.5" x2="15.5" y2="13.5"/>
			
				<line fill="none" stroke="#1078FF" stroke-linecap="round" stroke-linejoin="round" stroke-miterlimit="10" x1="10.5" y1="1.5" x2="10.5" y2="21.5"/>
			
				<line fill="none" stroke="#1078FF" stroke-linecap="round" stroke-linejoin="round" stroke-miterlimit="10" x1="5.5" y1="1.5" x2="5.5" y2="21.5"/>
		</g>
	</g>
	<polyline fill="none" stroke="#1078FF" stroke-linecap="round" stroke-linejoin="round" stroke-miterlimit="10" points="15.5,17.5 
		15.5,16 18.5,14.5 21.5,16 21.5,17.5 	"/>
	
		<rect x="14.5" y="17.5" fill="none" stroke="#1078FF" stroke-linecap="round" stroke-linejoin="round" stroke-miterlimit="10" width="8" height="6"/>
	
		<line fill="none" stroke="#1078FF" stroke-linecap="round" stroke-linejoin="round" stroke-miterlimit="10" x1="18.5" y1="21.5" x2="18.5" y2="19.5"/>
</g>
<g id="Frames-24px">
	<rect fill="none" width="24" height="24"/>
</g>
</svg>
