<?xml version="1.0" encoding="utf-8"?>
<!-- Generator: Adobe Illustrator 21.0.2, SVG Export Plug-In . SVG Version: 6.00 Build 0)  -->
<svg version="1.1" xmlns="http://www.w3.org/2000/svg" xmlns:xlink="http://www.w3.org/1999/xlink" x="0px" y="0px" width="24px"
	 height="24px" viewBox="0 0 24 24" enable-background="new 0 0 24 24" xml:space="preserve">
<g id="Duotone">
	<rect x="0.5" y="3.5" fill="#FFFFFF" width="8" height="19"/>
	<g>
		<line fill="none" stroke="#1078FF" stroke-linecap="round" stroke-miterlimit="10" x1="11.5" y1="5.5" x2="11.5" y2="6.5"/>
		<line fill="none" stroke="#1078FF" stroke-linecap="round" stroke-miterlimit="10" x1="11.5" y1="8.5" x2="11.5" y2="9.5"/>
		<line fill="none" stroke="#1078FF" stroke-linecap="round" stroke-miterlimit="10" x1="11.5" y1="15.5" x2="11.5" y2="16.5"/>
		<line fill="none" stroke="#1078FF" stroke-linecap="round" stroke-miterlimit="10" x1="11.5" y1="18.5" x2="11.5" y2="19.5"/>
		<line fill="none" stroke="#1078FF" stroke-linecap="round" stroke-miterlimit="10" x1="11.5" y1="21.5" x2="11.5" y2="23.5"/>
		<line fill="none" stroke="#1078FF" stroke-linecap="round" stroke-miterlimit="10" x1="11.5" y1="1.5" x2="11.5" y2="3.5"/>
		<polyline fill="none" stroke="#1078FF" stroke-linecap="round" stroke-linejoin="round" stroke-miterlimit="10" points="8.5,22.5 
			0.5,22.5 0.5,3.5 8.5,3.5 		"/>
		<polyline fill="none" stroke="#1078FF" stroke-linecap="round" stroke-linejoin="round" stroke-miterlimit="10" points="
			18,14.981 11.5,11.981 4.749,15.096 		"/>
		<polyline fill="none" stroke="#1078FF" stroke-linecap="round" stroke-linejoin="round" stroke-miterlimit="10" points="
			9.437,16.793 4.736,15.091 6.438,10.39 		"/>
		<polyline fill="none" stroke="#1078FF" stroke-linecap="round" stroke-linejoin="round" stroke-miterlimit="10" points="
			22.5,20.5 22.5,22.5 20.5,22.5 		"/>
		<polyline fill="none" stroke="#1078FF" stroke-linecap="round" stroke-linejoin="round" stroke-miterlimit="10" points="22.5,5.5 
			22.5,3.5 20.5,3.5 		"/>
		
			<line fill="none" stroke="#1078FF" stroke-linecap="round" stroke-linejoin="round" stroke-miterlimit="10" x1="22.5" y1="17.5" x2="22.5" y2="16.5"/>
		
			<line fill="none" stroke="#1078FF" stroke-linecap="round" stroke-linejoin="round" stroke-miterlimit="10" x1="22.5" y1="13.5" x2="22.5" y2="12.5"/>
		
			<line fill="none" stroke="#1078FF" stroke-linecap="round" stroke-linejoin="round" stroke-miterlimit="10" x1="22.5" y1="9.5" x2="22.5" y2="8.5"/>
		
			<line fill="none" stroke="#1078FF" stroke-linecap="round" stroke-linejoin="round" stroke-miterlimit="10" x1="18.5" y1="22.5" x2="17.5" y2="22.5"/>
		
			<line fill="none" stroke="#1078FF" stroke-linecap="round" stroke-linejoin="round" stroke-miterlimit="10" x1="18.5" y1="3.5" x2="17.5" y2="3.5"/>
		
			<line fill="none" stroke="#1078FF" stroke-linecap="round" stroke-linejoin="round" stroke-miterlimit="10" x1="15.5" y1="3.5" x2="14.5" y2="3.5"/>
		
			<line fill="none" stroke="#1078FF" stroke-linecap="round" stroke-linejoin="round" stroke-miterlimit="10" x1="15.5" y1="22.5" x2="14.5" y2="22.5"/>
	</g>
</g>
<g id="Frames-24px">
	<rect fill="none" width="24" height="24"/>
</g>
</svg>
