<?xml version="1.0" encoding="utf-8"?>
<!-- Generator: Adobe Illustrator 21.0.2, SVG Export Plug-In . SVG Version: 6.00 Build 0)  -->
<svg version="1.1" xmlns="http://www.w3.org/2000/svg" xmlns:xlink="http://www.w3.org/1999/xlink" x="0px" y="0px"
	 viewBox="0 0 24 24" style="enable-background:new 0 0 24 24;" xml:space="preserve">
<style type="text/css">
	.st0{fill:#FFFFFF;}
	.st1{fill:#CCE7FF;}
	.st2{fill:none;stroke:#1078FF;stroke-linecap:round;stroke-linejoin:round;stroke-miterlimit:10;}
	.st3{fill:none;stroke:#1078FF;stroke-linejoin:round;stroke-miterlimit:10;}
	.st4{fill:none;stroke:#1078FF;stroke-linecap:round;stroke-miterlimit:10;}
	.st5{fill:none;}
</style>
<g id="Duotone">
	<rect x="2.5" y="4.5" class="st0" width="19" height="16"/>
	<polygon class="st1" points="21.5,4.5 21.5,20.5 2.5,20.5 	"/>
	<path class="st1" d="M0.5,2.5v20h23v-20H0.5z M21.5,20.5h-19v-16h19V20.5z"/>
	<g>
		<polyline class="st2" points="7.5,9.5 10,12 7.5,14.5 		"/>
		<line class="st2" x1="13.5" y1="12.5" x2="17.5" y2="12.5"/>
		<rect x="0.5" y="2.5" class="st2" width="23" height="20"/>
		<rect x="2.5" y="4.5" class="st2" width="19" height="16"/>
	</g>
</g>
<g id="Frames-24px">
	<rect class="st5" width="24" height="24"/>
</g>
</svg>
