<?xml version="1.0" encoding="utf-8"?>
<!-- Generator: Adobe Illustrator 21.0.2, SVG Export Plug-In . SVG Version: 6.00 Build 0)  -->
<svg version="1.1" xmlns="http://www.w3.org/2000/svg" xmlns:xlink="http://www.w3.org/1999/xlink" x="0px" y="0px"
	 viewBox="0 0 24 24" style="enable-background:new 0 0 24 24;" xml:space="preserve">
<style type="text/css">
	.st0{fill:#FFFFFF;}
	.st1{fill:#CCE7FF;}
	.st2{fill:none;stroke:#1078FF;stroke-linecap:round;stroke-linejoin:round;stroke-miterlimit:10;}
	.st3{fill:none;stroke:#1078FF;stroke-linejoin:round;stroke-miterlimit:10;}
	.st4{fill:#1078FF;}
	.st5{fill:none;}
</style>
<g id="Duotone">
	<g>
		<g>
			<g>
				<path class="st4" d="M2.5,12C2.2,12,2,12.2,2,12.5S2.2,13,2.5,13C2.8,13,3,12.8,3,12.5S2.8,12,2.5,12L2.5,12z"/>
			</g>
		</g>
		<g>
			<g>
				<path class="st4" d="M4.5,12C4.2,12,4,12.2,4,12.5S4.2,13,4.5,13C4.8,13,5,12.8,5,12.5S4.8,12,4.5,12L4.5,12z"/>
			</g>
		</g>
		<g>
			<g>
				<path class="st4" d="M6.5,12C6.2,12,6,12.2,6,12.5S6.2,13,6.5,13C6.8,13,7,12.8,7,12.5S6.8,12,6.5,12L6.5,12z"/>
			</g>
		</g>
		<g>
			<g>
				<path class="st4" d="M8.5,12C8.2,12,8,12.2,8,12.5S8.2,13,8.5,13C8.8,13,9,12.8,9,12.5S8.8,12,8.5,12L8.5,12z"/>
			</g>
		</g>
		<g>
			<g>
				<path class="st4" d="M10.5,12c-0.3,0-0.5,0.2-0.5,0.5s0.2,0.5,0.5,0.5c0.3,0,0.5-0.2,0.5-0.5S10.8,12,10.5,12L10.5,12z"/>
			</g>
		</g>
		<g>
			<g>
				<path class="st4" d="M12.5,12c-0.3,0-0.5,0.2-0.5,0.5s0.2,0.5,0.5,0.5c0.3,0,0.5-0.2,0.5-0.5S12.8,12,12.5,12L12.5,12z"/>
			</g>
		</g>
		<g>
			<g>
				<path class="st4" d="M14.5,12c-0.3,0-0.5,0.2-0.5,0.5s0.2,0.5,0.5,0.5c0.3,0,0.5-0.2,0.5-0.5S14.8,12,14.5,12L14.5,12z"/>
			</g>
		</g>
		<g>
			<g>
				<path class="st4" d="M16.5,12c-0.3,0-0.5,0.2-0.5,0.5s0.2,0.5,0.5,0.5c0.3,0,0.5-0.2,0.5-0.5S16.8,12,16.5,12L16.5,12z"/>
			</g>
		</g>
		<g>
			<g>
				<path class="st4" d="M18.5,12c-0.3,0-0.5,0.2-0.5,0.5s0.2,0.5,0.5,0.5c0.3,0,0.5-0.2,0.5-0.5S18.8,12,18.5,12L18.5,12z"/>
			</g>
		</g>
		<g>
			<g>
				<path class="st4" d="M20.5,12c-0.3,0-0.5,0.2-0.5,0.5s0.2,0.5,0.5,0.5c0.3,0,0.5-0.2,0.5-0.5S20.8,12,20.5,12L20.5,12z"/>
			</g>
		</g>
		<g>
			<g>
				<path class="st4" d="M11.5,3C11.2,3,11,3.2,11,3.5C11,3.8,11.2,4,11.5,4C11.8,4,12,3.8,12,3.5C12,3.2,11.8,3,11.5,3L11.5,3z"/>
			</g>
		</g>
		<g>
			<g>
				<path class="st4" d="M11.5,5C11.2,5,11,5.2,11,5.5C11,5.8,11.2,6,11.5,6C11.8,6,12,5.8,12,5.5C12,5.2,11.8,5,11.5,5L11.5,5z"/>
			</g>
		</g>
		<g>
			<g>
				<path class="st4" d="M11.5,7C11.2,7,11,7.2,11,7.5C11,7.8,11.2,8,11.5,8C11.8,8,12,7.8,12,7.5C12,7.2,11.8,7,11.5,7L11.5,7z"/>
			</g>
		</g>
		<g>
			<g>
				<path class="st4" d="M11.5,9C11.2,9,11,9.2,11,9.5c0,0.3,0.2,0.5,0.5,0.5c0.3,0,0.5-0.2,0.5-0.5C12,9.2,11.8,9,11.5,9L11.5,9z"
					/>
			</g>
		</g>
		<g>
			<g>
				<path class="st4" d="M11.5,11c-0.3,0-0.5,0.2-0.5,0.5c0,0.3,0.2,0.5,0.5,0.5c0.3,0,0.5-0.2,0.5-0.5C12,11.2,11.8,11,11.5,11
					L11.5,11z"/>
			</g>
		</g>
		<g>
			<g>
				<path class="st4" d="M11.5,13c-0.3,0-0.5,0.2-0.5,0.5c0,0.3,0.2,0.5,0.5,0.5c0.3,0,0.5-0.2,0.5-0.5C12,13.2,11.8,13,11.5,13
					L11.5,13z"/>
			</g>
		</g>
		<g>
			<g>
				<path class="st4" d="M11.5,15c-0.3,0-0.5,0.2-0.5,0.5c0,0.3,0.2,0.5,0.5,0.5c0.3,0,0.5-0.2,0.5-0.5C12,15.2,11.8,15,11.5,15
					L11.5,15z"/>
			</g>
		</g>
		<g>
			<g>
				<path class="st4" d="M11.5,17c-0.3,0-0.5,0.2-0.5,0.5c0,0.3,0.2,0.5,0.5,0.5c0.3,0,0.5-0.2,0.5-0.5C12,17.2,11.8,17,11.5,17
					L11.5,17z"/>
			</g>
		</g>
		<g>
			<g>
				<path class="st4" d="M11.5,19c-0.3,0-0.5,0.2-0.5,0.5c0,0.3,0.2,0.5,0.5,0.5c0.3,0,0.5-0.2,0.5-0.5C12,19.2,11.8,19,11.5,19
					L11.5,19z"/>
			</g>
		</g>
		<g>
			<g>
				<path class="st4" d="M11.5,21c-0.3,0-0.5,0.2-0.5,0.5c0,0.3,0.2,0.5,0.5,0.5c0.3,0,0.5-0.2,0.5-0.5C12,21.2,11.8,21,11.5,21
					L11.5,21z"/>
			</g>
		</g>
		<path class="st3" d="M0.5,2.5c0-0.6,0.4-1,1-1h20c0.6,0,1,0.4,1,1v20c0,0.6-0.4,1-1,1h-20c-0.6,0-1-0.4-1-1V2.5z"/>
	</g>
</g>
<g id="Frames-24px">
	<rect class="st5" width="24" height="24"/>
</g>
</svg>
