<?xml version="1.0" encoding="utf-8"?>
<!-- Generator: Adobe Illustrator 21.0.2, SVG Export Plug-In . SVG Version: 6.00 Build 0)  -->
<svg version="1.1" xmlns="http://www.w3.org/2000/svg" xmlns:xlink="http://www.w3.org/1999/xlink" x="0px" y="0px"
	 viewBox="0 0 24 24" style="enable-background:new 0 0 24 24;" xml:space="preserve">
<style type="text/css">
	.st0{fill:#FFFFFF;}
	.st1{fill:#CCE7FF;}
	.st2{fill:none;stroke:#1078FF;stroke-linecap:round;stroke-linejoin:round;stroke-miterlimit:10;}
	.st3{fill:none;stroke:#1078FF;stroke-linejoin:round;stroke-miterlimit:10;}
	.st4{fill:#1078FF;}
	.st5{fill:none;}
</style>
<g id="Duotone">
	<polygon class="st0" points="6.5,17.5 6.5,14.5 12.5,14.5 12.5,9.5 6.5,9.5 6.5,6.5 0.5,12 	"/>
	<g>
		<polygon class="st1" points="6.5,14.5 12.5,14.5 12.5,12 0.5,12 6.5,17.5 		"/>
	</g>
	<line class="st2" x1="23.5" y1="1.5" x2="8.5" y2="1.5"/>
	<line class="st2" x1="23.5" y1="22.5" x2="8.5" y2="22.5"/>
	<line class="st2" x1="23.5" y1="19.5" x2="8.5" y2="19.5"/>
	<line class="st2" x1="23.5" y1="16.5" x2="15.5" y2="16.5"/>
	<line class="st2" x1="23.5" y1="13.5" x2="15.5" y2="13.5"/>
	<line class="st2" x1="23.5" y1="10.5" x2="15.5" y2="10.5"/>
	<line class="st2" x1="23.5" y1="7.5" x2="15.5" y2="7.5"/>
	<line class="st2" x1="23.5" y1="4.5" x2="8.5" y2="4.5"/>
	<polygon class="st2" points="6.5,17.5 6.5,14.5 12.5,14.5 12.5,9.5 6.5,9.5 6.5,6.5 0.5,12 	"/>
</g>
<g id="Frames-24px">
	<rect class="st5" width="24" height="24"/>
</g>
</svg>
