<?xml version="1.0" encoding="utf-8"?>
<!-- Generator: Adobe Illustrator 21.0.2, SVG Export Plug-In . SVG Version: 6.00 Build 0)  -->
<svg version="1.1" xmlns="http://www.w3.org/2000/svg" xmlns:xlink="http://www.w3.org/1999/xlink" x="0px" y="0px"
	 viewBox="0 0 24 24" style="enable-background:new 0 0 24 24;" xml:space="preserve">
<style type="text/css">
	.st0{fill:#FFFFFF;}
	.st1{fill:#CCE7FF;}
	.st2{fill:none;stroke:#1078FF;stroke-linecap:round;stroke-linejoin:round;stroke-miterlimit:10;}
	.st3{fill:#FFFFFF;stroke:#1078FF;stroke-linecap:round;stroke-linejoin:round;stroke-miterlimit:10;}
	.st4{fill:none;stroke:#1078FF;stroke-linejoin:round;stroke-miterlimit:10;}
	.st5{fill:none;stroke:#1078FF;stroke-linecap:round;stroke-miterlimit:10;}
	.st6{fill:none;}
</style>
<g id="Duotone">
	<polygon class="st0" points="8.3,20 21.5,4.6 19.4,2.5 4,15.7 3.3,15 0.5,16.4 7.6,23.5 9,20.7 8.3,20 	"/>
	<polygon class="st1" points="4,20 7.6,23.5 9,20.7 6.2,17.8 	"/>
	<polygon class="st1" points="21.5,4.6 20.5,3.5 6.2,17.8 8.3,20 	"/>
	<polyline class="st1" points="5.5,6.5 3.5,6.5 3.5,9 5.5,8 	"/>
	<line class="st2" x1="18.7" y1="1.8" x2="22.2" y2="5.3"/>
	<line class="st2" x1="20.5" y1="3.5" x2="22.5" y2="1.5"/>
	<line class="st2" x1="11.8" y1="7.9" x2="13.2" y2="9.4"/>
	<line class="st2" x1="9.3" y1="9.7" x2="10.8" y2="11.1"/>
	<line class="st2" x1="6.9" y1="11.5" x2="8.6" y2="13.2"/>
	<line class="st2" x1="17.9" y1="3.8" x2="20.2" y2="6.1"/>
	<polyline class="st2" points="5.5,6.5 3.5,6.5 3.5,9 5.5,8 	"/>
	<line class="st2" x1="5.5" y1="2.9" x2="7" y2="2.5"/>
	<line class="st2" x1="5.5" y1="8" x2="5.5" y2="3"/>
	<polygon class="st2" points="7.6,23.5 0.5,16.4 3.3,15 9,20.7 	"/>
	<polyline class="st2" points="8.3,20 21.5,4.6 19.4,2.5 4,15.7 	"/>
</g>
<g id="Frames-24px">
	<rect class="st6" width="24" height="24"/>
</g>
</svg>
