<?xml version="1.0" encoding="utf-8"?>
<!-- Generator: Adobe Illustrator 21.0.2, SVG Export Plug-In . SVG Version: 6.00 Build 0)  -->
<svg version="1.1" xmlns="http://www.w3.org/2000/svg" xmlns:xlink="http://www.w3.org/1999/xlink" x="0px" y="0px"
	 viewBox="0 0 24 24" style="enable-background:new 0 0 24 24;" xml:space="preserve">
<style type="text/css">
	.st0{fill:#FFFFFF;}
	.st1{fill:#CCE7FF;}
	.st2{fill:none;stroke:#1078FF;stroke-linecap:round;stroke-linejoin:round;stroke-miterlimit:10;}
	.st3{fill:#FFFFFF;stroke:#1078FF;stroke-linecap:round;stroke-linejoin:round;stroke-miterlimit:10;}
	.st4{fill:none;stroke:#1078FF;stroke-linejoin:round;stroke-miterlimit:10;}
	.st5{fill:none;stroke:#1078FF;stroke-linecap:round;stroke-miterlimit:10;}
	.st6{fill:none;}
</style>
<g id="Duotone">
	<polygon class="st0" points="20.5,22.5 1.5,22.5 7.8,1.5 13.2,1.5 	"/>
	<rect x="18.5" y="2.5" class="st0" width="3" height="3"/>
	<polygon class="st1" points="9,15.5 11,1.5 13.2,1.5 18,15.5 	"/>
	<polygon class="st1" points="21.5,2.5 18.5,5.5 21.5,5.5 	"/>
	<polygon class="st2" points="20.5,22.5 1.5,22.5 7.8,1.5 13.2,1.5 	"/>
	<line class="st2" x1="3.5" y1="22.5" x2="3.5" y2="23.5"/>
	<line class="st2" x1="18.5" y1="22.5" x2="18.5" y2="23.5"/>
	<line class="st2" x1="18.1" y1="15.5" x2="3.6" y2="15.5"/>
	<line class="st2" x1="11" y1="15.5" x2="18.5" y2="5.5"/>
	<rect x="18.5" y="2.5" class="st2" width="3" height="3"/>
	<line class="st2" x1="7.2" y1="3.5" x2="8.5" y2="3.5"/>
	<line class="st2" x1="6.3" y1="6.5" x2="8.5" y2="6.5"/>
	<line class="st2" x1="5.4" y1="9.5" x2="8.5" y2="9.5"/>
	<line class="st2" x1="4.5" y1="12.5" x2="8.5" y2="12.5"/>
</g>
<g id="Frames-24px">
	<rect class="st6" width="24" height="24"/>
</g>
</svg>
