<?xml version="1.0" encoding="utf-8"?>
<!-- Generator: Adobe Illustrator 21.0.2, SVG Export Plug-In . SVG Version: 6.00 Build 0)  -->
<svg version="1.1" xmlns="http://www.w3.org/2000/svg" xmlns:xlink="http://www.w3.org/1999/xlink" x="0px" y="0px"
	 viewBox="0 0 24 24" style="enable-background:new 0 0 24 24;" xml:space="preserve">
<style type="text/css">
	.st0{fill:#FFFFFF;}
	.st1{fill:#CCE7FF;}
	.st2{fill:none;stroke:#1078FF;stroke-linecap:round;stroke-linejoin:round;stroke-miterlimit:10;}
	.st3{fill:none;}
</style>
<g id="Duotone">
	<polyline class="st2" points="3.5,4.5 6.5,1.5 9.5,4.5 	"/>
	<g>
		<polyline class="st2" points="22.5,17.5 6.5,17.5 6.5,1.5 		"/>
	</g>
	<polyline class="st2" points="19.5,20.5 16.5,23.5 13.5,20.5 	"/>
	<g>
		<line class="st2" x1="16.5" y1="19.5" x2="16.5" y2="23.5"/>
		<polyline class="st2" points="8.5,7.5 16.5,7.5 16.5,15.5 		"/>
		<line class="st2" x1="0.5" y1="7.5" x2="4.5" y2="7.5"/>
	</g>
</g>
<g id="Frames-24px">
	<rect class="st3" width="24" height="24"/>
</g>
</svg>
