<svg xmlns="http://www.w3.org/2000/svg" width="24" height="24" viewBox="0 0 24 24">
  <title>person-alert</title>
  <g id="Duotone">
    <polygon points="13.5 8.25 9 10 4.5 8.25 4.5 2.25 9 0.5 13.5 2.25 13.5 8.25" fill="#fff"/>
    <polygon points="23.5 23.5 18.5 13.5 16.773 16.955 15.792 13.524 15.5 12.5 9 11 2.5 12.5 0.5 19.5 15.5 19.5 13.5 23.5 23.5 23.5" fill="#fff"/>
    <polygon points="5.625 1.813 9 3.5 13.5 3.5 13.5 2.25 9 0.5 5.625 1.813" fill="#cce7ff"/>
    <polygon points="18.5 13.5 23.5 23.5 18.5 23.5 18.5 13.5" fill="#cce7ff"/>
    <polygon points="13.5 8.25 9 10 4.5 8.25 4.5 2.25 9 0.5 13.5 2.25 13.5 8.25" fill="none" stroke="#1078ff" stroke-linecap="round" stroke-linejoin="round"/>
    <line x1="7.5" y1="6" x2="7.5" y2="5.5" fill="none" stroke="#1078ff" stroke-linecap="round" stroke-linejoin="round"/>
    <line x1="10.5" y1="6" x2="10.5" y2="5.5" fill="none" stroke="#1078ff" stroke-linecap="round" stroke-linejoin="round"/>
    <polyline points="15.5 12.5 9 11 2.5 12.5 0.5 19.5 12.5 19.5" fill="none" stroke="#1078ff" stroke-linecap="round" stroke-linejoin="round"/>
    <polygon points="5.625 1.813 9 3.5 13.5 3.5 13.5 2.25 9 0.5 5.625 1.813" fill="none" stroke="#1078ff" stroke-linecap="round" stroke-linejoin="round"/>
    <polygon points="11.453 11.566 9 15.5 6.547 11.566 9 11 11.453 11.566" fill="none" stroke="#1078ff" stroke-linecap="round" stroke-linejoin="round"/>
    <line x1="18.5" y1="17.5" x2="18.5" y2="19.5" fill="none" stroke="#1078ff" stroke-linecap="round" stroke-miterlimit="10"/>
    <line x1="18.5" y1="21" x2="18.5" y2="21.5" fill="none" stroke="#1078ff" stroke-linecap="round" stroke-miterlimit="10"/>
    <polygon points="23.5 23.5 13.5 23.5 18.5 13.5 23.5 23.5" fill="none" stroke="#1078ff" stroke-linecap="round" stroke-linejoin="round"/>
  </g>
  <g id="Frames-24px">
    <rect width="24" height="24" fill="none"/>
  </g>
</svg>
