<svg xmlns="http://www.w3.org/2000/svg" width="24" height="24" viewBox="0 0 24 24">
  <title>camera-screen</title>
  <g id="Duotone">
    <rect x="0.5" y="3.5" width="22" height="18" fill="#fff"/>
    <polygon points="20.5 19.5 2.991 19.5 0.5 21.5 22.5 21.494 22.5 3.5 20.5 6 20.5 19.5" fill="#cce7ff"/>
    <rect x="0.5" y="3.5" width="22" height="18" fill="none" stroke="#1078ff" stroke-linecap="round" stroke-linejoin="round"/>
    <polyline points="2.5 8.5 2.5 5.5 5.5 5.5" fill="none" stroke="#1078ff" stroke-linecap="round" stroke-linejoin="round"/>
    <polyline points="20.5 16.5 20.5 19.5 17.5 19.5" fill="none" stroke="#1078ff" stroke-linecap="round" stroke-linejoin="round"/>
  </g>
  <g id="Frames-24px">
    <rect width="24" height="24" fill="none"/>
  </g>
</svg>
