<svg xmlns="http://www.w3.org/2000/svg" width="24" height="24" viewBox="0 0 24 24">
  <title>camera-live-view-off</title>
  <g id="Duotone">
    <rect x="0.5" y="3.5" width="22" height="18" fill="#fff"/>
    <polygon points="14.5 11 8.5 14 11.471 16.5 14.5 14 14.5 11" fill="#cce7ff"/>
    <polygon points="20.5 19.5 2.991 19.5 0.5 21.5 22.5 21.494 22.5 3.5 20.5 6 20.5 19.5" fill="#cce7ff"/>
    <rect x="0.5" y="3.5" width="22" height="18" fill="none" stroke="#1078ff" stroke-linecap="round" stroke-linejoin="round"/>
    <polyline points="2.5 8.5 2.5 5.5 5.5 5.5" fill="none" stroke="#1078ff" stroke-linecap="round" stroke-linejoin="round"/>
    <polyline points="20.5 8.5 20.5 5.5 17.5 5.5" fill="none" stroke="#1078ff" stroke-linecap="round" stroke-linejoin="round"/>
    <polyline points="2.5 16.5 2.5 19.5 5.5 19.5" fill="none" stroke="#1078ff" stroke-linecap="round" stroke-linejoin="round"/>
    <polyline points="20.5 16.5 20.5 19.5 17.5 19.5" fill="none" stroke="#1078ff" stroke-linecap="round" stroke-linejoin="round"/>
    <polygon points="15 16.5 8 16.5 3.5 12.5 8 8.5 15 8.5 19.5 12.5 15 16.5" fill="none" stroke="#1078ff" stroke-linecap="round" stroke-linejoin="round"/>
    <polygon points="8.5 14 8.5 11 11.471 8.5 14.5 11 14.5 14 11.471 16.5 8.5 14" fill="none" stroke="#1078ff" stroke-linecap="round" stroke-linejoin="round"/>
    <rect x="10.439" y="11.439" width="2.121" height="2.121" transform="translate(-5.471 11.793) rotate(-45)" fill="none" stroke="#1078ff" stroke-linecap="round" stroke-linejoin="round"/>
  </g>
  <g id="Frames-24px">
    <rect width="24" height="24" fill="none"/>
  </g>
</svg>
