<svg xmlns="http://www.w3.org/2000/svg" width="24" height="24" viewBox="0 0 24 24">
  <title>camera-daylight-2</title>
  <g id="Duotone">
    <polygon points="20.5 15.848 23.5 12.5 20.5 9.152 20.5 4.5 15.848 4.5 12.5 1.5 9.152 4.5 4.5 4.5 4.5 9.152 1.5 12.5 4.5 15.848 4.5 20.5 9.152 20.5 12.5 23.5 15.848 20.5 20.5 20.5 20.5 15.848" fill="#fff"/>
    <polygon points="12.5 12.094 17.5 9.65 17.5 15.35 12.5 18 12.5 12.094" fill="#cce7ff"/>
    <polygon points="20.5 15.848 23.5 12.5 20.5 9.152 20.5 4.5 15.848 4.5 12.5 1.5 9.152 4.5 4.5 4.5 4.5 9.152 1.5 12.5 4.5 15.848 4.5 20.5 9.152 20.5 12.5 23.5 15.848 20.5 20.5 20.5 20.5 15.848" fill="none" stroke="#1078ff" stroke-linecap="round" stroke-linejoin="round"/>
    <polygon points="12.5 7 17.5 9.65 17.5 15.35 12.5 18 12.5 7" fill="none" stroke="#1078ff" stroke-linecap="round" stroke-linejoin="round"/>
  </g>
  <g id="Frames-24px">
    <rect width="24" height="24" fill="none"/>
  </g>
</svg>
