<svg xmlns="http://www.w3.org/2000/svg" width="24" height="24" viewBox="0 0 24 24">
  <title>focus-off</title>
  <g id="Duotone">
    <g>
      <g>
        <polyline points="0.5 6.5 0.5 3.5 3.5 3.5" fill="none" stroke="#1078ff" stroke-linecap="round" stroke-linejoin="round"/>
        <polyline points="22.5 6.5 22.5 3.5 19.5 3.5" fill="none" stroke="#1078ff" stroke-linecap="round" stroke-linejoin="round"/>
        <polyline points="0.5 18.5 0.5 21.5 3.5 21.5" fill="none" stroke="#1078ff" stroke-linecap="round" stroke-linejoin="round"/>
        <polyline points="22.5 18.5 22.5 21.5 19.5 21.5" fill="none" stroke="#1078ff" stroke-linecap="round" stroke-linejoin="round"/>
      </g>
      <g>
        <polygon points="15.5 14.75 11.5 17 7.5 14.75 7.5 10.25 11.5 8 15.5 10.25 15.5 14.75" fill="none" stroke="#1078ff" stroke-linejoin="round"/>
        <line x1="15.5" y1="10.25" x2="7.5" y2="14.75" fill="none" stroke="#1078ff" stroke-linecap="round" stroke-linejoin="round"/>
      </g>
    </g>
  </g>
  <g id="Frames-24px">
    <rect width="24" height="24" fill="none"/>
  </g>
</svg>
