<svg xmlns="http://www.w3.org/2000/svg" width="24" height="24" viewBox="0 0 24 24">
  <title>outdoor-mode</title>
  <g id="Duotone">
    <g>
      <polyline points="4.5 11.5 6.969 13.5 11.5 13.5" fill="#fff"/>
      <polygon points="14.5 20.5 14.5 23.5 1.5 23.5 1.5 20.5 8 19 14.5 20.5" fill="#fff"/>
      <polygon points="11.5 16 8 18 4.5 16 4.5 11.5 8 9.5 11.5 11.5 11.5 16" fill="#fff"/>
    </g>
    <polygon points="8 9.5 11.5 11.5 11.5 13.5 6.969 13.5 4.5 11.5 8 9.5" fill="#cce7ff"/>
    <polygon points="18.5 8.25 16.5 9.5 14.5 8.25 14.5 6.25 16.5 5 18.5 6.25 18.5 8.25" fill="#cce7ff"/>
    <line x1="16.5" y1="2.5" x2="16.5" y2="1.5" fill="none" stroke="#1078ff" stroke-linecap="round" stroke-linejoin="round"/>
    <line x1="21" y1="7.5" x2="22.5" y2="7.5" fill="none" stroke="#1078ff" stroke-linecap="round" stroke-linejoin="round"/>
    <line x1="16.5" y1="11.5" x2="16.5" y2="12.5" fill="none" stroke="#1078ff" stroke-linecap="round" stroke-linejoin="round"/>
    <line x1="12" y1="7.5" x2="10.5" y2="7.5" fill="none" stroke="#1078ff" stroke-linecap="round" stroke-linejoin="round"/>
    <line x1="13.318" y1="4.318" x2="12.257" y2="3.257" fill="none" stroke="#1078ff" stroke-linecap="round" stroke-linejoin="round"/>
    <line x1="19.682" y1="4.318" x2="20.743" y2="3.257" fill="none" stroke="#1078ff" stroke-linecap="round" stroke-linejoin="round"/>
    <line x1="19.682" y1="10" x2="20.743" y2="11.061" fill="none" stroke="#1078ff" stroke-linecap="round" stroke-linejoin="round"/>
    <g>
      <polyline points="4.5 11.5 6.969 13.5 11.5 13.5" fill="none" stroke="#1078ff" stroke-linecap="round" stroke-linejoin="round"/>
      <polygon points="14.5 20.5 14.5 23.5 1.5 23.5 1.5 20.5 8 19 14.5 20.5" fill="none" stroke="#1078ff" stroke-linecap="round" stroke-linejoin="round"/>
      <polygon points="11.5 16 8 18 4.5 16 4.5 11.5 8 9.5 11.5 11.5 11.5 16" fill="none" stroke="#1078ff" stroke-linecap="round" stroke-linejoin="round"/>
    </g>
    <polygon points="18.5 8.25 16.5 9.5 14.5 8.25 14.5 6.25 16.5 5 18.5 6.25 18.5 8.25" fill="none" stroke="#1078ff" stroke-linecap="round" stroke-linejoin="round"/>
  </g>
  <g id="Frames-24px">
    <rect width="24" height="24" fill="none"/>
  </g>
</svg>
