<svg xmlns="http://www.w3.org/2000/svg" width="24" height="24" viewBox="0 0 24 24">
  <title>panorama-horizontal</title>
  <g id="Duotone">
    <polygon points="22.5 19.5 11.501 17.5 0.5 19.5 0.5 3.5 11.501 5.5 22.5 3.5 22.5 19.5" fill="none" stroke="#1078ff" stroke-linejoin="round"/>
  </g>
  <g id="Frames-24px">
    <rect width="24" height="24" fill="none"/>
  </g>
</svg>
