<?xml version="1.0" encoding="utf-8"?>
<!-- Generator: Adobe Illustrator 21.0.2, SVG Export Plug-In . SVG Version: 6.00 Build 0)  -->
<svg version="1.1" xmlns="http://www.w3.org/2000/svg" xmlns:xlink="http://www.w3.org/1999/xlink" x="0px" y="0px"
	 viewBox="0 0 24 24" style="enable-background:new 0 0 24 24;" xml:space="preserve">
<style type="text/css">
	.st0{fill:none;stroke:#58595B;stroke-linecap:round;stroke-linejoin:round;stroke-miterlimit:10;}
	.st1{fill:#FFFFFF;}
	.st2{fill:#CCE7FF;}
	.st3{fill:none;stroke:#1078FF;stroke-linecap:round;stroke-linejoin:round;stroke-miterlimit:10;}
	.st4{fill:none;}
</style>
<g id="Black">
	<g>
		<polyline class="st0" points="5.1,18.4 0.5,20.5 5,23.5 16,23.5 20.5,20.5 15.9,18.4 		"/>
		<polygon class="st0" points="14.5,11.5 18.5,9 14.5,6.5 6.5,6.5 2.5,9 6.5,11.5 		"/>
		<polyline class="st0" points="18.5,9 18.5,14.5 14.5,20.5 6.5,20.5 2.5,14.5 2.5,9 		"/>
		<polyline class="st0" points="18.5,10.5 22.5,10.5 22.5,14.5 21,16.5 17.2,16.5 		"/>
		<polyline class="st0" points="7,4.5 8,3.5 6,1.5 7,0.5 		"/>
		<polyline class="st0" points="10.5,4.5 11.5,3.5 9.5,1.5 10.5,0.5 		"/>
		<polyline class="st0" points="14,4.5 15,3.5 13,1.5 14,0.5 		"/>
	</g>
</g>
<g id="Duotone">
	<polygon class="st1" points="15.9,18.4 18.5,14.5 18.5,9 14.5,6.5 6.5,6.5 2.5,9 2.5,14.5 5.1,18.4 0.5,20.5 5,23.5 16,23.5 
		20.5,20.5 	"/>
	<polygon class="st2" points="10.5,20.5 14.5,20.5 18.5,14.5 18.5,9 14.5,11.5 10.5,11.5 	"/>
	<g>
		<polyline class="st3" points="5.1,18.4 0.5,20.5 5,23.5 16,23.5 20.5,20.5 15.9,18.4 		"/>
		<polygon class="st3" points="14.5,11.5 18.5,9 14.5,6.5 6.5,6.5 2.5,9 6.5,11.5 		"/>
		<polyline class="st3" points="18.5,9 18.5,14.5 14.5,20.5 6.5,20.5 2.5,14.5 2.5,9 		"/>
		<polyline class="st3" points="18.5,10.5 22.5,10.5 22.5,14.5 21,16.5 17.2,16.5 		"/>
		<polyline class="st3" points="7,4.5 8,3.5 6,1.5 7,0.5 		"/>
		<polyline class="st3" points="10.5,4.5 11.5,3.5 9.5,1.5 10.5,0.5 		"/>
		<polyline class="st3" points="14,4.5 15,3.5 13,1.5 14,0.5 		"/>
	</g>
</g>
<g id="Frames-24px">
	<rect class="st4" width="24" height="24"/>
</g>
</svg>
