<svg xmlns="http://www.w3.org/2000/svg" width="24" height="24" viewBox="0 0 24 24">
  <title>tag-4</title>
  <g id="Icons-DuoTone">
    <path d="M13,1.5.5,14,10,23.5,22.5,11V1.5Zm7.5,5h-3v-3h3Z" fill="#fff"/>
    <polygon points="20.5 3.5 20.5 6.5 17.5 6.5 16.003 8.003 18.5 10.5 9.5 19.5 7.021 17.021 5.275 18.775 10 23.5 22.5 11 22.5 1.55 20.5 3.5" fill="#cce7ff"/>
    <rect x="17.501" y="3.5" width="3" height="3" fill="none" stroke="#1078ff" stroke-linecap="round" stroke-linejoin="round"/>
    <polygon points="22.5 1.5 13 1.5 0.5 14 10 23.5 22.5 11 22.5 1.5" fill="none" stroke="#1078ff" stroke-linecap="round" stroke-linejoin="round"/>
    <rect x="5.136" y="8.964" width="12.728" height="7.071" transform="translate(-5.471 11.793) rotate(-45)" fill="none" stroke="#1078ff" stroke-linecap="round" stroke-linejoin="round"/>
  </g>
  <g id="Frames-24px">
    <rect width="24" height="24" fill="none"/>
  </g>
</svg>
