<svg xmlns="http://www.w3.org/2000/svg" width="24" height="24" viewBox="0 0 24 24">
  <title>tag-3</title>
  <g id="Icons-DuoTone">
    <polygon points="7.5 23.5 0.5 16.5 9.5 7.5 16.5 7.5 16.5 14.5 7.5 23.5" fill="#fff"/>
    <polygon points="7.5 23.5 16.5 14.5 16.5 7.5 4 20 7.5 23.5" fill="#cce7ff"/>
    <polyline points="13.5 10.5 13.5 5 17.5 1.5 22.5 1.5" fill="none" stroke="#1078ff" stroke-linecap="round" stroke-linejoin="round"/>
    <polyline points="22.5 1.5 22.5 6.5 18.5 10.5 16.51 10.5" fill="none" stroke="#1078ff" stroke-linecap="round" stroke-linejoin="round"/>
    <line x1="4" y1="16" x2="8" y2="20" fill="none" stroke="#1078ff" stroke-linecap="round" stroke-linejoin="round"/>
    <polygon points="7.5 23.5 0.5 16.5 9.5 7.5 16.5 7.5 16.5 14.5 7.5 23.5" fill="none" stroke="#1078ff" stroke-linecap="round" stroke-linejoin="round"/>
  </g>
  <g id="Frames-24px">
    <rect width="24" height="24" fill="none"/>
  </g>
</svg>
