<svg xmlns="http://www.w3.org/2000/svg" width="24" height="24" viewBox="0 0 24 24">
  <title>hand-kindle</title>
  <g id="Duotone">
    <polygon points="20.5 21 20.5 16.999 15.5 10.5 15.5 0.5 0.5 0.5 0.5 21.5 15.5 21.5 17 23.5 22.5 23.5 20.5 21" fill="#fff"/>
    <polygon points="0.5 17.5 13.5 17.5 13.5 15.5 15.5 15.5 15.5 0.5 0.5 17.5" fill="#cce7ff"/>
    <polyline points="15.5 21.5 0.5 21.5 0.5 0.5 15.5 0.5 15.5 15.5" fill="none" stroke="#1078ff" stroke-linecap="round" stroke-linejoin="round"/>
    <line x1="13.5" y1="17.5" x2="0.5" y2="17.5" fill="none" stroke="#1078ff" stroke-linecap="round" stroke-linejoin="round"/>
    <line x1="3.5" y1="7.5" x2="12.5" y2="7.5" fill="none" stroke="#1078ff" stroke-linecap="round" stroke-linejoin="round"/>
    <line x1="3.5" y1="5.5" x2="12.5" y2="5.5" fill="none" stroke="#1078ff" stroke-linecap="round" stroke-linejoin="round"/>
    <line x1="3.5" y1="9.5" x2="12.5" y2="9.5" fill="none" stroke="#1078ff" stroke-linecap="round" stroke-linejoin="round"/>
    <line x1="3.5" y1="11.5" x2="12.5" y2="11.5" fill="none" stroke="#1078ff" stroke-linecap="round" stroke-linejoin="round"/>
    <line x1="3.5" y1="13.5" x2="8.5" y2="13.5" fill="none" stroke="#1078ff" stroke-linecap="round" stroke-linejoin="round"/>
    <line x1="6.5" y1="19.5" x2="9.5" y2="19.5" fill="none" stroke="#1078ff" stroke-linecap="round" stroke-linejoin="round"/>
    <line x1="3.5" y1="19.501" x2="4.5" y2="19.501" fill="none" stroke="#1078ff" stroke-linecap="round" stroke-linejoin="round"/>
    <line x1="11.5" y1="19.501" x2="12.5" y2="19.501" fill="none" stroke="#1078ff" stroke-linecap="round" stroke-linejoin="round"/>
    <g>
      <polyline points="22.5 23.5 20.5 20.999 20.5 16.999 15.5 10.5" fill="none" stroke="#1078ff" stroke-linecap="round" stroke-linejoin="round"/>
      <polyline points="18 18 15.5 15.5 13.5 15.5 13.5 17.5 15.5 19.899 15.5 21.5 17 23.5" fill="none" stroke="#1078ff" stroke-linecap="round" stroke-linejoin="round"/>
    </g>
  </g>
  <g id="Frames-24px">
    <rect width="24" height="24" fill="none"/>
  </g>
</svg>
