<svg xmlns="http://www.w3.org/2000/svg" width="24" height="24" viewBox="0 0 24 24">
  <title>ipod-classic-2</title>
  <g id="Duotone">
    <polygon points="21.5 5.499 21.5 6.499 20 6.499 19 8.5 20 10.499 21.5 10.499 21.5 11.499 23.5 11.499 23.5 5.499 21.5 5.499" fill="#fff"/>
    <rect x="0.5" y="0.5" width="13" height="23" fill="#fff"/>
    <polygon points="0.5 13.5 13.5 13.5 13.5 0.5 0.5 13.5" fill="#cce7ff"/>
    <rect x="21.5" y="8.5" width="2" height="3" fill="#cce7ff"/>
    <polygon points="19 8.5 20 10.499 21.5 10.499 21.5 8.499 19 8.5" fill="#cce7ff"/>
    <rect x="0.5" y="21.5" width="13" height="2" fill="#cce7ff"/>
    <rect x="0.5" y="0.5" width="13" height="23" fill="none" stroke="#1078ff" stroke-linecap="round" stroke-linejoin="round"/>
    <line x1="0.5" y1="13.501" x2="13.5" y2="13.501" fill="none" stroke="#1078ff" stroke-linecap="round" stroke-linejoin="round"/>
    <polyline points="13.5 4.001 16.5 6.5 16.5 20.001 19.5 22.5 22.5 20 22.5 11.499" fill="none" stroke="#1078ff" stroke-linecap="round" stroke-linejoin="round"/>
    <rect x="21.5" y="5.499" width="2" height="6" fill="none" stroke="#1078ff" stroke-linecap="round" stroke-linejoin="round"/>
    <polygon points="21.5 6.499 20 6.499 19 8.5 20 10.499 21.5 10.499 21.5 6.499" fill="none" stroke="#1078ff" stroke-linecap="round" stroke-linejoin="round"/>
    <line x1="3.5" y1="11.5" x2="4.5" y2="11.5" fill="none" stroke="#1078ff" stroke-linecap="round" stroke-linejoin="round"/>
    <line x1="6.5" y1="11.5" x2="7.5" y2="11.5" fill="none" stroke="#1078ff" stroke-linecap="round" stroke-linejoin="round"/>
    <line x1="9.5" y1="11.5" x2="10.5" y2="11.5" fill="none" stroke="#1078ff" stroke-linecap="round" stroke-linejoin="round"/>
    <line x1="3.5" y1="9.5" x2="4.5" y2="9.5" fill="none" stroke="#1078ff" stroke-linecap="round" stroke-linejoin="round"/>
    <line x1="6.5" y1="9.5" x2="7.5" y2="9.5" fill="none" stroke="#1078ff" stroke-linecap="round" stroke-linejoin="round"/>
    <line x1="9.5" y1="9.5" x2="10.5" y2="9.5" fill="none" stroke="#1078ff" stroke-linecap="round" stroke-linejoin="round"/>
    <line x1="6.5" y1="7.5" x2="7.5" y2="7.5" fill="none" stroke="#1078ff" stroke-linecap="round" stroke-linejoin="round"/>
    <line x1="9.5" y1="7.5" x2="10.5" y2="7.5" fill="none" stroke="#1078ff" stroke-linecap="round" stroke-linejoin="round"/>
    <line x1="9.5" y1="5.5" x2="10.5" y2="5.5" fill="none" stroke="#1078ff" stroke-linecap="round" stroke-linejoin="round"/>
    <line x1="9.5" y1="3.5" x2="10.5" y2="3.5" fill="none" stroke="#1078ff" stroke-linecap="round" stroke-linejoin="round"/>
    <polygon points="9.5 20 7 21.5 4.5 20 4.5 17 7 15.5 9.5 17 9.5 20" fill="none" stroke="#1078ff" stroke-linecap="round" stroke-linejoin="round"/>
  </g>
  <g id="Frames-24px">
    <rect width="24" height="24" fill="none"/>
  </g>
</svg>
