<svg xmlns="http://www.w3.org/2000/svg" width="24" height="24" viewBox="0 0 24 24">
  <title>smartwatch-download</title>
  <g id="Duotone">
    <polygon points="20 9.5 18.5 9.5 18.5 5.5 16 3.5 15.5 1.5 5.5 1.5 5 3.5 2.5 5.5 2.5 19.5 5 21.5 5.5 23.5 15.5 23.5 16 21.5 18.5 19.5 18.5 12.5 20 12.5 20.5 11 20 9.5" fill="#fff"/>
    <polygon points="18.5 5.5 18.5 19.5 2.5 19.5 18.5 5.5" fill="#cce7ff"/>
    <g>
      <rect x="2.5" y="5.5" width="16" height="14" fill="none" stroke="#1078ff" stroke-linecap="round" stroke-linejoin="round"/>
      <polyline points="18.5 5.5 16 3.5 15.5 1.5 5.5 1.5 5 3.5 2.5 5.5" fill="none" stroke="#1078ff" stroke-linecap="round" stroke-linejoin="round"/>
      <polyline points="18.5 19.5 16 21.5 15.5 23.5 5.5 23.5 5 21.5 2.5 19.5" fill="none" stroke="#1078ff" stroke-linecap="round" stroke-linejoin="round"/>
      <polyline points="18.5 9.5 20 9.5 20.5 11 20 12.5 18.5 12.5" fill="none" stroke="#1078ff" stroke-linecap="round" stroke-linejoin="round"/>
      <line x1="5" y1="3.5" x2="16" y2="3.5" fill="none" stroke="#1078ff" stroke-linecap="round" stroke-linejoin="round"/>
      <line x1="5" y1="21.5" x2="16" y2="21.5" fill="none" stroke="#1078ff" stroke-linecap="round" stroke-linejoin="round"/>
    </g>
    <g>
      <line x1="10.5" y1="8.5" x2="10.5" y2="16.5" fill="none" stroke="#1078ff" stroke-linecap="round" stroke-linejoin="round"/>
      <polyline points="14 13 10.5 16.5 7 13" fill="none" stroke="#1078ff" stroke-linecap="round" stroke-linejoin="round"/>
    </g>
  </g>
  <g id="Frames-24px">
    <rect width="24" height="24" fill="none"/>
  </g>
</svg>
