<svg xmlns="http://www.w3.org/2000/svg" width="24" height="24" viewBox="0 0 24 24">
  <title>badge-star-1</title>
  <g id="Duotone">
    <polygon points="6.091 14.409 0.5 20 6 19 7.5 23.5 9.5 16.357 11.5 17.5 13.5 16.357 15.5 23.5 17 19 22.5 20 16.909 14.409 18.5 13.5 18.5 5.5 11.5 1.5 4.5 5.5 4.5 13.5 6.091 14.409" fill="#fff"/>
    <polygon points="7.795 15.383 9.5 16.357 7.5 23.5 6 19 7.795 15.383" fill="#cce7ff"/>
    <polygon points="15.204 15.383 13.5 16.357 15.5 23.5 17 19 15.204 15.383" fill="#cce7ff"/>
    <polygon points="13.373 7.5 8.676 12.197 8 14 11.5 11.502 15 14 13.5 9.997 16.5 7.5 13.373 7.5" fill="#cce7ff"/>
    <g>
      <polyline points="9.5 16.357 7.5 23.5 6 19 0.5 20 6.091 14.409" fill="none" stroke="#1078ff" stroke-linecap="round" stroke-linejoin="round"/>
      <polyline points="13.5 16.357 15.5 23.5 17 19 22.5 20 16.909 14.409" fill="none" stroke="#1078ff" stroke-linecap="round" stroke-linejoin="round"/>
      <polygon points="4.5 5.5 11.5 1.5 18.5 5.5 18.5 13.5 11.5 17.5 4.5 13.5 4.5 5.5" fill="none" stroke="#1078ff" stroke-linecap="round" stroke-linejoin="round"/>
    </g>
    <polygon points="11.507 4 13 7.5 16.5 7.5 13.5 9.997 15 14 11.5 11.502 8 14 9.5 9.997 6.5 7.5 10 7.5 11.507 4" fill="none" stroke="#1078ff" stroke-linecap="round" stroke-linejoin="round"/>
  </g>
  <g id="Frames-24px">
    <rect width="24" height="24" fill="none"/>
  </g>
</svg>
