<svg xmlns="http://www.w3.org/2000/svg" width="24" height="24" viewBox="0 0 24 24">
  <title>heart-edit</title>
  <g id="Duotone">
    <polygon points="13.111 20.768 20.379 13.5 22.5 15.622 15.232 22.889 12.5 23.5 13.111 20.768" fill="#fff"/>
    <polygon points="10 17.5 19.5 8 14.5 1.5 10 5.5 5.5 1.5 0.5 8 10 17.5" fill="#fff"/>
    <polygon points="10 17.5 19.5 8 14.5 1.5 10 5.5 10 17.5" fill="#cce7ff"/>
    <polygon points="21.449 14.571 12.526 23.494 15.232 22.889 22.5 15.622 21.449 14.571" fill="#cce7ff"/>
    <polygon points="10 17.5 19.5 8 14.5 1.5 10 5.5 5.5 1.5 0.5 8 10 17.5" fill="none" stroke="#1078ff" stroke-linecap="round" stroke-linejoin="round"/>
    <polygon points="13.111 20.768 20.379 13.5 22.5 15.622 15.232 22.889 12.5 23.5 13.111 20.768" fill="none" stroke="#1078ff" stroke-linecap="round" stroke-linejoin="round"/>
  </g>
  <g id="Frames-24px">
    <rect width="24" height="24" fill="none"/>
  </g>
</svg>
