<svg xmlns="http://www.w3.org/2000/svg" width="24" height="24" viewBox="0 0 24 24">
  <title>heart-text-document</title>
  <g id="Duotone">
    <rect x="14.5" y="14.5" width="8" height="9" fill="#fff"/>
    <polyline points="15.5 12 19.5 8 14.5 1.5 10 5.5 5.5 1.5 0.5 8 10 17.5 12 15.5" fill="#fff"/>
    <polygon points="10 17.5 19.5 8 14.5 1.5 10 5.5 10 17.5" fill="#cce7ff"/>
    <rect x="14.5" y="21.5" width="8" height="2" fill="#cce7ff"/>
    <polyline points="15.5 12 19.5 8 14.5 1.5 10 5.5 5.5 1.5 0.5 8 10 17.5 12 15.5" fill="none" stroke="#1078ff" stroke-linecap="round" stroke-linejoin="round"/>
    <line x1="16.5" y1="18.5" x2="20.5" y2="18.5" fill="none" stroke="#1078ff" stroke-linecap="round" stroke-linejoin="round"/>
    <line x1="16.5" y1="16.5" x2="20.5" y2="16.5" fill="none" stroke="#1078ff" stroke-linecap="round" stroke-linejoin="round"/>
    <line x1="16.5" y1="20.5" x2="18.5" y2="20.5" fill="none" stroke="#1078ff" stroke-linecap="round" stroke-linejoin="round"/>
    <rect x="14.5" y="14.5" width="8" height="9" fill="none" stroke="#1078ff" stroke-linecap="round" stroke-linejoin="round"/>
  </g>
  <g id="Frames-24px">
    <rect width="24" height="24" fill="none"/>
  </g>
</svg>
