<svg xmlns="http://www.w3.org/2000/svg" width="24" height="24" viewBox="0 0 24 24">
  <title>heart</title>
  <g id="Duotone">
    <polygon points="11.5 22.5 22.5 10.5 16.761 2.5 11.5 7 6.239 2.5 0.5 10.5 11.5 22.5" fill="#fff"/>
    <polygon points="11.5 22.5 22.5 10.5 16.761 2.5 11.5 7 11.5 22.5" fill="#cce7ff"/>
    <polygon points="11.5 22.5 22.5 10.5 16.761 2.5 11.5 7 6.239 2.5 0.5 10.5 11.5 22.5" fill="none" stroke="#1078ff" stroke-linecap="round" stroke-linejoin="round"/>
  </g>
  <g id="Frames-24px">
    <rect width="24" height="24" fill="none"/>
  </g>
</svg>
