<svg xmlns="http://www.w3.org/2000/svg" width="24" height="24" viewBox="0 0 24 24">
  <title>heart-badge</title>
  <g id="Duotone">
    <polygon points="8.5 20.5 3.5 20.5 3.5 15.5 0.5 12.5 3.5 9.5 3.5 4.5 8.5 4.5 11.5 1.5 14.5 4.5 19.5 4.5 19.5 9.5 22.5 12.5 19.5 15.5 19.5 20.5 14.5 20.5 11.5 23.5 8.5 20.5" fill="#fff"/>
    <polygon points="17.5 14.672 17.5 18.5 13.672 18.5 11.5 20.671 9.328 18.5 5.5 18.5 5.5 14.672 3.329 12.5 0.5 12.5 3.5 15.5 3.5 20.5 8.5 20.5 11.5 23.5 14.5 20.5 19.5 20.5 19.5 15.5 22.5 12.5 19.671 12.5 17.5 14.672" fill="#cce7ff"/>
    <polygon points="11.5 10.5 14 8 17 12 11.5 18 11.5 10.5" fill="#cce7ff"/>
    <polygon points="8.5 20.5 3.5 20.5 3.5 15.5 0.5 12.5 3.5 9.5 3.5 4.5 8.5 4.5 11.5 1.5 14.5 4.5 19.5 4.5 19.5 9.5 22.5 12.5 19.5 15.5 19.5 20.5 14.5 20.5 11.5 23.5 8.5 20.5" fill="none" stroke="#1078ff" stroke-linecap="round" stroke-linejoin="round"/>
    <polygon points="11.5 18 6 12 9 8 11.5 10.5 14 8 17 12 11.5 18" fill="none" stroke="#1078ff" stroke-linecap="round" stroke-linejoin="round"/>
  </g>
  <g id="Frames-24px">
    <rect width="24" height="24" fill="none"/>
  </g>
</svg>
