<svg xmlns="http://www.w3.org/2000/svg" width="24" height="24" viewBox="0 0 24 24">
  <title>medal-number-one</title>
  <g id="Duotone">
    <polygon points="16.5 19.75 11.5 22.5 6.5 19.75 6.5 14.25 11.5 11.5 16.5 14.25 16.5 19.75" fill="#fff"/>
    <polygon points="16.5 14.25 16.5 19.75 11.5 22.5 6.5 19.75 16.5 14.25" fill="#cce7ff"/>
    <polyline points="7.981 13.435 3.5 2.5 7 0.5 10.065 12.289" fill="#cce7ff"/>
    <polyline points="15.019 13.435 19.5 2.5 16 0.5 12.935 12.289" fill="#cce7ff"/>
    <line x1="18.5" y1="20.5" x2="19.5" y2="20.5" fill="none" stroke="#1078ff" stroke-linecap="round" stroke-linejoin="round"/>
    <line x1="21.5" y1="20.5" x2="22.5" y2="20.5" fill="none" stroke="#1078ff" stroke-linecap="round" stroke-linejoin="round"/>
    <line x1="20.5" y1="19" x2="20.5" y2="18.5" fill="none" stroke="#1078ff" stroke-linecap="round" stroke-linejoin="round"/>
    <line x1="20.5" y1="22" x2="20.5" y2="22.5" fill="none" stroke="#1078ff" stroke-linecap="round" stroke-linejoin="round"/>
    <line x1="0.5" y1="9.5" x2="1.5" y2="9.5" fill="none" stroke="#1078ff" stroke-linecap="round" stroke-linejoin="round"/>
    <line x1="3.5" y1="9.5" x2="4.5" y2="9.5" fill="none" stroke="#1078ff" stroke-linecap="round" stroke-linejoin="round"/>
    <line x1="2.5" y1="8" x2="2.5" y2="7.5" fill="none" stroke="#1078ff" stroke-linecap="round" stroke-linejoin="round"/>
    <line x1="2.5" y1="11" x2="2.5" y2="11.5" fill="none" stroke="#1078ff" stroke-linecap="round" stroke-linejoin="round"/>
    <polyline points="7.981 13.435 3.5 2.5 7 0.5 10.065 12.289" fill="none" stroke="#1078ff" stroke-linecap="round" stroke-linejoin="round"/>
    <polyline points="15.019 13.435 19.5 2.5 16 0.5 12.935 12.289" fill="none" stroke="#1078ff" stroke-linecap="round" stroke-linejoin="round"/>
    <line x1="16" y1="0.5" x2="7" y2="0.5" fill="none" stroke="#1078ff" stroke-linecap="round" stroke-linejoin="round"/>
    <line x1="9.5" y1="2.5" x2="13.5" y2="2.5" fill="none" stroke="#1078ff" stroke-linecap="round" stroke-linejoin="round"/>
    <polygon points="16.5 19.75 11.5 22.5 6.5 19.75 6.5 14.25 11.5 11.5 16.5 14.25 16.5 19.75" fill="none" stroke="#1078ff" stroke-linecap="round" stroke-linejoin="round"/>
    <g>
      <line x1="9.5" y1="19.5" x2="13.5" y2="19.5" fill="none" stroke="#1078ff" stroke-linecap="round" stroke-linejoin="round"/>
      <polyline points="11.5 19.5 11.5 14.5 9.5 16" fill="none" stroke="#1078ff" stroke-linecap="round" stroke-linejoin="round"/>
    </g>
  </g>
  <g id="Frames-24px">
    <rect width="24" height="24" fill="none"/>
  </g>
</svg>
