<svg xmlns="http://www.w3.org/2000/svg" width="24" height="24" viewBox="0 0 24 24">
  <title>ribbon-three-stars</title>
  <g id="Duotone">
    <polygon points="22.5 18.5 18.454 16.766 19.5 14.5 11.5 12.5 3.5 14.5 4.552 16.778 0.5 18.5 3.167 19.667 2 22.5 6.5 21 5.629 19.112 11.5 17.5 17.371 19.112 16.5 21 21 22.5 19.833 19.667 22.5 18.5" fill="#fff"/>
    <polygon points="11.505 2 12.5 4.5 15 4.5 13.056 6.278 13.833 9 11.5 7.252 9.167 9 9.944 6.278 8 4.5 10.5 4.5 11.505 2" fill="#fff"/>
    <polygon points="19.005 5 20 7.5 22.5 7.5 20.556 9.278 21.333 12 19 10.252 16.667 12 17.444 9.278 15.5 7.5 18 7.5 19.005 5" fill="#fff"/>
    <polygon points="4.005 5 5 7.5 7.5 7.5 5.556 9.278 6.333 12 4 10.252 1.667 12 2.444 9.278 0.5 7.5 3 7.5 4.005 5" fill="#fff"/>
    <polygon points="11.505 2 12.5 4.5 15 4.5 13.056 6.278 13.833 9 11.5 7.252 9.167 9 9.944 6.278 8 4.5 10.5 4.5 11.505 2" fill="#fff"/>
    <polygon points="19.005 5 20 7.5 22.5 7.5 20.556 9.278 21.333 12 19 10.252 16.667 12 17.444 9.278 15.5 7.5 18 7.5 19.005 5" fill="#fff"/>
    <polygon points="4.005 5 5 7.5 7.5 7.5 5.556 9.278 6.333 12 4 10.252 1.667 12 2.444 9.278 0.5 7.5 3 7.5 4.005 5" fill="#fff"/>
    <polygon points="18.259 17.19 11.5 15.5 4.741 17.19 5.628 19.112 11.5 17.5 17.371 19.112 18.259 17.19" fill="#cce7ff"/>
    <polygon points="6.5 21 2 22.5 3.167 19.667 5.457 18.74 6.5 21" fill="#cce7ff"/>
    <polygon points="16.5 21 21 22.5 19.833 19.667 17.543 18.74 16.5 21" fill="#cce7ff"/>
    <polygon points="7.5 7.5 5 7.5 2.133 10.367 1.667 12 4 10.252 6.333 12 5.556 9.278 7.5 7.5" fill="#cce7ff"/>
    <polygon points="15 4.5 12.5 4.5 9.633 7.367 9.167 9 11.5 7.252 13.833 9 13.056 6.278 15 4.5" fill="#cce7ff"/>
    <polygon points="22.5 7.5 20 7.5 17.133 10.367 16.667 12 19 10.252 21.333 12 20.556 9.278 22.5 7.5" fill="#cce7ff"/>
    <g>
      <polyline points="17.371 19.112 11.5 17.5 5.628 19.112" fill="none" stroke="#1078ff" stroke-linecap="round" stroke-linejoin="round"/>
      <polyline points="18.454 16.766 22.5 18.5 19.833 19.667 21 22.5 16.5 21 19.5 14.5 11.5 12.5 3.5 14.5 6.5 21 2 22.5 3.167 19.667 0.5 18.5 4.552 16.778" fill="none" stroke="#1078ff" stroke-linecap="round" stroke-linejoin="round"/>
    </g>
    <polygon points="11.505 2 12.5 4.5 15 4.5 13.056 6.278 13.833 9 11.5 7.252 9.167 9 9.944 6.278 8 4.5 10.5 4.5 11.505 2" fill="none" stroke="#1078ff" stroke-linecap="round" stroke-linejoin="round"/>
    <polygon points="19.005 5 20 7.5 22.5 7.5 20.556 9.278 21.333 12 19 10.252 16.667 12 17.444 9.278 15.5 7.5 18 7.5 19.005 5" fill="none" stroke="#1078ff" stroke-linecap="round" stroke-linejoin="round"/>
    <polygon points="4.005 5 5 7.5 7.5 7.5 5.556 9.278 6.333 12 4 10.252 1.667 12 2.444 9.278 0.5 7.5 3 7.5 4.005 5" fill="none" stroke="#1078ff" stroke-linecap="round" stroke-linejoin="round"/>
    <g>
      <polyline points="17.371 19.112 11.5 17.5 5.628 19.112" fill="none" stroke="#1078ff" stroke-linecap="round" stroke-linejoin="round"/>
      <polyline points="18.454 16.766 22.5 18.5 19.833 19.667 21 22.5 16.5 21 19.5 14.5 11.5 12.5 3.5 14.5 6.5 21 2 22.5 3.167 19.667 0.5 18.5 4.552 16.778" fill="none" stroke="#1078ff" stroke-linecap="round" stroke-linejoin="round"/>
    </g>
    <polygon points="11.505 2 12.5 4.5 15 4.5 13.056 6.278 13.833 9 11.5 7.252 9.167 9 9.944 6.278 8 4.5 10.5 4.5 11.505 2" fill="none" stroke="#1078ff" stroke-linecap="round" stroke-linejoin="round"/>
    <polygon points="19.005 5 20 7.5 22.5 7.5 20.556 9.278 21.333 12 19 10.252 16.667 12 17.444 9.278 15.5 7.5 18 7.5 19.005 5" fill="none" stroke="#1078ff" stroke-linecap="round" stroke-linejoin="round"/>
    <polygon points="4.005 5 5 7.5 7.5 7.5 5.556 9.278 6.333 12 4 10.252 1.667 12 2.444 9.278 0.5 7.5 3 7.5 4.005 5" fill="none" stroke="#1078ff" stroke-linecap="round" stroke-linejoin="round"/>
  </g>
  <g id="Frames-24px">
    <rect width="24" height="24" fill="none"/>
  </g>
</svg>
