<svg xmlns="http://www.w3.org/2000/svg" width="24" height="24" viewBox="0 0 24 24">
  <title>star-remove</title>
  <g id="Duotone">
    <polygon points="22.5 20.75 18.5 23 14.5 20.75 14.5 16.25 18.5 14 22.5 16.25 22.5 20.75" fill="#fff"/>
    <polyline points="15.591 13.5 21.5 8.5 14 8.5 11 1.5 8 8.5 0.5 8.5 7 14 3.5 22.5 11 17.5 12.5 18.5" fill="#fff"/>
    <polygon points="3.5 22.5 11 17.5 12.5 18.5 15.591 13.5 21.5 8.5 14 8.5 7 14 3.5 22.5" fill="#cce7ff"/>
    <polygon points="22.5 16.25 22.5 20.75 18.5 23 14.5 20.75 22.5 16.25" fill="#cce7ff"/>
    <polyline points="15.591 13.5 21.5 8.5 14 8.5 11 1.5 8 8.5 0.5 8.5 7 14 3.5 22.5 11 17.5 12.5 18.5" fill="none" stroke="#1078ff" stroke-linecap="round" stroke-linejoin="round"/>
    <polygon points="22.5 20.75 18.5 23 14.5 20.75 14.5 16.25 18.5 14 22.5 16.25 22.5 20.75" fill="none" stroke="#1078ff" stroke-linecap="round" stroke-linejoin="round"/>
    <g>
      <line x1="20" y1="17" x2="17" y2="20" fill="none" stroke="#1078ff" stroke-linecap="round" stroke-linejoin="round"/>
      <line x1="20" y1="20" x2="17" y2="17" fill="none" stroke="#1078ff" stroke-linecap="round" stroke-linejoin="round"/>
    </g>
  </g>
  <g id="Frames-24px">
    <rect width="24" height="24" fill="none"/>
  </g>
</svg>
