<?xml version="1.0" encoding="utf-8"?>
<!-- Generator: Adobe Illustrator 21.0.2, SVG Export Plug-In . SVG Version: 6.00 Build 0)  -->
<svg version="1.1" xmlns="http://www.w3.org/2000/svg" xmlns:xlink="http://www.w3.org/1999/xlink" x="0px" y="0px"
	 viewBox="0 0 24 24" style="enable-background:new 0 0 24 24;" xml:space="preserve">
<style type="text/css">
	.st0{fill:#FFFFFF;}
	.st1{fill:#FFFFFF;stroke:#1078FF;stroke-linecap:round;stroke-linejoin:round;stroke-miterlimit:10;}
	.st2{fill:#CCE7FF;}
	.st3{fill:none;stroke:#1078FF;stroke-linecap:round;stroke-linejoin:round;stroke-miterlimit:10;}
	.st4{fill:none;}
</style>
<g id="Duotone">
	<polygon class="st0" points="22.5,17.8 12,23.5 1.5,17.8 1.5,6.3 12,0.5 22.5,6.3 	"/>
	<polygon class="st2" points="20,16.5 12,21 4,16.5 1.5,17.8 12,23.5 22.5,17.8 	"/>
	<polygon class="st3" points="8,11.5 6,10.5 4,11.5 8,14.5 12.5,12.5 11,17.5 13.4,16.5 15.7,11.5 19.4,9.6 20,8 18,7.5 	"/>
	<polyline class="st3" points="14.4,9 10.4,7.4 8.4,8.5 11.9,9.9 	"/>
	<polygon class="st3" points="22.5,17.8 12,23.5 1.5,17.8 1.5,6.3 12,0.5 22.5,6.3 	"/>
</g>
<g id="Frames-24px">
	<rect class="st4" width="24" height="24"/>
</g>
</svg>
