<svg xmlns="http://www.w3.org/2000/svg" width="24" height="24" viewBox="0 0 24 24">
  <title>hammer-2</title>
  <g id="Duotone">
    <g>
      <polygon points="0.5 20.728 0.846 23.153 3.272 23.5 16.223 10.549 13.451 7.777 0.5 20.728" fill="#fff"/>
      <polygon points="21.074 5.698 22.461 4.311 19.688 1.539 18.302 2.925 15.877 0.5 13.798 2.579 10.679 1.539 8.947 3.272 18.649 12.974 23.5 8.123 21.074 5.698" fill="#fff"/>
    </g>
    <polygon points="1.037 23.181 3.272 23.5 16.223 10.549 14.946 9.272 1.037 23.181" fill="#cce7ff"/>
    <polygon points="17.291 1.914 14.338 4.868 9.099 3.12 8.947 3.272 18.649 12.974 23.5 8.123 17.291 1.914" fill="#cce7ff"/>
    <polyline points="18.302 2.926 19.689 1.539 22.461 4.311 21.074 5.698" fill="none" stroke="#1078ff" stroke-linecap="round" stroke-linejoin="round"/>
    <polyline points="16.223 10.549 3.272 23.5 0.846 23.153 0.5 20.728 13.451 7.777" fill="none" stroke="#1078ff" stroke-linecap="round" stroke-linejoin="round"/>
    <polygon points="18.649 12.974 8.947 3.272 10.679 1.539 13.798 2.579 15.877 0.5 23.5 8.123 18.649 12.974" fill="none" stroke="#1078ff" stroke-linecap="round" stroke-linejoin="round"/>
  </g>
  <g id="Frames-24px">
    <rect width="24" height="24" fill="none"/>
  </g>
</svg>
