<svg xmlns="http://www.w3.org/2000/svg" width="24" height="24" viewBox="0 0 24 24">
  <title>slider-2</title>
  <g id="Duotone">
    <polygon points="16.5 9.5 16.5 19.5 12.5 21 8.5 19.5 8.5 9.5 12.5 8 16.5 9.5" fill="#fff"/>
    <polygon points="12.5 8 16.5 9.5 16.5 19.5 12.5 21 12.5 8" fill="#cce7ff"/>
    <polygon points="16.5 9.5 16.5 19.5 12.5 21 8.5 19.5 8.5 9.5 12.5 8 16.5 9.5" fill="none" stroke="#1078ff" stroke-linecap="round" stroke-linejoin="round"/>
    <line x1="12.5" y1="8" x2="12.5" y2="1.5" fill="none" stroke="#1078ff" stroke-linecap="round" stroke-linejoin="round"/>
    <line x1="12.5" y1="23.5" x2="12.5" y2="21" fill="none" stroke="#1078ff" stroke-linecap="round" stroke-linejoin="round"/>
    <line x1="11.5" y1="14.5" x2="13.5" y2="14.5" fill="none" stroke="#1078ff" stroke-linecap="round" stroke-linejoin="round"/>
    <line x1="11.5" y1="17.5" x2="13.5" y2="17.5" fill="none" stroke="#1078ff" stroke-linecap="round" stroke-linejoin="round"/>
    <line x1="11.5" y1="11.5" x2="13.5" y2="11.5" fill="none" stroke="#1078ff" stroke-linecap="round" stroke-linejoin="round"/>
  </g>
  <g id="Frames-24px">
    <rect width="24" height="24" fill="none"/>
  </g>
</svg>
