<?xml version="1.0" encoding="utf-8"?>
<!-- Generator: Adobe Illustrator 21.0.2, SVG Export Plug-In . SVG Version: 6.00 Build 0)  -->
<svg version="1.1" xmlns="http://www.w3.org/2000/svg" xmlns:xlink="http://www.w3.org/1999/xlink" x="0px" y="0px"
	 viewBox="0 0 24 24" style="enable-background:new 0 0 24 24;" xml:space="preserve">
<style type="text/css">
	.st0{fill:#FFFFFF;}
	.st1{fill:#CCE7FF;}
	.st2{fill:none;stroke:#1078FF;stroke-linecap:round;stroke-linejoin:round;stroke-miterlimit:10;}
	.st3{fill:none;stroke:#1078FF;stroke-linejoin:round;stroke-miterlimit:10;}
	.st4{fill:none;}
</style>
<g id="Duotone">
	<rect x="7.5" y="1.5" class="st0" width="10" height="10"/>
	<rect x="13.5" y="13.5" class="st0" width="10" height="10"/>
	<rect x="0.5" y="13.5" class="st0" width="10" height="10"/>
	<polygon class="st1" points="17.5,11.5 16,10 9,10 7.5,11.5 	"/>
	<polygon class="st1" points="23.5,23.5 22,22 15,22 13.5,23.5 	"/>
	<polygon class="st1" points="10.5,23.5 9,22 2,22 0.5,23.5 	"/>
	<g>
		<rect x="0.5" y="13.5" class="st3" width="10" height="10"/>
		<rect x="13.5" y="13.5" class="st3" width="10" height="10"/>
		<rect x="7.5" y="1.5" class="st3" width="10" height="10"/>
		<line class="st2" x1="12.5" y1="9.5" x2="12.5" y2="3.5"/>
		<polyline class="st2" points="10,6 12.5,3.5 15,6 		"/>
		<line class="st2" x1="8.5" y1="18.5" x2="2.5" y2="18.5"/>
		<polyline class="st2" points="5,21 2.5,18.5 5,16 		"/>
		<line class="st2" x1="15.5" y1="18.5" x2="21.5" y2="18.5"/>
		<polyline class="st2" points="19,21 21.5,18.5 19,16 		"/>
	</g>
</g>
<g id="Frames-24px">
	<rect class="st4" width="24" height="24"/>
</g>
</svg>
