<svg xmlns="http://www.w3.org/2000/svg" width="24" height="24" viewBox="0 0 24 24">
  <title>account-lock</title>
  <g id="Duotone">
    <polyline points="14.5 23.5 14.5 20.5 18.5 20.5 18.5 15.5 21.5 15.5 18.5 9.5 18.5 6.5 10.5 1.5 1.5 6.5 1.5 16 5.5 19.5 5.5 23.5" fill="#fff"/>
    <polyline points="3.5 5.5 3.5 15 7.5 18.5 7.5 23.5 5.5 23.5 5.5 19.5 1.5 16 1.5 6.5 3.644 5.309" fill="#cce7ff"/>
    <rect x="10.5" y="9.5" width="4" height="6" fill="#cce7ff"/>
    <polyline points="14.5 23.5 14.5 20.5 18.5 20.5 18.5 15.5 21.5 15.5 18.5 9.5 18.5 6.5 10.5 1.5 1.5 6.5 1.5 16 5.5 19.5 5.5 23.5" fill="none" stroke="#1078ff" stroke-linecap="round" stroke-linejoin="round"/>
    <line x1="10.5" y1="13.5" x2="10.5" y2="12.5" fill="none" stroke="#1078ff" stroke-linecap="round" stroke-linejoin="round"/>
    <rect x="6.5" y="9.5" width="8" height="6" fill="none" stroke="#1078ff" stroke-linecap="round" stroke-linejoin="round"/>
    <g>
      <rect x="6.5" y="9.5" width="8" height="6" fill="none" stroke="#1078ff" stroke-linecap="round" stroke-linejoin="round"/>
      <polyline points="7.5 9.5 7.5 8 10.5 6.5 13.5 8 13.5 9.5" fill="none" stroke="#1078ff" stroke-linecap="round" stroke-linejoin="round"/>
      <line x1="10.5" y1="13.5" x2="10.5" y2="11.5" fill="none" stroke="#1078ff" stroke-linecap="round" stroke-linejoin="round"/>
    </g>
  </g>
  <g id="Frames-24px">
    <rect width="24" height="24" fill="none"/>
  </g>
</svg>
