<svg xmlns="http://www.w3.org/2000/svg" width="24" height="24" viewBox="0 0 24 24">
  <title>business-male-shopping-bag</title>
  <g id="Duotone">
    <rect x="15.5" y="17.5" width="8" height="6" fill="#fff"/>
    <g>
      <polygon points="10.5 5.5 10.5 2 7.5 0.5 4.5 2 4.5 5.5 7.5 7 10.5 5.5" fill="#fff"/>
      <polygon points="13 10 7.5 8 2 10 0.5 16.5 3.5 14 3.5 23.5 7.5 17.5 11.5 23.5 11.5 14 14.5 16.5 13 10" fill="#fff"/>
    </g>
    <rect x="15.5" y="19" width="8" height="4.5" fill="#cce7ff"/>
    <rect x="3.5" y="15.5" width="8" height="2" fill="#cce7ff"/>
    <polygon points="10.5 3.5 6.5 3.5 4.5 2 7.5 0.5 10.5 2 10.5 3.5" fill="#cce7ff"/>
    <line x1="7.5" y1="10.5" x2="7.5" y2="13.5" fill="none" stroke="#1078ff" stroke-linecap="round" stroke-linejoin="round"/>
    <polygon points="10.5 5.5 7.5 7 4.5 5.5 4.5 2 7.5 0.5 10.5 2 10.5 5.5" fill="none" stroke="#1078ff" stroke-linecap="round" stroke-linejoin="round"/>
    <polyline points="11.5 14 14.5 16.5 13 10 7.5 8 2 10 0.5 16.5 3.5 14" fill="none" stroke="#1078ff" stroke-linecap="round" stroke-linejoin="round"/>
    <polyline points="11.5 12.5 11.5 23.5 7.5 17.5 3.5 23.5 3.5 12.5" fill="none" stroke="#1078ff" stroke-linecap="round" stroke-linejoin="round"/>
    <polyline points="4.5 2 6.5 3.5 10.5 3.5" fill="none" stroke="#1078ff" stroke-linecap="round" stroke-linejoin="round"/>
    <line x1="3.5" y1="15.5" x2="11.5" y2="15.5" fill="none" stroke="#1078ff" stroke-linecap="round" stroke-linejoin="round"/>
    <rect x="15.5" y="17.5" width="8" height="6" fill="none" stroke="#1078ff" stroke-linecap="round" stroke-linejoin="round"/>
    <polyline points="17.5 19.5 17.5 16 19.5 15 21.5 16 21.5 19.5" fill="none" stroke="#1078ff" stroke-linecap="round" stroke-linejoin="round"/>
  </g>
  <g id="Frames-24px">
    <rect width="24" height="24" fill="none"/>
  </g>
</svg>
