<svg xmlns="http://www.w3.org/2000/svg" width="24" height="24" viewBox="0 0 24 24">
  <title>business-time</title>
  <g id="Duotone">
    <polygon points="12.5 3.65 17.5 1 22.5 3.65 22.5 9.35 17.5 12 12.5 9.35 12.5 3.65" fill="#fff"/>
    <polygon points="6.5 23.5 6.5 17.5 8.5 17.5 8.5 12.5 4.5 11 0.5 12.5 0.5 17.5 2.5 17.5 2.5 23.5 6.5 23.5" fill="#fff"/>
    <polygon points="7.5 8.5 4.5 10 1.5 8.5 1.5 4.5 4.5 3 7.5 4.5 7.5 8.5" fill="#fff"/>
    <rect x="2.5" y="18" width="4" height="5.5" fill="#cce7ff"/>
    <polygon points="22.5 3.65 22.5 9.35 17.5 12 12.5 9.35 22.5 3.65" fill="#cce7ff"/>
    <polygon points="7.5 5.5 3.5 5.5 1.5 4.5 4.5 3 7.5 4.5 7.5 5.5" fill="#cce7ff"/>
    <polyline points="17.5 4 17.5 7 19.5 7" fill="none" stroke="#1078ff" stroke-linecap="round" stroke-linejoin="round"/>
    <polygon points="12.5 3.65 17.5 1 22.5 3.65 22.5 9.35 17.5 12 12.5 9.35 12.5 3.65" fill="none" stroke="#1078ff" stroke-linecap="round" stroke-linejoin="round"/>
    <polygon points="6.5 23.5 6.5 17.5 8.5 17.5 8.5 12.5 4.5 11 0.5 12.5 0.5 17.5 2.5 17.5 2.5 23.5 6.5 23.5" fill="none" stroke="#1078ff" stroke-linecap="round" stroke-linejoin="round"/>
    <line x1="4.5" y1="13.5" x2="4.5" y2="16.5" fill="none" stroke="#1078ff" stroke-linecap="round" stroke-linejoin="round"/>
    <polygon points="7.5 8.5 4.5 10 1.5 8.5 1.5 4.5 4.5 3 7.5 4.5 7.5 8.5" fill="none" stroke="#1078ff" stroke-linecap="round" stroke-linejoin="round"/>
    <polygon points="7.5 5.5 3.5 5.5 1.5 4.5 4.5 3 7.5 4.5 7.5 5.5" fill="none" stroke="#1078ff" stroke-linecap="round" stroke-linejoin="round"/>
  </g>
  <g id="Frames-24px">
    <rect width="24" height="24" fill="none"/>
  </g>
</svg>
