<svg xmlns="http://www.w3.org/2000/svg" width="24" height="24" viewBox="0 0 24 24">
  <title>id-card-double-2</title>
  <g id="Duotone">
    <polygon points="6.5 21.5 7 19.5 9 19.5 9.5 21.5 17.5 21.5 18 19.5 20 19.5 20.5 21.5 23.5 21.5 23.5 6.5 3.5 6.5 3.5 21.5 6.5 21.5" fill="#fff"/>
    <polygon points="20.5 3.5 0.5 3.5 0.5 19.5 3.5 19.5 3.5 6.5 20.5 6.5 20.5 3.5" fill="#cce7ff"/>
    <path d="M6.5,8.5v7l3.5-1,3.5,1v-7Zm5,4.5-1.5.5L8.5,13V11l1.5-.5,1.5.5Z" fill="#cce7ff"/>
    <rect x="6.5" y="8.5" width="7" height="9" fill="none" stroke="#1078ff" stroke-linecap="round" stroke-linejoin="round"/>
    <line x1="16.5" y1="9.5" x2="21.5" y2="9.5" fill="none" stroke="#1078ff" stroke-linecap="round" stroke-linejoin="round"/>
    <line x1="16.5" y1="12.5" x2="21.5" y2="12.5" fill="none" stroke="#1078ff" stroke-linecap="round" stroke-linejoin="round"/>
    <line x1="16.5" y1="15.5" x2="19.5" y2="15.5" fill="none" stroke="#1078ff" stroke-linecap="round" stroke-linejoin="round"/>
    <polygon points="11.5 13 10 13.5 8.5 13 8.5 11 10 10.5 11.5 11 11.5 13" fill="none" stroke="#1078ff" stroke-linecap="round" stroke-linejoin="round"/>
    <polygon points="13.5 15.5 10 14.5 6.5 15.5 6.5 17.5 13.5 17.5 13.5 15.5" fill="none" stroke="#1078ff" stroke-linecap="round" stroke-linejoin="round"/>
    <polygon points="6.5 21.5 7 19.5 9 19.5 9.5 21.5 17.5 21.5 18 19.5 20 19.5 20.5 21.5 23.5 21.5 23.5 6.5 3.5 6.5 3.5 21.5 6.5 21.5" fill="none" stroke="#1078ff" stroke-linecap="round" stroke-linejoin="round"/>
    <polyline points="20.5 3.5 0.5 3.5 0.5 19.5" fill="none" stroke="#1078ff" stroke-linecap="round" stroke-linejoin="round"/>
  </g>
  <g id="Frames-24px">
    <rect width="24" height="24" fill="none"/>
  </g>
</svg>
