<svg xmlns="http://www.w3.org/2000/svg" width="24" height="24" viewBox="0 0 24 24">
  <title>id-card-2</title>
  <g id="Duotone">
    <polygon points="13.5 5.5 13.5 5.5 13.5 2.5 11.5 0.5 9.5 2.5 9.5 5.5 0.5 5.5 0.5 23.5 22.5 23.5 22.5 5.5 13.5 5.5" fill="#fff"/>
    <path d="M3.5,11.5V20l4-1,4,1V11.5Zm6,5.5-2,1-2-1V15l2-1,2,1Z" fill="#cce7ff"/>
    <polyline points="22.5 23.5 0.5 23.5 0.5 7.5" fill="none" stroke="#1078ff" stroke-linecap="round" stroke-linejoin="round"/>
    <polyline points="13.5 5.5 22.5 5.5 22.5 23.5 0.5 23.5 0.5 5.5 9.5 5.5" fill="none" stroke="#1078ff" stroke-linecap="round" stroke-linejoin="round"/>
    <line x1="0.5" y1="9.5" x2="22.5" y2="9.5" fill="none" stroke="#1078ff" stroke-linecap="round" stroke-linejoin="round"/>
    <polygon points="13.5 7.5 9.5 7.5 9.5 2.5 11.5 0.5 13.5 2.5 13.5 7.5" fill="none" stroke="#1078ff" stroke-linecap="round" stroke-linejoin="round"/>
    <line x1="11.5" y1="5.5" x2="11.5" y2="3.5" fill="none" stroke="#1078ff" stroke-linecap="round" stroke-linejoin="round"/>
    <rect x="3.5" y="11.5" width="8" height="10" fill="none" stroke="#1078ff" stroke-linecap="round" stroke-linejoin="round"/>
    <line x1="13.5" y1="13.5" x2="19.5" y2="13.5" fill="none" stroke="#1078ff" stroke-linecap="round" stroke-linejoin="round"/>
    <line x1="13.5" y1="16.5" x2="19.5" y2="16.5" fill="none" stroke="#1078ff" stroke-linecap="round" stroke-linejoin="round"/>
    <line x1="13.5" y1="19.5" x2="17.5" y2="19.5" fill="none" stroke="#1078ff" stroke-linecap="round" stroke-linejoin="round"/>
    <polygon points="9.5 17 7.5 18 5.5 17 5.5 15 7.5 14 9.5 15 9.5 17" fill="none" stroke="#1078ff" stroke-linecap="round" stroke-linejoin="round"/>
    <polygon points="11.5 20 7.5 19 3.5 20 3.5 21.5 11.5 21.5 11.5 20" fill="none" stroke="#1078ff" stroke-linecap="round" stroke-linejoin="round"/>
  </g>
  <g id="Frames-24px">
    <rect width="24" height="24" fill="none"/>
  </g>
</svg>
