<?xml version="1.0" encoding="utf-8"?>
<!-- Generator: Adobe Illustrator 21.0.2, SVG Export Plug-In . SVG Version: 6.00 Build 0)  -->
<svg version="1.1" xmlns="http://www.w3.org/2000/svg" xmlns:xlink="http://www.w3.org/1999/xlink" x="0px" y="0px" width="24px"
	 height="24px" viewBox="0 0 24 24" enable-background="new 0 0 24 24" xml:space="preserve">
<g id="Black">
	<g>
		<polygon fill="none" stroke="#58595B" stroke-linecap="round" stroke-linejoin="round" stroke-miterlimit="10" points="17.5,6.5 
			16,3.5 12,5 10.032,0.5 3,4.5 0.5,12 4,20 12,23.5 20,20 23.5,12 22,6 		"/>
		<polygon fill="none" stroke="#58595B" stroke-linecap="round" stroke-linejoin="round" stroke-miterlimit="10" points="9.5,9.5 
			8,10.5 6.5,9.5 6.5,8 8,7 9.5,8 		"/>
		<polygon fill="none" stroke="#58595B" stroke-linecap="round" stroke-linejoin="round" stroke-miterlimit="10" points="12.5,16 
			11,17 9.5,16 9.5,14.5 11,13.5 12.5,14.5 		"/>
		<g>
			<path fill="#58595B" d="M16.51,9.788h0.005H16.51 M16,9c-0.072,0-0.143,0.027-0.197,0.081l-0.721,0.721
				c-0.109,0.108-0.109,0.286,0,0.395l0.721,0.721C15.857,10.973,15.928,11,16,11c0.071,0,0.143-0.027,0.197-0.081l0.721-0.721
				c0.109-0.108,0.109-0.286,0-0.395l-0.721-0.721C16.143,9.027,16.071,9,16,9L16,9z"/>
		</g>
		<g>
			<path fill="#58595B" d="M16.51,17.788h0.005H16.51 M16,17c-0.072,0-0.143,0.027-0.197,0.081l-0.721,0.721
				c-0.109,0.108-0.109,0.286,0,0.395l0.721,0.721C15.857,18.973,15.928,19,16,19c0.071,0,0.143-0.027,0.197-0.081l0.721-0.721
				c0.109-0.108,0.109-0.286,0-0.395l-0.721-0.721C16.143,17.027,16.071,17,16,17L16,17z"/>
		</g>
		<g>
			<path fill="#58595B" d="M5.51,12.788h0.005H5.51 M5,12c-0.072,0-0.143,0.027-0.197,0.081l-0.721,0.721
				c-0.109,0.108-0.109,0.286,0,0.395l0.721,0.721C4.857,13.973,4.928,14,5,14c0.071,0,0.143-0.027,0.197-0.081l0.721-0.721
				c0.109-0.108,0.109-0.286,0-0.395l-0.721-0.721C5.143,12.027,5.071,12,5,12L5,12z"/>
		</g>
	</g>
</g>
<g id="Frames-24px">
	<rect fill="none" width="24" height="24"/>
</g>
</svg>
