<?xml version="1.0" encoding="utf-8"?>
<!-- Generator: Adobe Illustrator 21.0.2, SVG Export Plug-In . SVG Version: 6.00 Build 0)  -->
<svg version="1.1" xmlns="http://www.w3.org/2000/svg" xmlns:xlink="http://www.w3.org/1999/xlink" x="0px" y="0px" width="24px"
	 height="24px" viewBox="0 0 24 24" enable-background="new 0 0 24 24" xml:space="preserve">
<g id="Black">
	<g>
		<polygon fill="none" stroke="#58595B" stroke-linecap="round" stroke-linejoin="round" stroke-miterlimit="10" points="23.5,12 
			20.132,20.132 12,23.5 3.868,20.132 0.5,12 3.868,3.868 12,0.5 20.132,3.868 		"/>
		<polygon fill="none" stroke="#58595B" stroke-linecap="round" stroke-linejoin="round" stroke-miterlimit="10" points="16.5,12 
			15.182,15.182 12,16.5 8.818,15.182 7.5,12 8.818,8.818 12,7.5 15.182,8.818 		"/>
		<polyline fill="none" stroke="#58595B" stroke-linecap="round" stroke-linejoin="round" stroke-miterlimit="10" points="
			1.121,13.5 4,13.5 5.5,16.5 7,13.5 8.121,13.5 		"/>
		<polyline fill="none" stroke="#58595B" stroke-linecap="round" stroke-linejoin="round" stroke-miterlimit="10" points="
			15.879,13.5 18,13.5 19.5,15 21,13.5 22.879,13.5 		"/>
		<polygon fill="none" stroke="#58595B" stroke-linecap="round" stroke-linejoin="round" stroke-miterlimit="10" points="18.5,7 
			17,8 15.5,7 15.5,5.5 17,4.5 18.5,5.5 		"/>
		<polyline fill="none" stroke="#58595B" stroke-linecap="round" stroke-linejoin="round" stroke-miterlimit="10" points="
			2.826,6.384 4.5,7.5 4.5,9 3,10 1.69,9.127 		"/>
		<g>
			<path fill="#58595B" d="M8.51,5.789h0.005H8.51 M8,5C7.928,5,7.857,5.027,7.803,5.081L7.081,5.803
				c-0.109,0.109-0.109,0.286,0,0.395l0.721,0.721C7.857,6.973,7.928,7,8,7c0.071,0,0.143-0.027,0.197-0.081l0.721-0.721
				c0.108-0.109,0.108-0.286,0-0.395L8.197,5.081C8.143,5.027,8.071,5,8,5L8,5z"/>
		</g>
		<g>
			<path fill="#58595B" d="M12.51,2.789h0.005H12.51 M12,2c-0.072,0-0.143,0.027-0.197,0.081l-0.721,0.721
				c-0.109,0.109-0.109,0.286,0,0.395l0.721,0.721C11.857,3.973,11.928,4,12,4c0.071,0,0.143-0.027,0.197-0.081l0.721-0.721
				c0.109-0.109,0.109-0.286,0-0.395l-0.721-0.721C12.143,2.027,12.071,2,12,2L12,2z"/>
		</g>
	</g>
</g>
<g id="Frames-24px">
	<rect fill="none" width="24" height="24"/>
</g>
</svg>
