<?xml version="1.0" encoding="utf-8"?>
<!-- Generator: Adobe Illustrator 21.0.2, SVG Export Plug-In . SVG Version: 6.00 Build 0)  -->
<svg version="1.1" xmlns="http://www.w3.org/2000/svg" xmlns:xlink="http://www.w3.org/1999/xlink" x="0px" y="0px" width="24px"
	 height="24px" viewBox="0 0 24 24" enable-background="new 0 0 24 24" xml:space="preserve">
<g id="Black">
	<g>
		<polyline fill="none" stroke="#58595B" stroke-linecap="round" stroke-linejoin="round" stroke-miterlimit="10" points="19.5,5.5 
			17.498,5.5 17.498,7.5 15.498,7.5 15.498,9.5 13.498,9.5 13.498,11.5 11.498,11.5 11.498,13.5 9.498,13.5 9.498,15.5 7.498,15.5 
			7.498,17.5 5.498,17.5 5.498,19.5 		"/>
		<polygon fill="none" stroke="#58595B" stroke-linecap="round" stroke-linejoin="round" stroke-miterlimit="10" points="21.5,7.5 
			21.5,2.5 16.5,2.5 2.5,16.5 2.5,21.5 7.5,21.5 		"/>
		<polygon fill="none" stroke="#58595B" stroke-linecap="round" stroke-linejoin="round" stroke-miterlimit="10" points="16.5,0.5 
			13.5,0.5 0.5,13.5 0.5,16.5 2.5,16.5 16.5,2.5 		"/>
		<polygon fill="none" stroke="#58595B" stroke-linecap="round" stroke-linejoin="round" stroke-miterlimit="10" points="23.5,7.5 
			21.5,7.5 7.5,21.5 7.5,23.5 10.5,23.5 23.5,10.5 		"/>
	</g>
</g>
<g id="Frames-24px">
	<rect fill="none" width="24" height="24"/>
</g>
</svg>
