<?xml version="1.0" encoding="utf-8"?>
<!-- Generator: Adobe Illustrator 21.0.2, SVG Export Plug-In . SVG Version: 6.00 Build 0)  -->
<svg version="1.1" xmlns="http://www.w3.org/2000/svg" xmlns:xlink="http://www.w3.org/1999/xlink" x="0px" y="0px"
	 viewBox="0 0 24 24" style="enable-background:new 0 0 24 24;" xml:space="preserve">
<style type="text/css">
	.st0{fill:#FFFFFF;}
	.st1{fill:#CCE7FF;}
	.st2{fill:none;stroke:#1078FF;stroke-linecap:round;stroke-linejoin:round;stroke-miterlimit:10;}
	.st3{fill:none;}
</style>
<g id="Duotone">
	<polygon class="st0" points="21,10.5 19.5,10.5 19.5,9 18.3,7.8 20,6 18,4 16.3,5.8 15,4.5 13.5,4.5 13.5,3 11,0.5 6.5,5 9,7.5 
		10.5,7.5 10.5,9 11.3,9.8 0.5,20.5 1,23 3.5,23.5 14.3,12.8 15,13.5 16.5,13.5 16.5,15 19,17.5 23.5,13 	"/>
	<polygon class="st1" points="12.8,11.3 14.3,12.8 3.5,23.5 1,23 	"/>
	<rect x="17.4" y="5.7" transform="matrix(0.7071 -0.7071 0.7071 0.7071 0.9473 15.0371)" class="st1" width="2.5" height="1.4"/>
	<rect x="17.3" y="13.4" transform="matrix(0.7071 -0.7071 0.7071 0.7071 -4.2487 18.7426)" class="st1" width="6.4" height="2.1"/>
	<polygon class="st1" points="14.8,13.3 15,13.5 16.5,13.5 19.5,10.5 19.5,9 19.3,8.8 	"/>
	<polygon class="st1" points="8.8,7.3 9,7.5 10.5,7.5 13.5,4.5 13.5,3 13.3,2.8 	"/>
	<g>
		<polyline class="st2" points="14.3,12.8 3.5,23.5 1,23 0.5,20.5 11.3,9.8 		"/>
		<polyline class="st2" points="16.3,5.8 18,4 20,6 18.3,7.8 		"/>
		<polygon class="st2" points="21,10.5 19.5,10.5 19.5,9 15,4.5 13.5,4.5 13.5,3 11,0.5 6.5,5 9,7.5 10.5,7.5 10.5,9 15,13.5 
			16.5,13.5 16.5,15 19,17.5 23.5,13 		"/>
		<line class="st2" x1="10.5" y1="7.5" x2="13.5" y2="4.5"/>
		<line class="st2" x1="16.5" y1="13.5" x2="19.5" y2="10.5"/>
	</g>
</g>
<g id="Frames-24px">
	<rect class="st3" width="24" height="24"/>
</g>
</svg>
