<?xml version="1.0" encoding="utf-8"?>
<!-- Generator: Adobe Illustrator 21.0.2, SVG Export Plug-In . SVG Version: 6.00 Build 0)  -->
<svg version="1.1" xmlns="http://www.w3.org/2000/svg" xmlns:xlink="http://www.w3.org/1999/xlink" x="0px" y="0px" width="24px"
	 height="24px" viewBox="0 0 24 24" enable-background="new 0 0 24 24" xml:space="preserve">
<g id="Black">
	<g>
		
			<polyline fill="none" stroke="#58595B" stroke-width="0.9847" stroke-linecap="round" stroke-linejoin="round" stroke-miterlimit="10" points="
			17.5,7.5 17.5,1.5 2.5,1.5 2.5,11.5 		"/>
		<polyline fill="none" stroke="#58595B" stroke-linecap="round" stroke-linejoin="round" stroke-miterlimit="10" points="
			11.5,11.5 2.5,11.5 0.5,16.5 11.5,16.5 		"/>
		
			<line fill="none" stroke="#58595B" stroke-linecap="round" stroke-linejoin="round" stroke-miterlimit="10" x1="8.5" y1="14.5" x2="11.5" y2="14.5"/>
		
			<rect x="13.5" y="9.5" fill="none" stroke="#58595B" stroke-linecap="round" stroke-linejoin="round" stroke-miterlimit="10" width="10" height="13"/>
		
			<line fill="none" stroke="#58595B" stroke-width="0.9847" stroke-linecap="round" stroke-linejoin="round" stroke-miterlimit="10" x1="13.5" y1="12.5" x2="23.5" y2="12.5"/>
		
			<line fill="none" stroke="#58595B" stroke-width="0.9847" stroke-linecap="round" stroke-linejoin="round" stroke-miterlimit="10" x1="15.5" y1="9.5" x2="15.5" y2="12.5"/>
		
			<line fill="none" stroke="#58595B" stroke-width="0.9847" stroke-linecap="round" stroke-linejoin="round" stroke-miterlimit="10" x1="17.5" y1="9.5" x2="17.5" y2="12.5"/>
		
			<line fill="none" stroke="#58595B" stroke-width="0.9847" stroke-linecap="round" stroke-linejoin="round" stroke-miterlimit="10" x1="19.5" y1="9.5" x2="19.5" y2="12.5"/>
		
			<line fill="none" stroke="#58595B" stroke-width="0.9847" stroke-linecap="round" stroke-linejoin="round" stroke-miterlimit="10" x1="21.5" y1="9.5" x2="21.5" y2="12.5"/>
		
			<line fill="none" stroke="#58595B" stroke-width="0.9847" stroke-linecap="round" stroke-linejoin="round" stroke-miterlimit="10" x1="18.5" y1="15.5" x2="18.5" y2="19.5"/>
		
			<line fill="none" stroke="#58595B" stroke-width="0.9847" stroke-linecap="round" stroke-linejoin="round" stroke-miterlimit="10" x1="20.5" y1="17.5" x2="16.5" y2="17.5"/>
	</g>
</g>
<g id="Frames-24px">
	<rect fill="none" width="24" height="24"/>
</g>
</svg>
