<svg xmlns="http://www.w3.org/2000/svg" width="24" height="24" viewBox="0 0 24 24">
  <title>candle-2</title>
  <g id="Duotone">
    <polygon points="17.5 8.5 11.5 0.5 11.5 8 9.5 11.5 7.5 5.5 5.5 10.5 5.5 14.5 11.5 18.5 17.5 15.5 17.5 8.5" fill="#fff"/>
    <rect x="4.5" y="20.5" width="14" height="3" fill="#fff"/>
    <polygon points="8.227 7.682 5.5 14.5 11.5 18.5 17.5 15.5 17.5 12.5 11.5 4.5 11.5 8 9.5 11.5 8.227 7.682" fill="#cce7ff"/>
    <rect x="11.5" y="20.5" width="7" height="3" fill="#cce7ff"/>
    <g>
      <polyline points="4.5 23.5 4.5 20.5 18.5 20.5 18.5 23.5" fill="none" stroke="#1078ff" stroke-linecap="round" stroke-linejoin="round"/>
      <line x1="11.5" y1="20.5" x2="11.5" y2="13.5" fill="none" stroke="#1078ff" stroke-linecap="round" stroke-linejoin="round"/>
      <polygon points="17.5 8.5 11.5 0.5 11.5 8 9.5 11.5 7.5 5.5 5.5 10.5 5.5 14.5 11.5 18.5 17.5 15.5 17.5 8.5" fill="none" stroke="#1078ff" stroke-linecap="round" stroke-linejoin="round"/>
    </g>
  </g>
  <g id="Frames-24px">
    <rect width="24" height="24" fill="none"/>
  </g>
</svg>
