<svg xmlns="http://www.w3.org/2000/svg" width="24" height="24" viewBox="0 0 24 24">
  <title>lamp-1</title>
  <g id="Duotone">
    <polygon points="19.5 11.5 4.5 11.5 7.5 0.5 16.5 0.5 19.5 11.5" fill="#fff"/>
    <polyline points="13 11.5 14.5 18 7 23.5 17 23.5 9.5 18 11 11.5" fill="#fff"/>
    <polygon points="19.5 11.5 12 11.5 12 0.5 16.5 0.5 19.5 11.5" fill="#cce7ff"/>
    <g>
      <polygon points="19.5 11.5 4.5 11.5 7.5 0.5 16.5 0.5 19.5 11.5" fill="none" stroke="#1078ff" stroke-linecap="round" stroke-linejoin="round"/>
      <polyline points="13 11.5 14.5 18 7 23.5 17 23.5 9.5 18 11 11.5" fill="none" stroke="#1078ff" stroke-linecap="round" stroke-linejoin="round"/>
    </g>
  </g>
  <g id="Frames-24px">
    <rect width="24" height="24" fill="none"/>
  </g>
</svg>
