<svg xmlns="http://www.w3.org/2000/svg" width="24" height="24" viewBox="0 0 24 24">
  <title>harddisk-4</title>
  <g id="Duotone">
    <rect x="17.439" y="15.939" width="2.121" height="2.121" transform="translate(-6.602 18.061) rotate(-45)" fill="#fff"/>
    <polygon points="19.5 4.5 4 4.5 0.5 13.5 0.5 20.5 22.5 20.5 22.5 13.5 19.5 4.5" fill="#fff"/>
    <polygon points="18.5 15.5 20 17 18.5 18.5 17 17 18.5 15.5 0.5 15.5 0.5 20.5 22.5 20.5 22.5 15.5 18.5 15.5" fill="#cce7ff"/>
    <polygon points="19.5 4.5 22.5 13.5 0.5 13.5 4 4.5 19.5 4.5" fill="none" stroke="#1078ff" stroke-linecap="round" stroke-linejoin="round"/>
    <polyline points="0.5 13.5 0.5 20.5 22.5 20.5 22.5 13.5" fill="none" stroke="#1078ff" stroke-linecap="round" stroke-linejoin="round"/>
    <line x1="2.5" y1="15.5" x2="2.5" y2="18.5" fill="none" stroke="#1078ff" stroke-linecap="round" stroke-linejoin="round"/>
    <line x1="4.5" y1="15.5" x2="4.5" y2="18.5" fill="none" stroke="#1078ff" stroke-linecap="round" stroke-linejoin="round"/>
    <line x1="6.5" y1="15.5" x2="6.5" y2="18.5" fill="none" stroke="#1078ff" stroke-linecap="round" stroke-linejoin="round"/>
    <rect x="17.439" y="15.939" width="2.121" height="2.121" transform="translate(-6.602 18.061) rotate(-45)" fill="none" stroke="#1078ff" stroke-linecap="round" stroke-linejoin="round"/>
  </g>
  <g id="Frames-24px">
    <rect width="24" height="24" fill="none"/>
  </g>
</svg>
