<svg xmlns="http://www.w3.org/2000/svg" width="24" height="24" viewBox="0 0 24 24">
  <title>sim-card-1</title>
  <g id="Duotone">
    <polygon points="17 0.5 20.5 4.5 20.5 23.5 2.5 23.5 2.5 0.5 17 0.5" fill="#fff"/>
    <polygon points="17.5 11.5 17.5 20.5 5.5 20.498 17.5 11.5" fill="#cce7ff"/>
    <polygon points="17 0.5 20.5 4.5 20.5 23.5 2.5 23.5 2.5 0.5 17 0.5" fill="none" stroke="#1078ff" stroke-linecap="round" stroke-linejoin="round"/>
    <line x1="8.5" y1="11.5" x2="8.5" y2="20.5" fill="none" stroke="#1078ff" stroke-linecap="round" stroke-linejoin="round"/>
    <line x1="14.5" y1="11.5" x2="14.5" y2="20.5" fill="none" stroke="#1078ff" stroke-linecap="round" stroke-linejoin="round"/>
    <line x1="5.5" y1="14.5" x2="8.5" y2="14.5" fill="none" stroke="#1078ff" stroke-linecap="round" stroke-linejoin="round"/>
    <line x1="5.5" y1="17.5" x2="8.5" y2="17.5" fill="none" stroke="#1078ff" stroke-linecap="round" stroke-linejoin="round"/>
    <line x1="14.5" y1="14.5" x2="17.5" y2="14.5" fill="none" stroke="#1078ff" stroke-linecap="round" stroke-linejoin="round"/>
    <line x1="14.5" y1="17.5" x2="17.5" y2="17.5" fill="none" stroke="#1078ff" stroke-linecap="round" stroke-linejoin="round"/>
    <rect x="5.5" y="11.499" width="12" height="9" fill="none" stroke="#1078ff" stroke-linecap="round" stroke-linejoin="round"/>
  </g>
  <g id="Frames-24px">
    <rect width="24" height="24" fill="none"/>
  </g>
</svg>
