<svg xmlns="http://www.w3.org/2000/svg" width="24" height="24" viewBox="0 0 24 24">
  <title>shopping-application-pc-2</title>
  <g id="Duotone">
    <polygon points="21.5 23.5 3.5 23.5 5.5 19.5 19.5 19.5 21.5 23.5" fill="#fff"/>
    <polygon points="22.5 14.5 22.5 0.5 2.5 0.5 2.5 14.5 10.5 14.5 10.5 16 9 17.5 16 17.5 14.5 16 14.5 14.5 22.5 14.5" fill="#fff"/>
    <polygon points="14.167 5.5 17 5.5 16 10.5 9 10.5 8.661 8.804 2.5 12.5 22.5 12.5 22.5 0.5 14.167 5.5" fill="#cce7ff"/>
    <g>
      <rect x="2.5" y="0.5" width="20" height="14" fill="none" stroke="#1078ff" stroke-linejoin="round"/>
      <line x1="2.5" y1="12.5" x2="22.5" y2="12.5" fill="none" stroke="#1078ff" stroke-linejoin="round"/>
      <line x1="7.5" y1="21.5" x2="8.5" y2="21.5" fill="none" stroke="#1078ff" stroke-linecap="round" stroke-linejoin="round"/>
      <line x1="10.5" y1="21.5" x2="11.5" y2="21.5" fill="none" stroke="#1078ff" stroke-linecap="round" stroke-linejoin="round"/>
      <line x1="13.5" y1="21.5" x2="14.5" y2="21.5" fill="none" stroke="#1078ff" stroke-linecap="round" stroke-linejoin="round"/>
      <line x1="16.5" y1="21.5" x2="17.5" y2="21.5" fill="none" stroke="#1078ff" stroke-linecap="round" stroke-linejoin="round"/>
      <g>
        <polygon points="16 10.5 9 10.5 8 5.5 17 5.5 16 10.5" fill="none" stroke="#1078ff" stroke-linecap="round" stroke-linejoin="round"/>
        <line x1="10.5" y1="8.5" x2="10.5" y2="7.5" fill="none" stroke="#1078ff" stroke-linecap="round" stroke-linejoin="round"/>
        <line x1="12.5" y1="8.5" x2="12.5" y2="7.5" fill="none" stroke="#1078ff" stroke-linecap="round" stroke-linejoin="round"/>
        <line x1="14.5" y1="8.5" x2="14.5" y2="7.5" fill="none" stroke="#1078ff" stroke-linecap="round" stroke-linejoin="round"/>
        <line x1="9" y1="5.5" x2="11" y2="3.5" fill="none" stroke="#1078ff" stroke-linecap="round" stroke-linejoin="round"/>
        <line x1="16" y1="5.5" x2="14" y2="3.5" fill="none" stroke="#1078ff" stroke-linecap="round" stroke-linejoin="round"/>
      </g>
      <polyline points="14.5 14.5 14.5 16 16 17.5 9 17.5 10.5 16 10.5 14.5" fill="none" stroke="#1078ff" stroke-linejoin="round"/>
      <polygon points="21.5 23.5 3.5 23.5 5.5 19.5 19.5 19.5 21.5 23.5" fill="none" stroke="#1078ff" stroke-linejoin="round"/>
    </g>
  </g>
  <g id="Frames-24px">
    <rect width="24" height="24" fill="none"/>
  </g>
</svg>
