<svg xmlns="http://www.w3.org/2000/svg" width="24" height="24" viewBox="0 0 24 24">
  <title>shopping-application-laptop-1</title>
  <g id="Duotone">
    <polygon points="20.5 15.5 20.5 3.5 2.5 3.5 2.5 15.5 0.5 21.5 22.5 21.5 20.5 15.5" fill="#fff"/>
    <polygon points="14.239 7.5 16 7.5 15 12.5 8 12.5 7.82 11.601 2.5 15.5 20.5 15.5 20.5 3.5 14.239 7.5" fill="#cce7ff"/>
    <g>
      <g>
        <polygon points="15 12.5 8 12.5 7 7.5 16 7.5 15 12.5" fill="none" stroke="#1078ff" stroke-linecap="round" stroke-linejoin="round"/>
        <line x1="9.5" y1="10.5" x2="9.5" y2="9.5" fill="none" stroke="#1078ff" stroke-linecap="round" stroke-linejoin="round"/>
        <line x1="11.5" y1="10.5" x2="11.5" y2="9.5" fill="none" stroke="#1078ff" stroke-linecap="round" stroke-linejoin="round"/>
        <line x1="13.5" y1="10.5" x2="13.5" y2="9.5" fill="none" stroke="#1078ff" stroke-linecap="round" stroke-linejoin="round"/>
        <line x1="8" y1="7.5" x2="10" y2="5.5" fill="none" stroke="#1078ff" stroke-linecap="round" stroke-linejoin="round"/>
        <line x1="15" y1="7.5" x2="13" y2="5.5" fill="none" stroke="#1078ff" stroke-linecap="round" stroke-linejoin="round"/>
      </g>
      <polyline points="20.5 15.5 20.5 3.5 2.5 3.5 2.5 15.5" fill="none" stroke="#1078ff" stroke-linecap="round" stroke-linejoin="round"/>
      <line x1="10.5" y1="19.5" x2="12.5" y2="19.5" fill="none" stroke="#1078ff" stroke-linecap="round" stroke-linejoin="round"/>
      <polygon points="22.5 21.5 0.5 21.5 2.5 15.5 20.5 15.5 22.5 21.5" fill="none" stroke="#1078ff" stroke-linecap="round" stroke-linejoin="round"/>
    </g>
  </g>
  <g id="Frames-24px">
    <rect width="24" height="24" fill="none"/>
  </g>
</svg>
