<svg xmlns="http://www.w3.org/2000/svg" width="24" height="24" viewBox="0 0 24 24">
  <title>shopping-basket-3</title>
  <g id="Duotone">
    <polygon points="0.5 9.5 0.5 12.5 1.5 12.5 4.5 21.5 19.5 21.5 22.5 12.5 23.5 12.5 23.5 9.5 0.5 9.5" fill="#fff"/>
    <polygon points="21.833 14.5 22.5 12.5 1.5 12.5 2.167 14.5 21.833 14.5" fill="#cce7ff"/>
    <g>
      <line x1="15" y1="19.5" x2="17" y2="14.5" fill="none" stroke="#1078ff" stroke-linecap="round" stroke-linejoin="round"/>
      <line x1="11" y1="19.5" x2="13" y2="14.5" fill="none" stroke="#1078ff" stroke-linecap="round" stroke-linejoin="round"/>
      <line x1="7" y1="19.5" x2="9" y2="14.5" fill="none" stroke="#1078ff" stroke-linecap="round" stroke-linejoin="round"/>
      <line x1="3.5" y1="9.5" x2="9.5" y2="2.5" fill="none" stroke="#1078ff" stroke-linecap="round" stroke-linejoin="round"/>
      <line x1="21" y1="9.5" x2="14.5" y2="2.5" fill="none" stroke="#1078ff" stroke-linecap="round" stroke-linejoin="round"/>
      <polygon points="22.5 12.5 1.5 12.5 4.5 21.5 19.5 21.5 22.5 12.5" fill="none" stroke="#1078ff" stroke-linecap="round" stroke-linejoin="round"/>
      <rect x="0.5" y="9.5" width="23" height="3" fill="none" stroke="#1078ff" stroke-linecap="round" stroke-linejoin="round"/>
    </g>
  </g>
  <g id="Frames-24px">
    <rect width="24" height="24" fill="none"/>
  </g>
</svg>
