<svg xmlns="http://www.w3.org/2000/svg" width="24" height="24" viewBox="0 0 24 24">
  <title>shopping-basket-star</title>
  <g id="Duotone">
    <polygon points="8.5 3.5 5.558 3.5 4.5 0.5 3.442 3.5 0.5 3.5 2.768 5.355 1.5 8.5 4.5 6.773 7.5 8.5 6.232 5.355 8.5 3.5" fill="#fff"/>
    <polygon points="14.5 12.5 14.5 11 12.5 10 10.5 11 10.5 12.5 1.5 12.5 1.5 15.5 3 15.5 5.5 23.5 19.5 23.5 22 15.5 23.5 15.5 23.5 12.5 14.5 12.5" fill="#fff"/>
    <polygon points="21.375 17.5 22 15.5 3 15.5 3.625 17.5 21.375 17.5" fill="#cce7ff"/>
    <polygon points="2.768 5.355 1.5 8.5 4.5 6.773 7.5 8.5 6.232 5.355 8.5 3.5 5.558 3.5 2.768 5.355" fill="#cce7ff"/>
    <g>
      <g>
        <polygon points="22 15.5 3 15.5 5.5 23.5 19.5 23.5 22 15.5" fill="none" stroke="#1078ff" stroke-linecap="round" stroke-linejoin="round"/>
        <g>
          <line x1="15.5" y1="21.5" x2="16.713" y2="17.618" fill="none" stroke="#1078ff" stroke-linecap="round" stroke-linejoin="round"/>
          <line x1="11.88" y1="21.5" x2="13.093" y2="17.618" fill="none" stroke="#1078ff" stroke-linecap="round" stroke-linejoin="round"/>
          <line x1="8.287" y1="21.5" x2="9.5" y2="17.618" fill="none" stroke="#1078ff" stroke-linecap="round" stroke-linejoin="round"/>
        </g>
        <polyline points="14.5 12.5 23.5 12.5 23.5 15.5 1.5 15.5 1.5 12.5 10.5 12.5" fill="none" stroke="#1078ff" stroke-linecap="round" stroke-linejoin="round"/>
        <polyline points="14.5 11 14.5 15.5 10.5 15.5 10.5 11 12.5 10 14.5 11" fill="none" stroke="#1078ff" stroke-linecap="round" stroke-linejoin="round"/>
        <line x1="12.5" y1="12.5" x2="18.75" y2="6.25" fill="none" stroke="#1078ff" stroke-linecap="round" stroke-linejoin="round"/>
      </g>
      <polygon points="8.5 3.5 5.558 3.5 4.5 0.5 3.442 3.5 0.5 3.5 2.768 5.355 1.5 8.5 4.5 6.773 7.5 8.5 6.232 5.355 8.5 3.5" fill="none" stroke="#1078ff" stroke-linejoin="round"/>
    </g>
  </g>
  <g id="Frames-24px">
    <rect width="24" height="24" fill="none"/>
  </g>
</svg>
