{
  "properties": {
    "title": {
      "type": "text",
      "fields": {
        "keyword": {
          "type": "keyword"
        }
      }
    },
    "description": {
      "type": "text",
      "fields": {
        "keyword": {
          "type": "keyword"
        }
      }
    },
    "type": {
      "type": "text",
      "fields": {
        "keyword": {
          "type": "keyword"
        }
      }
    },
    "filename": {
      "type": "keyword"
    },
    "height": {
      "type": "integer"
    },
    "width": {
      "type": "integer"
    },
    "price": {
      "type": "double"
    },
    "rating": {
      "type": "integer"
    }
  }
}

