<svg xmlns="http://www.w3.org/2000/svg" width="24" height="24" viewBox="0 0 24 24">
  <title>bank-vault</title>
  <g id="Duotone">
    <polygon points="16.5 7.5 16.5 2.5 0.5 2.5 0.5 22.5 16.5 22.5 16.5 12.5 21.5 13.5 21.5 6.5 16.5 7.5" fill="#fff"/>
    <polygon points="21.5 6.5 20 6.8 20 11.5 16.5 10.8 16.5 7.5 16.5 2.5 8.5 7.5 0.5 12.5 8.5 12.5 10.5 12.5 11.5 10.5 13.5 10.5 14.5 12.5 16.5 12.5 21.5 13.5 23.5 13.5 23.5 6.5 21.5 6.5" fill="#cce7ff"/>
    <polygon points="8.5 2.5 0.5 7.5 8.5 7.5 8.5 2.5" fill="#cce7ff"/>
    <polygon points="8.5 12.5 0.5 17.5 8.5 17.5 8.5 12.5" fill="#cce7ff"/>
    <polygon points="16.5 12.5 8.5 17.5 16.5 17.5 16.5 12.5" fill="#cce7ff"/>
    <polygon points="8.5 17.5 0.5 22.5 8.5 22.5 8.5 17.5" fill="#cce7ff"/>
    <polygon points="16.5 17.5 8.5 22.5 16.5 22.5 16.5 17.5" fill="#cce7ff"/>
    <g>
      <rect x="0.5" y="2.5" width="16" height="20" fill="none" stroke="#1078ff" stroke-linecap="round" stroke-linejoin="round"/>
      <line x1="8.5" y1="2.5" x2="8.5" y2="22.5" fill="none" stroke="#1078ff" stroke-linecap="round" stroke-linejoin="round"/>
      <line x1="0.5" y1="7.5" x2="16.5" y2="7.5" fill="none" stroke="#1078ff" stroke-linecap="round" stroke-linejoin="round"/>
      <line x1="0.5" y1="2.5" x2="16.5" y2="2.5" fill="none" stroke="#1078ff" stroke-linecap="round" stroke-linejoin="round"/>
      <line x1="0.5" y1="12.5" x2="16.5" y2="12.5" fill="none" stroke="#1078ff" stroke-linecap="round" stroke-linejoin="round"/>
      <line x1="0.5" y1="17.5" x2="16.5" y2="17.5" fill="none" stroke="#1078ff" stroke-linecap="round" stroke-linejoin="round"/>
      <line x1="5.5" y1="5.5" x2="6.5" y2="5.5" fill="none" stroke="#1078ff" stroke-linecap="round" stroke-linejoin="round"/>
      <line x1="5.5" y1="10.5" x2="6.5" y2="10.5" fill="none" stroke="#1078ff" stroke-linecap="round" stroke-linejoin="round"/>
      <line x1="5.5" y1="15.5" x2="6.5" y2="15.5" fill="none" stroke="#1078ff" stroke-linecap="round" stroke-linejoin="round"/>
      <line x1="5.5" y1="20.5" x2="6.5" y2="20.5" fill="none" stroke="#1078ff" stroke-linecap="round" stroke-linejoin="round"/>
      <line x1="13.5" y1="5.5" x2="14.5" y2="5.5" fill="none" stroke="#1078ff" stroke-linecap="round" stroke-linejoin="round"/>
      <line x1="13.5" y1="15.5" x2="14.5" y2="15.5" fill="none" stroke="#1078ff" stroke-linecap="round" stroke-linejoin="round"/>
      <line x1="13.5" y1="20.5" x2="14.5" y2="20.5" fill="none" stroke="#1078ff" stroke-linecap="round" stroke-linejoin="round"/>
      <rect x="21.5" y="6.5" width="2" height="7" fill="none" stroke="#1078ff" stroke-linecap="round" stroke-linejoin="round"/>
      <polyline points="10.5 12.5 11.5 10.5 13.5 10.5 14.5 12.5" fill="none" stroke="#1078ff" stroke-linecap="round" stroke-linejoin="round"/>
      <polygon points="21.5 13.5 16.5 12.5 16.5 7.5 21.5 6.5 21.5 13.5" fill="none" stroke="#1078ff" stroke-linecap="round" stroke-linejoin="round"/>
    </g>
  </g>
  <g id="Frames-24px">
    <rect width="24" height="24" fill="none"/>
  </g>
</svg>
