<svg xmlns="http://www.w3.org/2000/svg" width="24" height="24" viewBox="0 0 24 24">
  <title>safe-2</title>
  <g id="Duotone">
    <polygon points="23.395 4.463 12 0.5 0.605 4.463 0.5 4.463 0.5 17.5 11.5 22.5 23.5 17.5 23.5 4.463 23.395 4.463" fill="#fff"/>
    <polygon points="17.628 2.458 5.761 6.413 11.5 8.5 11.5 22.5 23.5 17.5 23.5 4.5 17.628 2.458" fill="#cce7ff"/>
    <polygon points="7 9.136 7 18.402 9.5 19.538 9.5 10.045 7 9.136" fill="#cce7ff"/>
    <g>
      <g>
        <polygon points="11.5 8.5 0.5 4.5 12 0.5 23.5 4.5 11.5 8.5" fill="none" stroke="#1078ff" stroke-linecap="round" stroke-linejoin="round"/>
        <polyline points="23.5 4.463 23.5 17.5 11.5 22.5 0.5 17.5 0.5 4.463" fill="none" stroke="#1078ff" stroke-linecap="round" stroke-linejoin="round"/>
        <line x1="11.5" y1="8.5" x2="11.5" y2="22.5" fill="none" stroke="#1078ff" stroke-linecap="round" stroke-linejoin="round"/>
      </g>
      <line x1="7.5" y1="16.5" x2="7.5" y2="11.5" fill="none" stroke="#1078ff" stroke-linecap="round" stroke-linejoin="round"/>
      <line x1="1.5" y1="17.955" x2="1.5" y2="19.5" fill="none" stroke="#1078ff" stroke-linecap="round" stroke-linejoin="round"/>
      <line x1="10.5" y1="23.5" x2="10.5" y2="22.046" fill="none" stroke="#1078ff" stroke-linecap="round" stroke-linejoin="round"/>
      <line x1="22.5" y1="17.917" x2="22.5" y2="19.5" fill="none" stroke="#1078ff" stroke-linecap="round" stroke-linejoin="round"/>
      <line x1="4.508" y1="11.73" x2="5.478" y2="12.083" fill="none" stroke="#1078ff" stroke-linecap="round" stroke-linejoin="round"/>
      <line x1="4.508" y1="13.5" x2="5.478" y2="13.853" fill="none" stroke="#1078ff" stroke-linecap="round" stroke-linejoin="round"/>
      <polygon points="2.5 16.357 2.5 7.5 9.5 10.045 9.5 19.539 2.5 16.357" fill="none" stroke="#1078ff" stroke-linecap="round" stroke-linejoin="round"/>
    </g>
  </g>
  <g id="Frames-24px">
    <rect width="24" height="24" fill="none"/>
  </g>
</svg>
