<?xml version="1.0" encoding="utf-8"?>
<!-- Generator: Adobe Illustrator 21.0.2, SVG Export Plug-In . SVG Version: 6.00 Build 0)  -->
<svg version="1.1" xmlns="http://www.w3.org/2000/svg" xmlns:xlink="http://www.w3.org/1999/xlink" x="0px" y="0px"
	 viewBox="0 0 24 24" style="enable-background:new 0 0 24 24;" xml:space="preserve">
<style type="text/css">
	.st0{fill:#FFFFFF;}
	.st1{fill:#CCE7FF;}
	.st2{fill:none;stroke:#1078FF;stroke-linecap:round;stroke-linejoin:round;stroke-miterlimit:10;}
	.st3{fill:#1078FF;}
	.st4{fill:none;}
</style>
<g id="Duotone">
	<polygon class="st0" points="12.5,12.5 12.5,11.5 6.5,11.5 6.5,12.5 0.5,12.5 4.5,21.5 19.5,21.5 23.5,12.5 	"/>
	<polygon class="st1" points="12.5,4.5 15.5,1.5 18.5,4.5 	"/>
	<polygon class="st1" points="6.5,17 12.5,18 12.5,13.5 6.5,13.5 	"/>
	<polyline class="st2" points="6.5,12.5 0.5,12.5 4.5,21.5 19.5,21.5 23.5,12.5 12.5,12.5 	"/>
	<line class="st2" x1="4.5" y1="21.5" x2="2.5" y2="23.5"/>
	<line class="st2" x1="19.5" y1="21.5" x2="21.5" y2="23.5"/>
	<line class="st2" x1="14.5" y1="14.5" x2="22.5" y2="14.5"/>
	<line class="st2" x1="1.4" y1="14.5" x2="4.5" y2="14.5"/>
	<polygon class="st2" points="12.5,18 6.5,17 6.5,11.5 12.5,11.5 	"/>
	<polygon class="st2" points="12.5,4.5 15.5,1.5 18.5,4.5 	"/>
	<polyline class="st2" points="22.5,12.5 22.5,4.5 19.5,1.5 15.5,1.5 	"/>
</g>
<g id="Frames-24px">
	<rect class="st4" width="24" height="24"/>
</g>
</svg>
