<?xml version="1.0" encoding="utf-8"?>
<!-- Generator: Adobe Illustrator 21.0.2, SVG Export Plug-In . SVG Version: 6.00 Build 0)  -->
<svg version="1.1" xmlns="http://www.w3.org/2000/svg" xmlns:xlink="http://www.w3.org/1999/xlink" x="0px" y="0px"
	 viewBox="0 0 24 24" style="enable-background:new 0 0 24 24;" xml:space="preserve">
<style type="text/css">
	.st0{fill:#FFFFFF;}
	.st1{fill:#CCE7FF;}
	.st2{fill:none;stroke:#1078FF;stroke-linecap:round;stroke-linejoin:round;stroke-miterlimit:10;}
	.st3{fill:#1078FF;}
	.st4{fill:none;}
</style>
<g id="Duotone">
	<polygon class="st0" points="17.5,11.5 5.5,11.5 5.5,23.5 11.5,22.5 17.5,23.5 	"/>
	<polygon class="st1" points="5.5,23.5 11.5,22.5 17.5,23.5 17.5,14.5 5.5,14.5 	"/>
	<polyline class="st2" points="17.5,13.5 22.5,13.5 19.1,8.6 11.5,6 3.9,8.5 0.5,13.5 5.5,13.5 	"/>
	<polyline class="st2" points="13,3 11.5,1.5 10,3 11.5,4.5 11.5,6 	"/>
	<polygon class="st2" points="17.5,11.5 5.5,11.5 5.5,23.5 11.5,22.5 17.5,23.5 	"/>
	<polyline class="st2" points="5.5,20.5 11.5,19.5 17.5,20.5 	"/>
</g>
<g id="Frames-24px">
	<rect class="st4" width="24" height="24"/>
</g>
</svg>
