<?xml version="1.0" encoding="utf-8"?>
<!-- Generator: Adobe Illustrator 21.0.2, SVG Export Plug-In . SVG Version: 6.00 Build 0)  -->
<svg version="1.1" xmlns="http://www.w3.org/2000/svg" xmlns:xlink="http://www.w3.org/1999/xlink" x="0px" y="0px"
	 viewBox="0 0 24 24" style="enable-background:new 0 0 24 24;" xml:space="preserve">
<style type="text/css">
	.st0{fill:#FFFFFF;}
	.st1{fill:#CCE7FF;}
	.st2{fill:none;stroke:#1078FF;stroke-linecap:round;stroke-linejoin:round;stroke-miterlimit:10;}
	.st3{fill:#1078FF;}
	.st4{fill:none;}
</style>
<g id="Duotone">
	<polygon class="st0" points="21.5,22.5 20,23.5 18.5,22.5 18.5,9.5 20,8.5 21.5,9.5 	"/>
	<polygon class="st0" points="6.5,22.5 5,23.5 3.5,22.5 3.5,9.5 5,8.5 6.5,9.5 	"/>
	<polygon class="st0" points="11.5,22.5 10,23.5 8.5,22.5 8.5,9.5 10,8.5 11.5,9.5 	"/>
	<polygon class="st0" points="16.5,22.5 15,23.5 13.5,22.5 13.5,9.5 15,8.5 16.5,9.5 	"/>
	<polygon class="st1" points="18.5,12 18.5,22.5 20,23.5 21.5,22.5 21.5,12 20,11 	"/>
	<polygon class="st1" points="13.5,12 13.5,22.5 15,23.5 16.5,22.5 16.5,12 15,11 	"/>
	<polygon class="st1" points="8.5,12 8.5,22.5 10,23.5 11.5,22.5 11.5,12 10,11 	"/>
	<polygon class="st1" points="3.5,12 3.5,22.5 5,23.5 6.5,22.5 6.5,12 5,11 	"/>
	<polyline class="st2" points="18.3,0.5 17.5,1.5 19,3.5 17.5,5.5 18.3,6.5 	"/>
	<polyline class="st2" points="14.3,0.5 13.5,1.5 15,3.5 13.5,5.5 14.3,6.5 	"/>
	<polyline class="st2" points="10.3,0.5 9.5,1.5 11,3.5 9.5,5.5 10.3,6.5 	"/>
	<polyline class="st2" points="6.3,0.5 5.5,1.5 7,3.5 5.5,5.5 6.3,6.5 	"/>
	<polygon class="st2" points="6.5,22.5 5,23.5 3.5,22.5 3.5,9.5 5,8.5 6.5,9.5 	"/>
	<polygon class="st2" points="11.5,22.5 10,23.5 8.5,22.5 8.5,9.5 10,8.5 11.5,9.5 	"/>
	<polygon class="st2" points="16.5,22.5 15,23.5 13.5,22.5 13.5,9.5 15,8.5 16.5,9.5 	"/>
	<polygon class="st2" points="21.5,22.5 20,23.5 18.5,22.5 18.5,9.5 20,8.5 21.5,9.5 	"/>
	<line class="st2" x1="6.5" y1="20.5" x2="8.5" y2="20.5"/>
	<line class="st2" x1="6.5" y1="11.5" x2="8.5" y2="11.5"/>
	<line class="st2" x1="1.5" y1="11.5" x2="3.5" y2="11.5"/>
	<line class="st2" x1="11.5" y1="20.5" x2="13.5" y2="20.5"/>
	<line class="st2" x1="11.5" y1="11.5" x2="13.5" y2="11.5"/>
	<line class="st2" x1="16.5" y1="20.5" x2="18.5" y2="20.5"/>
	<line class="st2" x1="16.5" y1="11.5" x2="18.5" y2="11.5"/>
	<line class="st2" x1="21.5" y1="20.5" x2="22.5" y2="20.5"/>
	<line class="st2" x1="21.5" y1="11.5" x2="22.5" y2="11.5"/>
	<polyline class="st2" points="3.5,20.5 1.5,20.5 1.5,23.5 	"/>
	<line class="st2" x1="1.5" y1="12.5" x2="1.5" y2="10.5"/>
</g>
<g id="Frames-24px">
	<rect class="st4" width="24" height="24"/>
</g>
</svg>
