<?xml version="1.0" encoding="utf-8"?>
<!-- Generator: Adobe Illustrator 21.0.2, SVG Export Plug-In . SVG Version: 6.00 Build 0)  -->
<svg version="1.1" xmlns="http://www.w3.org/2000/svg" xmlns:xlink="http://www.w3.org/1999/xlink" x="0px" y="0px"
	 viewBox="0 0 24 24" style="enable-background:new 0 0 24 24;" xml:space="preserve">
<style type="text/css">
	.st0{fill:#FFFFFF;}
	.st1{fill:#CCE7FF;}
	.st2{fill:none;stroke:#1078FF;stroke-linecap:round;stroke-linejoin:round;stroke-miterlimit:10;}
	.st3{fill:#1078FF;}
	.st4{fill:none;}
</style>
<g id="Duotone">
	<polygon class="st0" points="4.5,20.5 13.5,20.5 11.5,12 16,3.5 10,3.5 	"/>
	<polygon class="st1" points="16,3.5 12.5,3.5 7,20.5 13.5,20.5 11.5,12 	"/>
	<polyline class="st2" points="13.5,20.5 15.5,19 17.5,20.5 19.5,19 21.5,20.5 23.5,19 	"/>
	<polygon class="st2" points="4.5,20.5 13.5,20.5 11.5,12 16,3.5 10,3.5 	"/>
	<polyline class="st2" points="23.5,5.5 5.5,5.5 0.5,20.5 	"/>
	<line class="st2" x1="4.2" y1="9.5" x2="8.1" y2="9.5"/>
	<line class="st2" x1="2.8" y1="13.5" x2="6.8" y2="13.5"/>
	<line class="st2" x1="1.5" y1="17.5" x2="5.5" y2="17.5"/>
</g>
<g id="Frames-24px">
	<rect class="st4" width="24" height="24"/>
</g>
</svg>
