<?xml version="1.0" encoding="utf-8"?>
<!-- Generator: Adobe Illustrator 21.0.2, SVG Export Plug-In . SVG Version: 6.00 Build 0)  -->
<svg version="1.1" xmlns="http://www.w3.org/2000/svg" xmlns:xlink="http://www.w3.org/1999/xlink" x="0px" y="0px"
	 viewBox="0 0 24 24" style="enable-background:new 0 0 24 24;" xml:space="preserve">
<style type="text/css">
	.st0{fill:#FFFFFF;}
	.st1{fill:#CCE7FF;}
	.st2{fill:none;stroke:#1078FF;stroke-linecap:round;stroke-linejoin:round;stroke-miterlimit:10;}
	.st3{fill:#1078FF;}
	.st4{fill:none;}
</style>
<g id="Duotone">
	<polygon class="st1" points="22.5,15 20.5,16.5 18.5,15 16.5,16.5 14.5,15 12.5,16.5 10.5,15 8.5,16.5 6.5,15 4.5,16.5 2.5,15 
		0.5,16.5 0.5,23.5 2.5,22 4.5,23.5 6.5,22 8.5,23.5 10.5,22 12.5,23.5 14.5,22 16.5,23.5 18.5,22 20.5,23.5 22.5,22 	"/>
	<polyline class="st2" points="6.5,12.5 6.5,4.5 9,0.5 10.5,0.5 	"/>
	<polyline class="st2" points="14.5,12.5 14.5,4.5 17,0.5 18.5,0.5 	"/>
	<line class="st2" x1="6.5" y1="4.5" x2="14.5" y2="4.5"/>
	<line class="st2" x1="6.5" y1="7.5" x2="14.5" y2="7.5"/>
	<line class="st2" x1="6.5" y1="10.5" x2="14.5" y2="10.5"/>
	<polyline class="st2" points="0.5,23.5 2.5,22 4.5,23.5 6.5,22 8.5,23.5 10.5,22 12.5,23.5 14.5,22 16.5,23.5 18.5,22 20.5,23.5 
		22.5,22 	"/>
	<polyline class="st2" points="0.5,20 2.5,18.5 4.5,20 6.5,18.5 8.5,20 10.5,18.5 12.5,20 14.5,18.5 16.5,20 18.5,18.5 20.5,20 
		22.5,18.5 	"/>
	<polyline class="st2" points="0.5,16.5 2.5,15 4.5,16.5 6.5,15 8.5,16.5 10.5,15 12.5,16.5 14.5,15 16.5,16.5 18.5,15 20.5,16.5 
		22.5,15 	"/>
</g>
<g id="Frames-24px">
	<rect class="st4" width="24" height="24"/>
</g>
</svg>
