<?xml version="1.0" encoding="utf-8"?>
<!-- Generator: Adobe Illustrator 21.0.2, SVG Export Plug-In . SVG Version: 6.00 Build 0)  -->
<svg version="1.1" xmlns="http://www.w3.org/2000/svg" xmlns:xlink="http://www.w3.org/1999/xlink" x="0px" y="0px"
	 viewBox="0 0 24 24" style="enable-background:new 0 0 24 24;" xml:space="preserve">
<style type="text/css">
	.st0{fill:#FFFFFF;}
	.st1{fill:#CCE7FF;}
	.st2{fill:none;stroke:#1078FF;stroke-linecap:round;stroke-linejoin:round;stroke-miterlimit:10;}
	.st3{fill:#1078FF;}
	.st4{fill:none;}
</style>
<g id="Duotone">
	<polygon class="st0" points="6.5,23.5 11.5,21 16.5,23.5 	"/>
	<rect x="0.5" y="3.5" class="st0" width="22" height="16"/>
	<polygon class="st1" points="14.8,9.1 15.5,9.5 15.5,14 11.5,16.3 7.8,14.2 0.5,19.5 22.5,19.5 22.5,3.5 	"/>
	<rect x="0.5" y="3.5" class="st2" width="22" height="16"/>
	<line class="st2" x1="3.5" y1="3.5" x2="3.5" y2="19.5"/>
	<line class="st2" x1="19.5" y1="3.5" x2="19.5" y2="19.5"/>
	<polygon class="st2" points="6.5,23.5 11.5,21 16.5,23.5 	"/>
	<polygon class="st2" points="15.5,14 11.5,16.3 7.5,14 7.5,9.5 11.5,7.3 15.5,9.5 	"/>
	<line class="st2" x1="7.5" y1="14" x2="15.5" y2="9.5"/>
	<line class="st2" x1="11.5" y1="21" x2="11.5" y2="19.5"/>
</g>
<g id="Frames-24px">
	<rect class="st4" width="24" height="24"/>
</g>
</svg>
