<?xml version="1.0" encoding="utf-8"?>
<!-- Generator: Adobe Illustrator 21.0.2, SVG Export Plug-In . SVG Version: 6.00 Build 0)  -->
<svg version="1.1" xmlns="http://www.w3.org/2000/svg" xmlns:xlink="http://www.w3.org/1999/xlink" x="0px" y="0px"
	 viewBox="0 0 24 24" style="enable-background:new 0 0 24 24;" xml:space="preserve">
<style type="text/css">
	.st0{fill:#FFFFFF;}
	.st1{fill:#CCE7FF;}
	.st2{fill:none;stroke:#1078FF;stroke-linecap:round;stroke-linejoin:round;stroke-miterlimit:10;}
	.st3{fill:#1078FF;}
	.st4{fill:none;}
</style>
<g id="Duotone">
	<polygon class="st0" points="16,5.2 13.1,5.4 11.5,3 12.6,0.7 15.5,0.5 17.1,3 	"/>
	<polygon class="st0" points="10.5,6 5,7.5 1.5,12.5 6,9.5 8,10 5.5,13.5 5.5,18 0.5,23.5 7,20 9.5,16.5 12.5,19 12.5,23.5 15,18 
		11.5,14.5 13.5,11 17,12 22,9.5 17.5,10 15,7 	"/>
	<polygon class="st1" points="16,5.2 13.1,5.4 15.5,0.5 17.1,3 	"/>
	<polygon class="st1" points="17,12 22,9.5 17.5,10 15,7 12.7,6.5 5.7,20.7 7,20 9.5,16.5 12.5,19 12.5,23.5 15,18 11.5,14.5 
		13.5,11 	"/>
	<g>
		<polygon class="st2" points="10.5,6 5,7.5 1.5,12.5 6,9.5 8,10 5.5,13.5 5.5,18 0.5,23.5 7,20 9.5,16.5 12.5,19 12.5,23.5 15,18 
			11.5,14.5 13.5,11 17,12 22,9.5 17.5,10 15,7 		"/>
		<polygon class="st2" points="16,5.2 13.1,5.4 11.5,3 12.6,0.7 15.5,0.5 17.1,3 		"/>
	</g>
</g>
<g id="Frames-24px">
	<rect class="st4" width="24" height="24"/>
</g>
</svg>
