<svg xmlns="http://www.w3.org/2000/svg" width="24" height="24" viewBox="0 0 24 24">
  <title>heart-coffee-cup</title>
  <g id="Duotone">
    <polygon points="10.5 8.52 15.5 3.52 13 0.52 10.5 2.52 8 0.52 5.5 3.52 10.5 8.52" fill="#fff"/>
    <polygon points="7.5 21.52 2.5 11.52 18.5 11.52 13.5 21.52 7.5 21.52" fill="#fff"/>
    <polygon points="10.51 8.49 15.5 3.5 13 0.5 10.51 2.492 10.51 8.49" fill="#cce7ff"/>
    <polygon points="6 18.5 7.5 21.5 13.5 21.5 15 18.5 6 18.5" fill="#cce7ff"/>
    <polygon points="10.5 8.5 15.5 3.5 13 0.5 10.5 2.5 8 0.5 5.5 3.5 10.5 8.5" fill="none" stroke="#1078ff" stroke-linecap="round" stroke-linejoin="round"/>
    <line x1="3.5" y1="23.5" x2="17.5" y2="23.5" fill="none" stroke="#1078ff" stroke-linecap="round" stroke-linejoin="round"/>
    <polygon points="7.5 21.5 2.5 11.5 18.5 11.5 13.5 21.5 7.5 21.5" fill="none" stroke="#1078ff" stroke-linecap="round" stroke-linejoin="round"/>
    <polyline points="18 19.5 21.5 14.5 17 14.5" fill="none" stroke="#1078ff" stroke-linecap="round" stroke-linejoin="round"/>
  </g>
  <g id="Frames-24px">
    <rect width="24" height="24" fill="none"/>
  </g>
</svg>
