<svg xmlns="http://www.w3.org/2000/svg" width="24" height="24" viewBox="0 0 24 24">
  <title>rose-1</title>
  <g id="Duotone">
    <polygon points="17.5 20.52 13.5 20.52 16.5 16.52 20.5 16.52 17.5 20.52" fill="#fff"/>
    <polygon points="5.5 17.52 9.5 17.52 6.5 13.52 2.5 13.52 5.5 17.52" fill="#fff"/>
    <polygon points="11.5 0.52 6.5 3.02 6.5 10.02 11.5 12.52 16.5 10.02 16.5 5.02 16.5 3.02 11.5 0.52" fill="#fff"/>
    <polygon points="17.5 20.5 13.5 20.5 20.5 16.5 17.5 20.5" fill="#cce7ff"/>
    <polygon points="5.5 17.5 9.5 17.5 2.5 13.5 5.5 17.5" fill="#cce7ff"/>
    <polygon points="16.5 5 11.5 3 9.132 4.316 11.5 5.5 11.5 7.5 16.5 5" fill="#cce7ff"/>
    <polygon points="6.5 7.5 6.5 10 11.5 12.5 16.5 10 16.5 7.5 11.5 10 6.5 7.5" fill="#cce7ff"/>
    <polygon points="17.5 20.5 13.5 20.5 16.5 16.5 20.5 16.5 17.5 20.5" fill="none" stroke="#1078ff" stroke-linecap="round" stroke-linejoin="round"/>
    <polygon points="5.5 17.5 9.5 17.5 6.5 13.5 2.5 13.5 5.5 17.5" fill="none" stroke="#1078ff" stroke-linecap="round" stroke-linejoin="round"/>
    <line x1="11.5" y1="23.5" x2="11.5" y2="12.5" fill="none" stroke="#1078ff" stroke-linecap="round" stroke-linejoin="round"/>
    <polygon points="11.5 12.5 6.5 10 6.5 3 11.5 5.5 11.5 12.5" fill="none" stroke="#1078ff" stroke-linecap="round" stroke-linejoin="round"/>
    <polygon points="11.5 12.5 16.5 10 16.5 5 11.5 7.5 11.5 12.5" fill="none" stroke="#1078ff" stroke-linecap="round" stroke-linejoin="round"/>
    <polyline points="6.5 3 11.5 0.5 16.5 3 16.5 5" fill="none" stroke="#1078ff" stroke-linecap="round" stroke-linejoin="round"/>
    <polyline points="9.132 4.316 11.5 3 16.5 5" fill="none" stroke="#1078ff" stroke-linecap="round" stroke-linejoin="round"/>
  </g>
  <g id="Frames-24px">
    <rect width="24" height="24" fill="none"/>
  </g>
</svg>
