<?xml version="1.0" encoding="utf-8"?>
<!-- Generator: Adobe Illustrator 21.0.2, SVG Export Plug-In . SVG Version: 6.00 Build 0)  -->
<svg version="1.1" xmlns="http://www.w3.org/2000/svg" xmlns:xlink="http://www.w3.org/1999/xlink" x="0px" y="0px" width="24px"
	 height="24px" viewBox="0 0 24 24" enable-background="new 0 0 24 24" xml:space="preserve">
<g id="Black">
	<g>
		<polyline fill="none" stroke="#58595B" stroke-linecap="round" stroke-linejoin="round" stroke-miterlimit="10" points="
			4.717,7.801 4.25,5 7,1.5 2.5,2.5 0.5,5.25 1,9.25 2.758,10.227 		"/>
		<g>
			<path fill="#58595B" d="M7,19.001c-0.051,0-0.102,0.019-0.141,0.059l-0.799,0.799c-0.078,0.078-0.078,0.205,0,0.283l0.799,0.799
				C6.898,20.98,6.949,20.999,7,20.999c0.051,0,0.102-0.019,0.141-0.059l0.799-0.799c0.078-0.078,0.078-0.205,0-0.283l-0.799-0.799
				C7.102,19.02,7.051,19.001,7,19.001L7,19.001z"/>
		</g>
		<g>
			<path fill="#58595B" d="M5,22.001c-0.051,0-0.102,0.019-0.141,0.059l-0.799,0.799c-0.078,0.078-0.078,0.205,0,0.283l0.799,0.799
				C4.898,23.98,4.949,23.999,5,23.999c0.051,0,0.102-0.019,0.141-0.059l0.799-0.799c0.078-0.078,0.078-0.205,0-0.283l-0.799-0.799
				C5.102,22.02,5.051,22.001,5,22.001L5,22.001z"/>
		</g>
		<g>
			<path fill="#58595B" d="M17.002,19.001c-0.051,0-0.102,0.019-0.141,0.059l-0.799,0.799c-0.078,0.078-0.078,0.205,0,0.283
				l0.799,0.799c0.039,0.039,0.09,0.059,0.141,0.059c0.051,0,0.102-0.019,0.141-0.059l0.799-0.799c0.078-0.078,0.078-0.205,0-0.283
				l-0.799-0.799C17.104,19.02,17.053,19.001,17.002,19.001L17.002,19.001z"/>
		</g>
		<g>
			<path fill="#58595B" d="M15,22.001c-0.051,0-0.102,0.019-0.141,0.059l-0.799,0.799c-0.078,0.078-0.078,0.205,0,0.283l0.799,0.799
				c0.039,0.039,0.09,0.059,0.141,0.059c0.051,0,0.102-0.019,0.141-0.059l0.799-0.799c0.078-0.078,0.078-0.205,0-0.283l-0.799-0.799
				C15.102,22.02,15.051,22.001,15,22.001L15,22.001z"/>
		</g>
		<g>
			<path fill="#58595B" d="M12.001,19.001c-0.051,0-0.102,0.019-0.141,0.059l-0.799,0.799c-0.078,0.078-0.078,0.205,0,0.283
				l0.799,0.799c0.039,0.039,0.09,0.059,0.141,0.059c0.051,0,0.102-0.019,0.141-0.059l0.799-0.799c0.078-0.078,0.078-0.205,0-0.283
				l-0.799-0.799C12.103,19.02,12.052,19.001,12.001,19.001L12.001,19.001z"/>
		</g>
		<g>
			<path fill="#58595B" d="M9.999,22.001c-0.051,0-0.102,0.019-0.141,0.059l-0.799,0.799c-0.078,0.078-0.078,0.205,0,0.283
				l0.799,0.799c0.039,0.039,0.09,0.059,0.141,0.059c0.051,0,0.102-0.019,0.141-0.059l0.799-0.799c0.078-0.078,0.078-0.205,0-0.283
				l-0.799-0.799C10.101,22.02,10.05,22.001,9.999,22.001L9.999,22.001z"/>
		</g>
		<g>
			<polygon fill="none" stroke="#58595B" stroke-linecap="round" stroke-linejoin="round" stroke-miterlimit="10" points="21,11.5 
				18.5,11.5 16,6.5 12,6.5 9.5,9.5 6,9.5 2.5,14 6,17.5 20,17.5 22.5,15 			"/>
			
				<line fill="none" stroke="#58595B" stroke-linecap="round" stroke-linejoin="round" stroke-miterlimit="10" x1="15.5" y1="11.5" x2="18.5" y2="11.5"/>
		</g>
	</g>
</g>
<g id="Frames-24px">
	<rect fill="none" width="24" height="24"/>
</g>
</svg>
