<?xml version="1.0" encoding="utf-8"?>
<!-- Generator: Adobe Illustrator 21.0.2, SVG Export Plug-In . SVG Version: 6.00 Build 0)  -->
<svg version="1.1" xmlns="http://www.w3.org/2000/svg" xmlns:xlink="http://www.w3.org/1999/xlink" x="0px" y="0px" width="24px"
	 height="24px" viewBox="0 0 24 24" enable-background="new 0 0 24 24" xml:space="preserve">
<g id="Black">
	<g>
		<polyline fill="none" stroke="#58595B" stroke-linecap="round" stroke-linejoin="round" stroke-miterlimit="10" points="0.5,16 
			2.5,17.5 4.5,16 6.5,17.5 8.5,16 10.5,17.5 12.5,16 14.5,17.5 16.5,16 18.5,17.5 20.5,16 22.5,17.5 		"/>
		<polyline fill="none" stroke="#58595B" stroke-linecap="round" stroke-linejoin="round" stroke-miterlimit="10" points="0.5,13 
			2.5,14.5 4.5,13 6.5,14.5 8.5,13 10.5,14.5 12.5,13 14.5,14.5 16.5,13 18.5,14.5 20.5,13 22.5,14.5 		"/>
		<polyline fill="none" stroke="#58595B" stroke-linecap="round" stroke-linejoin="round" stroke-miterlimit="10" points="0.5,19 
			2.5,20.5 4.5,19 6.5,20.5 8.5,19 10.5,20.5 12.5,19 14.5,20.5 16.5,19 18.5,20.5 20.5,19 22.5,20.5 		"/>
		<polyline fill="none" stroke="#58595B" stroke-linecap="round" stroke-linejoin="round" stroke-miterlimit="10" points="0.5,22 
			2.5,23.5 4.5,22 6.5,23.5 8.5,22 10.5,23.5 12.5,22 14.5,23.5 16.5,22 18.5,23.5 20.5,22 22.5,23.5 		"/>
		<g>
			
				<line fill="none" stroke="#58595B" stroke-linecap="round" stroke-linejoin="round" stroke-miterlimit="10" x1="11.5" y1="10.5" x2="11.5" y2="1.5"/>
			<polyline fill="none" stroke="#58595B" stroke-linecap="round" stroke-linejoin="round" stroke-miterlimit="10" points="8.5,4.5 
				11.5,1.5 14.5,4.5 			"/>
		</g>
	</g>
</g>
<g id="Frames-24px">
	<rect fill="none" width="24" height="24"/>
</g>
</svg>
