<?xml version="1.0" encoding="utf-8"?>
<!-- Generator: Adobe Illustrator 21.0.2, SVG Export Plug-In . SVG Version: 6.00 Build 0)  -->
<svg version="1.1" xmlns="http://www.w3.org/2000/svg" xmlns:xlink="http://www.w3.org/1999/xlink" x="0px" y="0px"
	 viewBox="0 0 24 24" style="enable-background:new 0 0 24 24;" xml:space="preserve">
<style type="text/css">
	.st0{fill:#FFFFFF;}
	.st1{fill:#CCE7FF;}
	.st2{fill:none;stroke:#1078FF;stroke-linecap:round;stroke-linejoin:round;stroke-miterlimit:10;}
	.st3{fill:none;stroke:#1078FF;stroke-linejoin:round;stroke-miterlimit:10;}
	.st4{fill:none;stroke:#1078FF;stroke-linecap:round;stroke-miterlimit:10;}
	.st5{fill:none;}
</style>
<g id="Duotone">
	<polygon class="st0" points="22.5,12.5 21,14 22.5,15.5 21,17 22.5,18.5 21,20 22.5,22 21,23.5 19,22 17.5,23.5 16,22 14.5,23.5 
		13,22 11.5,23.5 10,22 8.5,23.5 7,22 5.5,23.5 4,22 2,23.5 0.5,22 2,20 0.5,18.5 2,17 0.5,15.5 2,14 0.5,12.5 2,11 0.5,9.5 2,8 
		0.5,6.5 2,5 0.5,3 2,1.5 4,3 5.5,1.5 7,3 8.5,1.5 10,3 11.5,1.5 13,3 14.5,1.5 16,3 17.5,1.5 19,3 21,1.5 22.5,3 21,5 22.5,6.5 
		21,8 22.5,9.5 21,11 	"/>
	<rect x="4.5" y="7.5" class="st1" width="14" height="12"/>
	<polygon class="st2" points="22.5,12.5 21,14 22.5,15.5 21,17 22.5,18.5 21,20 22.5,22 21,23.5 19,22 17.5,23.5 16,22 14.5,23.5 
		13,22 11.5,23.5 10,22 8.5,23.5 7,22 5.5,23.5 4,22 2,23.5 0.5,22 2,20 0.5,18.5 2,17 0.5,15.5 2,14 0.5,12.5 2,11 0.5,9.5 2,8 
		0.5,6.5 2,5 0.5,3 2,1.5 4,3 5.5,1.5 7,3 8.5,1.5 10,3 11.5,1.5 13,3 14.5,1.5 16,3 17.5,1.5 19,3 21,1.5 22.5,3 21,5 22.5,6.5 
		21,8 22.5,9.5 21,11 	"/>
	<rect x="4.5" y="5.5" class="st2" width="14" height="14"/>
	<polyline class="st2" points="14.5,17.5 9.5,17.5 6.5,15 6.5,10.5 9.5,7.5 14,7.5 16.5,10.5 16.5,14 14,15.5 11,15.5 9.5,14.5 
		9.5,13 13.5,12.5 13.5,15.5 	"/>
	<polyline class="st2" points="9.5,10.5 12.5,10.5 13.5,11.5 13.5,12.5 	"/>
</g>
<g id="Frames-24px">
	<rect class="st5" width="24" height="24"/>
</g>
</svg>
