<?xml version="1.0" encoding="utf-8"?>
<!-- Generator: Adobe Illustrator 21.0.2, SVG Export Plug-In . SVG Version: 6.00 Build 0)  -->
<svg version="1.1" xmlns="http://www.w3.org/2000/svg" xmlns:xlink="http://www.w3.org/1999/xlink" x="0px" y="0px"
	 viewBox="0 0 24 24" style="enable-background:new 0 0 24 24;" xml:space="preserve">
<style type="text/css">
	.st0{fill:#FFFFFF;}
	.st1{fill:#CCE7FF;}
	.st2{fill:none;stroke:#1078FF;stroke-linecap:round;stroke-linejoin:round;stroke-miterlimit:10;}
	.st3{fill:none;stroke:#1078FF;stroke-linejoin:round;stroke-miterlimit:10;}
	.st4{fill:none;stroke:#1078FF;stroke-linecap:round;stroke-miterlimit:10;}
	.st5{fill:none;}
</style>
<g id="Duotone">
	<rect x="0.5" y="1.5" class="st0" width="20" height="14"/>
	<rect x="0.5" y="13.5" class="st1" width="11" height="2"/>
	<g>
		<g>
			<line class="st2" x1="13.5" y1="17.5" x2="22.5" y2="17.5"/>
			<polyline class="st2" points="18.5,13.5 22.5,17.5 18.5,21.5 			"/>
		</g>
		<g>
			<polyline class="st2" points="20.5,1.5 10.5,11 0.5,1.5 			"/>
			<line class="st2" x1="0.5" y1="15.5" x2="7.9" y2="8.5"/>
			<polyline class="st2" points="20.5,11.5 20.5,1.5 0.5,1.5 0.5,15.5 11.5,15.5 			"/>
			<line class="st2" x1="13.1" y1="8.5" x2="16.3" y2="11.5"/>
		</g>
	</g>
</g>
<g id="Frames-24px">
	<rect class="st5" width="24" height="24"/>
</g>
</svg>
