<?xml version="1.0" encoding="utf-8"?>
<!-- Generator: Adobe Illustrator 21.0.2, SVG Export Plug-In . SVG Version: 6.00 Build 0)  -->
<svg version="1.1" xmlns="http://www.w3.org/2000/svg" xmlns:xlink="http://www.w3.org/1999/xlink" x="0px" y="0px"
	 viewBox="0 0 24 24" style="enable-background:new 0 0 24 24;" xml:space="preserve">
<style type="text/css">
	.st0{fill:#FFFFFF;}
	.st1{fill:#CCE7FF;}
	.st2{fill:none;stroke:#1078FF;stroke-linecap:round;stroke-linejoin:round;stroke-miterlimit:10;}
	.st3{fill:none;stroke:#1078FF;stroke-linejoin:round;stroke-miterlimit:10;}
	.st4{fill:none;stroke:#1078FF;stroke-linecap:round;stroke-miterlimit:10;}
	.st5{fill:none;}
</style>
<g id="Duotone">
	<path class="st0" d="M20.5,12.5h-18l-2,4v7h22v-7L20.5,12.5z"/>
	<polygon class="st1" points="1.8,14 0.5,16.5 6,16.5 8,19.5 15,19.5 17,16.5 22.5,16.5 21.3,14 	"/>
	<g>
		<g>
			<polygon class="st2" points="22.5,16.5 17,16.5 15,19.5 8,19.5 6,16.5 0.5,16.5 0.5,23.5 22.5,23.5 			"/>
			<polyline class="st2" points="0.5,16.5 2.5,12.5 7.5,12.5 			"/>
			<polyline class="st2" points="22.5,16.5 20.5,12.5 15.5,12.5 			"/>
		</g>
		<g>
			<polyline class="st2" points="22.5,5.5 15,5.5 11.5,9 11.5,14.5 			"/>
			<polyline class="st2" points="18.5,1.5 22.5,5.5 18.5,9.5 			"/>
		</g>
	</g>
</g>
<g id="Frames-24px">
	<rect class="st5" width="24" height="24"/>
</g>
</svg>
