<?xml version="1.0" encoding="utf-8"?>
<!-- Generator: Adobe Illustrator 21.0.2, SVG Export Plug-In . SVG Version: 6.00 Build 0)  -->
<svg version="1.1" xmlns="http://www.w3.org/2000/svg" xmlns:xlink="http://www.w3.org/1999/xlink" x="0px" y="0px"
	 viewBox="0 0 24 24" style="enable-background:new 0 0 24 24;" xml:space="preserve">
<style type="text/css">
	.st0{fill:#FFFFFF;}
	.st1{fill:#CCE7FF;}
	.st2{fill:none;stroke:#1078FF;stroke-linecap:round;stroke-linejoin:round;stroke-miterlimit:10;}
	.st3{fill:none;}
</style>
<g id="Duotone">
	<rect x="8.5" y="10.5" class="st0" width="6" height="5"/>
	<g>
		<rect x="11.5" y="10.5" class="st1" width="3" height="5"/>
	</g>
	<polyline class="st2" points="9.5,10.5 9.5,9 11.5,7.5 13.5,9 13.5,10.5 	"/>
	<line class="st2" x1="11.5" y1="13.5" x2="11.5" y2="12.5"/>
	<rect x="8.5" y="10.5" class="st2" width="6" height="5"/>
	<g>
		<g>
			<polyline class="st2" points="20.5,18 11.5,22.5 2.5,18 2.5,10.5 			"/>
			<polyline class="st2" points="0.5,12.5 2.5,10.5 4.5,12.5 			"/>
			<polyline class="st2" points="2.5,5 11.5,0.5 20.5,5 20.5,12.5 			"/>
		</g>
		<polyline class="st2" points="22.5,10.5 20.5,12.5 18.5,10.5 		"/>
	</g>
</g>
<g id="Frames-24px">
	<rect class="st3" width="24" height="24"/>
</g>
</svg>
