<svg xmlns="http://www.w3.org/2000/svg" width="24" height="24" viewBox="0 0 24 24">
  <title>shopping-cart-download-2</title>
  <g id="Duotone">
    <polygon points="1.5 6.5 19.036 6.5 16.304 14.999 4 13.5 1.5 6.5" fill="#fff"/>
    <rect x="6.086" y="20.086" width="2.828" height="2.828" transform="translate(-13.006 11.601) rotate(-45)" fill="#fff"/>
    <rect x="13.086" y="20.086" width="2.828" height="2.828" transform="translate(-10.956 16.55) rotate(-45)" fill="#fff"/>
    <polygon points="16.912 13.217 3.5 12 4.036 13.5 16.339 14.999 16.912 13.217" fill="#cce7ff"/>
    <polygon points="7.537 23.5 9.537 21.5 7.537 19.5 7.537 23.5" fill="#cce7ff"/>
    <polygon points="14.537 23.5 16.537 21.5 14.537 19.5 14.537 23.5" fill="#cce7ff"/>
    <g>
      <g>
        <line x1="10.5" y1="0.5" x2="10.5" y2="9.5" fill="none" stroke="#1078ff" stroke-linecap="round" stroke-linejoin="round"/>
        <polyline points="7.5 6.5 10.5 9.5 13.5 6.5" fill="none" stroke="#1078ff" stroke-linecap="round" stroke-linejoin="round"/>
      </g>
      <g>
        <polyline points="5.5 17.5 15.5 17.5 20 3.5 22.5 3" fill="none" stroke="#1078ff" stroke-linecap="round" stroke-linejoin="round"/>
        <rect x="6.086" y="20.086" width="2.828" height="2.828" transform="translate(-13.006 11.601) rotate(-45)" fill="none" stroke="#1078ff" stroke-linecap="round" stroke-linejoin="round"/>
        <rect x="13.086" y="20.086" width="2.828" height="2.828" transform="translate(-10.956 16.55) rotate(-45)" fill="none" stroke="#1078ff" stroke-linecap="round" stroke-linejoin="round"/>
        <line x1="15.5" y1="6.5" x2="19.036" y2="6.5" fill="none" stroke="#1078ff" stroke-linecap="round" stroke-linejoin="round"/>
        <polyline points="16.304 14.999 4 13.5 1.5 6.5 5.5 6.5" fill="none" stroke="#1078ff" stroke-linecap="round" stroke-linejoin="round"/>
      </g>
    </g>
  </g>
  <g id="Frames-24px">
    <rect width="24" height="24" fill="none"/>
  </g>
</svg>
