<svg xmlns="http://www.w3.org/2000/svg" width="24" height="24" viewBox="0 0 24 24">
  <title>shopping-cart-favorite-heart</title>
  <g id="Duotone">
    <polygon points="7.5 6.5 10.5 3.5 8 0.5 5.5 2.5 3 0.5 0.5 3.5 3.5 6.5 2.5 6.5 5 13.5 17.304 14.999 20.036 6.5 7.5 6.5" fill="#fff"/>
    <rect x="7.086" y="20.086" width="2.828" height="2.828" transform="translate(-12.713 12.308) rotate(-45)" fill="#fff"/>
    <rect x="14.086" y="20.086" width="2.828" height="2.828" transform="translate(-10.663 17.257) rotate(-45)" fill="#fff"/>
    <polygon points="17.877 13.217 4.464 12 5 13.5 17.304 14.999 17.877 13.217" fill="#cce7ff"/>
    <polygon points="8.501 23.5 10.501 21.5 8.501 19.5 8.501 23.5" fill="#cce7ff"/>
    <polygon points="15.501 23.5 17.501 21.5 15.501 19.5 15.501 23.5" fill="#cce7ff"/>
    <polygon points="5.5 8.5 10.5 3.5 8 0.5 5.5 2.5 5.5 8.5" fill="#cce7ff"/>
    <g>
      <g>
        <polyline points="6.5 17.5 16.5 17.5 21 3.5 23.5 3" fill="none" stroke="#1078ff" stroke-linecap="round" stroke-linejoin="round"/>
        <rect x="7.086" y="20.086" width="2.828" height="2.828" transform="translate(-12.713 12.308) rotate(-45)" fill="none" stroke="#1078ff" stroke-linecap="round" stroke-linejoin="round"/>
        <rect x="14.086" y="20.086" width="2.828" height="2.828" transform="translate(-10.663 17.257) rotate(-45)" fill="none" stroke="#1078ff" stroke-linecap="round" stroke-linejoin="round"/>
        <line x1="10.5" y1="6.5" x2="20.036" y2="6.5" fill="none" stroke="#1078ff" stroke-linecap="round" stroke-linejoin="round"/>
        <polyline points="17.304 14.999 5 13.5 3.393 9" fill="none" stroke="#1078ff" stroke-linecap="round" stroke-linejoin="round"/>
      </g>
      <g>
        <polygon points="5.5 8.5 10.5 3.5 8 0.5 5.5 2.5 3 0.5 0.5 3.5 5.5 8.5" fill="none" stroke="#1078ff" stroke-linejoin="round"/>
        <polygon points="5.5 8.5 10.5 3.5 8 0.5 5.5 2.5 3 0.5 0.5 3.5 5.5 8.5" fill="none" stroke="#1078ff" stroke-linecap="round" stroke-linejoin="round"/>
      </g>
      <polygon points="5.5 8.5 10.5 3.5 8 0.5 5.5 2.5 3 0.5 0.5 3.5 5.5 8.5" fill="none" stroke="#1078ff" stroke-linejoin="round"/>
    </g>
  </g>
  <g id="Frames-24px">
    <rect width="24" height="24" fill="none"/>
  </g>
</svg>
