<svg xmlns="http://www.w3.org/2000/svg" width="24" height="24" viewBox="0 0 24 24">
  <title>shopping-application-pc-2</title>
  <g id="Duotone">
    <polygon points="22.5 14.5 22.5 0.5 0.5 0.5 0.5 14.5 9.5 14.5 9.5 16 7.5 17.5 15.5 17.5 13.5 16 13.5 14.5 22.5 14.5" fill="#fff"/>
    <polygon points="20.5 23.5 2.5 23.5 4.5 19.5 18.5 19.5 20.5 23.5" fill="#fff"/>
    <polygon points="13.652 5.326 13 7.5 9.667 7.5 0.5 12.5 22.5 12.5 22.5 0.5 13.652 5.326" fill="#cce7ff"/>
    <g>
      <rect x="0.5" y="0.5" width="22" height="14" fill="none" stroke="#1078ff" stroke-linejoin="round"/>
      <line x1="0.5" y1="12.5" x2="22.5" y2="12.5" fill="none" stroke="#1078ff" stroke-linejoin="round"/>
      <line x1="6.5" y1="21.5" x2="7.5" y2="21.5" fill="none" stroke="#1078ff" stroke-linecap="round" stroke-linejoin="round"/>
      <line x1="9.5" y1="21.5" x2="10.5" y2="21.5" fill="none" stroke="#1078ff" stroke-linecap="round" stroke-linejoin="round"/>
      <line x1="12.5" y1="21.5" x2="13.5" y2="21.5" fill="none" stroke="#1078ff" stroke-linecap="round" stroke-linejoin="round"/>
      <line x1="15.5" y1="21.5" x2="16.5" y2="21.5" fill="none" stroke="#1078ff" stroke-linecap="round" stroke-linejoin="round"/>
      <polyline points="13 7.5 14.5 2.5 16.5 2.5" fill="none" stroke="#1078ff" stroke-linecap="round" stroke-linejoin="round"/>
      <polyline points="13.9 4.5 7.5 4.5 8.5 7.5 13 7.5" fill="none" stroke="#1078ff" stroke-linecap="round" stroke-linejoin="round"/>
      <path d="M9.5,9a.2.2,0,0,0-.141.059l-.8.8a.2.2,0,0,0,0,.283l.8.8a.2.2,0,0,0,.283,0l.8-.8a.2.2,0,0,0,0-.283l-.8-.8A.2.2,0,0,0,9.5,9Z" fill="#1078ff"/>
      <path d="M12.5,9a.2.2,0,0,0-.141.059l-.8.8a.2.2,0,0,0,0,.283l.8.8a.2.2,0,0,0,.283,0l.8-.8a.2.2,0,0,0,0-.283l-.8-.8A.2.2,0,0,0,12.5,9Z" fill="#1078ff"/>
      <polyline points="13.5 14.5 13.5 16 15.5 17.5 7.5 17.5 9.5 16 9.5 14.5" fill="none" stroke="#1078ff" stroke-linejoin="round"/>
      <polygon points="20.5 23.5 2.5 23.5 4.5 19.5 18.5 19.5 20.5 23.5" fill="none" stroke="#1078ff" stroke-linejoin="round"/>
    </g>
  </g>
  <g id="Frames-24px">
    <rect width="24" height="24" fill="none"/>
  </g>
</svg>
