<svg xmlns="http://www.w3.org/2000/svg" width="24" height="24" viewBox="0 0 24 24">
  <title>smiley-worry</title>
  <g id="Duotone">
    <polygon points="22.5 17.75 12 23.5 1.5 17.75 1.5 6.25 12 0.5 22.5 6.25 22.5 17.75" fill="#fff"/>
    <polygon points="20 16.5 12 21 4 16.5 1.5 17.75 12 23.5 22.5 17.75 20 16.5" fill="#cce7ff"/>
    <polygon points="22.5 17.75 12 23.5 1.5 17.75 1.5 6.25 12 0.5 22.5 6.25 22.5 17.75" fill="none" stroke="#1078ff" stroke-linejoin="round"/>
    <rect x="6.086" y="7.586" width="2.828" height="2.828" transform="translate(8.561 -2.667) rotate(45)" fill="none" stroke="#1078ff" stroke-linecap="round" stroke-linejoin="round"/>
    <rect x="15.086" y="7.586" width="2.828" height="2.828" transform="translate(11.197 -9.031) rotate(45)" fill="none" stroke="#1078ff" stroke-linecap="round" stroke-linejoin="round"/>
    <polyline points="6.405 16.346 8.002 14 9.98 17 12.012 14 14.002 17 16.022 14 17.595 16.348" fill="none" stroke="#1078ff" stroke-linecap="round" stroke-linejoin="round"/>
  </g>
  <g id="Frames-24px">
    <rect width="24" height="24" fill="none"/>
  </g>
</svg>
