<svg xmlns="http://www.w3.org/2000/svg" width="24" height="24" viewBox="0 0 24 24">
  <title>smiley-shy-1</title>
  <g id="Duotone">
    <polygon points="22.5 17.75 12 23.5 1.5 17.75 1.5 6.25 12 0.5 22.5 6.25 22.5 17.75" fill="#fff"/>
    <polygon points="20 16.5 12 21 4 16.5 1.5 17.75 12 23.5 22.5 17.75 20 16.5" fill="#cce7ff"/>
    <polygon points="22.5 17.75 12 23.5 1.5 17.75 1.5 6.25 12 0.5 22.5 6.25 22.5 17.75" fill="none" stroke="#1078ff" stroke-linecap="round" stroke-linejoin="round"/>
    <rect x="6.086" y="7.086" width="2.828" height="2.828" transform="translate(8.207 -2.814) rotate(45)" fill="none" stroke="#1078ff" stroke-linecap="round" stroke-linejoin="round"/>
    <rect x="15.439" y="7.439" width="2.121" height="2.121" transform="translate(10.843 -9.178) rotate(45)" fill="none" stroke="#1078ff" stroke-linecap="round" stroke-linejoin="round"/>
    <line x1="4.5" y1="14.5" x2="6" y2="13" fill="none" stroke="#1078ff" stroke-linecap="round" stroke-linejoin="round"/>
    <line x1="7" y1="14.5" x2="8.5" y2="13" fill="none" stroke="#1078ff" stroke-linecap="round" stroke-linejoin="round"/>
    <line x1="15.5" y1="14.5" x2="17" y2="13" fill="none" stroke="#1078ff" stroke-linecap="round" stroke-linejoin="round"/>
    <line x1="18" y1="14.5" x2="19.5" y2="13" fill="none" stroke="#1078ff" stroke-linecap="round" stroke-linejoin="round"/>
    <polyline points="14.5 18 12 16.5 9.5 18" fill="none" stroke="#1078ff" stroke-linecap="round" stroke-linejoin="round"/>
  </g>
  <g id="Frames-24px">
    <rect width="24" height="24" fill="none"/>
  </g>
</svg>
