<?xml version="1.0" encoding="utf-8"?>
<!-- Generator: Adobe Illustrator 21.0.2, SVG Export Plug-In . SVG Version: 6.00 Build 0)  -->
<svg version="1.1" xmlns="http://www.w3.org/2000/svg" xmlns:xlink="http://www.w3.org/1999/xlink" x="0px" y="0px"
	 viewBox="0 0 24 24" style="enable-background:new 0 0 24 24;" xml:space="preserve">
<style type="text/css">
	.st0{fill:#FFFFFF;}
	.st1{fill:#CCE7FF;}
	.st2{fill:none;stroke:#1078FF;stroke-linecap:round;stroke-linejoin:round;stroke-miterlimit:10;}
	.st3{fill:none;}
</style>
<g id="Duotone">
	<polygon class="st0" points="18.5,11 18.5,6.5 12.5,4.5 13,1.5 4.5,6.5 4.5,11 0.5,9.5 4.5,15.5 4.5,16.5 11.5,20.5 18.5,16.5 
		18.5,15.5 22.5,9.5 	"/>
	<polygon class="st1" points="11.5,15.5 14.5,13.5 11.5,12.5 8.5,13.5 	"/>
	<polygon class="st1" points="4.5,16.5 6.5,15 11.5,18 16.5,15 18.5,16.5 11.5,20.5 	"/>
	<polygon class="st2" points="4.5,16.5 4.5,6.5 13,1.5 12.5,4.5 18.5,6.5 18.5,16.5 11.5,20.5 	"/>
	<polyline class="st2" points="4.5,11 0.5,9.5 4.5,15.5 	"/>
	<polyline class="st2" points="18.5,11 22.5,9.5 18.5,15.5 	"/>
	<polygon class="st2" points="11.5,15.5 14.5,13.5 11.5,12.5 8.5,13.5 	"/>
	<line class="st2" x1="9.5" y1="10.5" x2="9.5" y2="9.5"/>
	<line class="st2" x1="13.5" y1="10.5" x2="13.5" y2="9.5"/>
	<line class="st2" x1="9.1" y1="19.2" x2="7.3" y2="23.5"/>
	<line class="st2" x1="13.9" y1="19.2" x2="15.8" y2="23.5"/>
</g>
<g id="Frames-24px">
	<rect class="st3" width="24" height="24"/>
</g>
</svg>
