<?xml version="1.0" encoding="utf-8"?>
<!-- Generator: Adobe Illustrator 21.0.2, SVG Export Plug-In . SVG Version: 6.00 Build 0)  -->
<svg version="1.1" xmlns="http://www.w3.org/2000/svg" xmlns:xlink="http://www.w3.org/1999/xlink" x="0px" y="0px"
	 viewBox="0 0 24 24" style="enable-background:new 0 0 24 24;" xml:space="preserve">
<style type="text/css">
	.st0{fill:#FFFFFF;}
	.st1{fill:#CCE7FF;}
	.st2{fill:none;stroke:#1078FF;stroke-linecap:round;stroke-linejoin:round;stroke-miterlimit:10;}
	.st3{fill:none;}
</style>
<g id="Duotone">
	<polygon class="st0" points="20.5,1.5 18.5,3 12,0.5 5.5,3 3,1.5 0.5,6.5 2,14 4.5,11.5 4.5,14 7,20 9,21 11.5,20 14,21 16,20 
		18.5,14 18.5,11.5 21,14 22.5,6.5 	"/>
	<polygon class="st1" points="13.6,20.8 13,22.5 11.5,23.5 10,22.5 9.4,20.8 11.5,20 	"/>
	<polygon class="st1" points="2.5,13.5 4.5,11.5 4.5,6.5 2.5,9 	"/>
	<polygon class="st1" points="20.5,13.5 18.5,11.5 18.5,6.5 20.5,9 	"/>
	<polyline class="st2" points="18.5,6.5 18.5,14 16,20 14,21 11.5,20 9,21 7,20 4.5,14 4.5,6.5 	"/>
	<polyline class="st2" points="18.5,11.5 21,14 22.5,6.5 20.5,1.5 18.5,3 12,0.5 5.5,3 3,1.5 0.5,6.5 2,14 4.5,11.5 	"/>
	<line class="st2" x1="11.5" y1="20" x2="11.5" y2="17.5"/>
	<line class="st2" x1="8.5" y1="8.5" x2="8.5" y2="9.5"/>
	<line class="st2" x1="14.5" y1="8.5" x2="14.5" y2="9.5"/>
	<line class="st2" x1="9.5" y1="17.5" x2="13.5" y2="17.5"/>
	<polygon class="st2" points="13.6,20.8 13,22.5 11.5,23.5 10,22.5 9.4,20.8 11.5,20 	"/>
</g>
<g id="Frames-24px">
	<rect class="st3" width="24" height="24"/>
</g>
</svg>
