<?xml version="1.0" encoding="utf-8"?>
<!-- Generator: Adobe Illustrator 21.0.2, SVG Export Plug-In . SVG Version: 6.00 Build 0)  -->
<svg version="1.1" xmlns="http://www.w3.org/2000/svg" xmlns:xlink="http://www.w3.org/1999/xlink" x="0px" y="0px"
	 viewBox="0 0 24 24" style="enable-background:new 0 0 24 24;" xml:space="preserve">
<style type="text/css">
	.st0{fill:#FFFFFF;}
	.st1{fill:#CCE7FF;}
	.st2{fill:none;stroke:#1078FF;stroke-linecap:round;stroke-linejoin:round;stroke-miterlimit:10;}
	.st3{fill:none;stroke:#1078FF;stroke-linejoin:round;stroke-miterlimit:10;}
	.st4{fill:none;}
</style>
<g id="Duotone">
	<rect x="9.5" y="1.5" class="st0" width="11" height="14"/>
	<rect x="2.5" y="13.5" class="st0" width="6" height="10"/>
	<polygon class="st1" points="20.5,1.5 20.5,13.5 9.5,13.5 	"/>
	<polygon class="st1" points="2.5,21.5 8.5,21.5 8.5,13.5 	"/>
	<g>
		<polyline class="st2" points="9.5,9.5 12.5,9.5 12.5,12.5 		"/>
		<line class="st2" x1="5.5" y1="16.5" x2="12.5" y2="9.5"/>
		<polyline class="st2" points="8.5,16.5 5.5,16.5 5.5,13.5 		"/>
		<polyline class="st2" points="13.5,15.5 20.5,15.5 20.5,1.5 9.5,1.5 9.5,7.5 		"/>
		<polyline class="st2" points="8.5,18.5 8.5,23.5 2.5,23.5 2.5,13.5 3.5,13.5 		"/>
		<line class="st2" x1="2.5" y1="21.5" x2="8.5" y2="21.5"/>
		<line class="st2" x1="20.5" y1="13.5" x2="14.5" y2="13.5"/>
		<g>
			<line class="st2" x1="15" y1="4" x2="18" y2="7"/>
			<line class="st2" x1="17.5" y1="3.5" x2="18.5" y2="4.5"/>
		</g>
	</g>
</g>
<g id="Frames-24px">
	<rect class="st4" width="24" height="24"/>
</g>
</svg>
