<svg xmlns="http://www.w3.org/2000/svg" width="24" height="24" viewBox="0 0 24 24">
  <title>book-pencil</title>
  <g id="Duotone">
    <polygon points="18.5 19.621 22.5 15.622 20.379 13.5 18.5 15.379 18.5 5.5 3.5 5.5 3.5 21.5 12.947 21.5 12.5 23.5 15.232 22.889 16.621 21.5 18.5 21.5 18.5 19.621" fill="#fff"/>
    <polygon points="0.5 3.5 0.5 19.5 3.5 21.5 3.5 5.5 0.5 3.5" fill="#cce7ff"/>
    <polygon points="21.449 14.571 12.526 23.494 15.232 22.889 22.5 15.622 21.449 14.571" fill="#cce7ff"/>
    <g>
      <line x1="17.5" y1="3.5" x2="4.5" y2="3.5" fill="none" stroke="#1078ff" stroke-linecap="round" stroke-linejoin="round"/>
      <polyline points="18.5 1.5 3.5 1.5 0.5 3.5 3.5 5.5" fill="none" stroke="#1078ff" stroke-linecap="round" stroke-linejoin="round"/>
      <polyline points="0.5 3.5 0.5 19.5 3.5 21.5" fill="none" stroke="#1078ff" stroke-linecap="round" stroke-linejoin="round"/>
      <polyline points="18.5 12.5 18.5 5.5 3.5 5.5 3.5 21.5 10.5 21.5" fill="none" stroke="#1078ff" stroke-linecap="round" stroke-linejoin="round"/>
    </g>
    <polygon points="13.111 20.768 20.379 13.5 22.5 15.622 15.232 22.889 12.5 23.5 13.111 20.768" fill="none" stroke="#1078ff" stroke-linecap="round" stroke-linejoin="round"/>
  </g>
  <g id="Frames-24px">
    <rect width="24" height="24" fill="none"/>
  </g>
</svg>
