<svg xmlns="http://www.w3.org/2000/svg" width="24" height="24" viewBox="0 0 24 24">
  <title>book-open-6</title>
  <g id="Duotone">
    <polygon points="11.5 9.5 0.5 2.5 0.5 16.5 11.5 23.5 22.5 16.5 22.5 2.5 11.5 9.5" fill="#fff"/>
    <polygon points="0.5 2.5 3.5 1.5 11.5 6.5 11.5 9.5 0.5 2.5" fill="#cce7ff"/>
    <polygon points="22.5 2.5 19.5 1.5 11.5 6.5 11.5 9.5 22.5 2.5" fill="#cce7ff"/>
    <polyline points="3.5 1.5 11.5 6.5 19.5 1.5" fill="none" stroke="#1078ff" stroke-linecap="round" stroke-linejoin="round"/>
    <polygon points="11.5 9.5 0.5 2.5 0.5 16.5 11.5 23.5 22.5 16.5 22.5 2.5 11.5 9.5" fill="none" stroke="#1078ff" stroke-linecap="round" stroke-linejoin="round"/>
    <line x1="11.5" y1="23.5" x2="11.5" y2="18.5" fill="none" stroke="#1078ff" stroke-linecap="round" stroke-linejoin="round"/>
    <line x1="11.5" y1="16.5" x2="11.5" y2="14.5" fill="none" stroke="#1078ff" stroke-linecap="round" stroke-linejoin="round"/>
    <line x1="11.5" y1="12.5" x2="11.5" y2="11.5" fill="none" stroke="#1078ff" stroke-linecap="round" stroke-linejoin="round"/>
  </g>
  <g id="Frames-24px">
    <rect width="24" height="24" fill="none"/>
  </g>
</svg>
