<svg xmlns="http://www.w3.org/2000/svg" width="24" height="24" viewBox="0 0 24 24">
  <title>book-search-find</title>
  <g id="Duotone">
    <polygon points="18.5 15.625 18.5 5.5 3.5 5.5 3.5 21.5 12.944 21.5 16.5 23.5 20.5 21.25 20.5 16.75 18.5 15.625" fill="#fff"/>
    <polygon points="0.5 3.5 0.5 19.5 3.5 21.5 3.5 5.5 0.5 3.5" fill="#cce7ff"/>
    <polygon points="20.5 16.75 20.5 21.25 16.5 23.5 12.5 21.25 20.5 16.75" fill="#cce7ff"/>
    <line x1="17.5" y1="3.5" x2="4.5" y2="3.5" fill="none" stroke="#1078ff" stroke-linecap="round" stroke-linejoin="round"/>
    <polyline points="18.5 1.5 3.5 1.5 0.5 3.5 3.5 5.5" fill="none" stroke="#1078ff" stroke-linecap="round" stroke-linejoin="round"/>
    <polyline points="0.5 3.5 0.5 19.5 3.5 21.5" fill="none" stroke="#1078ff" stroke-linecap="round" stroke-linejoin="round"/>
    <polyline points="18.5 12.5 18.5 5.5 3.5 5.5 3.5 21.5 10.5 21.5" fill="none" stroke="#1078ff" stroke-linecap="round" stroke-linejoin="round"/>
    <line x1="23.5" y1="23.179" x2="20.5" y2="21.252" fill="none" stroke="#1078ff" stroke-linecap="round" stroke-miterlimit="10"/>
    <polygon points="12.5 16.75 16.5 14.5 20.5 16.75 20.5 21.25 16.5 23.5 12.5 21.25 12.5 16.75" fill="none" stroke="#1078ff" stroke-linecap="round" stroke-linejoin="round"/>
  </g>
  <g id="Frames-24px">
    <rect width="24" height="24" fill="none"/>
  </g>
</svg>
