<svg xmlns="http://www.w3.org/2000/svg" width="24" height="24" viewBox="0 0 24 24">
  <title>box-text-document</title>
  <g id="Duotone">
    <path d="M21.5,16.5V1.5H5.5v15H.5v7h22v-7Z" fill="#fff"/>
    <rect x="1.5" y="5.5" width="4" height="11" fill="#cce7ff"/>
    <rect x="0.5" y="21.5" width="22" height="2" fill="#cce7ff"/>
    <polyline points="8.5 7 10 6 11.5 7 13 6 14.5 7 16 6 17.5 7 19 6" fill="none" stroke="#1078ff" stroke-linecap="round" stroke-linejoin="round"/>
    <polyline points="8.5 11 10 10 11.5 11 13 10 14.5 11 16 10 17.5 11 19 10" fill="none" stroke="#1078ff" stroke-linecap="round" stroke-linejoin="round"/>
    <polygon points="22.5 16.5 16 16.5 14 19.5 9 19.5 7 16.5 0.5 16.5 0.5 23.5 22.5 23.5 22.5 16.5" fill="none" stroke="#1078ff" stroke-linecap="round" stroke-linejoin="round"/>
    <polyline points="5.5 16.5 5.5 1.5 21.5 1.5 21.5 16.5" fill="none" stroke="#1078ff" stroke-linecap="round" stroke-linejoin="round"/>
    <polyline points="5.5 5.5 1.5 5.5 1.5 16.5" fill="none" stroke="#1078ff" stroke-linecap="round" stroke-linejoin="round"/>
  </g>
  <g id="Frames-24px">
    <rect width="24" height="24" fill="none"/>
  </g>
</svg>
