<svg xmlns="http://www.w3.org/2000/svg" width="24" height="24" viewBox="0 0 24 24">
  <title>box-full-1</title>
  <g id="Duotone">
    <polygon points="22.5 15.5 16 15.5 14 18.5 9 18.5 7 15.5 0.5 15.5 0.5 21.5 22.5 21.5 22.5 15.5" fill="#fff"/>
    <polygon points="16 3.5 18.5 7.5 4.5 7.5 7 3.5 16 3.5" fill="#fff"/>
    <polygon points="20.5 12.5 18.5 12.5 18.5 7.5 4.5 7.5 4.5 12.5 2.5 12.5 0.5 15.5 7 15.5 9 18.5 14 18.5 16 15.5 22.5 15.5 20.5 12.5" fill="#cce7ff"/>
    <polygon points="22.5 15.5 16 15.5 14 18.5 9 18.5 7 15.5 0.5 15.5 0.5 21.5 22.5 21.5 22.5 15.5" fill="none" stroke="#1078ff" stroke-linecap="round" stroke-linejoin="round"/>
    <line x1="0.5" y1="15.5" x2="2.5" y2="12.5" fill="none" stroke="#1078ff" stroke-linecap="round" stroke-linejoin="round"/>
    <line x1="4.5" y1="13.5" x2="18.5" y2="13.5" fill="none" stroke="#1078ff" stroke-linecap="round" stroke-linejoin="round"/>
    <line x1="4.5" y1="11.5" x2="18.5" y2="11.5" fill="none" stroke="#1078ff" stroke-linecap="round" stroke-linejoin="round"/>
    <line x1="4.5" y1="9.5" x2="18.5" y2="9.5" fill="none" stroke="#1078ff" stroke-linecap="round" stroke-linejoin="round"/>
    <polygon points="16 3.5 18.5 7.5 4.5 7.5 7 3.5 16 3.5" fill="none" stroke="#1078ff" stroke-linecap="round" stroke-linejoin="round"/>
    <line x1="22.5" y1="15.5" x2="20.5" y2="12.5" fill="none" stroke="#1078ff" stroke-linecap="round" stroke-linejoin="round"/>
  </g>
  <g id="Frames-24px">
    <rect width="24" height="24" fill="none"/>
  </g>
</svg>
