<svg xmlns="http://www.w3.org/2000/svg" width="24" height="24" viewBox="0 0 24 24">
  <title>clipboard-text</title>
  <g id="Duotone">
    <polygon points="16.25 3.5 16 2.5 13.5 2.5 13.5 0.5 9.5 0.5 9.5 2.5 7 2.5 6.75 3.5 1.5 3.5 1.5 23.5 21.5 23.5 21.5 3.5 16.25 3.5" fill="#fff"/>
    <rect x="3.5" y="19.5" width="12" height="2" fill="#cce7ff"/>
    <polygon points="6 6.5 17 6.5 16 2.5 13.5 2.5 6 6.5" fill="#cce7ff"/>
    <line x1="6.5" y1="10.479" x2="16.5" y2="10.479" fill="none" stroke="#1078ff" stroke-linecap="round" stroke-linejoin="round"/>
    <line x1="6.5" y1="13.479" x2="16.5" y2="13.479" fill="none" stroke="#1078ff" stroke-linecap="round" stroke-linejoin="round"/>
    <line x1="6.5" y1="16.479" x2="11.5" y2="16.479" fill="none" stroke="#1078ff" stroke-linecap="round" stroke-linejoin="round"/>
    <polyline points="19.5 17.479 15.5 17.479 15.5 21.479" fill="none" stroke="#1078ff" stroke-linecap="round" stroke-linejoin="round"/>
    <polyline points="16.25 3.5 21.5 3.5 21.5 23.5 1.5 23.5 1.5 3.5 6.75 3.5" fill="none" stroke="#1078ff" stroke-linecap="round" stroke-linejoin="round"/>
    <polyline points="19.5 6.5 19.5 17.479 15.5 21.5 3.5 21.5 3.5 6.5" fill="none" stroke="#1078ff" stroke-linecap="round" stroke-linejoin="round"/>
    <polygon points="13.5 2.5 13.5 0.5 9.5 0.5 9.5 2.5 7 2.5 6 6.5 17 6.5 16 2.5 13.5 2.5" fill="none" stroke="#1078ff" stroke-linecap="round" stroke-linejoin="round"/>
  </g>
  <g id="Frames-24px">
    <rect width="24" height="24" fill="none"/>
  </g>
</svg>
