<svg xmlns="http://www.w3.org/2000/svg" width="24" height="24" viewBox="0 0 24 24">
  <title>newspaper-2</title>
  <g id="Duotone">
    <polygon points="4.5 1.5 4.5 8.5 0.5 8.5 0.5 21.5 2.5 23.5 21.5 23.5 23.5 21.5 23.5 1.5 4.5 1.5" fill="#fff"/>
    <polygon points="13.5 4.5 13.5 11.5 7.5 11.5 13.5 4.5" fill="#cce7ff"/>
    <polygon points="23.5 21.5 21.5 23.5 2.5 23.5 4.5 21.5 23.5 21.5" fill="#cce7ff"/>
    <polyline points="2.5 23.5 21.5 23.5 23.5 21.5 23.5 1.5 4.5 1.5 4.5 21.5 2.5 23.5 0.5 21.5 0.5 8.5 2.5 8.5 2.5 19.5" fill="none" stroke="#1078ff" stroke-linecap="round" stroke-linejoin="round"/>
    <rect x="7.5" y="4.5" width="6" height="7" fill="none" stroke="#1078ff" stroke-linecap="round" stroke-linejoin="round"/>
    <line x1="16.5" y1="5.5" x2="20.5" y2="5.5" fill="none" stroke="#1078ff" stroke-linecap="round" stroke-linejoin="round"/>
    <line x1="16.5" y1="8.5" x2="20.5" y2="8.5" fill="none" stroke="#1078ff" stroke-linecap="round" stroke-linejoin="round"/>
    <line x1="16.5" y1="11.5" x2="20.5" y2="11.5" fill="none" stroke="#1078ff" stroke-linecap="round" stroke-linejoin="round"/>
    <line x1="7.5" y1="14.5" x2="20.5" y2="14.5" fill="none" stroke="#1078ff" stroke-linecap="round" stroke-linejoin="round"/>
    <line x1="7.5" y1="17.5" x2="20.5" y2="17.5" fill="none" stroke="#1078ff" stroke-linecap="round" stroke-linejoin="round"/>
    <line x1="7.5" y1="20.5" x2="20.5" y2="20.5" fill="none" stroke="#1078ff" stroke-linecap="round" stroke-linejoin="round"/>
  </g>
  <g id="Frames-24px">
    <rect width="24" height="24" fill="none"/>
  </g>
</svg>
