<svg xmlns="http://www.w3.org/2000/svg" width="24" height="24" viewBox="0 0 24 24">
  <title>view-array</title>
  <g id="Duotone">
    <rect x="0.5" y="1.5" width="4" height="22" fill="#fff"/>
    <rect x="18.5" y="1.5" width="4" height="22" fill="#fff"/>
    <rect x="7.5" y="1.5" width="8" height="22" fill="#fff"/>
    <polygon points="15.5 1.5 15.5 23.5 7.5 23.5 15.5 1.5" fill="#cce7ff"/>
    <polygon points="4.5 1.5 4.5 23.5 0.5 23.5 4.5 1.5" fill="#cce7ff"/>
    <polygon points="22.5 1.5 22.5 23.5 18.5 23.5 22.5 1.5" fill="#cce7ff"/>
    <rect x="0.5" y="1.5" width="4" height="22" fill="none" stroke="#1078ff" stroke-linecap="round" stroke-linejoin="round"/>
    <rect x="18.5" y="1.5" width="4" height="22" fill="none" stroke="#1078ff" stroke-linecap="round" stroke-linejoin="round"/>
    <rect x="7.5" y="1.5" width="8" height="22" fill="none" stroke="#1078ff" stroke-linecap="round" stroke-linejoin="round"/>
  </g>
  <g id="Frames-24px">
    <rect width="24" height="24" fill="none"/>
  </g>
</svg>
