<svg xmlns="http://www.w3.org/2000/svg" width="24" height="24" viewBox="0 0 24 24">
  <title>gift-box</title>
  <g id="Duotone">
    <polygon points="11.5 5.5 0.51 8.5 11.5 11.5 22.5 8.5 11.5 5.5" fill="#fff"/>
    <polygon points="0.5 12 1.5 12.273 1.5 20.5 11.5 23.5 11.5 11.5 0.5 8.5 0.5 12" fill="#fff"/>
    <polygon points="22.5 8.5 11.5 11.5 11.5 15 11.5 23.5 21.5 20.5 21.5 12.272 22.5 12 22.5 8.5" fill="#cce7ff"/>
    <polygon points="10.51 6 5.5 2.5 5.5 0.5 8.519 0.5 10.51 6" fill="#cce7ff"/>
    <polygon points="12.51 6 17.5 2.5 17.5 0.5 14.5 0.5 12.51 6" fill="#cce7ff"/>
    <g>
      <line x1="11.5" y1="23.5" x2="1.5" y2="20.5" fill="none" stroke="#1078ff" stroke-linecap="round" stroke-linejoin="round"/>
      <polyline points="11.5 15 0.5 12 0.51 8.5 11.5 11.5" fill="none" stroke="#1078ff" stroke-linecap="round" stroke-linejoin="round"/>
      <line x1="6" y1="7" x2="0.5" y2="8.5" fill="none" stroke="#1078ff" stroke-linecap="round" stroke-linejoin="round"/>
      <line x1="1.5" y1="20.5" x2="1.5" y2="12.273" fill="none" stroke="#1078ff" stroke-linecap="round" stroke-linejoin="round"/>
      <line x1="17.5" y1="9.862" x2="6" y2="7" fill="none" stroke="#1078ff" stroke-linecap="round" stroke-linejoin="round"/>
      <line x1="17" y1="7" x2="22.5" y2="8.5" fill="none" stroke="#1078ff" stroke-linecap="round" stroke-linejoin="round"/>
      <line x1="5.5" y1="9.862" x2="17" y2="7" fill="none" stroke="#1078ff" stroke-linecap="round" stroke-linejoin="round"/>
      <line x1="11.5" y1="23.5" x2="11.5" y2="11.5" fill="none" stroke="#1078ff" stroke-linecap="round" stroke-linejoin="round"/>
      <line x1="5.5" y1="9.862" x2="5.5" y2="21.695" fill="none" stroke="#1078ff" stroke-linecap="round" stroke-linejoin="round"/>
      <line x1="17.5" y1="9.862" x2="17.5" y2="21.7" fill="none" stroke="#1078ff" stroke-linecap="round" stroke-linejoin="round"/>
      <polyline points="11.5 15 22.5 12 22.5 8.5 11.5 11.5" fill="none" stroke="#1078ff" stroke-linecap="round" stroke-linejoin="round"/>
      <polyline points="11.5 23.5 21.5 20.5 21.5 12.273" fill="none" stroke="#1078ff" stroke-linecap="round" stroke-linejoin="round"/>
      <polygon points="10.51 6 5.5 2.5 5.5 0.5 8.519 0.5 10.51 6" fill="none" stroke="#1078ff" stroke-linecap="round" stroke-linejoin="round"/>
      <polygon points="12.51 6 17.5 2.5 17.5 0.5 14.5 0.5 12.51 6" fill="none" stroke="#1078ff" stroke-linecap="round" stroke-linejoin="round"/>
    </g>
  </g>
  <g id="Frames-24px">
    <rect width="24" height="24" fill="none"/>
  </g>
</svg>
