<svg xmlns="http://www.w3.org/2000/svg" width="24" height="24" viewBox="0 0 24 24">
  <title>shopping-bag-hot</title>
  <g id="Duotone">
    <polygon points="21.5 15 21.5 17 19.5 18 19.5 12 16.5 9.5 17.5 12.5 15 16 14.5 18.25 14.5 5.5 0.5 5.5 0.5 20.5 14 20.5 18.5 23.5 23.5 21.5 23.5 17 21.5 15" fill="#fff"/>
    <polygon points="0.5 18.5 0.5 20.5 14 20.5 14.444 18.5 0.5 18.5" fill="#cce7ff"/>
    <polygon points="21.5 15 21.5 17 19.5 18 19.5 12 19 13.5 16.5 17 15.5 21.5 18.5 23.5 23.5 21.5 23.5 17 21.5 15" fill="#cce7ff"/>
    <g>
      <polyline points="10.5 8.5 10.5 2.5 7.5 0.5 4.5 2.5 4.5 8.5" fill="none" stroke="#1078ff" stroke-linecap="round" stroke-linejoin="round"/>
      <polyline points="11.5 20.5 0.5 20.5 0.5 5.5 14.5 5.5 14.5 7.5" fill="none" stroke="#1078ff" stroke-linecap="round" stroke-linejoin="round"/>
      <polyline points="20.5 20 18.5 21 16.5 19.5" fill="none" stroke="#1078ff" stroke-linecap="round" stroke-linejoin="round"/>
      <polygon points="14 20.5 18.5 23.5 23.5 21.5 23.5 17 21.5 15 21.5 17 19.5 18 19.5 12 16.5 9.5 17.5 12.5 15 16 14 20.5" fill="none" stroke="#1078ff" stroke-linecap="round" stroke-linejoin="round"/>
    </g>
  </g>
  <g id="Frames-24px">
    <rect width="24" height="24" fill="none"/>
  </g>
</svg>
