<svg xmlns="http://www.w3.org/2000/svg" width="24" height="24" viewBox="0 0 24 24">
  <title>shopping-online</title>
  <g id="Duotone">
    <polygon points="21.5 11.5 21.5 5.5 21.5 3.5 23.5 3.5 21.5 0.5 19.5 0.5 17.5 2.5 15.5 0.5 13.5 0.5 11.5 3.5 13.5 3.5 13.5 5.5 2.5 5.5 2.5 17.5 0.5 23.5 23.5 23.5 21.5 17.5 21.5 11.5" fill="#fff"/>
    <polygon points="13.5 10.553 2.5 17.5 21.5 17.5 21.5 11.5 13.5 11.5 13.5 10.553" fill="#cce7ff"/>
    <g>
      <polyline points="10.5 5.5 2.5 5.5 2.5 17.5" fill="none" stroke="#1078ff" stroke-linecap="round" stroke-linejoin="round"/>
      <line x1="21.5" y1="17.5" x2="21.5" y2="14.5" fill="none" stroke="#1078ff" stroke-linecap="round" stroke-linejoin="round"/>
      <line x1="10.5" y1="21.5" x2="13.5" y2="21.5" fill="none" stroke="#1078ff" stroke-linecap="round" stroke-linejoin="round"/>
      <g>
        <polyline points="8.5 9.5 6.5 9.5 6 10.5 6.5 11.5 8.5 11.5 9 12.5 8.5 13.5 6.5 13.5" fill="none" stroke="#1078ff" stroke-linecap="round" stroke-linejoin="round"/>
        <line x1="7.5" y1="9.5" x2="7.5" y2="8.5" fill="none" stroke="#1078ff" stroke-linecap="round" stroke-linejoin="round"/>
        <line x1="7.5" y1="14.5" x2="7.5" y2="13.5" fill="none" stroke="#1078ff" stroke-linecap="round" stroke-linejoin="round"/>
      </g>
      <polygon points="13.5 11.5 13.5 3.5 11.5 3.5 13.5 0.5 15.5 0.5 17.5 2.5 19.5 0.5 21.5 0.5 23.5 3.5 21.5 3.5 21.5 11.5 13.5 11.5" fill="none" stroke="#1078ff" stroke-linecap="round" stroke-linejoin="round"/>
      <polygon points="23.5 23.5 0.5 23.5 2.5 17.5 21.5 17.5 23.5 23.5" fill="none" stroke="#1078ff" stroke-linecap="round" stroke-linejoin="round"/>
    </g>
  </g>
  <g id="Frames-24px">
    <rect width="24" height="24" fill="none"/>
  </g>
</svg>
