<svg xmlns="http://www.w3.org/2000/svg" width="24" height="24" viewBox="0 0 24 24">
  <title>shopping-pickup</title>
  <g id="Duotone">
    <polygon points="20.5 14.5 2.5 14.5 2.5 17.5 4.029 17.84 3 23.5 20 23.5 18.971 17.84 20.5 17.5 20.5 14.5" fill="#fff"/>
    <polygon points="23.5 6.5 21 6.5 14 10 12.5 9 16.125 6.458 16.5 5.5 12.5 4.5 9.5 6.5 10.5 9 8.5 10 7 6 10.5 2.5 3 2 2.5 0.5 12.5 0.5 23.5 2 23.5 6.5" fill="#fff"/>
    <polygon points="10.5 2.5 7 6 8.5 10 10.5 9 9.5 6.5 12.5 4.5 16.5 5.5 16.125 6.458 12.5 9 14 10 21 6.5 23.5 6.5 23.5 4.5 10.5 2.5" fill="#cce7ff"/>
    <polygon points="4.029 17.84 3.68 19.762 11.5 21.499 19.32 19.762 18.971 17.84 11.5 19.5 4.029 17.84" fill="#cce7ff"/>
    <g>
      <line x1="11.5" y1="19.5" x2="11.5" y2="21.5" fill="none" stroke="#1078ff" stroke-linecap="round" stroke-linejoin="round"/>
      <polyline points="6.167 14.5 11.5 10.5 16.833 14.5" fill="none" stroke="#1078ff" stroke-linecap="round" stroke-linejoin="round"/>
      <polyline points="10.5 2.5 3 2 2.5 0.5 12.5 0.5 23.5 2" fill="none" stroke="#1078ff" stroke-linecap="round" stroke-linejoin="round"/>
      <polyline points="23.5 6.5 21 6.5 14 10 12.5 9 16.125 6.458 16.5 5.5 12.5 4.5 9.5 6.5 10.5 9 8.5 10 7 6 10.5 2.5" fill="none" stroke="#1078ff" stroke-linecap="round" stroke-linejoin="round"/>
      <polyline points="18.971 17.84 20 23.5 3 23.5 4.029 17.84" fill="none" stroke="#1078ff" stroke-linecap="round" stroke-linejoin="round"/>
      <polygon points="2.5 14.5 20.5 14.5 20.5 17.5 11.5 19.5 2.5 17.5 2.5 14.5" fill="none" stroke="#1078ff" stroke-linecap="round" stroke-linejoin="round"/>
    </g>
  </g>
  <g id="Frames-24px">
    <rect width="24" height="24" fill="none"/>
  </g>
</svg>
