<svg xmlns="http://www.w3.org/2000/svg" width="24" height="24" viewBox="0 0 24 24">
  <title>shopping-user-1</title>
  <g id="Duotone">
    <polygon points="23.5 23.5 22.5 15.5 16.5 15.5 16.5 13.5 8.5 11.5 0.5 13.5 0.5 19.5 14 19.5 13.5 23.5 23.5 23.5" fill="#fff"/>
    <polygon points="12.5 8.5 8.5 10.5 4.5 8.5 4.5 3 8.5 1 12.5 3 12.5 8.5" fill="#fff"/>
    <polygon points="8.5 1 4.5 3 7.5 4.5 12.5 4.5 12.5 3 8.5 1" fill="#cce7ff"/>
    <polygon points="13.75 21.5 13.5 23.5 23.5 23.5 23.25 21.5 13.75 21.5" fill="#cce7ff"/>
    <g>
      <polyline points="20.5 17.5 20.5 13.5 18.5 12.5 16.5 13.5 16.5 17.5" fill="none" stroke="#1078ff" stroke-linecap="round" stroke-linejoin="round"/>
      <polyline points="4.5 3 7.5 4.5 12.5 4.5" fill="none" stroke="#1078ff" stroke-linecap="round" stroke-linejoin="round"/>
      <polygon points="23.5 23.5 13.5 23.5 14.5 15.5 22.5 15.5 23.5 23.5" fill="none" stroke="#1078ff" stroke-linecap="round" stroke-linejoin="round"/>
      <polyline points="11.5 19.5 0.5 19.5 0.5 13.5 8.5 11.5 14.5 13" fill="none" stroke="#1078ff" stroke-linecap="round" stroke-linejoin="round"/>
      <polygon points="12.5 8.5 8.5 10.5 4.5 8.5 4.5 3 8.5 1 12.5 3 12.5 8.5" fill="none" stroke="#1078ff" stroke-linecap="round" stroke-linejoin="round"/>
      <polyline points="11.5 19.5 0.5 19.5 0.5 13.5 8.5 11.5 14.5 13" fill="none" stroke="#1078ff" stroke-linecap="round" stroke-linejoin="round"/>
    </g>
  </g>
  <g id="Frames-24px">
    <rect width="24" height="24" fill="none"/>
  </g>
</svg>
