<svg xmlns="http://www.w3.org/2000/svg" width="24" height="24" viewBox="0 0 24 24">
  <title>clapboard-play-close</title>
  <g id="Duotone">
    <rect x="0.5" y="1.5" width="22" height="22" transform="translate(23 25) rotate(180)" fill="#fff"/>
    <rect x="0.5" y="5.5" width="22" height="2.5" fill="#cce7ff"/>
    <polygon points="8.5 18.5 16.5 14 8.5 14 8.5 18.5" fill="#cce7ff"/>
    <rect x="0.5" y="1.5" width="22" height="22" transform="translate(23 25) rotate(180)" fill="none" stroke="#1078ff" stroke-linecap="round" stroke-linejoin="round"/>
    <line x1="22.5" y1="5.5" x2="0.5" y2="5.5" fill="none" stroke="#1078ff" stroke-linecap="round" stroke-linejoin="round"/>
    <line x1="20.5" y1="1.5" x2="17.5" y2="5.5" fill="none" stroke="#1078ff" stroke-linecap="round" stroke-linejoin="round"/>
    <line x1="15.5" y1="1.5" x2="12.5" y2="5.5" fill="none" stroke="#1078ff" stroke-linecap="round" stroke-linejoin="round"/>
    <line x1="10.5" y1="1.5" x2="7.5" y2="5.5" fill="none" stroke="#1078ff" stroke-linecap="round" stroke-linejoin="round"/>
    <line x1="5.5" y1="1.5" x2="2.5" y2="5.5" fill="none" stroke="#1078ff" stroke-linecap="round" stroke-linejoin="round"/>
    <polygon points="8.5 18.5 8.5 9.5 16.5 14 8.5 18.5" fill="none" stroke="#1078ff" stroke-linejoin="round"/>
  </g>
  <g id="Frames-24px">
    <rect width="24" height="24" fill="none"/>
  </g>
</svg>
