<?xml version="1.0" encoding="utf-8"?>
<!-- Generator: Adobe Illustrator 21.0.2, SVG Export Plug-In . SVG Version: 6.00 Build 0)  -->
<svg version="1.1" xmlns="http://www.w3.org/2000/svg" xmlns:xlink="http://www.w3.org/1999/xlink" x="0px" y="0px" width="24px"
	 height="24px" viewBox="0 0 24 24" enable-background="new 0 0 24 24" xml:space="preserve">
<g id="Black">
	<g>
		<polygon fill="none" stroke="#58595B" stroke-linecap="round" stroke-linejoin="round" stroke-miterlimit="10" points="21,23.5 
			16,23.5 14.5,16.5 22.5,16.5 		"/>
		<polyline fill="none" stroke="#58595B" stroke-linecap="round" stroke-linejoin="round" stroke-miterlimit="10" points="3.5,11.5 
			3.5,23.5 7,17 10.5,23.5 10.5,11.5 16,9 7,7.5 2.5,8.5 0.5,15 3.5,12.5 		"/>
		<polygon fill="none" stroke="#58595B" stroke-linecap="round" stroke-linejoin="round" stroke-miterlimit="10" points="9.5,5 
			7,6.5 4.5,5 4.5,2 7,0.5 9.5,2 		"/>
		<g>
			<path fill="#58595B" d="M21.01,10.288h0.005H21.01 M20.5,9.5c-0.072,0-0.143,0.027-0.197,0.081l-0.721,0.721
				c-0.108,0.108-0.108,0.286,0,0.395l0.721,0.721c0.054,0.054,0.126,0.081,0.197,0.081s0.143-0.027,0.197-0.081l0.721-0.721
				c0.108-0.108,0.108-0.286,0-0.395l-0.721-0.721C20.643,9.527,20.572,9.5,20.5,9.5L20.5,9.5z"/>
		</g>
		<g>
			<path fill="#58595B" d="M17.51,12.288h0.005H17.51 M17,11.5c-0.072,0-0.143,0.027-0.197,0.081l-0.721,0.721
				c-0.108,0.108-0.108,0.286,0,0.395l0.721,0.721C16.857,13.473,16.928,13.5,17,13.5s0.143-0.027,0.197-0.081l0.721-0.721
				c0.108-0.108,0.108-0.286,0-0.395l-0.721-0.721C17.143,11.527,17.072,11.5,17,11.5L17,11.5z"/>
		</g>
	</g>
</g>
<g id="Frames-24px">
	<rect fill="none" width="24" height="24"/>
</g>
</svg>
