<svg xmlns="http://www.w3.org/2000/svg" width="24" height="24" viewBox="0 0 24 24">
  <title>product-scale</title>
  <g id="Duotone">
    <polygon points="4.5 15.5 2.5 14 2.5 11.5 4.5 10 6.5 11 8.5 10 10.5 11.5 10.5 14 8.5 15.5 4.5 15.5" fill="#fff"/>
    <polygon points="17.5 1.5 12.5 4 12.5 6.5 12.5 10 16 11.947 14 20.5 1.5 20.5 2.5 23.5 21.5 23.5 22.5 20.5 21 20.5 19 11.947 22.5 10 22.5 6.5 22.5 4 17.5 1.5" fill="#fff"/>
    <polygon points="14.351 19 14 20.5 21 20.5 20.649 19 14.351 19" fill="#cce7ff"/>
    <polygon points="22.5 7.5 22.5 6.5 22.5 4 17.5 1.5 12.5 4 12.5 6.5 12.5 7.5 22.5 7.5" fill="#cce7ff"/>
    <polygon points="2 22 2.5 23.5 21.5 23.5 22 22 2 22" fill="#cce7ff"/>
    <polyline points="6.5 8.5 6.5 6.5 8.5 5.5 8.5 7.5 6.5 8.5" fill="#cce7ff"/>
    <g>
      <line x1="1.5" y1="17.5" x2="11.5" y2="17.5" fill="none" stroke="#1078ff" stroke-linecap="round" stroke-linejoin="round"/>
      <line x1="12.5" y1="7.5" x2="22.5" y2="7.5" fill="none" stroke="#1078ff" stroke-linecap="round" stroke-linejoin="round"/>
      <line x1="18" y1="7.5" x2="15.485" y2="4.949" fill="none" stroke="#1078ff" stroke-linecap="round" stroke-linejoin="round"/>
      <line x1="6.5" y1="17.5" x2="6.5" y2="20.5" fill="none" stroke="#1078ff" stroke-linecap="round" stroke-linejoin="round"/>
      <polyline points="6.5 8.5 6.5 6.5 8.5 5.5 8.5 7.5 6.5 8.5" fill="none" stroke="#1078ff" stroke-linecap="round" stroke-linejoin="round"/>
      <polygon points="17.5 1.5 12.5 4 12.5 6.5 12.5 10 16 11.947 14 20.5 21 20.5 19 11.947 22.5 10 22.5 6.5 22.5 4 17.5 1.5" fill="none" stroke="#1078ff" stroke-linecap="round" stroke-linejoin="round"/>
      <polyline points="8.5 15.5 10.5 14 10.5 11.5 8.5 10 6.5 11" fill="none" stroke="#1078ff" stroke-linecap="round" stroke-linejoin="round"/>
      <polyline points="6.5 11 4.5 10 2.5 11.5 2.5 14 4.5 15.5" fill="none" stroke="#1078ff" stroke-linecap="round" stroke-linejoin="round"/>
      <polygon points="21.5 23.5 2.5 23.5 1.5 20.5 22.5 20.5 21.5 23.5" fill="none" stroke="#1078ff" stroke-linejoin="round"/>
    </g>
  </g>
  <g id="Frames-24px">
    <rect width="24" height="24" fill="none"/>
  </g>
</svg>
