<svg xmlns="http://www.w3.org/2000/svg" width="24" height="24" viewBox="0 0 24 24">
  <title>receipt-1</title>
  <g id="Duotone">
    <polygon points="3.5 23.5 5.5 21.5 7.5 23.5 9.5 21.5 11.5 23.5 13.5 21.5 15.5 23.5 17.5 21.5 19.5 23.5 19.5 0.5 17.5 2.5 15.5 0.5 13.5 2.5 11.5 0.5 9.5 2.5 7.5 0.5 5.5 2.5 3.5 0.5 3.5 23.5" fill="#fff"/>
    <polygon points="3.5 19.5 3.5 23.5 5.5 21.5 7.5 23.5 9.5 21.5 11.5 23.5 13.5 21.5 15.5 23.5 17.5 21.5 19.5 23.5 19.5 19.5 3.5 19.5" fill="#cce7ff"/>
    <g>
      <line x1="6.5" y1="6.5" x2="12.5" y2="6.5" fill="none" stroke="#1078ff" stroke-linecap="round" stroke-linejoin="round"/>
      <line x1="14.5" y1="6.5" x2="16.5" y2="6.5" fill="none" stroke="#1078ff" stroke-linecap="round" stroke-linejoin="round"/>
      <line x1="6.5" y1="9.5" x2="11.5" y2="9.5" fill="none" stroke="#1078ff" stroke-linecap="round" stroke-linejoin="round"/>
      <line x1="13.5" y1="9.5" x2="16.5" y2="9.5" fill="none" stroke="#1078ff" stroke-linecap="round" stroke-linejoin="round"/>
      <line x1="6.5" y1="12.5" x2="10.5" y2="12.5" fill="none" stroke="#1078ff" stroke-linecap="round" stroke-linejoin="round"/>
      <line x1="6.5" y1="15.5" x2="8.5" y2="15.5" fill="none" stroke="#1078ff" stroke-linecap="round" stroke-linejoin="round"/>
      <line x1="6.5" y1="18.5" x2="9.5" y2="18.5" fill="none" stroke="#1078ff" stroke-linecap="round" stroke-linejoin="round"/>
      <g>
        <polyline points="15.5 14.5 13.5 14.5 13 15.5 13.5 16.5 15.5 16.5 16 17.5 15.5 18.5 13.5 18.5" fill="none" stroke="#1078ff" stroke-linecap="round" stroke-linejoin="round"/>
        <line x1="14.5" y1="14.5" x2="14.5" y2="13.5" fill="none" stroke="#1078ff" stroke-linecap="round" stroke-linejoin="round"/>
        <line x1="14.5" y1="19.5" x2="14.5" y2="18.5" fill="none" stroke="#1078ff" stroke-linecap="round" stroke-linejoin="round"/>
      </g>
      <polygon points="3.5 23.5 5.5 21.5 7.5 23.5 9.5 21.5 11.5 23.5 13.5 21.5 15.5 23.5 17.5 21.5 19.5 23.5 19.5 0.5 17.5 2.5 15.5 0.5 13.5 2.5 11.5 0.5 9.5 2.5 7.5 0.5 5.5 2.5 3.5 0.5 3.5 23.5" fill="none" stroke="#1078ff" stroke-linecap="round" stroke-linejoin="round"/>
    </g>
  </g>
  <g id="Frames-24px">
    <rect width="24" height="24" fill="none"/>
  </g>
</svg>
