<?xml version="1.0" encoding="utf-8"?>
<!-- Generator: Adobe Illustrator 21.0.2, SVG Export Plug-In . SVG Version: 6.00 Build 0)  -->
<svg version="1.1" xmlns="http://www.w3.org/2000/svg" xmlns:xlink="http://www.w3.org/1999/xlink" x="0px" y="0px" width="24px"
	 height="24px" viewBox="0 0 24 24" enable-background="new 0 0 24 24" xml:space="preserve">
<g id="Black">
	<g>
		<g>
			
				<rect x="3.5" y="16.5" fill="none" stroke="#58595B" stroke-linecap="round" stroke-linejoin="round" stroke-miterlimit="10" width="17" height="5"/>
			<polygon fill="none" stroke="#58595B" stroke-linecap="round" stroke-linejoin="round" stroke-miterlimit="10" points="
				20.5,16.5 3.5,16.5 6.5,11.5 17.5,11.5 			"/>
			<polyline fill="none" stroke="#58595B" stroke-linecap="round" stroke-linejoin="round" stroke-miterlimit="10" points="
				19.5,21.5 19.5,23.5 16.5,23.5 16.5,21.5 			"/>
			<polyline fill="none" stroke="#58595B" stroke-linecap="round" stroke-linejoin="round" stroke-miterlimit="10" points="
				7.5,21.5 7.5,23.5 4.5,23.5 4.5,21.5 			"/>
			
				<line fill="none" stroke="#58595B" stroke-linecap="round" stroke-linejoin="round" stroke-miterlimit="10" x1="3.5" y1="19.501" x2="20.5" y2="19.501"/>
		</g>
		
			<line fill="none" stroke="#58595B" stroke-linecap="round" stroke-linejoin="round" stroke-miterlimit="10" x1="3.5" y1="16.5" x2="1.5" y2="15.5"/>
		
			<line fill="none" stroke="#58595B" stroke-linecap="round" stroke-linejoin="round" stroke-miterlimit="10" x1="20.5" y1="16.5" x2="22.5" y2="15.5"/>
		<polyline fill="none" stroke="#58595B" stroke-linecap="round" stroke-linejoin="round" stroke-miterlimit="10" points="
			5.5,4.206 9.308,0.5 14.692,0.5 18.5,4.257 		"/>
		<polyline fill="none" stroke="#58595B" stroke-linecap="round" stroke-linejoin="round" stroke-miterlimit="10" points="
			7.5,5.188 10.136,2.5 13.864,2.5 16.5,5.162 		"/>
		<polyline fill="none" stroke="#58595B" stroke-linecap="round" stroke-linejoin="round" stroke-miterlimit="10" points="
			9.5,6.034 10.964,4.5 13.035,4.5 14.5,5.999 		"/>
		<g>
			<path fill="#58595B" d="M12.531,6.988h0.005H12.531 M12,6.207c-0.064,0-0.128,0.024-0.177,0.073l-0.646,0.646
				c-0.047,0.047-0.074,0.11-0.074,0.177s0.026,0.13,0.073,0.177l0.646,0.646C11.872,7.976,11.936,8,12,8s0.128-0.024,0.177-0.073
				l0.646-0.646c0.047-0.047,0.073-0.11,0.073-0.177s-0.026-0.13-0.073-0.177l-0.646-0.646C12.128,6.232,12.064,6.207,12,6.207
				L12,6.207z"/>
		</g>
	</g>
</g>
<g id="Frames-24px">
	<rect fill="none" width="24" height="24"/>
</g>
</svg>
