<?xml version="1.0" encoding="utf-8"?>
<!-- Generator: Adobe Illustrator 21.0.2, SVG Export Plug-In . SVG Version: 6.00 Build 0)  -->
<svg version="1.1" xmlns="http://www.w3.org/2000/svg" xmlns:xlink="http://www.w3.org/1999/xlink" x="0px" y="0px"
	 viewBox="0 0 24 24" style="enable-background:new 0 0 24 24;" xml:space="preserve">
<style type="text/css">
	.st0{fill:#FFFFFF;}
	.st1{fill:#CCE7FF;}
	.st2{fill:none;stroke:#1078FF;stroke-linecap:round;stroke-linejoin:round;stroke-miterlimit:10;}
	.st3{fill:none;}
</style>
<g id="Duotone">
	<polygon class="st0" points="23.5,5.5 23.5,0.5 10.5,1.5 10.5,6.5 11.5,6.4 11.5,12.5 3,17.5 2,20.5 1,20.5 3.5,23.5 22,23.5 
		23.5,20.5 22.5,20.5 22.5,5.6 	"/>
	<polygon class="st1" points="23.5,3.5 10.5,4.5 10.5,6.5 23.5,5.5 	"/>
	<polygon class="st1" points="2.3,22 3.5,23.5 22,23.5 22.8,22 	"/>
	<polygon class="st1" points="3,17.5 2,20.5 12,20.5 6.8,15.3 	"/>
	<g>
		<polyline class="st2" points="22.5,5.6 22.5,20.5 2,20.5 3,17.5 11.5,12.5 11.5,6.4 		"/>
		<polygon class="st2" points="23.5,0.5 10.5,1.5 10.5,6.5 23.5,5.5 		"/>
		<line class="st2" x1="6.8" y1="15.3" x2="12" y2="20.5"/>
		<polygon class="st2" points="22,23.5 3.5,23.5 1,20.5 23.5,20.5 		"/>
		<line class="st2" x1="10.5" y1="9" x2="13.5" y2="8.5"/>
		<line class="st2" x1="10.5" y1="11" x2="13.5" y2="10.5"/>
	</g>
</g>
<g id="Frames-24px">
	<rect class="st3" width="24" height="24"/>
</g>
</svg>
