<?xml version="1.0" encoding="utf-8"?>
<!-- Generator: Adobe Illustrator 21.0.2, SVG Export Plug-In . SVG Version: 6.00 Build 0)  -->
<svg version="1.1" xmlns="http://www.w3.org/2000/svg" xmlns:xlink="http://www.w3.org/1999/xlink" x="0px" y="0px"
	 viewBox="0 0 24 24" style="enable-background:new 0 0 24 24;" xml:space="preserve">
<style type="text/css">
	.st0{fill:#FFFFFF;}
	.st1{fill:#CCE7FF;}
	.st2{fill:none;stroke:#1078FF;stroke-linecap:round;stroke-linejoin:round;stroke-miterlimit:10;}
	.st3{fill:none;}
</style>
<g id="Duotone">
	<polygon class="st0" points="18.5,8.5 17.5,13.5 17.5,6.5 17.5,2.5 14.5,2.5 14.5,0.5 11.5,0.5 11.5,2.5 8.5,2.5 8.5,4.5 5.5,4.5 
		5.5,21.5 12,23.5 17.5,21.5 17.5,20 20.5,15.5 20.5,8.5 	"/>
	<polygon class="st1" points="5.5,21.5 12,19.5 17.5,21.5 12,23.5 	"/>
	<polygon class="st1" points="13.5,20 13.5,17 12,15.5 10.5,17 10.5,20 12,19.5 	"/>
	<g>
		<polygon class="st2" points="5.5,21.5 12,19.5 17.5,21.5 12,23.5 		"/>
		<polyline class="st2" points="5.5,21.5 5.5,4.5 8.5,4.5 		"/>
		<polyline class="st2" points="8.5,12.5 8.5,2.5 11.5,2.5 11.5,12.5 		"/>
		<polyline class="st2" points="11.5,2.5 11.5,0.5 14.5,0.5 14.5,12.5 		"/>
		<polyline class="st2" points="14.5,2.5 17.5,2.5 17.5,6.5 		"/>
		<polyline class="st2" points="16,15.5 17.5,13.5 17.5,11 18.5,8.5 20.5,8.5 20.5,15.5 17.5,20 17.5,21.5 		"/>
		<polyline class="st2" points="10.5,20 10.5,17 12,15.5 13.5,17 13.5,20 		"/>
	</g>
</g>
<g id="Frames-24px">
	<rect class="st3" width="24" height="24"/>
</g>
</svg>
