<?xml version="1.0" encoding="utf-8"?>
<!-- Generator: Adobe Illustrator 21.0.2, SVG Export Plug-In . SVG Version: 6.00 Build 0)  -->
<svg version="1.1" xmlns="http://www.w3.org/2000/svg" xmlns:xlink="http://www.w3.org/1999/xlink" x="0px" y="0px"
	 viewBox="0 0 24 24" style="enable-background:new 0 0 24 24;" xml:space="preserve">
<style type="text/css">
	.st0{fill:#FFFFFF;}
	.st1{fill:#CCE7FF;}
	.st2{fill:none;stroke:#1078FF;stroke-linecap:round;stroke-linejoin:round;stroke-miterlimit:10;}
	.st3{fill:none;}
</style>
<g id="Duotone">
	<polygon class="st0" points="16.5,15.5 22.5,9.5 22.5,1.5 14.5,1.5 8.5,7.5 1.5,0.5 0.5,5 19,23.5 23.5,22.5 	"/>
	<polygon class="st1" points="19,23.5 0.5,5 1,2.8 21.3,23 	"/>
	<polygon class="st1" points="12.5,11.5 16.5,15.5 22.5,9.5 22.5,1.5 	"/>
	<g>
		<polygon class="st2" points="19,23.5 0.5,5 1.5,0.5 23.5,22.5 		"/>
		<polyline class="st2" points="16.5,15.5 22.5,9.5 22.5,1.5 14.5,1.5 8.5,7.5 		"/>
		<polyline class="st2" points="13.5,2.5 13.5,5.5 16.5,5.5 16.5,9.5 19.5,9.5 19.5,12.5 		"/>
		<line class="st2" x1="1" y1="2.8" x2="21.2" y2="23"/>
	</g>
</g>
<g id="Frames-24px">
	<rect class="st3" width="24" height="24"/>
</g>
</svg>
