<?xml version="1.0" encoding="utf-8"?>
<!-- Generator: Adobe Illustrator 21.0.2, SVG Export Plug-In . SVG Version: 6.00 Build 0)  -->
<svg version="1.1" xmlns="http://www.w3.org/2000/svg" xmlns:xlink="http://www.w3.org/1999/xlink" x="0px" y="0px"
	 viewBox="0 0 24 24" style="enable-background:new 0 0 24 24;" xml:space="preserve">
<style type="text/css">
	.st0{fill:#FFFFFF;}
	.st1{fill:#CCE7FF;}
	.st2{fill:none;stroke:#1078FF;stroke-linecap:round;stroke-linejoin:round;stroke-miterlimit:10;}
	.st3{fill:none;}
</style>
<g id="Duotone">
	<polygon class="st0" points="14.5,20 12,16.5 9.5,18 7,16.5 4.5,20 0.5,18.5 4.5,23.5 9.5,20.5 14.5,23.5 18.5,18.5 	"/>
	<polygon class="st0" points="21.5,8 17,10.5 12.5,8 12.5,3 17,0.5 21.5,3 	"/>
	<polygon class="st1" points="21.5,3 21.5,8 17,10.5 12.5,8 	"/>
	<polygon class="st1" points="9.5,20.5 14.5,23.5 18.5,18.5 14.5,22 11.5,18.5 9.5,19.5 7.5,18.5 4.5,22 0.5,18.5 4.5,23.5 	"/>
	<g>
		<line class="st2" x1="23.5" y1="22.5" x2="23.5" y2="6.5"/>
		<polygon class="st2" points="14.5,20 12,16.5 9.5,18 7,16.5 4.5,20 0.5,18.5 4.5,23.5 9.5,20.5 14.5,23.5 18.5,18.5 		"/>
		<line class="st2" x1="17" y1="3" x2="14.5" y2="4.5"/>
		<polygon class="st2" points="21.5,8 17,10.5 12.5,8 12.5,3 17,0.5 21.5,3 		"/>
		<line class="st2" x1="23.5" y1="3.5" x2="23.5" y2="4.5"/>
	</g>
</g>
<g id="Frames-24px">
	<rect class="st3" width="24" height="24"/>
</g>
</svg>
