<?xml version="1.0" encoding="utf-8"?>
<!-- Generator: Adobe Illustrator 21.0.2, SVG Export Plug-In . SVG Version: 6.00 Build 0)  -->
<svg version="1.1" xmlns="http://www.w3.org/2000/svg" xmlns:xlink="http://www.w3.org/1999/xlink" x="0px" y="0px"
	 viewBox="0 0 24 24" style="enable-background:new 0 0 24 24;" xml:space="preserve">
<style type="text/css">
	.st0{fill:#FFFFFF;}
	.st1{fill:#CCE7FF;}
	.st2{fill:none;stroke:#1078FF;stroke-linecap:round;stroke-linejoin:round;stroke-miterlimit:10;}
	.st3{fill:none;}
</style>
<g id="Duotone">
	<polygon class="st0" points="18.5,23.5 5.5,23.5 5.5,7.5 1.5,10 1.5,3 6,0.5 18,0.5 22.5,3 22.5,10 18.5,7.5 	"/>
	<polygon class="st1" points="15.5,0.5 12,6 8.5,0.5 	"/>
	<rect x="5.5" y="21.5" class="st1" width="13" height="2"/>
	<g>
		<polygon class="st2" points="18.5,23.5 5.5,23.5 5.5,7.5 1.5,10 1.5,3 6,0.5 18,0.5 22.5,3 22.5,10 18.5,7.5 		"/>
		<polyline class="st2" points="15.5,0.5 12,6 8.5,0.5 		"/>
	</g>
</g>
<g id="Frames-24px">
	<rect class="st3" width="24" height="24"/>
</g>
</svg>
