<?xml version="1.0" encoding="utf-8"?>
<!-- Generator: Adobe Illustrator 21.0.2, SVG Export Plug-In . SVG Version: 6.00 Build 0)  -->
<svg version="1.1" xmlns="http://www.w3.org/2000/svg" xmlns:xlink="http://www.w3.org/1999/xlink" x="0px" y="0px"
	 viewBox="0 0 24 24" style="enable-background:new 0 0 24 24;" xml:space="preserve">
<style type="text/css">
	.st0{fill:#FFFFFF;}
	.st1{fill:#CCE7FF;}
	.st2{fill:none;stroke:#1078FF;stroke-linecap:round;stroke-linejoin:round;stroke-miterlimit:10;}
	.st3{fill:none;}
</style>
<g id="Duotone">
	<polygon class="st0" points="6.5,6.5 4,11 6,15 4.5,23.5 19.5,23.5 18,15 20,11 17.5,6.5 	"/>
	<polygon class="st1" points="4.9,21.5 4.5,23.5 19.5,23.5 19.1,21.5 	"/>
	<polygon class="st1" points="4,11 6,15 18,15 20,11 	"/>
	<g>
		<polygon class="st2" points="6.5,6.5 4,11 6,15 4.5,23.5 19.5,23.5 18,15 20,11 17.5,6.5 		"/>
		<line class="st2" x1="6.5" y1="6.5" x2="6.5" y2="0.5"/>
		<line class="st2" x1="17.5" y1="6.5" x2="17.5" y2="0.5"/>
	</g>
</g>
<g id="Frames-24px">
	<rect class="st3" width="24" height="24"/>
</g>
</svg>
