<?xml version="1.0" encoding="utf-8"?>
<!-- Generator: Adobe Illustrator 21.0.2, SVG Export Plug-In . SVG Version: 6.00 Build 0)  -->
<svg version="1.1" xmlns="http://www.w3.org/2000/svg" xmlns:xlink="http://www.w3.org/1999/xlink" x="0px" y="0px" width="24px"
	 height="24px" viewBox="0 0 24 24" enable-background="new 0 0 24 24" xml:space="preserve">
<g id="Duotone">
	<polygon fill="#FFFFFF" points="11.46,0.555 9.339,2.676 10.046,3.383 2.621,12.222 2.268,14.697 0.5,17.172 3.328,20 
		5.803,18.232 8.278,17.879 17.117,10.454 17.824,11.161 19.945,9.04 	"/>
	<g>
		<polygon fill="#CCE7FF" points="13.581,6.918 4.035,16.464 5.803,18.232 8.278,17.879 17.117,10.454 		"/>
		
			<rect x="15.263" y="4.979" transform="matrix(0.7071 -0.7071 0.7071 0.7071 -0.732 14.191)" fill="#CCE7FF" width="3" height="6"/>
	</g>
	<polyline fill="none" stroke="#1078FF" stroke-linecap="round" stroke-linejoin="round" stroke-miterlimit="10" points="3.5,22 
		5.5,23.5 8,22 10,23.5 12.5,22 14.5,23.5 17,22 19,23.5 21.5,22 23.5,23.5 	"/>
	<polygon fill="none" stroke="#1078FF" stroke-linecap="round" stroke-linejoin="round" stroke-miterlimit="10" points="3.328,20 
		0.5,17.172 2.268,14.697 5.803,18.232 	"/>
	
		<line fill="none" stroke="#1078FF" stroke-linecap="round" stroke-linejoin="round" stroke-miterlimit="10" x1="11.814" y1="5.151" x2="10.046" y2="6.918"/>
	
		<line fill="none" stroke="#1078FF" stroke-linecap="round" stroke-linejoin="round" stroke-miterlimit="10" x1="13.581" y1="6.918" x2="11.814" y2="8.686"/>
	
		<line fill="none" stroke="#1078FF" stroke-linecap="round" stroke-linejoin="round" stroke-miterlimit="10" x1="15.349" y1="8.686" x2="13.581" y2="10.454"/>
	
		<line fill="none" stroke="#1078FF" stroke-linecap="round" stroke-linejoin="round" stroke-miterlimit="10" x1="3.59" y1="11.069" x2="9.431" y2="16.91"/>
	<polyline fill="none" stroke="#1078FF" stroke-linecap="round" stroke-linejoin="round" stroke-miterlimit="10" points="
		17.117,10.454 8.278,17.879 5.803,18.232 2.268,14.697 2.621,12.222 10.046,3.383 	"/>
	
		<rect x="8.642" y="4.358" transform="matrix(0.7071 0.7071 -0.7071 0.7071 8.4307 -8.6378)" fill="none" stroke="#1078FF" stroke-linecap="round" stroke-linejoin="round" stroke-miterlimit="10" width="12" height="3"/>
</g>
<g id="Frames-24px">
	<rect fill="none" width="24" height="24"/>
</g>
</svg>
