<?xml version="1.0" encoding="utf-8"?>
<!-- Generator: Adobe Illustrator 21.0.2, SVG Export Plug-In . SVG Version: 6.00 Build 0)  -->
<svg version="1.1" xmlns="http://www.w3.org/2000/svg" xmlns:xlink="http://www.w3.org/1999/xlink" x="0px" y="0px" width="24px"
	 height="24px" viewBox="0 0 24 24" enable-background="new 0 0 24 24" xml:space="preserve">
<g id="Duotone">
	<polygon fill="#FFFFFF" points="23.5,6.5 0.5,6.5 0.5,13.5 6.5,13.5 6.5,22.5 17.5,22.5 17.5,13.5 23.5,13.5 	"/>
	<polygon fill="#FFFFFF" points="1,23.5 4,23.5 2.5,20.5 	"/>
	<polygon fill="#FFFFFF" points="20,23.5 23,23.5 21.5,20.5 	"/>
	<polygon fill="#CCE7FF" points="23.5,13.5 20,13.5 20,11.5 4,11.5 4,13.5 0.5,13.5 0.5,9.5 23.5,9.5 	"/>
	
		<rect x="8.939" y="13.939" transform="matrix(0.7071 -0.7071 0.7071 0.7071 -7.6777 11.4645)" fill="#CCE7FF" width="2.121" height="2.121"/>
	
		<line fill="none" stroke="#1078FF" stroke-linecap="round" stroke-linejoin="round" stroke-miterlimit="10" x1="3.5" y1="11.5" x2="20.5" y2="11.5"/>
	<polygon fill="#CCE7FF" points="13.5,16 11.5,19 10,18 8.5,20.5 15.5,20.5 	"/>
	
		<rect x="8.939" y="13.939" transform="matrix(0.7071 -0.7071 0.7071 0.7071 -7.6777 11.4645)" fill="none" stroke="#1078FF" stroke-linecap="round" stroke-linejoin="round" stroke-miterlimit="10" width="2.121" height="2.121"/>
	<polygon fill="none" stroke="#1078FF" stroke-linecap="round" stroke-linejoin="round" stroke-miterlimit="10" points="13.5,16 
		11.5,19 10,18 8.5,20.5 15.5,20.5 	"/>
	
		<rect x="6.5" y="11.5" fill="none" stroke="#1078FF" stroke-linecap="round" stroke-linejoin="round" stroke-miterlimit="10" width="11" height="11"/>
	<polyline fill="none" stroke="#1078FF" stroke-linecap="round" stroke-linejoin="round" stroke-miterlimit="10" points="4.5,13.5 
		0.5,13.5 0.5,6.5 23.5,6.5 23.5,13.5 19.5,13.5 	"/>
	
		<line fill="none" stroke="#1078FF" stroke-linecap="round" stroke-linejoin="round" stroke-miterlimit="10" x1="2.5" y1="9.5" x2="3.5" y2="9.5"/>
	
		<line fill="none" stroke="#1078FF" stroke-linecap="round" stroke-linejoin="round" stroke-miterlimit="10" x1="5.5" y1="9.5" x2="6.5" y2="9.5"/>
	
		<line fill="none" stroke="#1078FF" stroke-linecap="round" stroke-linejoin="round" stroke-miterlimit="10" x1="2.5" y1="13.5" x2="2.5" y2="20.5"/>
	<polygon fill="none" stroke="#1078FF" stroke-linecap="round" stroke-linejoin="round" stroke-miterlimit="10" points="1,23.5 
		4,23.5 2.5,20.5 	"/>
	
		<line fill="none" stroke="#1078FF" stroke-linecap="round" stroke-linejoin="round" stroke-miterlimit="10" x1="21.5" y1="13.5" x2="21.5" y2="20.5"/>
	<polygon fill="none" stroke="#1078FF" stroke-linecap="round" stroke-linejoin="round" stroke-miterlimit="10" points="20,23.5 
		23,23.5 21.5,20.5 	"/>
</g>
<g id="Frames-24px">
	<rect fill="none" width="24" height="24"/>
</g>
</svg>
