<?xml version="1.0" encoding="utf-8"?>
<!-- Generator: Adobe Illustrator 21.0.2, SVG Export Plug-In . SVG Version: 6.00 Build 0)  -->
<svg version="1.1" xmlns="http://www.w3.org/2000/svg" xmlns:xlink="http://www.w3.org/1999/xlink" x="0px" y="0px" width="24px"
	 height="24px" viewBox="0 0 24 24" enable-background="new 0 0 24 24" xml:space="preserve">
<g id="Duotone">
	
		<rect x="1.086" y="2.086" transform="matrix(0.7071 -0.7071 0.7071 0.7071 -1.7426 2.7929)" fill="#CCE7FF" width="2.828" height="2.828"/>
	
		<rect x="19.086" y="2.086" transform="matrix(0.7071 -0.7071 0.7071 0.7071 3.5294 15.5208)" fill="#CCE7FF" width="2.828" height="2.828"/>
	
		<rect x="1.086" y="20.086" transform="matrix(0.7071 -0.7071 0.7071 0.7071 -14.4706 8.065)" fill="#CCE7FF" width="2.828" height="2.828"/>
	
		<rect x="19.086" y="20.086" transform="matrix(0.7071 -0.7071 0.7071 0.7071 -9.1985 20.7929)" fill="#CCE7FF" width="2.828" height="2.828"/>
	
		<line fill="none" stroke="#1078FF" stroke-linecap="round" stroke-linejoin="round" stroke-miterlimit="10" x1="4.5" y1="3.5" x2="18.5" y2="3.5"/>
	
		<rect x="1.086" y="2.086" transform="matrix(0.7071 -0.7071 0.7071 0.7071 -1.7426 2.7929)" fill="none" stroke="#1078FF" stroke-linecap="round" stroke-linejoin="round" stroke-miterlimit="10" width="2.828" height="2.828"/>
	
		<rect x="19.086" y="2.086" transform="matrix(0.7071 -0.7071 0.7071 0.7071 3.5294 15.5208)" fill="none" stroke="#1078FF" stroke-linecap="round" stroke-linejoin="round" stroke-miterlimit="10" width="2.828" height="2.828"/>
	
		<rect x="1.086" y="20.086" transform="matrix(0.7071 -0.7071 0.7071 0.7071 -14.4706 8.065)" fill="none" stroke="#1078FF" stroke-linecap="round" stroke-linejoin="round" stroke-miterlimit="10" width="2.828" height="2.828"/>
	
		<rect x="19.086" y="20.086" transform="matrix(0.7071 -0.7071 0.7071 0.7071 -9.1985 20.7929)" fill="none" stroke="#1078FF" stroke-linecap="round" stroke-linejoin="round" stroke-miterlimit="10" width="2.828" height="2.828"/>
	
		<line fill="none" stroke="#1078FF" stroke-linecap="round" stroke-linejoin="round" stroke-miterlimit="10" x1="4.5" y1="21.5" x2="18.498" y2="21.5"/>
	
		<line fill="none" stroke="#1078FF" stroke-linecap="round" stroke-linejoin="round" stroke-miterlimit="10" x1="2.5" y1="19.499" x2="2.5" y2="5.5"/>
	
		<line fill="none" stroke="#1078FF" stroke-linecap="round" stroke-linejoin="round" stroke-miterlimit="10" x1="20.5" y1="19.499" x2="20.5" y2="5.5"/>
</g>
<g id="Frames-24px">
	<rect fill="none" width="24" height="24"/>
</g>
</svg>
