<?xml version="1.0" encoding="utf-8"?>
<!-- Generator: Adobe Illustrator 21.0.2, SVG Export Plug-In . SVG Version: 6.00 Build 0)  -->
<svg version="1.1" xmlns="http://www.w3.org/2000/svg" xmlns:xlink="http://www.w3.org/1999/xlink" x="0px" y="0px" width="24px"
	 height="24px" viewBox="0 0 24 24" enable-background="new 0 0 24 24" xml:space="preserve">
<g id="Duotone">
	<rect x="0.5" y="1.5" fill="#FFFFFF" width="22" height="22"/>
	<rect x="0.5" y="1.5" fill="#CCE7FF" width="22" height="4"/>
	<polygon fill="#CCE7FF" points="18.709,16.485 16,21 13.5,20 12.5,21.5 20.5,21.5 	"/>
	<g>
		<polygon fill="#CCE7FF" points="13.5,12.25 13.5,14.25 11.5,15.5 9.5,14.25 		"/>
	</g>
	<rect x="2.5" y="8.5" fill="#CCE7FF" width="3" height="9"/>
	<rect x="0.5" y="1.5" fill="none" stroke="#1078FF" stroke-linejoin="round" stroke-miterlimit="10" width="22" height="22"/>
	<line fill="none" stroke="#1078FF" stroke-linejoin="round" stroke-miterlimit="10" x1="22.498" y1="5.5" x2="0.5" y2="5.5"/>
	
		<rect x="2.5" y="8.5" fill="none" stroke="#1078FF" stroke-linecap="round" stroke-linejoin="round" stroke-miterlimit="10" width="3" height="9"/>
	
		<line fill="none" stroke="#1078FF" stroke-linecap="round" stroke-linejoin="round" stroke-miterlimit="10" x1="2.501" y1="11.5" x2="5.499" y2="11.5"/>
	
		<line fill="none" stroke="#1078FF" stroke-linecap="round" stroke-linejoin="round" stroke-miterlimit="10" x1="2.501" y1="14.5" x2="5.499" y2="14.5"/>
	
		<line fill="none" stroke="#1078FF" stroke-linecap="round" stroke-linejoin="round" stroke-miterlimit="10" x1="2.5" y1="3.5" x2="3.5" y2="3.5"/>
	
		<line fill="none" stroke="#1078FF" stroke-linecap="round" stroke-linejoin="round" stroke-miterlimit="10" x1="5.5" y1="3.5" x2="6.5" y2="3.5"/>
	<polygon fill="none" stroke="#1078FF" stroke-linejoin="round" stroke-miterlimit="10" points="18,14.5 15,19.5 12.5,18.5 
		10.5,21.5 20.5,21.5 	"/>
	<rect x="7.5" y="8.5" fill="none" stroke="#1078FF" stroke-linejoin="round" stroke-miterlimit="10" width="13" height="13"/>
	<polygon fill="none" stroke="#1078FF" stroke-linecap="round" stroke-linejoin="round" stroke-miterlimit="10" points="13.5,14.25 
		11.5,15.5 9.5,14.25 9.5,12.25 11.5,11 13.5,12.25 	"/>
	<polygon fill="none" stroke="#1078FF" stroke-linejoin="round" stroke-miterlimit="10" points="18,14.5 15,19.5 12.5,18.5 
		10.5,21.5 20.5,21.5 	"/>
</g>
<g id="Frames-24px">
	<rect fill="none" width="24" height="24"/>
</g>
</svg>
