<?xml version="1.0" encoding="utf-8"?>
<!-- Generator: Adobe Illustrator 21.0.2, SVG Export Plug-In . SVG Version: 6.00 Build 0)  -->
<svg version="1.1" xmlns="http://www.w3.org/2000/svg" xmlns:xlink="http://www.w3.org/1999/xlink" x="0px" y="0px"
	 viewBox="0 0 24 24" style="enable-background:new 0 0 24 24;" xml:space="preserve">
<style type="text/css">
	.st0{fill:#FFFFFF;}
	.st1{fill:#CCE7FF;}
	.st2{fill:#CCE7FF;stroke:#CCE7FF;stroke-width:0;stroke-linecap:round;stroke-linejoin:round;}
	.st3{fill:none;stroke:#1078FF;stroke-linecap:round;stroke-linejoin:round;stroke-miterlimit:10;}
	.st4{fill:none;stroke:#1078FF;stroke-linejoin:round;stroke-miterlimit:10;}
	.st5{fill:none;}
</style>
<g id="Duotone">
	<rect x="3.5" y="1.5" class="st0" width="19" height="19"/>
	<polygon class="st1" points="3.5,20.5 22.5,20.5 20.5,18.5 5.5,18.5 	"/>
	<polygon class="st1" points="3.5,5.5 0.5,5.5 0.5,23.5 18.5,23.5 18.5,20.5 3.5,20.5 	"/>
	<line class="st3" x1="6.5" y1="6.5" x2="19.5" y2="6.5"/>
	<line class="st3" x1="6.5" y1="9.5" x2="19.5" y2="9.5"/>
	<line class="st3" x1="6.5" y1="12.5" x2="19.5" y2="12.5"/>
	<line class="st3" x1="6.5" y1="15.5" x2="13.5" y2="15.5"/>
	<polyline class="st3" points="3.5,5.5 0.5,5.5 0.5,23.5 18.5,23.5 18.5,20.5 	"/>
	<rect x="3.5" y="1.5" class="st3" width="19" height="19"/>
</g>
<g id="Frames-24px">
	<rect class="st5" width="24" height="24"/>
</g>
</svg>
