<?xml version="1.0" encoding="utf-8"?>
<!-- Generator: Adobe Illustrator 21.0.2, SVG Export Plug-In . SVG Version: 6.00 Build 0)  -->
<svg version="1.1" xmlns="http://www.w3.org/2000/svg" xmlns:xlink="http://www.w3.org/1999/xlink" x="0px" y="0px"
	 viewBox="0 0 24 24" style="enable-background:new 0 0 24 24;" xml:space="preserve">
<style type="text/css">
	.st0{fill:#FFFFFF;}
	.st1{fill:#CCE7FF;}
	.st2{fill:#CCE7FF;stroke:#CCE7FF;stroke-width:0;stroke-linecap:round;stroke-linejoin:round;}
	.st3{fill:none;stroke:#1078FF;stroke-linecap:round;stroke-linejoin:round;stroke-miterlimit:10;}
	.st4{fill:none;stroke:#1078FF;stroke-linejoin:round;stroke-miterlimit:10;}
	.st5{fill:none;}
</style>
<g id="Duotone">
	<polygon class="st0" points="1.5,18 11.5,23.5 21.5,18 21.5,7 11.5,1.5 1.5,7 	"/>
	<polygon class="st2" points="2,18 12,23.5 22,18 19.9,16.7 12,21 4.1,16.7 	"/>
	<polyline class="st3" points="13.5,15.5 17.5,11.5 13.5,7.5 	"/>
	<polyline class="st3" points="17.5,11.5 8.5,11.5 5.5,14.5 	"/>
	<polygon class="st3" points="1.5,18 11.5,23.5 21.5,18 21.5,7 11.5,1.5 1.5,7 	"/>
</g>
<g id="Frames-24px">
	<rect class="st5" width="24" height="24"/>
</g>
</svg>
