<?xml version="1.0" encoding="utf-8"?>
<!-- Generator: Adobe Illustrator 21.0.2, SVG Export Plug-In . SVG Version: 6.00 Build 0)  -->
<svg version="1.1" xmlns="http://www.w3.org/2000/svg" xmlns:xlink="http://www.w3.org/1999/xlink" x="0px" y="0px" width="24px"
	 height="24px" viewBox="0 0 24 24" enable-background="new 0 0 24 24" xml:space="preserve">
<g id="Black">
	<g>
		<rect x="0.5" y="2.5" fill="none" stroke="#58595B" stroke-linejoin="round" stroke-miterlimit="10" width="22" height="18"/>
		<line fill="none" stroke="#58595B" stroke-linejoin="round" stroke-miterlimit="10" x1="0.5" y1="16.5" x2="22.5" y2="16.5"/>
		<line fill="none" stroke="#58595B" stroke-linejoin="round" stroke-miterlimit="10" x1="11.5" y1="20.5" x2="11.5" y2="23.5"/>
		
			<line fill="none" stroke="#58595B" stroke-linecap="round" stroke-linejoin="round" stroke-miterlimit="10" x1="5.448" y1="23.5" x2="17.448" y2="23.5"/>
		
			<line fill="none" stroke="#58595B" stroke-linecap="round" stroke-linejoin="round" stroke-miterlimit="10" x1="12.448" y1="18.5" x2="10.448" y2="18.5"/>
		<rect x="2.5" y="7.5" fill="none" stroke="#58595B" stroke-linejoin="round" stroke-miterlimit="10" width="4" height="4"/>
		<polygon fill="none" stroke="#58595B" stroke-linejoin="round" stroke-miterlimit="10" points="20.5,11.5 15.5,11.5 18,7 		"/>
		<polygon fill="none" stroke="#58595B" stroke-linecap="round" stroke-linejoin="round" stroke-miterlimit="10" points="
			13.5,10.25 11.5,11.5 9.5,10.25 9.5,8.25 11.5,7 13.5,8.25 		"/>
	</g>
</g>
<g id="Frames-24px">
	<rect fill="none" width="24" height="24"/>
</g>
</svg>
