<?xml version="1.0" encoding="utf-8"?>
<!-- Generator: Adobe Illustrator 21.0.2, SVG Export Plug-In . SVG Version: 6.00 Build 0)  -->
<svg version="1.1" xmlns="http://www.w3.org/2000/svg" xmlns:xlink="http://www.w3.org/1999/xlink" x="0px" y="0px" width="24px"
	 height="24px" viewBox="0 0 24 24" enable-background="new 0 0 24 24" xml:space="preserve">
<g id="Black">
	<g>
		<g>
			<polygon fill="none" stroke="#58595B" stroke-linecap="round" stroke-linejoin="round" stroke-miterlimit="10" points="7.5,15.5 
				4.052,16 3.052,19.5 0.5,19.5 4.052,23.5 6.5,23.5 9.5,20.5 9.5,17.5 			"/>
			<polygon fill="none" stroke="#58595B" stroke-linejoin="round" stroke-miterlimit="10" points="7.5,15.5 9.5,17.5 11.5,17.5 
				22.5,2.5 21.5,1.5 7.5,13.5 			"/>
		</g>
		
			<line fill="none" stroke="#58595B" stroke-linecap="round" stroke-linejoin="round" stroke-miterlimit="10" x1="3.062" y1="19.5" x2="4.5" y2="19.5"/>
	</g>
</g>
<g id="Frames-24px">
	<rect fill="none" width="24" height="24"/>
</g>
</svg>
