<?xml version="1.0" encoding="utf-8"?>
<!-- Generator: Adobe Illustrator 21.0.2, SVG Export Plug-In . SVG Version: 6.00 Build 0)  -->
<svg version="1.1" xmlns="http://www.w3.org/2000/svg" xmlns:xlink="http://www.w3.org/1999/xlink" x="0px" y="0px" width="24px"
	 height="24px" viewBox="0 0 24 24" enable-background="new 0 0 24 24" xml:space="preserve">
<g id="Black">
	<g>
		<g>
			<g>
				
					<rect x="2.5" y="5.5" fill="none" stroke="#58595B" stroke-linecap="round" stroke-linejoin="round" stroke-miterlimit="10" width="16" height="14"/>
				<polyline fill="none" stroke="#58595B" stroke-linecap="round" stroke-linejoin="round" stroke-miterlimit="10" points="
					18.5,5.5 16,3.5 15.5,1.5 5.5,1.5 5,3.5 2.5,5.5 				"/>
				<polyline fill="none" stroke="#58595B" stroke-linecap="round" stroke-linejoin="round" stroke-miterlimit="10" points="
					18.5,19.5 16,21.5 15.5,23.5 5.5,23.5 5,21.5 2.5,19.5 				"/>
				<polyline fill="none" stroke="#58595B" stroke-linecap="round" stroke-linejoin="round" stroke-miterlimit="10" points="
					18.5,9.5 20,9.5 20.5,11 20,12.5 18.5,12.5 				"/>
				
					<line fill="none" stroke="#58595B" stroke-linecap="round" stroke-linejoin="round" stroke-miterlimit="10" x1="5" y1="3.5" x2="16" y2="3.5"/>
				
					<line fill="none" stroke="#58595B" stroke-linecap="round" stroke-linejoin="round" stroke-miterlimit="10" x1="5" y1="21.5" x2="16" y2="21.5"/>
			</g>
		</g>
		<g>
			<polygon fill="none" stroke="#58595B" stroke-linecap="round" stroke-linejoin="round" stroke-miterlimit="10" points="
				8.5,11.382 10.5,10.25 12.5,11.382 12.5,13.618 10.5,14.75 8.5,13.618 			"/>
			<polygon fill="none" stroke="#58595B" stroke-linecap="round" stroke-linejoin="round" stroke-miterlimit="10" points="
				14.5,11.513 15.5,10.417 14.738,9.125 13.26,9.478 11.582,8.579 11.25,7.5 9.75,7.5 9.418,8.579 7.74,9.478 6.262,9.125 
				5.5,10.417 6.5,11.513 6.5,13.487 5.5,14.583 6.262,15.875 7.74,15.522 9.418,16.421 9.75,17.5 11.25,17.5 11.582,16.421 
				13.26,15.522 14.738,15.875 15.5,14.583 14.5,13.487 			"/>
		</g>
	</g>
</g>
<g id="Frames-24px">
	<rect fill="none" width="24" height="24"/>
</g>
</svg>
