<?xml version="1.0" encoding="utf-8"?>
<!-- Generator: Adobe Illustrator 21.0.2, SVG Export Plug-In . SVG Version: 6.00 Build 0)  -->
<svg version="1.1" xmlns="http://www.w3.org/2000/svg" xmlns:xlink="http://www.w3.org/1999/xlink" x="0px" y="0px" width="24px"
	 height="24px" viewBox="0 0 24 24" enable-background="new 0 0 24 24" xml:space="preserve">
<g id="Black">
	<g>
		<polygon fill="none" stroke="#58595B" stroke-linecap="round" stroke-linejoin="round" stroke-miterlimit="10" points="8.5,1.75 
			11.5,0.5 14.5,1.75 14.5,4.25 11.5,5.5 8.5,4.25 		"/>
		<polyline fill="none" stroke="#58595B" stroke-linecap="round" stroke-linejoin="round" stroke-miterlimit="10" points="16.5,4.5 
			22.5,4.5 22.5,18.5 0.5,18.5 0.5,4.5 6.5,4.5 		"/>
		
			<rect x="0.5" y="18.5" fill="none" stroke="#58595B" stroke-linecap="round" stroke-linejoin="round" stroke-miterlimit="10" width="22" height="3"/>
		
			<line fill="none" stroke="#58595B" stroke-linecap="round" stroke-linejoin="round" stroke-miterlimit="10" x1="6.5" y1="23.5" x2="16.5" y2="23.5"/>
		
			<line fill="none" stroke="#58595B" stroke-linecap="round" stroke-linejoin="round" stroke-miterlimit="10" x1="11.5" y1="23.5" x2="11.5" y2="21.5"/>
		<g>
			<path fill="#58595B" d="M11.5,2.001c-0.051,0-0.102,0.019-0.141,0.058l-0.799,0.799c-0.078,0.078-0.078,0.205,0,0.283
				l0.799,0.799c0.039,0.039,0.09,0.058,0.141,0.058s0.102-0.019,0.141-0.058l0.799-0.799c0.078-0.078,0.078-0.205,0-0.283
				l-0.799-0.799C11.602,2.02,11.551,2.001,11.5,2.001L11.5,2.001z"/>
		</g>
		<g>
			<polygon fill="none" stroke="#58595B" stroke-linecap="round" stroke-linejoin="round" stroke-miterlimit="10" points="14.5,13 
				11.5,14.5 8.5,13 8.5,9 11.5,7.5 14.5,9 			"/>
			<g>
				<polyline fill="none" stroke="#58595B" stroke-linecap="round" stroke-linejoin="round" stroke-miterlimit="10" points="8.5,9 
					11,10.5 14.5,10.5 				"/>
			</g>
			<polyline fill="none" stroke="#58595B" stroke-linecap="round" stroke-linejoin="round" stroke-miterlimit="10" points="
				16.5,18.5 16.5,17 11.5,15.5 6.5,17 6.5,18.5 			"/>
		</g>
	</g>
</g>
<g id="Frames-24px">
	<rect fill="none" width="24" height="24"/>
</g>
</svg>
