<?xml version="1.0" encoding="utf-8"?>
<!-- Generator: Adobe Illustrator 21.0.2, SVG Export Plug-In . SVG Version: 6.00 Build 0)  -->
<svg version="1.1" xmlns="http://www.w3.org/2000/svg" xmlns:xlink="http://www.w3.org/1999/xlink" x="0px" y="0px"
	 viewBox="0 0 24 24" style="enable-background:new 0 0 24 24;" xml:space="preserve">
<style type="text/css">
	.st0{fill:#FFFFFF;}
	.st1{fill:#FFFFFF;stroke:#1078FF;stroke-linecap:round;stroke-linejoin:round;stroke-miterlimit:10;}
	.st2{fill:#CCE7FF;}
	.st3{fill:none;stroke:#1078FF;stroke-linecap:round;stroke-linejoin:round;stroke-miterlimit:10;}
	.st4{fill:#1078FF;}
	.st5{fill:none;}
</style>
<g id="Duotone">
	<polygon class="st0" points="23.5,7.5 20.5,9.5 17.5,7.5 17.5,3.5 20.5,1.5 23.5,3.5 	"/>
	<polygon class="st0" points="13.5,23.5 10.5,19.5 14.5,13.5 13.5,10.5 1.5,10.5 0.5,13.5 4.5,19.5 1.5,23.5 	"/>
	<polygon class="st0" points="13,10.5 12,3.5 7.5,0.5 3,3.5 2,10.5 	"/>
	<polygon class="st0" points="20.5,9.5 19,22.5 20.5,23.5 22,22.5 	"/>
	<polygon class="st2" points="14.5,13.5 13.5,10.5 1.5,10.5 0.5,13.5 	"/>
	<polygon class="st2" points="23.5,3.5 23.5,7.5 20.5,9.5 17.5,7.5 	"/>
	<polygon class="st2" points="12.2,5.2 9,3 4.5,6 3.9,10.5 13,10.5 	"/>
	<g>
		<polygon class="st3" points="23.5,7.5 20.5,9.5 17.5,7.5 17.5,3.5 20.5,1.5 23.5,3.5 		"/>
		<polygon class="st3" points="13.5,23.5 10.5,19.5 14.5,13.5 13.5,10.5 1.5,10.5 0.5,13.5 4.5,19.5 1.5,23.5 		"/>
		<polyline class="st3" points="13,10.5 12,3.5 7.5,0.5 3,3.5 2,10.5 		"/>
		<polyline class="st3" points="6.9,3.8 5,5 4.5,7.5 		"/>
		<line class="st3" x1="0.5" y1="13.5" x2="14.5" y2="13.5"/>
		<polygon class="st3" points="20.5,9.5 19,22.5 20.5,23.5 22,22.5 		"/>
	</g>
</g>
<g id="Frames-24px">
	<rect class="st5" width="24" height="24"/>
</g>
</svg>
