<?xml version="1.0" encoding="utf-8"?>
<!-- Generator: Adobe Illustrator 21.0.2, SVG Export Plug-In . SVG Version: 6.00 Build 0)  -->
<svg version="1.1" xmlns="http://www.w3.org/2000/svg" xmlns:xlink="http://www.w3.org/1999/xlink" x="0px" y="0px"
	 viewBox="0 0 24 24" style="enable-background:new 0 0 24 24;" xml:space="preserve">
<style type="text/css">
	.st0{fill:#FFFFFF;}
	.st1{fill:#FFFFFF;stroke:#1078FF;stroke-linecap:round;stroke-linejoin:round;stroke-miterlimit:10;}
	.st2{fill:#CCE7FF;}
	.st3{fill:none;stroke:#1078FF;stroke-linecap:round;stroke-linejoin:round;stroke-miterlimit:10;}
	.st4{fill:#1078FF;}
	.st5{fill:none;}
</style>
<g id="Duotone">
	<polygon class="st0" points="21.5,6.5 18.5,0.5 3.5,0.5 0.5,6.5 3.5,12.5 5,12.5 3.5,23.5 18.5,23.5 17.1,13.5 18,13.5 17.4,12.5 
		18.5,12.5 	"/>
	<polygon class="st2" points="13.5,13.5 10.4,8.6 4.8,14.2 3.5,23.5 18.5,23.5 17.1,13.5 	"/>
	<polygon class="st2" points="18.5,0.5 12.9,6.1 17.4,12.5 18.5,12.5 21.5,6.5 	"/>
	<g>
		<polyline class="st3" points="19.5,10.5 21.5,6.5 18.5,0.5 3.5,0.5 0.5,6.5 3.5,12.5 5,12.5 3.5,23.5 18.5,23.5 17.5,16 		"/>
		<polyline class="st3" points="23.5,21.4 11.5,4 10,8 13.5,13.5 18,13.5 		"/>
		<polyline class="st3" points="7.5,10.5 7.5,13.5 9.5,14.5 9.5,17 11.5,18.5 13,17 13,15.5 15,17 		"/>
	</g>
</g>
<g id="Frames-24px">
	<rect class="st5" width="24" height="24"/>
</g>
</svg>
