<?xml version="1.0" encoding="utf-8"?>
<!-- Generator: Adobe Illustrator 21.0.2, SVG Export Plug-In . SVG Version: 6.00 Build 0)  -->
<svg version="1.1" xmlns="http://www.w3.org/2000/svg" xmlns:xlink="http://www.w3.org/1999/xlink" x="0px" y="0px"
	 viewBox="0 0 24 24" style="enable-background:new 0 0 24 24;" xml:space="preserve">
<style type="text/css">
	.st0{fill:#FFFFFF;}
	.st1{fill:#FFFFFF;stroke:#1078FF;stroke-linecap:round;stroke-linejoin:round;stroke-miterlimit:10;}
	.st2{fill:#CCE7FF;}
	.st3{fill:none;stroke:#1078FF;stroke-linecap:round;stroke-linejoin:round;stroke-miterlimit:10;}
	.st4{fill:#1078FF;}
	.st5{fill:none;}
</style>
<g id="Duotone">
	<path class="st0" d="M20.1,3.9L12,0.5L3.9,3.9L0.5,12l3.4,8.1l8.1,3.4l8.1-3.4l3.4-8.1L20.1,3.9z M15.2,15.2L12,16.5l-3.2-1.3
		L7.5,12l1.3-3.2L12,7.5l3.2,1.3l1.3,3.2L15.2,15.2z"/>
	<path class="st2" d="M2.8,6.4l1.7,1.1V9L3,10L1.7,9.1L0.5,12l0.6,1.5H4l1.5,3l1.5-3h1.1L7.5,12l1.3-3.2L12,7.5l3.2,1.3l1.3,3.2
		l-0.6,1.5H18l1.5,1.5l1.5-1.5h1.9l0.6-1.5l-3.4-8.1L12,0.5L3.9,3.9L2.8,6.4z M18.5,7L17,8l-1.5-1V5.5l1.5-1l1.5,1V7z"/>
	<g>
		<polygon class="st3" points="23.5,12 20.1,20.1 12,23.5 3.9,20.1 0.5,12 3.9,3.9 12,0.5 20.1,3.9 		"/>
		<polygon class="st3" points="16.5,12 15.2,15.2 12,16.5 8.8,15.2 7.5,12 8.8,8.8 12,7.5 15.2,8.8 		"/>
		<polyline class="st3" points="1.1,13.5 4,13.5 5.5,16.5 7,13.5 8.1,13.5 		"/>
		<polyline class="st3" points="15.9,13.5 18,13.5 19.5,15 21,13.5 22.9,13.5 		"/>
		<polygon class="st3" points="18.5,7 17,8 15.5,7 15.5,5.5 17,4.5 18.5,5.5 		"/>
		<polyline class="st3" points="2.8,6.4 4.5,7.5 4.5,9 3,10 1.7,9.1 		"/>
		<g>
			<path class="st4" d="M8.5,5.8L8.5,5.8L8.5,5.8 M8,5C7.9,5,7.9,5,7.8,5.1L7.1,5.8C7,5.9,7,6.1,7.1,6.2l0.7,0.7C7.9,7,7.9,7,8,7
				c0.1,0,0.1,0,0.2-0.1l0.7-0.7C9,6.1,9,5.9,8.9,5.8L8.2,5.1C8.1,5,8.1,5,8,5L8,5z"/>
		</g>
		<g>
			<path class="st4" d="M12.5,2.8L12.5,2.8L12.5,2.8 M12,2c-0.1,0-0.1,0-0.2,0.1l-0.7,0.7c-0.1,0.1-0.1,0.3,0,0.4l0.7,0.7
				C11.9,4,11.9,4,12,4c0.1,0,0.1,0,0.2-0.1l0.7-0.7c0.1-0.1,0.1-0.3,0-0.4l-0.7-0.7C12.1,2,12.1,2,12,2L12,2z"/>
		</g>
	</g>
</g>
<g id="Frames-24px">
	<rect class="st5" width="24" height="24"/>
</g>
</svg>
