<?xml version="1.0" encoding="utf-8"?>
<!-- Generator: Adobe Illustrator 21.0.2, SVG Export Plug-In . SVG Version: 6.00 Build 0)  -->
<svg version="1.1" xmlns="http://www.w3.org/2000/svg" xmlns:xlink="http://www.w3.org/1999/xlink" x="0px" y="0px"
	 viewBox="0 0 24 24" style="enable-background:new 0 0 24 24;" xml:space="preserve">
<style type="text/css">
	.st0{fill:#FFFFFF;}
	.st1{fill:#FFFFFF;stroke:#1078FF;stroke-linecap:round;stroke-linejoin:round;stroke-miterlimit:10;}
	.st2{fill:#CCE7FF;}
	.st3{fill:none;stroke:#1078FF;stroke-linecap:round;stroke-linejoin:round;stroke-miterlimit:10;}
	.st4{fill:#1078FF;}
	.st5{fill:none;}
</style>
<g id="Duotone">
	<polygon class="st0" points="14,8.5 5.5,8.5 0.5,5 5.5,1.5 14,1.5 19,5 	"/>
	<polygon class="st0" points="23.5,7.5 19,5 23.5,2.5 	"/>
	<polygon class="st0" points="19.5,18.5 4.5,18.5 0.5,15.5 4.5,12.5 19.5,12.5 23.5,15.5 	"/>
	<polygon class="st2" points="5.5,15.5 9.5,16.5 9.5,14.5 	"/>
	<polygon class="st2" points="0.5,15.5 4.5,18.5 19.5,18.5 23.5,15.5 23.5,20.5 19.5,23.5 4.5,23.5 0.5,20.5 	"/>
	<polygon class="st2" points="19,5 14,8.5 5.5,8.5 0.5,5 	"/>
	<g>
		<polygon class="st3" points="14,8.5 5.5,8.5 0.5,5 5.5,1.5 14,1.5 19,5 		"/>
		<polyline class="st3" points="5.5,1.5 8,5 5.5,8.5 		"/>
		<polygon class="st3" points="23.5,7.5 19,5 23.5,2.5 		"/>
		<polygon class="st3" points="19.5,18.5 4.5,18.5 0.5,15.5 4.5,12.5 19.5,12.5 23.5,15.5 		"/>
		<polyline class="st3" points="0.5,15.5 0.5,20.5 4.5,23.5 19.5,23.5 23.5,20.5 23.5,15.5 		"/>
		<line class="st3" x1="4.5" y1="23.5" x2="4.5" y2="20.5"/>
		<line class="st3" x1="19.5" y1="23.5" x2="19.5" y2="20.5"/>
		<polygon class="st3" points="5.5,15.5 9.5,16.5 9.5,14.5 		"/>
		<line class="st3" x1="4.5" y1="4.5" x2="5.5" y2="4.5"/>
	</g>
</g>
<g id="Frames-24px">
	<rect class="st5" width="24" height="24"/>
</g>
</svg>
