<?xml version="1.0" encoding="utf-8"?>
<!-- Generator: Adobe Illustrator 21.0.2, SVG Export Plug-In . SVG Version: 6.00 Build 0)  -->
<svg version="1.1" xmlns="http://www.w3.org/2000/svg" xmlns:xlink="http://www.w3.org/1999/xlink" x="0px" y="0px"
	 viewBox="0 0 24 24" style="enable-background:new 0 0 24 24;" xml:space="preserve">
<style type="text/css">
	.st0{fill:#FFFFFF;}
	.st1{fill:#FFFFFF;stroke:#1078FF;stroke-linecap:round;stroke-linejoin:round;stroke-miterlimit:10;}
	.st2{fill:#CCE7FF;}
	.st3{fill:none;stroke:#1078FF;stroke-linecap:round;stroke-linejoin:round;stroke-miterlimit:10;}
	.st4{fill:#1078FF;}
	.st5{fill:none;}
</style>
<g id="Duotone">
	<polygon class="st0" points="22,14.5 19.5,11.5 15.5,11.5 11.5,7 7,12.5 4.5,12.5 2,14.5 0.5,14.5 1.5,18.5 5.5,21.5 6.5,21.5 
		8,23.5 16,23.5 17.5,21.5 18.5,21.5 22.5,18.5 23.5,14.5 	"/>
	<polygon class="st2" points="6.5,21.5 8,23.5 16,23.5 17.5,21.5 	"/>
	<polygon class="st2" points="12,23.5 16,23.5 17.5,21.5 18.5,21.5 22.5,18.5 23.5,14.5 12,14.5 	"/>
	<g>
		<polygon class="st3" points="16,23.5 17.5,21.5 18.5,21.5 22.5,18.5 23.5,14.5 0.5,14.5 1.5,18.5 5.5,21.5 6.5,21.5 8,23.5 		"/>
		<polyline class="st3" points="2,14.5 4.5,12.5 7,12.5 11.5,7 15.5,11.5 19.5,11.5 22,14.5 		"/>
		<polyline class="st3" points="4,4.5 5,3.5 3,1.5 4,0.5 		"/>
		<polyline class="st3" points="7.5,4.5 8.5,3.5 6.5,1.5 7.5,0.5 		"/>
		<line class="st3" x1="18.5" y1="0.5" x2="14.4" y2="10.3"/>
		<polyline class="st3" points="23.5,0.5 16,11.5 12.5,11.5 		"/>
		<line class="st3" x1="6.5" y1="21.5" x2="17.5" y2="21.5"/>
	</g>
</g>
<g id="Frames-24px">
	<rect class="st5" width="24" height="24"/>
</g>
</svg>
