<?xml version="1.0" encoding="utf-8"?>
<!-- Generator: Adobe Illustrator 21.0.2, SVG Export Plug-In . SVG Version: 6.00 Build 0)  -->
<svg version="1.1" xmlns="http://www.w3.org/2000/svg" xmlns:xlink="http://www.w3.org/1999/xlink" x="0px" y="0px"
	 viewBox="0 0 24 24" style="enable-background:new 0 0 24 24;" xml:space="preserve">
<style type="text/css">
	.st0{fill:#FFFFFF;}
	.st1{fill:#FFFFFF;stroke:#1078FF;stroke-linecap:round;stroke-linejoin:round;stroke-miterlimit:10;}
	.st2{fill:#CCE7FF;}
	.st3{fill:none;stroke:#1078FF;stroke-linecap:round;stroke-linejoin:round;stroke-miterlimit:10;}
	.st4{fill:#1078FF;}
	.st5{fill:none;}
</style>
<g id="Duotone">
	<polygon class="st0" points="23.5,11.5 21.5,9.5 15.5,9.5 16.5,6.5 16.5,3 12,0.5 7.5,3 7.5,6.5 8.5,9.5 2.5,9.5 0.5,11.5 
		2.5,13.5 8,13.5 5.5,21 7,23.5 10,22.5 12,18 14,22.5 17,23.5 18.5,21 16,13.5 21.5,13.5 	"/>
	<polygon class="st2" points="3.5,9.5 2.5,9.5 0.5,11.5 2.5,13.5 3.5,13.5 	"/>
	<polygon class="st2" points="21.5,9.5 20.5,9.5 20.5,13.5 21.5,13.5 23.5,11.5 	"/>
	<polygon class="st2" points="14,22.5 17,23.5 18.5,21 17.8,18.9 13.1,20.5 	"/>
	<polygon class="st2" points="5.5,21 7,23.5 10,22.5 10.9,20.5 6.2,18.9 	"/>
	<g>
		<line class="st3" x1="20.5" y1="9.5" x2="20.5" y2="13.5"/>
		<polygon class="st3" points="23.5,11.5 21.5,9.5 15.5,9.5 16.5,6.5 16.5,3 12,0.5 7.5,3 7.5,6.5 8.5,9.5 2.5,9.5 0.5,11.5 
			2.5,13.5 8,13.5 5.5,21 7,23.5 10,22.5 12,18 14,22.5 17,23.5 18.5,21 16,13.5 21.5,13.5 		"/>
		<line class="st3" x1="3.5" y1="9.5" x2="3.5" y2="13.5"/>
		<line class="st3" x1="6.2" y1="18.9" x2="10.9" y2="20.5"/>
		<line class="st3" x1="17.8" y1="18.9" x2="13.1" y2="20.5"/>
		<g>
			<path class="st4" d="M10.5,4.8L10.5,4.8L10.5,4.8 M10,4C9.9,4,9.9,4,9.8,4.1L9.1,4.8C9,4.9,9,5.1,9.1,5.2l0.7,0.7
				C9.9,6,9.9,6,10,6c0.1,0,0.1,0,0.2-0.1l0.7-0.7c0.1-0.1,0.1-0.3,0-0.4l-0.7-0.7C10.1,4,10.1,4,10,4L10,4z"/>
		</g>
		<g>
			<path class="st4" d="M14.5,4.8L14.5,4.8L14.5,4.8 M14,4c-0.1,0-0.1,0-0.2,0.1l-0.7,0.7c-0.1,0.1-0.1,0.3,0,0.4l0.7,0.7
				C13.9,6,13.9,6,14,6c0.1,0,0.1,0,0.2-0.1l0.7-0.7c0.1-0.1,0.1-0.3,0-0.4l-0.7-0.7C14.1,4,14.1,4,14,4L14,4z"/>
		</g>
		<g>
			<path class="st4" d="M12.5,10.8L12.5,10.8L12.5,10.8 M12,10c-0.1,0-0.1,0-0.2,0.1l-0.7,0.7c-0.1,0.1-0.1,0.3,0,0.4l0.7,0.7
				C11.9,12,11.9,12,12,12c0.1,0,0.1,0,0.2-0.1l0.7-0.7c0.1-0.1,0.1-0.3,0-0.4l-0.7-0.7C12.1,10,12.1,10,12,10L12,10z"/>
		</g>
		<g>
			<path class="st4" d="M12.5,13.8L12.5,13.8L12.5,13.8 M12,13c-0.1,0-0.1,0-0.2,0.1l-0.7,0.7c-0.1,0.1-0.1,0.3,0,0.4l0.7,0.7
				C11.9,15,11.9,15,12,15c0.1,0,0.1,0,0.2-0.1l0.7-0.7c0.1-0.1,0.1-0.3,0-0.4l-0.7-0.7C12.1,13,12.1,13,12,13L12,13z"/>
		</g>
	</g>
</g>
<g id="Frames-24px">
	<rect class="st5" width="24" height="24"/>
</g>
</svg>
