<?xml version="1.0" encoding="utf-8"?>
<!-- Generator: Adobe Illustrator 21.0.2, SVG Export Plug-In . SVG Version: 6.00 Build 0)  -->
<svg version="1.1" xmlns="http://www.w3.org/2000/svg" xmlns:xlink="http://www.w3.org/1999/xlink" x="0px" y="0px"
	 viewBox="0 0 24 24" style="enable-background:new 0 0 24 24;" xml:space="preserve">
<style type="text/css">
	.st0{fill:#FFFFFF;}
	.st1{fill:#FFFFFF;stroke:#1078FF;stroke-linecap:round;stroke-linejoin:round;stroke-miterlimit:10;}
	.st2{fill:#CCE7FF;}
	.st3{fill:none;stroke:#1078FF;stroke-linecap:round;stroke-linejoin:round;stroke-miterlimit:10;}
	.st4{fill:#1078FF;}
	.st5{fill:none;}
</style>
<g id="Duotone">
	<polygon class="st0" points="23.5,10.5 0.5,10.5 2.5,18.5 7.5,21.5 6.5,23.5 17.5,23.5 16.5,21.5 21.5,18.5 	"/>
	<rect x="5.5" y="0.5" class="st0" width="18" height="4"/>
	<polygon class="st2" points="18.5,15.5 16.5,17.5 14,15.5 12,17.5 10,15.5 7.5,17.5 5,15.5 2.5,18.5 7.5,21.5 16.5,21.5 21.5,18.5 
			"/>
	<rect x="9.5" y="2.5" class="st2" width="6" height="8"/>
	<g>
		<polyline class="st3" points="23.5,0.5 5.5,0.5 5.5,2.5 23.5,2.5 		"/>
		<line class="st3" x1="15.5" y1="4.5" x2="23.5" y2="4.5"/>
		<polygon class="st3" points="16.5,21.5 7.5,21.5 2.5,18.5 0.5,10.5 23.5,10.5 21.5,18.5 		"/>
		<polygon class="st3" points="17.5,23.5 6.5,23.5 7.5,21.5 16.5,21.5 		"/>
		<line class="st3" x1="9.5" y1="2.5" x2="9.5" y2="10.5"/>
		<line class="st3" x1="11.5" y1="2.5" x2="11.5" y2="10.5"/>
		<line class="st3" x1="13.5" y1="2.5" x2="13.5" y2="10.5"/>
		<line class="st3" x1="15.5" y1="2.5" x2="15.5" y2="10.5"/>
		<polyline class="st3" points="21.5,18.5 18.5,15.5 16.5,17.5 14,15.5 12,17.5 10,15.5 7.5,17.5 5,15.5 2.5,18.5 		"/>
		<polyline class="st3" points="5.5,2.5 5.5,4.5 9.5,4.5 		"/>
	</g>
</g>
<g id="Frames-24px">
	<rect class="st5" width="24" height="24"/>
</g>
</svg>
