<svg xmlns="http://www.w3.org/2000/svg" width="24" height="24" viewBox="0 0 24 24">
  <title>eco-car</title>
  <g id="Duotone">
    <polygon points="18 10.5 6.5 10.5 2.5 15.5 2.5 21.5 21.5 21.5 21.5 15.5 18 10.5" fill="#fff"/>
    <polygon points="11.823 8.214 8.781 6.413 9.658 2.988 13.815 1.462 15.887 2.32 18.5 1.238 16.205 6.781 11.823 8.214" fill="#fff"/>
    <polygon points="8.772 6.394 11.807 8.208 16.195 6.795 17.934 2.645 8.772 6.394" fill="#cce7ff"/>
    <polygon points="18 10.5 2.5 15.5 21.5 15.5 18 10.5" fill="#cce7ff"/>
    <polyline points="21.5 16.001 23.5 14.501 23.5 13.5 20.333 13.5" fill="#cce7ff"/>
    <polyline points="2.5 16.001 0.5 14.501 0.5 13.5 3.833 13.5" fill="#cce7ff"/>
    <polyline points="19.5 21.5 19.5 23.5 16.5 23.5 16.5 21.5" fill="#cce7ff"/>
    <polyline points="7.5 21.5 7.5 23.5 4.5 23.5 4.5 21.5" fill="#cce7ff"/>
    <polygon points="2.5 17.5 7.375 17.5 8.937 19.5 2.5 19.5 2.5 17.5" fill="#cce7ff"/>
    <polygon points="21.5 17.5 16.625 17.5 15.062 19.5 21.5 19.5 21.5 17.5" fill="#cce7ff"/>
    <g>
      <rect x="2.5" y="15.5" width="19" height="6" fill="none" stroke="#1078ff" stroke-linecap="round" stroke-linejoin="round"/>
      <polygon points="21.5 15.5 2.5 15.5 6.5 10.5 18 10.5 21.5 15.5" fill="none" stroke="#1078ff" stroke-linecap="round" stroke-linejoin="round"/>
      <polyline points="21.5 16.001 23.5 14.501 23.5 13.5 20.1 13.5" fill="none" stroke="#1078ff" stroke-linecap="round" stroke-linejoin="round"/>
      <polyline points="2.499 16.001 0.5 14.501 0.5 13.5 4.1 13.5" fill="none" stroke="#1078ff" stroke-linecap="round" stroke-linejoin="round"/>
      <polyline points="2.5 17.499 7.375 17.499 8.937 19.499" fill="none" stroke="#1078ff" stroke-linecap="round" stroke-linejoin="round"/>
      <polyline points="21.5 17.499 16.625 17.499 14.876 19.499" fill="none" stroke="#1078ff" stroke-linecap="round" stroke-linejoin="round"/>
      <polyline points="19.5 21.5 19.5 23.5 16.5 23.5 16.5 21.5" fill="none" stroke="#1078ff" stroke-linecap="round" stroke-linejoin="round"/>
      <polyline points="7.5 21.5 7.5 23.5 4.5 23.5 4.5 21.5" fill="none" stroke="#1078ff" stroke-linecap="round" stroke-linejoin="round"/>
      <line x1="2.5" y1="19.499" x2="21.5" y2="19.499" fill="none" stroke="#1078ff" stroke-linecap="round" stroke-linejoin="round"/>
    </g>
    <line x1="6.821" y1="7.225" x2="13.353" y2="4.518" fill="none" stroke="#1078ff" stroke-linecap="round" stroke-linejoin="round"/>
    <polygon points="11.823 8.214 8.781 6.413 9.658 2.988 13.815 1.462 15.887 2.32 18.5 1.238 16.205 6.781 11.823 8.214" fill="none" stroke="#1078ff" stroke-linecap="round" stroke-linejoin="round"/>
  </g>
  <g id="Frames-24px">
    <rect width="24" height="24" fill="none"/>
  </g>
</svg>
