<svg xmlns="http://www.w3.org/2000/svg" width="24" height="24" viewBox="0 0 24 24">
  <title>eco-globe-2</title>
  <g id="Duotone">
    <polygon points="11.5 1.5 3.694 4.694 0.5 12.5 3.694 20.306 11.5 23.5 11.5 1.5" fill="#fff"/>
    <polygon points="20 15 16.5 14.5 16 11 19.257 7.5 21.5 7.5 23.5 6 23.5 12 20 15" fill="#fff"/>
    <polygon points="16.5 14.5 20 15 23.5 12 23.5 7.5 16.5 14.5" fill="#cce7ff"/>
    <polygon points="3.694 20.306 11.5 23.5 11.5 6.824 2.046 16.278 3.694 20.306" fill="#cce7ff"/>
    <polygon points="11.5 1.5 3.694 4.694 0.5 12.5 3.694 20.306 11.5 23.5 11.5 1.5" fill="none" stroke="#1078ff" stroke-linecap="round" stroke-linejoin="round"/>
    <line x1="11.5" y1="1.5" x2="11.5" y2="23.5" fill="none" stroke="#1078ff" stroke-linecap="round" stroke-linejoin="round"/>
    <line x1="11.5" y1="12.5" x2="0.5" y2="12.5" fill="none" stroke="#1078ff" stroke-linecap="round" stroke-linejoin="round"/>
    <line x1="2.546" y1="7.5" x2="11.5" y2="7.5" fill="none" stroke="#1078ff" stroke-linecap="round" stroke-linejoin="round"/>
    <line x1="2.546" y1="17.5" x2="11.5" y2="17.5" fill="none" stroke="#1078ff" stroke-linecap="round" stroke-linejoin="round"/>
    <line x1="6.5" y1="3.546" x2="6.5" y2="21.454" fill="none" stroke="#1078ff" stroke-linecap="round" stroke-linejoin="round"/>
    <line x1="15.015" y1="15.985" x2="19.964" y2="11.035" fill="none" stroke="#1078ff" stroke-linecap="round" stroke-linejoin="round"/>
    <polygon points="20 15 16.5 14.5 16 11 19.257 7.5 21.5 7.5 23.5 6 23.5 12 20 15" fill="none" stroke="#1078ff" stroke-linecap="round" stroke-linejoin="round"/>
  </g>
  <g id="Frames-24px">
    <rect width="24" height="24" fill="none"/>
  </g>
</svg>
