<svg xmlns="http://www.w3.org/2000/svg" width="24" height="24" viewBox="0 0 24 24">
  <title>eco-fuel-barrel</title>
  <g id="Duotone">
    <polygon points="19.5 15.5 17.515 15.5 17.515 2.5 2.515 2.5 2.515 23.5 17.515 23.5 17.515 22.431 18 22.5 21.5 19.5 21.5 13.5 19.5 15.5" fill="#fff"/>
    <polygon points="14.5 22 18 22.5 21.5 19.5 21.5 15 14.5 22" fill="#cce7ff"/>
    <rect x="12.515" y="0.5" width="4" height="2" fill="#cce7ff"/>
    <rect x="2.515" y="2.5" width="15" height="2.5" fill="#cce7ff"/>
    <rect x="2.515" y="9.5" width="15" height="2.5" fill="#cce7ff"/>
    <polygon points="14 18.5 16.172 16.5 2.515 16.5 2.515 19 14.071 19 14 18.5" fill="#cce7ff"/>
    <polyline points="2.515 23.5 2.515 2.5 17.515 2.5 17.515 12.5" fill="none" stroke="#1078ff" stroke-linecap="round" stroke-linejoin="round"/>
    <line x1="0.515" y1="2.5" x2="19.515" y2="2.5" fill="none" stroke="#1078ff" stroke-linecap="round" stroke-linejoin="round"/>
    <line x1="0.515" y1="23.5" x2="10.5" y2="23.5" fill="none" stroke="#1078ff" stroke-linecap="round" stroke-linejoin="round"/>
    <line x1="0.515" y1="16.5" x2="12.515" y2="16.5" fill="none" stroke="#1078ff" stroke-linecap="round" stroke-linejoin="round"/>
    <line x1="0.515" y1="9.5" x2="19.515" y2="9.5" fill="none" stroke="#1078ff" stroke-linecap="round" stroke-linejoin="round"/>
    <rect x="12.515" y="0.5" width="4" height="2" fill="none" stroke="#1078ff" stroke-linecap="round" stroke-linejoin="round"/>
    <line x1="13" y1="23.5" x2="18" y2="18.5" fill="none" stroke="#1078ff" stroke-linecap="round" stroke-linejoin="round"/>
    <polygon points="18 22.5 14.5 22 14 18.5 17.257 15.5 19.5 15.5 21.5 13.5 21.5 19.5 18 22.5" fill="none" stroke="#1078ff" stroke-linecap="round" stroke-linejoin="round"/>
  </g>
  <g id="Frames-24px">
    <rect width="24" height="24" fill="none"/>
  </g>
</svg>
