<svg xmlns="http://www.w3.org/2000/svg" width="24" height="24" viewBox="0 0 24 24">
  <title>volume-medium</title>
  <g id="Duotone">
    <polygon points="7.5 9.5 4 9.5 2.5 12.5 4 15.5 7.5 15.5 13 20.5 16.5 20.5 16.5 4.5 13 4.5 7.5 9.5" fill="#fff"/>
    <polygon points="2.5 12.5 5 12.5 5.5 13.5 8 13.5 13.5 18.5 16.5 18.5 16.5 20.5 13 20.5 7.5 15.5 4 15.5 2.5 12.5" fill="#cce7ff"/>
    <polygon points="7.5 9.5 4 9.5 2.5 12.5 4 15.5 7.5 15.5 13 20.5 16.5 20.5 16.5 4.5 13 4.5 7.5 9.5" fill="none" stroke="#1078ff" stroke-linecap="round" stroke-linejoin="round"/>
    <polyline points="20 17 22.5 14.364 22.5 10.636 20 8" fill="none" stroke="#1078ff" stroke-linecap="round" stroke-linejoin="round"/>
    <polyline points="19 15 20.5 13.5 20.5 11.5 19 10" fill="none" stroke="#1078ff" stroke-linecap="round" stroke-linejoin="round"/>
  </g>
  <g id="Frames-24px">
    <rect width="24" height="24" fill="none"/>
  </g>
</svg>
