<?xml version="1.0" encoding="utf-8"?>
<!-- Generator: Adobe Illustrator 21.0.2, SVG Export Plug-In . SVG Version: 6.00 Build 0)  -->
<svg version="1.1" xmlns="http://www.w3.org/2000/svg" xmlns:xlink="http://www.w3.org/1999/xlink" x="0px" y="0px"
	 viewBox="0 0 24 24" style="enable-background:new 0 0 24 24;" xml:space="preserve">
<style type="text/css">
	.st0{fill:#FFFFFF;}
	.st1{fill:#CCE7FF;}
	.st2{fill:none;stroke:#1078FF;stroke-linejoin:round;stroke-miterlimit:10;}
	.st3{fill:none;stroke:#1078FF;stroke-linecap:round;stroke-linejoin:round;stroke-miterlimit:10;}
	.st4{fill:none;}
</style>
<g id="Duotone">
	<polygon class="st0" points="22.5,1.5 2.5,1.5 2.5,15.4 0.5,19 3,23.5 11,23.5 13.5,19 12.7,17.5 22.5,17.5 	"/>
	<rect x="2.5" y="4.5" class="st1" width="20" height="2"/>
	<polygon class="st1" points="11,14.5 8,17.9 9,19.5 6.6,19.5 3,23.5 11,23.5 13.5,19 	"/>
	<polygon class="st2" points="9,19.5 5,19.5 7,16.5 	"/>
	<line class="st3" x1="5" y1="21.5" x2="9" y2="21.5"/>
	<polyline class="st3" points="2.5,12.5 2.5,1.5 22.5,1.5 22.5,17.5 15.5,17.5 	"/>
	<line class="st3" x1="22.5" y1="4.5" x2="2.5" y2="4.5"/>
	<line class="st3" x1="21.5" y1="1.5" x2="18.5" y2="4.5"/>
	<line class="st3" x1="16.5" y1="1.5" x2="13.5" y2="4.5"/>
	<line class="st3" x1="11.5" y1="1.5" x2="8.5" y2="4.5"/>
	<line class="st3" x1="6.5" y1="1.5" x2="3.5" y2="4.5"/>
	<polygon class="st2" points="11,23.5 13.5,19 11,14.5 3,14.5 0.5,19 3,23.5 	"/>
</g>
<g id="Frames-24px">
	<rect class="st4" width="24" height="24"/>
</g>
</svg>
