<?xml version="1.0" encoding="utf-8"?>
<!-- Generator: Adobe Illustrator 21.0.2, SVG Export Plug-In . SVG Version: 6.00 Build 0)  -->
<svg version="1.1" xmlns="http://www.w3.org/2000/svg" xmlns:xlink="http://www.w3.org/1999/xlink" x="0px" y="0px"
	 viewBox="0 0 24 24" style="enable-background:new 0 0 24 24;" xml:space="preserve">
<style type="text/css">
	.st0{fill:#FFFFFF;}
	.st1{fill:#CCE7FF;}
	.st2{fill:none;stroke:#1078FF;stroke-linejoin:round;stroke-miterlimit:10;}
	.st3{fill:none;stroke:#1078FF;stroke-linecap:round;stroke-linejoin:round;stroke-miterlimit:10;}
	.st4{fill:none;}
</style>
<g id="Duotone">
	<rect x="0.5" y="1.5" class="st0" width="22" height="22"/>
	<polygon class="st1" points="20.5,21.5 2.5,21.5 0.5,23.5 22.5,23.5 	"/>
	<polygon class="st1" points="0.5,16.5 7.5,16.5 7.5,14.8 11.5,12.5 15.5,14.8 15.5,16.5 22.5,16.5 22.5,1.5 	"/>
	<polygon class="st1" points="13.5,17 10.5,15 10.5,19 	"/>
	<rect x="0.5" y="1.5" class="st3" width="22" height="22"/>
	<line class="st2" x1="15.5" y1="16.5" x2="22.5" y2="16.5"/>
	<line class="st2" x1="7.5" y1="16.5" x2="0.5" y2="16.5"/>
	<line class="st3" x1="3.5" y1="20.5" x2="4.5" y2="20.5"/>
	<line class="st3" x1="18.5" y1="20.5" x2="19.5" y2="20.5"/>
	<line class="st3" x1="17" y1="4" x2="20" y2="7"/>
	<line class="st3" x1="19.5" y1="3.5" x2="20.5" y2="4.5"/>
	<polygon class="st3" points="15.5,19.3 11.5,21.5 7.5,19.3 7.5,14.8 11.5,12.5 15.5,14.8 	"/>
	<polygon class="st2" points="13.5,17 10.5,15 10.5,19 	"/>
</g>
<g id="Frames-24px">
	<rect class="st4" width="24" height="24"/>
</g>
</svg>
