<?xml version="1.0" encoding="utf-8"?>
<!-- Generator: Adobe Illustrator 21.0.2, SVG Export Plug-In . SVG Version: 6.00 Build 0)  -->
<svg version="1.1" xmlns="http://www.w3.org/2000/svg" xmlns:xlink="http://www.w3.org/1999/xlink" x="0px" y="0px"
	 viewBox="0 0 24 24" style="enable-background:new 0 0 24 24;" xml:space="preserve">
<style type="text/css">
	.st0{fill:#FFFFFF;}
	.st1{fill:#CCE7FF;}
	.st2{fill:none;stroke:#1078FF;stroke-linecap:round;stroke-linejoin:round;stroke-miterlimit:10;}
	.st3{fill:#FFFFFF;stroke:#1078FF;stroke-linecap:round;stroke-linejoin:round;stroke-miterlimit:10;}
	.st4{fill:none;}
</style>
<g id="Duotone">
	<polygon class="st0" points="21.5,21 21.5,16.5 16.5,10 16.5,0.5 1.5,0.5 1.5,21.5 16.5,21.5 18,23.5 23.5,23.5 	"/>
	<polygon class="st1" points="1.5,18.5 16.1,18.5 14.5,16.5 14.5,14.5 16.5,14.5 16.5,0.5 	"/>
	<polyline class="st2" points="16.5,20 16.5,21.5 1.5,21.5 1.5,0.5 16.5,0.5 16.5,12.5 	"/>
	<g>
		<polyline class="st2" points="23.5,23.5 21.5,21 21.5,16.5 16.5,10 		"/>
		<polyline class="st2" points="18.5,17 16.5,14.5 14.5,14.5 14.5,16.5 16.5,19 16.5,21.5 18,23.5 		"/>
	</g>
	<line class="st2" x1="1.5" y1="18.5" x2="15.7" y2="18.5"/>
</g>
<g id="Frames-24px">
	<rect class="st4" width="24" height="24"/>
</g>
</svg>
