<svg xmlns="http://www.w3.org/2000/svg" width="24" height="24" viewBox="0 0 24 24">
  <title>phone-outgoing-call</title>
  <g id="Duotone">
    <polygon points="15 13.5 18.5 13.5 22.5 17.5 22.5 23.5 15.5 23.5 0.5 8.5 0.5 1.5 6.5 1.5 10.5 5.5 10.5 9 15 13.5" fill="#fff"/>
    <polygon points="0.5 2.571 0.5 8.5 15.5 23.5 21.429 23.5 0.5 2.571" fill="#cce7ff"/>
    <polyline points="22.5 6.5 22.5 1.5 17.5 1.5" fill="none" stroke="#1078ff" stroke-linecap="round" stroke-linejoin="round"/>
    <line x1="22.5" y1="1.5" x2="15.5" y2="8.5" fill="none" stroke="#1078ff" stroke-linecap="round" stroke-linejoin="round"/>
    <polygon points="15 13.5 18.5 13.5 22.5 17.5 22.5 23.5 15.5 23.5 0.5 8.5 0.5 1.5 6.5 1.5 10.5 5.5 10.5 9 15 13.5" fill="none" stroke="#1078ff" stroke-linecap="round" stroke-linejoin="round"/>
  </g>
  <g id="Frames-24px">
    <rect width="24" height="24" fill="none"/>
  </g>
</svg>
