<svg xmlns="http://www.w3.org/2000/svg" width="24" height="24" viewBox="0 0 24 24">
  <title>television-news</title>
  <g id="Duotone">
    <rect x="0.5" y="3.5" width="22" height="16" fill="#fff"/>
    <polygon points="8.5 5.5 5.5 7 8 8.5 11.5 8.5 11.5 7 8.5 5.5" fill="#cce7ff"/>
    <g>
      <polygon points="0.5 17.5 3.5 17.5 3.5 15.591 0.5 17.5" fill="#cce7ff"/>
      <polygon points="17.786 6.5 20.5 6.5 20.5 10.5 14.5 10.5 14.5 8.591 5.257 14.473 8.5 13.5 13.5 15 13.5 17.5 22.5 17.5 22.5 3.5 17.786 6.5" fill="#cce7ff"/>
    </g>
    <rect x="14.5" y="6.5" width="6" height="4" fill="none" stroke="#1078ff" stroke-linejoin="round"/>
    <polyline points="0.5 17.5 0.5 17.5 22.5 17.5" fill="none" stroke="#1078ff" stroke-linecap="round" stroke-linejoin="round"/>
    <rect x="0.5" y="3.5" width="22" height="16" fill="none" stroke="#1078ff" stroke-linejoin="round"/>
    <line x1="11.5" y1="19.5" x2="11.5" y2="23.5" fill="none" stroke="#1078ff" stroke-linecap="round" stroke-linejoin="round"/>
    <line x1="6.5" y1="23.5" x2="16.5" y2="23.5" fill="none" stroke="#1078ff" stroke-linecap="round" stroke-linejoin="round"/>
    <polygon points="11.5 11 8.5 12.5 5.5 11 5.5 7 8.5 5.5 11.5 7 11.5 11" fill="none" stroke="#1078ff" stroke-linejoin="round"/>
    <polyline points="5.5 7 8 8.5 11.5 8.5" fill="none" stroke="#1078ff" stroke-linejoin="round"/>
    <polygon points="13.5 17.5 13.5 15 8.5 13.5 3.5 15 3.5 17.5 13.5 17.5" fill="none" stroke="#1078ff" stroke-linecap="round" stroke-linejoin="round"/>
    <line x1="8.5" y1="15.5" x2="8.5" y2="17.5" fill="none" stroke="#1078ff" stroke-linecap="round" stroke-linejoin="round"/>
  </g>
  <g id="Frames-24px">
    <rect width="24" height="24" fill="none"/>
  </g>
</svg>
