<svg xmlns="http://www.w3.org/2000/svg" width="24" height="24" viewBox="0 0 24 24">
  <title>television-vintage</title>
  <g id="Duotone">
    <rect x="0.5" y="5.5" width="22" height="15" fill="#fff"/>
    <polygon points="19.5 8.502 3.5 17.5 11.5 18.498 19.5 17.5 19.5 8.502" fill="#cce7ff"/>
    <rect x="0.5" y="5.502" width="22" height="14.998" fill="none" stroke="#1078ff" stroke-linecap="round" stroke-linejoin="round"/>
    <polygon points="3.5 8.502 11.5 7.5 19.5 8.502 19.5 17.5 11.5 18.498 3.5 17.5 3.5 8.502" fill="none" stroke="#1078ff" stroke-linejoin="round"/>
    <line x1="4.5" y1="23.5" x2="7" y2="20.498" fill="none" stroke="#1078ff" stroke-linecap="round" stroke-linejoin="round"/>
    <line x1="19" y1="23.5" x2="16.5" y2="20.498" fill="none" stroke="#1078ff" stroke-linecap="round" stroke-linejoin="round"/>
    <polyline points="14 1.5 17 5.5 20 1.5" fill="none" stroke="#1078ff" stroke-linecap="round" stroke-linejoin="round"/>
    <polyline points="6 11.5 7.5 10.5 9 11.5 10.5 10.5 12 11.5 13.5 10.5 15 11.5 16.5 10.5" fill="none" stroke="#1078ff" stroke-linecap="round" stroke-linejoin="round"/>
    <polyline points="6 15.498 7.5 14.498 9 15.498 10.5 14.498 12 15.498 13.5 14.498 15 15.498 16.5 14.498" fill="none" stroke="#1078ff" stroke-linecap="round" stroke-linejoin="round"/>
  </g>
  <g id="Frames-24px">
    <rect width="24" height="24" fill="none"/>
  </g>
</svg>
