<?xml version="1.0" encoding="utf-8"?>
<!-- Generator: Adobe Illustrator 21.0.2, SVG Export Plug-In . SVG Version: 6.00 Build 0)  -->
<svg version="1.1" xmlns="http://www.w3.org/2000/svg" xmlns:xlink="http://www.w3.org/1999/xlink" x="0px" y="0px" width="24px"
	 height="24px" viewBox="0 0 24 24" enable-background="new 0 0 24 24" xml:space="preserve">
<g id="Black">
	<g>
		<polygon fill="none" stroke="#58595B" stroke-linecap="round" stroke-linejoin="round" stroke-miterlimit="10" points="14.5,16.5 
			14.5,13.5 18.5,13.5 18.5,16.5 22.5,16.5 22.5,8.5 19.5,8.5 19.5,3.5 15.5,3.5 15.5,0.5 7.5,0.5 7.5,3.5 3.5,3.5 3.5,8.5 0.5,8.5 
			0.5,16.5 4.5,16.5 4.5,13.5 8.5,13.5 8.5,16.5 		"/>
		
			<rect x="6.939" y="7.439" transform="matrix(0.7071 -0.7071 0.7071 0.7071 -3.6673 8.1464)" fill="none" stroke="#58595B" stroke-linecap="round" stroke-linejoin="round" stroke-miterlimit="10" width="2.121" height="2.121"/>
		
			<rect x="13.939" y="7.439" transform="matrix(0.7071 -0.7071 0.7071 0.7071 -1.617 13.0962)" fill="none" stroke="#58595B" stroke-linecap="round" stroke-linejoin="round" stroke-miterlimit="10" width="2.121" height="2.121"/>
		
			<line fill="none" stroke="#58595B" stroke-linecap="round" stroke-linejoin="round" stroke-miterlimit="10" x1="11.5" y1="18.5" x2="11.5" y2="19.5"/>
		
			<line fill="none" stroke="#58595B" stroke-linecap="round" stroke-linejoin="round" stroke-miterlimit="10" x1="11.5" y1="21.5" x2="11.5" y2="22.5"/>
	</g>
</g>
<g id="Frames-24px">
	<rect fill="none" width="24" height="24"/>
</g>
</svg>
