<?xml version="1.0" encoding="utf-8"?>
<!-- Generator: Adobe Illustrator 21.0.2, SVG Export Plug-In . SVG Version: 6.00 Build 0)  -->
<svg version="1.1" xmlns="http://www.w3.org/2000/svg" xmlns:xlink="http://www.w3.org/1999/xlink" x="0px" y="0px"
	 viewBox="0 0 24 24" style="enable-background:new 0 0 24 24;" xml:space="preserve">
<style type="text/css">
	.st0{fill:#FFFFFF;}
	.st1{fill:#CCE7FF;}
	.st2{fill:none;stroke:#1078FF;stroke-linecap:round;stroke-linejoin:round;stroke-miterlimit:10;}
	.st3{fill:none;}
</style>
<g id="Duotone">
	<g>
		<g>
			<line class="st2" x1="0.5" y1="23.5" x2="9.5" y2="14.5"/>
			<polyline class="st2" points="9.5,22.5 9.5,14.5 1.5,14.5 			"/>
		</g>
		<g>
			<line class="st2" x1="22.5" y1="1.5" x2="13.5" y2="10.5"/>
			<polyline class="st2" points="13.5,2.5 13.5,10.5 21.5,10.5 			"/>
		</g>
	</g>
	<g>
		<g>
			<line class="st2" x1="22.5" y1="23.5" x2="13.5" y2="14.5"/>
			<polyline class="st2" points="21.5,14.5 13.5,14.5 13.5,22.5 			"/>
		</g>
		<g>
			<line class="st2" x1="0.5" y1="1.5" x2="9.5" y2="10.5"/>
			<polyline class="st2" points="1.5,10.5 9.5,10.5 9.5,2.5 			"/>
		</g>
	</g>
</g>
<g id="Frames-24px">
	<rect class="st3" width="24" height="24"/>
</g>
</svg>
