<?xml version="1.0" encoding="utf-8"?>
<!-- Generator: Adobe Illustrator 21.0.2, SVG Export Plug-In . SVG Version: 6.00 Build 0)  -->
<svg version="1.1" xmlns="http://www.w3.org/2000/svg" xmlns:xlink="http://www.w3.org/1999/xlink" x="0px" y="0px"
	 viewBox="0 0 24 24" style="enable-background:new 0 0 24 24;" xml:space="preserve">
<style type="text/css">
	.st0{fill:#FFFFFF;}
	.st1{fill:#CCE7FF;}
	.st2{fill:none;stroke:#1078FF;stroke-linecap:round;stroke-linejoin:round;stroke-miterlimit:10;}
	.st3{fill:none;}
</style>
<g id="Duotone">
	<polygon class="st0" points="0.5,11.5 7.5,7.5 14.5,11.5 14.5,19.5 7.5,23.5 0.5,19.5 	"/>
	<polygon class="st1" points="7.5,7.5 7.5,13.3 9.5,14.5 9.5,16.5 7.5,17.8 7.5,23.5 14.5,19.5 14.5,11.5 	"/>
	<line class="st2" x1="7.5" y1="10.5" x2="7.5" y2="11.5"/>
	<line class="st2" x1="2.5" y1="15.5" x2="3.5" y2="15.5"/>
	<line class="st2" x1="7.5" y1="20.5" x2="7.5" y2="19.5"/>
	<line class="st2" x1="12.5" y1="15.5" x2="11.5" y2="15.5"/>
	<line class="st2" x1="4" y1="12" x2="4.7" y2="12.7"/>
	<line class="st2" x1="4" y1="19" x2="4.7" y2="18.3"/>
	<line class="st2" x1="11" y1="19" x2="10.3" y2="18.3"/>
	<line class="st2" x1="11" y1="12" x2="10.3" y2="12.7"/>
	<polygon class="st2" points="0.5,11.5 7.5,7.5 14.5,11.5 14.5,19.5 7.5,23.5 0.5,19.5 	"/>
	<polygon class="st2" points="9.5,16.5 7.5,17.8 5.5,16.5 5.5,14.5 7.5,13.3 9.5,14.5 	"/>
	<g>
		<polyline class="st2" points="12.5,10.4 12.5,3.5 17.5,0.6 22.5,3.5 22.5,10.5 		"/>
	</g>
</g>
<g id="Frames-24px">
	<rect class="st3" width="24" height="24"/>
</g>
</svg>
