<?xml version="1.0" encoding="utf-8"?>
<!-- Generator: Adobe Illustrator 21.0.2, SVG Export Plug-In . SVG Version: 6.00 Build 0)  -->
<svg version="1.1" xmlns="http://www.w3.org/2000/svg" xmlns:xlink="http://www.w3.org/1999/xlink" x="0px" y="0px"
	 viewBox="0 0 24 24" style="enable-background:new 0 0 24 24;" xml:space="preserve">
<style type="text/css">
	.st0{fill:#FFFFFF;}
	.st1{fill:#CCE7FF;}
	.st2{fill:none;stroke:#1078FF;stroke-linecap:round;stroke-linejoin:round;stroke-miterlimit:10;}
	.st3{fill:none;}
</style>
<g id="Duotone">
	<polygon class="st0" points="19.5,22.5 10.5,23.5 1.5,22.5 1.5,10.5 10.5,9.5 19.5,10.5 	"/>
	<polygon class="st1" points="10.5,9.5 19.5,10.5 19.5,22.5 10.5,23.5 	"/>
	<polyline class="st2" points="5.5,10.1 5.5,2.5 10.5,0.5 15.5,2.5 15.5,10.1 	"/>
	<line class="st2" x1="15.5" y1="13.5" x2="21.5" y2="13.5"/>
	<line class="st2" x1="15.5" y1="16.5" x2="21.5" y2="16.5"/>
	<line class="st2" x1="15.5" y1="19.5" x2="21.5" y2="19.5"/>
	<polygon class="st2" points="19.5,22.5 10.5,23.5 1.5,22.5 1.5,10.5 10.5,9.5 19.5,10.5 	"/>
</g>
<g id="Frames-24px">
	<rect class="st3" width="24" height="24"/>
</g>
</svg>
