<?xml version="1.0" encoding="utf-8"?>
<!-- Generator: Adobe Illustrator 21.0.2, SVG Export Plug-In . SVG Version: 6.00 Build 0)  -->
<svg version="1.1" xmlns="http://www.w3.org/2000/svg" xmlns:xlink="http://www.w3.org/1999/xlink" x="0px" y="0px"
	 viewBox="0 0 24 24" style="enable-background:new 0 0 24 24;" xml:space="preserve">
<style type="text/css">
	.st0{fill:#FFFFFF;}
	.st1{fill:none;stroke:#CCE7FF;stroke-linecap:round;stroke-linejoin:round;stroke-miterlimit:10;}
	.st2{fill:#CCE7FF;}
	.st3{fill:none;stroke:#1078FF;stroke-linecap:round;stroke-linejoin:round;stroke-miterlimit:10;}
	.st4{fill:none;}
</style>
<g id="Duotone">
	<polygon class="st0" points="19.5,11.5 19.5,4 11.5,0.5 3.5,4 3.5,11.5 1.5,11.5 1.5,15.5 3.5,16.5 3.5,18.8 6.3,20 11.5,22.5 
		16.8,20.1 19.5,18.8 19.5,16.5 21.5,15.5 21.5,11.5 	"/>
	<polygon class="st2" points="3.5,6 3.5,8.5 19.5,8.5 19.5,6 11.5,2.5 	"/>
	<polygon class="st2" points="13.5,17.5 15.5,23.5 17,21.5 16,16 11.5,14.5 7,16 6,21.5 7.5,23.5 9.5,17.5 	"/>
	<polyline class="st3" points="5.5,8.5 5.5,12.8 3.5,13.5 	"/>
	<polyline class="st3" points="17.5,8.5 17.5,12.8 19.5,13.5 	"/>
	<polygon class="st3" points="7.5,8.5 7.5,9.7 10.5,11 10.5,8.5 	"/>
	<polygon class="st3" points="15.5,8.5 15.5,9.7 12.5,11 12.5,8.5 	"/>
	<line class="st3" x1="8.5" y1="12.5" x2="8.5" y2="13.5"/>
	<line class="st3" x1="14.5" y1="12.5" x2="14.5" y2="13.5"/>
	<polyline class="st3" points="3.5,11.5 1.5,11.5 1.5,15.5 3.5,16.5 	"/>
	<polyline class="st3" points="19.5,11.5 21.5,11.5 21.5,15.5 19.5,16.5 	"/>
	<g>
		<polyline class="st3" points="16.8,20.1 19.5,18.8 19.5,4 11.5,0.5 3.5,4 3.5,18.8 6.3,20 		"/>
		<polyline class="st3" points="8.3,21 11.5,22.5 14.7,21.1 		"/>
	</g>
	<polyline class="st3" points="9.1,18.8 11.5,20 13.9,18.8 	"/>
	<line class="st3" x1="3.5" y1="8.5" x2="19.5" y2="8.5"/>
	<line class="st3" x1="3.5" y1="5.5" x2="7.5" y2="5.5"/>
	<polygon class="st3" points="13.5,17.5 15.5,23.5 17,21.5 16,16 11.5,14.5 7,16 6,21.5 7.5,23.5 9.5,17.5 	"/>
</g>
<g id="Frames-24px">
	<rect class="st4" width="24" height="24"/>
</g>
</svg>
