<?xml version="1.0" encoding="utf-8"?>
<!-- Generator: Adobe Illustrator 21.0.2, SVG Export Plug-In . SVG Version: 6.00 Build 0)  -->
<svg version="1.1" xmlns="http://www.w3.org/2000/svg" xmlns:xlink="http://www.w3.org/1999/xlink" x="0px" y="0px"
	 viewBox="0 0 24 24" style="enable-background:new 0 0 24 24;" xml:space="preserve">
<style type="text/css">
	.st0{fill:#FFFFFF;}
	.st1{fill:none;stroke:#CCE7FF;stroke-linecap:round;stroke-linejoin:round;stroke-miterlimit:10;}
	.st2{fill:#CCE7FF;}
	.st3{fill:none;stroke:#1078FF;stroke-linecap:round;stroke-linejoin:round;stroke-miterlimit:10;}
	.st4{fill:none;}
</style>
<g id="Duotone">
	<polygon class="st0" points="20,11.5 20.5,8.5 19.5,8.5 19.5,4 11.5,0.5 3.5,4 3.5,8.5 2.5,8.5 3,11.5 1.5,11.5 1.5,15.5 3.5,16.5 
		3.5,20 11.5,23.5 19.5,20 19.5,16.5 21.5,15.5 21.5,11.5 	"/>
	<line class="st1" x1="6" y1="5.3" x2="8" y2="4.5"/>
	<polygon class="st2" points="2.8,10.5 3.5,14.5 9,17 11.5,14.5 14,17 19.5,14.5 20.2,10.5 	"/>
	<polyline class="st3" points="20,11.5 21.5,11.5 21.5,15.5 19.5,16.5 	"/>
	<polyline class="st3" points="3,11.5 1.5,11.5 1.5,15.5 3.5,16.5 	"/>
	<line class="st3" x1="9.5" y1="19.5" x2="13.5" y2="19.5"/>
	<polyline class="st3" points="19.5,14.5 19.5,20 11.5,23.5 3.5,20 3.5,14.5 	"/>
	<polyline class="st3" points="3.5,8.5 3.5,4 11.5,0.5 19.5,4 19.5,8.5 	"/>
	<line class="st3" x1="6.5" y1="12.5" x2="8.5" y2="12.5"/>
	<line class="st3" x1="14.5" y1="12.5" x2="16.5" y2="12.5"/>
	<polygon class="st3" points="2.5,8.5 20.5,8.5 19.5,14.5 14,17 11.5,14.5 9,17 3.5,14.5 	"/>
</g>
<g id="Frames-24px">
	<rect class="st4" width="24" height="24"/>
</g>
</svg>
