<?xml version="1.0" encoding="utf-8"?>
<!-- Generator: Adobe Illustrator 21.0.2, SVG Export Plug-In . SVG Version: 6.00 Build 0)  -->
<svg version="1.1" xmlns="http://www.w3.org/2000/svg" xmlns:xlink="http://www.w3.org/1999/xlink" x="0px" y="0px"
	 viewBox="0 0 24 24" style="enable-background:new 0 0 24 24;" xml:space="preserve">
<style type="text/css">
	.st0{fill:#FFFFFF;}
	.st1{fill:#CCE7FF;}
	.st2{fill:none;stroke:#1078FF;stroke-linecap:round;stroke-linejoin:round;stroke-miterlimit:10;}
	.st3{fill:#CCE7FF;stroke:#1078FF;stroke-linecap:round;stroke-linejoin:round;stroke-miterlimit:10;}
	.st4{fill:none;stroke:#1078FF;stroke-linejoin:round;stroke-miterlimit:10;}
	.st5{fill:none;stroke:#1078FF;stroke-linecap:round;stroke-miterlimit:10;}
	.st6{fill:#FFFFFF;stroke:#1078FF;stroke-linecap:round;stroke-linejoin:round;stroke-miterlimit:10;}
	.st7{fill:none;}
</style>
<g id="Duotone">
	<polygon class="st0" points="18.5,8.5 18.5,5.5 14.5,1.5 4.5,1.5 4.5,8.5 0.5,8.5 0.5,13.5 22.5,13.5 22.5,8.5 	"/>
	<rect x="0.5" y="11" class="st1" width="22" height="2.5"/>
	<polygon class="st2" points="14.5,1.5 4.5,1.5 4.5,8.5 18.5,8.5 18.5,5.5 	"/>
	<polyline class="st2" points="18.5,5.5 14.5,5.5 14.5,1.5 	"/>
	<rect x="0.5" y="8.5" class="st2" width="22" height="5"/>
	<line class="st2" x1="20.5" y1="10.5" x2="19.5" y2="10.5"/>
	<polyline class="st2" points="7.5,16 9,17.5 7.5,19 9,20.5 7.5,22 9,23.5 	"/>
	<polyline class="st2" points="4,16 5.5,17.5 4,19 5.5,20.5 4,22 5.5,23.5 	"/>
	<polyline class="st2" points="11,16 12.5,17.5 11,19 12.5,20.5 11,22 12.5,23.5 	"/>
	<polyline class="st2" points="14.5,16 16,17.5 14.5,19 16,20.5 14.5,22 16,23.5 	"/>
	<polyline class="st2" points="18,16 19.5,17.5 18,19 19.5,20.5 18,22 19.5,23.5 	"/>
</g>
<g id="Frames-24px">
	<rect class="st7" width="24" height="24"/>
</g>
</svg>
