<?xml version="1.0" encoding="utf-8"?>
<!-- Generator: Adobe Illustrator 21.0.2, SVG Export Plug-In . SVG Version: 6.00 Build 0)  -->
<svg version="1.1" xmlns="http://www.w3.org/2000/svg" xmlns:xlink="http://www.w3.org/1999/xlink" x="0px" y="0px"
	 viewBox="0 0 24 24" style="enable-background:new 0 0 24 24;" xml:space="preserve">
<style type="text/css">
	.st0{fill:#FFFFFF;}
	.st1{fill:#CCE7FF;}
	.st2{fill:none;stroke:#1078FF;stroke-linecap:round;stroke-linejoin:round;stroke-miterlimit:10;}
	.st3{fill:#CCE7FF;stroke:#1078FF;stroke-linecap:round;stroke-linejoin:round;stroke-miterlimit:10;}
	.st4{fill:none;stroke:#1078FF;stroke-linejoin:round;stroke-miterlimit:10;}
	.st5{fill:none;stroke:#1078FF;stroke-linecap:round;stroke-miterlimit:10;}
	.st6{fill:#FFFFFF;stroke:#1078FF;stroke-linecap:round;stroke-linejoin:round;stroke-miterlimit:10;}
	.st7{fill:none;}
</style>
<g id="Duotone">
	<polygon class="st0" points="22.5,23.5 18,12.5 5,12.5 0.5,23.5 4.5,23.5 4.5,22.5 6,21.5 7.5,22.5 7.5,23.5 15.5,23.5 15.5,22.5 
		17,21.5 18.5,22.5 18.5,23.5 	"/>
	<g>
		<polygon class="st1" points="22.5,23.5 18,12.5 0.5,23.5 4.5,23.5 4.5,22.5 6,21.5 7.5,22.5 7.5,23.5 15.5,23.5 15.5,22.5 
			17,21.5 18.5,22.5 18.5,23.5 		"/>
	</g>
	<polyline class="st2" points="17,21.5 13,7.5 15.5,4.5 13.5,1.5 9.5,1.5 7.5,4.5 10,7.5 6,21.5 	"/>
	<polygon class="st2" points="22.5,23.5 18,12.5 5,12.5 0.5,23.5 4.5,23.5 4.5,22.5 6,21.5 7.5,22.5 7.5,23.5 15.5,23.5 15.5,22.5 
		17,21.5 18.5,22.5 18.5,23.5 	"/>
	<line class="st2" x1="3.8" y1="15.5" x2="19.2" y2="15.5"/>
</g>
<g id="Frames-24px">
	<rect class="st7" width="24" height="24"/>
</g>
</svg>
