<?xml version="1.0" encoding="utf-8"?>
<!-- Generator: Adobe Illustrator 21.0.2, SVG Export Plug-In . SVG Version: 6.00 Build 0)  -->
<svg version="1.1" xmlns="http://www.w3.org/2000/svg" xmlns:xlink="http://www.w3.org/1999/xlink" x="0px" y="0px"
	 viewBox="0 0 24 24" style="enable-background:new 0 0 24 24;" xml:space="preserve">
<style type="text/css">
	.st0{fill:#FFFFFF;}
	.st1{fill:#CCE7FF;}
	.st2{fill:none;stroke:#1078FF;stroke-linecap:round;stroke-linejoin:round;stroke-miterlimit:10;}
	.st3{fill:none;}
</style>
<g id="Duotone">
	<rect x="10.4" y="10.4" transform="matrix(0.707 -0.7072 0.7072 0.707 -4.7635 11.5028)" class="st1" width="2.1" height="2.1"/>
	<g>
		<polyline class="st2" points="8.5,15.5 6.5,13.5 6.5,9.5 8.5,7.5 		"/>
		<polyline class="st2" points="6.5,17.5 3.5,14.5 3.5,8.5 6.5,5.5 		"/>
		<polyline class="st2" points="4.5,19.5 0.5,15.5 0.5,7.5 4.5,3.5 		"/>
		<polyline class="st2" points="14.5,15.5 16.5,13.5 16.5,9.5 14.5,7.5 		"/>
		<polyline class="st2" points="16.5,17.5 19.5,14.5 19.5,8.5 16.5,5.5 		"/>
		<polyline class="st2" points="18.5,19.5 22.5,15.5 22.5,7.5 18.5,3.5 		"/>
	</g>
	<rect x="10.4" y="10.4" transform="matrix(0.707 -0.7072 0.7072 0.707 -4.7635 11.5028)" class="st2" width="2.1" height="2.1"/>
</g>
<g id="Frames-24px">
	<rect class="st3" width="24" height="24"/>
</g>
</svg>
