<svg xmlns="http://www.w3.org/2000/svg" width="24" height="24" viewBox="0 0 24 24">
  <title>server-network-refresh</title>
  <g id="Duotone">
    <rect x="0.5" y="1.5" width="18" height="15" fill="#fff"/>
    <rect x="8.086" y="20.086" width="2.828" height="2.828" transform="translate(-12.42 13.015) rotate(-45)" fill="#fff"/>
    <rect x="0.5" y="14" width="18" height="2.5" fill="#cce7ff"/>
    <rect x="0.5" y="9" width="18" height="2.5" fill="#cce7ff"/>
    <rect x="0.5" y="4" width="18" height="2.5" fill="#cce7ff"/>
    <polygon points="9.5 19.5 11.5 21.5 9.5 23.5 9.5 19.5" fill="#cce7ff"/>
    <g>
      <g>
        <polyline points="10.5 16.5 0.5 16.5 0.5 1.5 18.5 1.5 18.5 11.5" fill="none" stroke="#1078ff" stroke-linecap="round" stroke-linejoin="round"/>
        <line x1="0.5" y1="11.5" x2="18.5" y2="11.5" fill="none" stroke="#1078ff" stroke-linecap="round" stroke-linejoin="round"/>
        <line x1="0.5" y1="6.5" x2="18.5" y2="6.5" fill="none" stroke="#1078ff" stroke-linecap="round" stroke-linejoin="round"/>
        <line x1="15.5" y1="3.5" x2="15.5" y2="4.5" fill="none" stroke="#1078ff" stroke-linecap="round" stroke-linejoin="round"/>
        <line x1="13.5" y1="3.5" x2="13.5" y2="4.5" fill="none" stroke="#1078ff" stroke-linecap="round" stroke-linejoin="round"/>
        <line x1="11.5" y1="3.5" x2="11.5" y2="4.5" fill="none" stroke="#1078ff" stroke-linecap="round" stroke-linejoin="round"/>
        <line x1="3.5" y1="4.5" x2="5.5" y2="4.5" fill="none" stroke="#1078ff" stroke-linecap="round" stroke-linejoin="round"/>
        <line x1="15.5" y1="8.5" x2="15.5" y2="9.5" fill="none" stroke="#1078ff" stroke-linecap="round" stroke-linejoin="round"/>
        <line x1="13.5" y1="8.5" x2="13.5" y2="9.5" fill="none" stroke="#1078ff" stroke-linecap="round" stroke-linejoin="round"/>
        <line x1="11.5" y1="8.5" x2="11.5" y2="9.5" fill="none" stroke="#1078ff" stroke-linecap="round" stroke-linejoin="round"/>
        <line x1="3.5" y1="9.5" x2="5.5" y2="9.5" fill="none" stroke="#1078ff" stroke-linecap="round" stroke-linejoin="round"/>
        <line x1="3.5" y1="14.5" x2="5.5" y2="14.5" fill="none" stroke="#1078ff" stroke-linecap="round" stroke-linejoin="round"/>
      </g>
      <g>
        <line x1="9.5" y1="16.5" x2="9.5" y2="19.5" fill="none" stroke="#1078ff" stroke-linecap="round" stroke-linejoin="round"/>
        <line x1="0.5" y1="21.5" x2="7.5" y2="21.5" fill="none" stroke="#1078ff" stroke-linecap="round" stroke-linejoin="round"/>
        <polyline points="10.5 22.5 9.5 23.5 7.5 21.5 9.5 19.5 10.5 20.5" fill="none" stroke="#1078ff" stroke-linecap="round" stroke-linejoin="round"/>
      </g>
    </g>
    <g>
      <polyline points="20.5 20.506 17.5 23.5 12.5 18.5" fill="none" stroke="#1078ff" stroke-linecap="round" stroke-linejoin="round"/>
      <polyline points="14.5 16.506 17.5 13.5 22.5 18.506" fill="none" stroke="#1078ff" stroke-linecap="round" stroke-linejoin="round"/>
      <polyline points="12.5 21.5 12.5 18.5 15.5 18.5" fill="none" stroke="#1078ff" stroke-linecap="round" stroke-linejoin="round"/>
      <polyline points="22.5 15.5 22.5 18.5 19.5 18.5" fill="none" stroke="#1078ff" stroke-linecap="round" stroke-linejoin="round"/>
    </g>
  </g>
  <g id="Frames-24px">
    <rect width="24" height="24" fill="none"/>
  </g>
</svg>
