<svg xmlns="http://www.w3.org/2000/svg" width="24" height="24" viewBox="0 0 24 24">
  <title>server-data-transfer-smart-mobile-phone</title>
  <g id="Duotone">
    <rect x="13.5" y="1.5" width="9" height="12" fill="#fff"/>
    <rect x="0.5" y="12.5" width="8" height="11" fill="#fff"/>
    <polygon points="8.5 20.5 0.5 20.5 8.5 12.5 8.5 20.5" fill="#cce7ff"/>
    <rect x="13.5" y="3.5" width="9" height="2" fill="#cce7ff"/>
    <rect x="13.5" y="7.5" width="9" height="2" fill="#cce7ff"/>
    <rect x="13.5" y="11.5" width="9" height="2" fill="#cce7ff"/>
    <rect x="0.5" y="12.5" width="8" height="11" fill="none" stroke="#1078ff" stroke-linecap="round" stroke-linejoin="round"/>
    <line x1="0.56" y1="20.5" x2="8.5" y2="20.5" fill="none" stroke="#1078ff" stroke-linecap="round" stroke-linejoin="round"/>
    <g>
      <rect x="13.5" y="1.5" width="9" height="12" fill="none" stroke="#1078ff" stroke-linecap="round" stroke-linejoin="round"/>
      <line x1="13.5" y1="5.5" x2="22.5" y2="5.5" fill="none" stroke="#1078ff" stroke-linecap="round" stroke-linejoin="round"/>
      <line x1="13.5" y1="9.5" x2="22.5" y2="9.5" fill="none" stroke="#1078ff" stroke-linecap="round" stroke-linejoin="round"/>
      <line x1="15.5" y1="3.5" x2="16.5" y2="3.5" fill="none" stroke="#1078ff" stroke-linecap="round" stroke-linejoin="round"/>
      <line x1="15.5" y1="7.5" x2="16.5" y2="7.5" fill="none" stroke="#1078ff" stroke-linecap="round" stroke-linejoin="round"/>
      <line x1="15.5" y1="11.5" x2="16.5" y2="11.5" fill="none" stroke="#1078ff" stroke-linecap="round" stroke-linejoin="round"/>
      <line x1="18.5" y1="3.5" x2="19.5" y2="3.5" fill="none" stroke="#1078ff" stroke-linecap="round" stroke-linejoin="round"/>
      <line x1="18.5" y1="7.5" x2="19.5" y2="7.5" fill="none" stroke="#1078ff" stroke-linecap="round" stroke-linejoin="round"/>
      <line x1="18.5" y1="11.5" x2="19.5" y2="11.5" fill="none" stroke="#1078ff" stroke-linecap="round" stroke-linejoin="round"/>
    </g>
    <g>
      <polyline points="11.5 4.5 4.5 4.5 4.5 10.5" fill="none" stroke="#1078ff" stroke-linecap="round" stroke-linejoin="round"/>
      <polyline points="9.5 2.5 11.5 4.5 9.5 6.5" fill="none" stroke="#1078ff" stroke-linecap="round" stroke-linejoin="round"/>
      <polyline points="6.5 8.5 4.5 10.5 2.5 8.5" fill="none" stroke="#1078ff" stroke-linecap="round" stroke-linejoin="round"/>
    </g>
  </g>
  <g id="Frames-24px">
    <rect width="24" height="24" fill="none"/>
  </g>
</svg>
