<?xml version="1.0" encoding="utf-8"?>
<!-- Generator: Adobe Illustrator 21.0.2, SVG Export Plug-In . SVG Version: 6.00 Build 0)  -->
<svg version="1.1" xmlns="http://www.w3.org/2000/svg" xmlns:xlink="http://www.w3.org/1999/xlink" x="0px" y="0px"
	 viewBox="0 0 24 24" style="enable-background:new 0 0 24 24;" xml:space="preserve">
<style type="text/css">
	.st0{fill:#FFFFFF;}
	.st1{fill:#CCE7FF;}
	.st2{fill:none;stroke:#1078FF;stroke-linecap:round;stroke-linejoin:round;stroke-miterlimit:10;}
	.st3{fill:#1078FF;}
	.st4{fill:none;}
</style>
<g id="Duotone">
	<rect x="0.5" y="5.5" class="st0" width="23" height="16"/>
	<polygon class="st1" points="6.8,15.5 13.5,15.5 11.5,17.5 6.5,17.5 5.6,16.6 2.5,19.5 15.5,19.5 15.5,7.5 	"/>
	<rect x="17.5" y="8.5" class="st1" width="4" height="5"/>
	<rect x="0.5" y="19.5" class="st1" width="23" height="2"/>
	<g>
		<rect x="0.5" y="5.5" class="st2" width="23" height="16"/>
		<line class="st2" x1="2.5" y1="21.5" x2="2.5" y2="23.5"/>
		<line class="st2" x1="21.5" y1="21.5" x2="21.5" y2="23.5"/>
		<rect x="2.5" y="7.5" class="st2" width="13" height="12"/>
		<line class="st2" x1="17.5" y1="16.5" x2="21.5" y2="16.5"/>
		<line class="st2" x1="17.5" y1="18.5" x2="21.5" y2="18.5"/>
		<rect x="17.5" y="8.5" class="st2" width="4" height="5"/>
		<polyline class="st2" points="5.5,13 6.5,12 5.5,11 6.5,10 		"/>
		<polyline class="st2" points="8.5,13 9.5,12 8.5,11 9.5,10 		"/>
		<polyline class="st2" points="11.5,13 12.5,12 11.5,11 12.5,10 		"/>
		<polygon class="st2" points="13.5,15.5 4.5,15.5 6.5,17.5 11.5,17.5 		"/>
	</g>
</g>
<g id="Frames-24px">
	<rect class="st4" width="24" height="24"/>
</g>
</svg>
