<?xml version="1.0" encoding="utf-8"?>
<!-- Generator: Adobe Illustrator 21.0.2, SVG Export Plug-In . SVG Version: 6.00 Build 0)  -->
<svg version="1.1" xmlns="http://www.w3.org/2000/svg" xmlns:xlink="http://www.w3.org/1999/xlink" x="0px" y="0px"
	 viewBox="0 0 24 24" style="enable-background:new 0 0 24 24;" xml:space="preserve">
<style type="text/css">
	.st0{fill:#FFFFFF;}
	.st1{fill:#CCE7FF;}
	.st2{fill:none;stroke:#1078FF;stroke-linecap:round;stroke-linejoin:round;stroke-miterlimit:10;}
	.st3{fill:#1078FF;}
	.st4{fill:none;}
</style>
<g id="Duotone">
	<polygon class="st0" points="13.5,0.5 7.5,9 9,12.5 0.5,21 0.5,23.5 3,23.5 11.5,15 15,16.5 23.5,10.5 	"/>
	<polygon class="st1" points="0.5,23.5 3,23.5 11.5,15 15,16.5 23.5,10.5 18.5,5.5 	"/>
	<polygon class="st1" points="1.5,20 0.5,21 0.5,23.5 3,23.5 4,22.5 	"/>
	<g>
		<polyline class="st2" points="9,12.5 0.5,21 0.5,23.5 3,23.5 11.5,15 		"/>
		<polygon class="st2" points="9,12.5 7.5,9 13.5,0.5 23.5,10.5 15,16.5 11.5,15 		"/>
		<line class="st2" x1="4" y1="22.5" x2="1.5" y2="20"/>
		<line class="st2" x1="13" y1="11" x2="17" y2="7"/>
		<line class="st2" x1="11.5" y1="9.5" x2="14" y2="5.5"/>
		<line class="st2" x1="14.5" y1="12.5" x2="18.5" y2="10"/>
	</g>
</g>
<g id="Frames-24px">
	<rect class="st4" width="24" height="24"/>
</g>
</svg>
