<?xml version="1.0" encoding="utf-8"?>
<!-- Generator: Adobe Illustrator 21.0.2, SVG Export Plug-In . SVG Version: 6.00 Build 0)  -->
<svg version="1.1" xmlns="http://www.w3.org/2000/svg" xmlns:xlink="http://www.w3.org/1999/xlink" x="0px" y="0px"
	 viewBox="0 0 24 24" style="enable-background:new 0 0 24 24;" xml:space="preserve">
<style type="text/css">
	.st0{fill:#FFFFFF;}
	.st1{fill:#CCE7FF;}
	.st2{fill:none;stroke:#1078FF;stroke-linecap:round;stroke-linejoin:round;stroke-miterlimit:10;}
	.st3{fill:#1078FF;}
	.st4{fill:none;}
</style>
<g id="Duotone">
	<polygon class="st0" points="19.5,4.5 16.5,1.5 7.5,1.5 4.5,4.5 3.5,10 3.5,17 4.5,20 8.5,22.5 15.5,22.5 19.5,20 20.5,17 20.5,10 
			"/>
	<polygon class="st1" points="12,22.5 15.5,22.5 19.5,20 20.5,17 20.5,10 19.5,4.5 15.5,7.5 12,7.5 	"/>
	<g>
		<polygon class="st2" points="15.5,7.5 19.5,4.5 16.5,1.5 7.5,1.5 4.5,4.5 8.5,7.5 		"/>
		<polyline class="st2" points="19.5,4.5 20.5,10 20.5,17 19.5,20 15.5,22.5 8.5,22.5 4.5,20 3.5,17 3.5,10 4.5,4.5 		"/>
		<polyline class="st2" points="20.5,16 15.5,19.5 8.5,19.5 3.5,16 		"/>
		<polyline class="st2" points="20.5,13 15.5,16.5 8.5,16.5 3.5,13 		"/>
		<polyline class="st2" points="20.5,10 15.5,13.5 8.5,13.5 3.5,10 		"/>
		<polyline class="st2" points="20.1,7.5 15.5,10.5 8.5,10.5 3.9,7.5 		"/>
		<polygon class="st2" points="9.5,3.5 8,4.5 9.5,5.5 11,4.5 		"/>
	</g>
</g>
<g id="Frames-24px">
	<rect class="st4" width="24" height="24"/>
</g>
</svg>
