<?xml version="1.0" encoding="utf-8"?>
<!-- Generator: Adobe Illustrator 21.0.2, SVG Export Plug-In . SVG Version: 6.00 Build 0)  -->
<svg version="1.1" xmlns="http://www.w3.org/2000/svg" xmlns:xlink="http://www.w3.org/1999/xlink" x="0px" y="0px"
	 viewBox="0 0 24 24" style="enable-background:new 0 0 24 24;" xml:space="preserve">
<style type="text/css">
	.st0{fill:#FFFFFF;}
	.st1{fill:#CCE7FF;}
	.st2{fill:none;stroke:#1078FF;stroke-linecap:round;stroke-linejoin:round;stroke-miterlimit:10;}
	.st3{fill:#1078FF;}
	.st4{fill:none;}
</style>
<g id="Duotone">
	<polygon class="st0" points="17.5,0.5 15,16 7.5,23.5 16.5,23.5 9,16 6.5,0.5 	"/>
	<polygon class="st1" points="7.6,7.5 9,16 12,19 15,16 16.4,7.5 	"/>
	<g>
		<polygon class="st2" points="17.5,0.5 15,16 7.5,23.5 16.5,23.5 9,16 6.5,0.5 		"/>
		<line class="st2" x1="7.6" y1="7.5" x2="16.4" y2="7.5"/>
	</g>
</g>
<g id="Frames-24px">
	<rect class="st4" width="24" height="24"/>
</g>
</svg>
