<?xml version="1.0" encoding="utf-8"?>
<!-- Generator: Adobe Illustrator 21.0.2, SVG Export Plug-In . SVG Version: 6.00 Build 0)  -->
<svg version="1.1" xmlns="http://www.w3.org/2000/svg" xmlns:xlink="http://www.w3.org/1999/xlink" x="0px" y="0px" width="24px"
	 height="24px" viewBox="0 0 24 24" enable-background="new 0 0 24 24" xml:space="preserve">
<g id="Black">
	<g>
		<g>
			<g>
				<g>
					
						<line fill="none" stroke="#58595B" stroke-linecap="round" stroke-linejoin="round" stroke-miterlimit="10" x1="18.5" y1="14.5" x2="18.5" y2="20.5"/>
					
						<line fill="none" stroke="#58595B" stroke-linecap="round" stroke-linejoin="round" stroke-miterlimit="10" x1="21.5" y1="17.5" x2="15.5" y2="17.5"/>
				</g>
			</g>
			<polygon fill="none" stroke="#58595B" stroke-linecap="round" stroke-linejoin="round" stroke-miterlimit="10" points="
				13.5,14.65 18.5,12 23.5,14.65 23.5,20.35 18.5,23 13.5,20.35 			"/>
		</g>
		
			<line fill="none" stroke="#58595B" stroke-linecap="round" stroke-linejoin="round" stroke-miterlimit="10" x1="4.5" y1="2.5" x2="18.5" y2="2.5"/>
		
			<line fill="none" stroke="#58595B" stroke-linecap="round" stroke-linejoin="round" stroke-miterlimit="10" x1="4.5" y1="6.5" x2="18.5" y2="6.5"/>
		
			<line fill="none" stroke="#58595B" stroke-linecap="round" stroke-linejoin="round" stroke-miterlimit="10" x1="4.5" y1="10.5" x2="16.5" y2="10.5"/>
		
			<line fill="none" stroke="#58595B" stroke-linecap="round" stroke-linejoin="round" stroke-miterlimit="10" x1="4.5" y1="14.5" x2="10.5" y2="14.5"/>
		
			<line fill="none" stroke="#58595B" stroke-linecap="round" stroke-linejoin="round" stroke-miterlimit="10" x1="4.5" y1="18.5" x2="10.5" y2="18.5"/>
		<g>
			<path fill="#58595B" d="M2.001,1.501c-0.051,0-0.102,0.02-0.141,0.059L1.06,2.359c-0.078,0.078-0.078,0.205,0,0.283l0.799,0.799
				C1.898,3.48,1.949,3.5,2.001,3.5c0.051,0,0.102-0.02,0.141-0.059l0.799-0.799c0.078-0.078,0.078-0.205,0-0.283L2.142,1.56
				C2.103,1.521,2.052,1.501,2.001,1.501L2.001,1.501z"/>
		</g>
		<g>
			<path fill="#58595B" d="M2.001,5.501c-0.051,0-0.102,0.02-0.141,0.059L1.06,6.359c-0.078,0.078-0.078,0.205,0,0.283l0.799,0.799
				c0.039,0.039,0.09,0.059,0.141,0.059c0.051,0,0.102-0.02,0.141-0.059l0.799-0.799c0.078-0.078,0.078-0.205,0-0.283L2.142,5.559
				C2.103,5.52,2.052,5.501,2.001,5.501L2.001,5.501z"/>
		</g>
		<g>
			<path fill="#58595B" d="M2.001,9.502c-0.051,0-0.102,0.02-0.141,0.059L1.06,10.36c-0.078,0.078-0.078,0.205,0,0.283l0.799,0.799
				c0.039,0.039,0.09,0.059,0.141,0.059c0.051,0,0.102-0.019,0.141-0.059l0.799-0.799c0.078-0.078,0.078-0.205,0-0.283L2.142,9.56
				C2.103,9.521,2.052,9.502,2.001,9.502L2.001,9.502z"/>
		</g>
		<g>
			<path fill="#58595B" d="M2.001,13.501c-0.051,0-0.102,0.02-0.141,0.059L1.06,14.359c-0.078,0.078-0.078,0.205,0,0.283
				l0.799,0.799c0.039,0.039,0.09,0.059,0.141,0.059c0.051,0,0.102-0.019,0.141-0.059l0.799-0.799c0.078-0.078,0.078-0.205,0-0.283
				L2.142,13.56C2.103,13.521,2.052,13.501,2.001,13.501L2.001,13.501z"/>
		</g>
		<g>
			<path fill="#58595B" d="M2.001,17.5c-0.051,0-0.102,0.02-0.141,0.059L1.06,18.358c-0.078,0.078-0.078,0.205,0,0.283l0.799,0.799
				c0.039,0.039,0.09,0.059,0.141,0.059c0.051,0,0.102-0.02,0.141-0.059l0.799-0.799c0.078-0.078,0.078-0.205,0-0.283l-0.799-0.799
				C2.103,17.52,2.052,17.5,2.001,17.5L2.001,17.5z"/>
		</g>
	</g>
</g>
<g id="Frames-24px">
	<rect fill="none" width="24" height="24"/>
</g>
</svg>
