<?xml version="1.0" encoding="utf-8"?>
<!-- Generator: Adobe Illustrator 21.0.2, SVG Export Plug-In . SVG Version: 6.00 Build 0)  -->
<svg version="1.1" xmlns="http://www.w3.org/2000/svg" xmlns:xlink="http://www.w3.org/1999/xlink" x="0px" y="0px"
	 viewBox="0 0 24 24" style="enable-background:new 0 0 24 24;" xml:space="preserve">
<style type="text/css">
	.st0{fill:#FFFFFF;}
	.st1{fill:#CCE7FF;}
	.st2{fill:none;stroke:#1078FF;stroke-linecap:round;stroke-linejoin:round;stroke-miterlimit:10;}
	.st3{fill:none;}
</style>
<g id="Duotone">
	<rect x="0.5" y="19.5" class="st0" width="12" height="4"/>
	<rect x="10.5" y="12.5" class="st0" width="12" height="4"/>
	<rect x="0.5" y="1.5" class="st0" width="12" height="4"/>
	<polygon class="st1" points="0.5,5.5 2,4 11,4 12.5,5.5 	"/>
	<polygon class="st1" points="10.5,16.5 12,15 21,15 22.5,16.5 	"/>
	<polygon class="st1" points="0.5,23.5 2,22 11,22 12.5,23.5 	"/>
	<rect x="0.5" y="19.5" class="st2" width="12" height="4"/>
	<rect x="10.5" y="12.5" class="st2" width="12" height="4"/>
	<rect x="0.5" y="1.5" class="st2" width="12" height="4"/>
	<polyline class="st2" points="6.5,5.5 6.5,8.5 16.5,8.5 16.5,12.5 	"/>
	<polyline class="st2" points="16.5,16.5 16.5,21.5 12.5,21.5 	"/>
</g>
<g id="Frames-24px">
	<rect class="st3" width="24" height="24"/>
</g>
</svg>
