<?xml version="1.0" encoding="utf-8"?>
<!-- Generator: Adobe Illustrator 21.0.2, SVG Export Plug-In . SVG Version: 6.00 Build 0)  -->
<svg version="1.1" xmlns="http://www.w3.org/2000/svg" xmlns:xlink="http://www.w3.org/1999/xlink" x="0px" y="0px"
	 viewBox="0 0 24 24" style="enable-background:new 0 0 24 24;" xml:space="preserve">
<style type="text/css">
	.st0{fill:#FFFFFF;}
	.st1{fill:#CCE7FF;}
	.st2{fill:none;stroke:#1078FF;stroke-linecap:round;stroke-linejoin:round;stroke-miterlimit:10;}
	.st3{fill:none;}
</style>
<g id="Duotone">
	<polygon class="st0" points="15.5,8.3 11.5,10.5 7.5,8.3 7.5,3.8 11.5,1.5 15.5,3.8 	"/>
	<polygon class="st0" points="8.5,21.3 4.5,23.5 0.5,21.3 0.5,16.8 4.5,14.5 8.5,16.8 	"/>
	<polygon class="st0" points="22.5,21.3 18.5,23.5 14.5,21.3 14.5,16.8 18.5,14.5 22.5,16.8 	"/>
	<polygon class="st1" points="0.5,21.2 2,20.5 4.5,22 7,20.5 8.5,21.3 4.5,23.5 	"/>
	<polygon class="st1" points="14.5,21.2 16,20.5 18.5,22 21,20.5 22.5,21.3 18.5,23.5 	"/>
	<polygon class="st1" points="7.5,8.2 9,7.5 11.5,9 14,7.5 15.5,8.3 11.5,10.5 	"/>
	<polygon class="st2" points="15.5,8.3 11.5,10.5 7.5,8.3 7.5,3.8 11.5,1.5 15.5,3.8 	"/>
	<polygon class="st2" points="8.5,21.3 4.5,23.5 0.5,21.3 0.5,16.8 4.5,14.5 8.5,16.8 	"/>
	<polygon class="st2" points="22.5,21.3 18.5,23.5 14.5,21.3 14.5,16.8 18.5,14.5 22.5,16.8 	"/>
	<line class="st2" x1="16.8" y1="15.5" x2="13.4" y2="9.4"/>
	<line class="st2" x1="8.5" y1="18.5" x2="14.5" y2="18.5"/>
	<line class="st2" x1="9.6" y1="9.4" x2="6.2" y2="15.5"/>
</g>
<g id="Frames-24px">
	<rect class="st3" width="24" height="24"/>
</g>
</svg>
