<svg xmlns="http://www.w3.org/2000/svg" width="24" height="24" viewBox="0 0 24 24">
  <title>mobile-phone-favorite-heart</title>
  <g id="Duotone">
    <rect x="3.5" y="0.5" width="16" height="23" fill="#fff"/>
    <polygon points="11.5 13.5 16.5 8.5 14 5.5 11.5 7.5 11.5 13.5" fill="#cce7ff"/>
    <polygon points="14.511 6.113 16.5 8.5 11.5 13.5 9.618 11.618 3.5 18.5 19.5 18.5 19.5 0.5 14.511 6.113" fill="#cce7ff"/>
    <g>
      <line x1="3.5" y1="18.5" x2="19.5" y2="18.5" fill="none" stroke="#1078ff" stroke-linecap="round" stroke-linejoin="round"/>
      <rect x="3.5" y="0.5" width="16" height="23" fill="none" stroke="#1078ff" stroke-linecap="round" stroke-linejoin="round"/>
      <line x1="10.5" y1="21.5" x2="12.5" y2="21.5" fill="none" stroke="#1078ff" stroke-linecap="round" stroke-linejoin="round"/>
    </g>
    <g>
      <polygon points="11.5 13.5 16.5 8.5 14 5.5 11.5 7.5 9 5.5 6.5 8.5 11.5 13.5" fill="none" stroke="#1078ff" stroke-linejoin="round"/>
      <polygon points="11.5 13.5 16.5 8.5 14 5.5 11.5 7.5 9 5.5 6.5 8.5 11.5 13.5" fill="none" stroke="#1078ff" stroke-linecap="round" stroke-linejoin="round"/>
    </g>
    <polygon points="11.5 13.5 16.5 8.5 14 5.5 11.5 7.5 9 5.5 6.5 8.5 11.5 13.5" fill="none" stroke="#1078ff" stroke-linejoin="round"/>
  </g>
  <g id="Frames-24px">
    <rect width="24" height="24" fill="none"/>
  </g>
</svg>
