<svg xmlns="http://www.w3.org/2000/svg" width="24" height="24" viewBox="0 0 24 24">
  <title>mobile-phone-setting</title>
  <g id="Duotone">
    <rect x="3.5" y="0.5" width="16" height="23" fill="#fff"/>
    <g>
      <polygon points="11.5 11.75 13.5 10.618 13.5 8.382 12.831 8.003 10.169 10.997 11.5 11.75" fill="#cce7ff"/>
      <polygon points="14.21 6.451 14.26 6.478 15.738 6.125 16.5 7.417 15.5 8.513 15.5 10.487 16.5 11.583 15.738 12.875 14.26 12.522 12.582 13.421 12.25 14.5 10.75 14.5 10.418 13.421 8.79 12.549 3.5 18.5 19.5 18.5 19.5 0.5 14.21 6.451" fill="#cce7ff"/>
    </g>
    <g>
      <line x1="3.5" y1="18.5" x2="19.5" y2="18.5" fill="none" stroke="#1078ff" stroke-linecap="round" stroke-linejoin="round"/>
      <rect x="3.5" y="0.5" width="16" height="23" fill="none" stroke="#1078ff" stroke-linecap="round" stroke-linejoin="round"/>
      <line x1="10.5" y1="21.5" x2="12.5" y2="21.5" fill="none" stroke="#1078ff" stroke-linecap="round" stroke-linejoin="round"/>
    </g>
    <path d="M15.5,8.513l1-1.1-.762-1.292-1.478.353-1.678-.9L12.25,4.5h-1.5l-.332,1.079-1.678.9L7.262,6.125,6.5,7.417l1,1.1v1.973l-1,1.1.762,1.292,1.478-.353,1.678.9L10.75,14.5h1.5l.332-1.079,1.678-.9,1.478.353.762-1.292-1-1.1Zm-2,2.1-2,1.132-2-1.132V8.382l2-1.132,2,1.132Z" fill="none" stroke="#1078ff" stroke-linecap="round" stroke-linejoin="round"/>
    <polygon points="15.5 8.513 16.5 7.417 15.738 6.125 14.26 6.478 12.582 5.579 12.25 4.5 10.75 4.5 10.418 5.579 8.74 6.478 7.262 6.125 6.5 7.417 7.5 8.513 7.5 10.487 6.5 11.583 7.262 12.875 8.74 12.522 10.418 13.421 10.75 14.5 12.25 14.5 12.582 13.421 14.26 12.522 15.738 12.875 16.5 11.583 15.5 10.487 15.5 8.513" fill="none" stroke="#1078ff" stroke-linecap="round" stroke-linejoin="round"/>
    <polygon points="9.5 8.382 11.5 7.25 13.5 8.382 13.5 10.618 11.5 11.75 9.5 10.618 9.5 8.382" fill="none" stroke="#1078ff" stroke-linecap="round" stroke-linejoin="round"/>
  </g>
  <g id="Frames-24px">
    <rect width="24" height="24" fill="none"/>
  </g>
</svg>
