<svg xmlns="http://www.w3.org/2000/svg" width="24" height="24" viewBox="0 0 24 24">
  <title>mobile-phone-find-search</title>
  <g id="Duotone">
    <rect x="3.5" y="0.5" width="16" height="23" fill="#fff"/>
    <polygon points="13.833 6.875 14.5 7.25 14.5 11.75 10.5 14 8.5 12.875 3.5 18.5 19.5 18.5 19.5 0.5 13.833 6.875" fill="#cce7ff"/>
    <g>
      <line x1="3.5" y1="18.5" x2="19.5" y2="18.5" fill="none" stroke="#1078ff" stroke-linecap="round" stroke-linejoin="round"/>
      <rect x="3.5" y="0.5" width="16" height="23" fill="none" stroke="#1078ff" stroke-linecap="round" stroke-linejoin="round"/>
      <line x1="10.5" y1="21.5" x2="12.5" y2="21.5" fill="none" stroke="#1078ff" stroke-linecap="round" stroke-linejoin="round"/>
    </g>
    <line x1="17.5" y1="13.679" x2="14.5" y2="11.752" fill="none" stroke="#1078ff" stroke-linecap="round" stroke-miterlimit="10"/>
    <polygon points="6.5 7.25 10.5 5 14.5 7.25 14.5 11.75 10.5 14 6.5 11.75 6.5 7.25" fill="none" stroke="#1078ff" stroke-linecap="round" stroke-linejoin="round"/>
  </g>
  <g id="Frames-24px">
    <rect width="24" height="24" fill="none"/>
  </g>
</svg>
