<svg xmlns="http://www.w3.org/2000/svg" width="24" height="24" viewBox="0 0 24 24">
  <title>mobile-phone-battery-medium</title>
  <g id="Duotone">
    <polygon points="23.5 10.5 20.5 10.5 20.5 6.5 0.5 6.5 0.5 18.5 20.5 18.5 20.5 14.5 23.5 14.5 23.5 10.5" fill="#fff"/>
    <polygon points="0.5 12.5 0.5 18.5 20.5 18.5 20.5 14.5 23.5 14.5 23.5 12.5 0.5 12.5" fill="#cce7ff"/>
    <polygon points="23.5 10.5 20.5 10.5 20.5 6.5 0.5 6.5 0.5 18.5 20.5 18.5 20.5 14.5 23.5 14.5 23.5 10.5" fill="none" stroke="#1078ff" stroke-linecap="round" stroke-linejoin="round"/>
    <line x1="3.5" y1="16" x2="6.5" y2="9" fill="none" stroke="#1078ff" stroke-linecap="round" stroke-linejoin="round"/>
    <line x1="6.5" y1="16" x2="9.5" y2="9" fill="none" stroke="#1078ff" stroke-linecap="round" stroke-linejoin="round"/>
  </g>
  <g id="Frames-24px">
    <rect width="24" height="24" fill="none"/>
  </g>
</svg>
