<svg xmlns="http://www.w3.org/2000/svg" width="24" height="24" viewBox="0 0 24 24">
  <title>mobile-phone-edit-1</title>
  <g id="Duotone">
    <rect x="3.5" y="0.5" width="16" height="23" fill="#fff"/>
    <polygon points="3.5 18.5 19.5 0.5 19.5 18.5 3.5 18.5" fill="#cce7ff"/>
    <polygon points="15.449 5.571 6.526 14.494 9.232 13.889 16.5 6.622 15.449 5.571" fill="#cce7ff"/>
    <line x1="3.5" y1="18.5" x2="19.5" y2="18.5" fill="none" stroke="#1078ff" stroke-linecap="round" stroke-linejoin="round"/>
    <rect x="3.5" y="0.5" width="16" height="23" fill="none" stroke="#1078ff" stroke-linecap="round" stroke-linejoin="round"/>
    <line x1="10.5" y1="21.5" x2="12.5" y2="21.5" fill="none" stroke="#1078ff" stroke-linecap="round" stroke-linejoin="round"/>
    <polygon points="7.111 11.768 14.379 4.5 16.5 6.622 9.232 13.889 6.5 14.5 7.111 11.768" fill="none" stroke="#1078ff" stroke-linecap="round" stroke-linejoin="round"/>
  </g>
  <g id="Frames-24px">
    <rect width="24" height="24" fill="none"/>
  </g>
</svg>
