<svg xmlns="http://www.w3.org/2000/svg" width="24" height="24" viewBox="0 0 24 24">
  <title>golf-2</title>
  <g id="Duotone">
    <polygon points="6.5 1.5 12.5 4.5 6.5 7 6.5 1.5" fill="#fff"/>
    <polygon points="22.5 22 20 23.5 17.5 22 17.5 19 20 17.5 22.5 19 22.5 22" fill="#fff"/>
    <polyline points="8.5 13.5 10.25 15.5 8.5 17.5 4.5 17.5 2.75 15.5 4.5 13.5" fill="#cce7ff"/>
    <polygon points="22.5 19 17.5 22 20 23.5 22.5 22 22.5 19" fill="#cce7ff"/>
    <polygon points="9.577 3.038 6.5 6.115 6.5 7 12.5 4.5 9.577 3.038" fill="#cce7ff"/>
    <line x1="6.5" y1="1.5" x2="6.5" y2="15.5" fill="none" stroke="#1078ff" stroke-linecap="round" stroke-linejoin="round"/>
    <polygon points="6.5 1.5 12.5 4.5 6.5 7 6.5 1.5" fill="none" stroke="#1078ff" stroke-linecap="round" stroke-linejoin="round"/>
    <line x1="8.5" y1="11.5" x2="23.5" y2="11.5" fill="none" stroke="#1078ff" stroke-linecap="round" stroke-linejoin="round"/>
    <line x1="4.5" y1="11.5" x2="0.5" y2="11.5" fill="none" stroke="#1078ff" stroke-linecap="round" stroke-linejoin="round"/>
    <polygon points="22.5 22 20 23.5 17.5 22 17.5 19 20 17.5 22.5 19 22.5 22" fill="none" stroke="#1078ff" stroke-linecap="round" stroke-linejoin="round"/>
    <polyline points="8.5 13.5 10.25 15.5 8.5 17.5 4.5 17.5 2.75 15.5 4.5 13.5" fill="none" stroke="#1078ff" stroke-linecap="round" stroke-linejoin="round"/>
  </g>
  <g id="Frames-24px">
    <rect width="24" height="24" fill="none"/>
  </g>
</svg>
