<svg xmlns="http://www.w3.org/2000/svg" width="24" height="24" viewBox="0 0 24 24">
  <title>golf-1</title>
  <g id="Duotone">
    <polygon points="18.078 20.127 10.794 17.941 8.676 23.5 17.146 23.5 18.078 20.127" fill="#fff"/>
    <polygon points="8.5 14.75 4.5 17 0.5 14.75 0.5 10.25 4.5 8 8.5 10.25 8.5 14.75" fill="#fff"/>
    <polygon points="18.078 20.127 8.676 23.5 17.146 23.5 18.078 20.127" fill="#cce7ff"/>
    <polygon points="0.5 14.75 2 13.5 4.5 15 7 13.5 8.5 14.75 4.5 17 0.5 14.75" fill="#cce7ff"/>
    <line x1="2.5" y1="19.5" x2="6.559" y2="19.5" fill="none" stroke="#1078ff" stroke-linecap="round" stroke-linejoin="round"/>
    <line x1="4.5" y1="19.5" x2="4.5" y2="22.5" fill="none" stroke="#1078ff" stroke-linecap="round" stroke-linejoin="round"/>
    <line x1="23.5" y1="0.5" x2="17.146" y2="23.5" fill="none" stroke="#1078ff" stroke-linecap="round" stroke-linejoin="round"/>
    <polygon points="18.078 20.127 10.794 17.941 8.676 23.5 17.146 23.5 18.078 20.127" fill="none" stroke="#1078ff" stroke-linecap="round" stroke-linejoin="round"/>
    <polygon points="8.5 14.75 4.5 17 0.5 14.75 0.5 10.25 4.5 8 8.5 10.25 8.5 14.75" fill="none" stroke="#1078ff" stroke-linecap="round" stroke-linejoin="round"/>
  </g>
  <g id="Frames-24px">
    <rect width="24" height="24" fill="none"/>
  </g>
</svg>
