<svg xmlns="http://www.w3.org/2000/svg" width="24" height="24" viewBox="0 0 24 24">
  <title>rugby</title>
  <g id="Duotone">
    <polygon points="23.489 12.198 23.5 0.5 11.814 0.5 0.5 12.186 0.5 23.5 11.825 23.489 23.489 12.198" fill="#fff"/>
    <polygon points="23.489 12.198 23.5 0.5 0.5 23.5 11.825 23.489 23.489 12.198" fill="#cce7ff"/>
    <line x1="8.285" y1="12.886" x2="11.114" y2="15.715" fill="none" stroke="#1078ff" stroke-linecap="round" stroke-linejoin="round"/>
    <line x1="9.699" y1="10.065" x2="13.935" y2="14.3" fill="none" stroke="#1078ff" stroke-linecap="round" stroke-linejoin="round"/>
    <line x1="12.521" y1="8.651" x2="15.349" y2="11.479" fill="none" stroke="#1078ff" stroke-linecap="round" stroke-linejoin="round"/>
    <line x1="0.5" y1="12.186" x2="11.814" y2="23.5" fill="none" stroke="#1078ff" stroke-linecap="round" stroke-linejoin="round"/>
    <line x1="0.5" y1="17.843" x2="6.151" y2="23.494" fill="none" stroke="#1078ff" stroke-linecap="round" stroke-linejoin="round"/>
    <polygon points="23.489 12.198 23.5 0.5 11.814 0.5 0.5 12.186 0.5 23.5 11.825 23.489 23.489 12.198" fill="none" stroke="#1078ff" stroke-linecap="round" stroke-linejoin="round"/>
    <line x1="11.814" y1="0.5" x2="23.5" y2="12.186" fill="none" stroke="#1078ff" stroke-linecap="round" stroke-linejoin="round"/>
    <line x1="17.471" y1="0.5" x2="23.494" y2="6.524" fill="none" stroke="#1078ff" stroke-linecap="round" stroke-linejoin="round"/>
    <line x1="8.278" y1="15.722" x2="15.349" y2="8.651" fill="none" stroke="#1078ff" stroke-linecap="round" stroke-linejoin="round"/>
  </g>
  <g id="Frames-24px">
    <rect width="24" height="24" fill="none"/>
  </g>
</svg>
