<svg xmlns="http://www.w3.org/2000/svg" width="24" height="24" viewBox="0 0 24 24">
  <title>soccer-goal</title>
  <g id="Duotone">
    <polygon points="5.5 21.25 3.5 22.5 1.5 21.25 1.5 19.25 3.5 18 5.5 19.25 5.5 21.25" fill="#fff"/>
    <polygon points="5.5 19.25 1.5 21.25 3.5 22.5 5.5 21.25 5.5 19.25" fill="#cce7ff"/>
    <polygon points="13.5 21.5 23.5 21.5 22 6.5 13.5 6.5 13.5 21.5" fill="none" stroke="#1078ff" stroke-linecap="round" stroke-linejoin="round"/>
    <polyline points="22 6.5 12 0.5 5.5 0.5 5.5 12.5 11.5 12.5" fill="none" stroke="#1078ff" stroke-linecap="round" stroke-linejoin="round"/>
    <line x1="5.5" y1="0.5" x2="13.51" y2="6.5" fill="none" stroke="#1078ff" stroke-linecap="round" stroke-linejoin="round"/>
    <line x1="16.5" y1="21.5" x2="16.5" y2="6.5" fill="none" stroke="#1078ff" stroke-linecap="round" stroke-linejoin="round"/>
    <line x1="13.5" y1="9.5" x2="22.3" y2="9.5" fill="none" stroke="#1078ff" stroke-linecap="round" stroke-linejoin="round"/>
    <line x1="13.5" y1="12.5" x2="22.567" y2="12.5" fill="none" stroke="#1078ff" stroke-linecap="round" stroke-linejoin="round"/>
    <line x1="13.5" y1="15.5" x2="22.878" y2="15.5" fill="none" stroke="#1078ff" stroke-linecap="round" stroke-linejoin="round"/>
    <line x1="13.5" y1="18.5" x2="23.189" y2="18.5" fill="none" stroke="#1078ff" stroke-linecap="round" stroke-linejoin="round"/>
    <line x1="19.5" y1="6.5" x2="19.5" y2="21.5" fill="none" stroke="#1078ff" stroke-linecap="round" stroke-linejoin="round"/>
    <line x1="8.75" y1="0.5" x2="17.5" y2="6.5" fill="none" stroke="#1078ff" stroke-linecap="round" stroke-linejoin="round"/>
    <line x1="7.503" y1="2" x2="14.5" y2="2" fill="none" stroke="#1078ff" stroke-linecap="round" stroke-linejoin="round"/>
    <line x1="10.173" y1="4" x2="17.833" y2="4" fill="none" stroke="#1078ff" stroke-linecap="round" stroke-linejoin="round"/>
    <polygon points="5.5 21.25 3.5 22.5 1.5 21.25 1.5 19.25 3.5 18 5.5 19.25 5.5 21.25" fill="none" stroke="#1078ff" stroke-linecap="round" stroke-linejoin="round"/>
  </g>
  <g id="Frames-24px">
    <rect width="24" height="24" fill="none"/>
  </g>
</svg>
