<svg xmlns="http://www.w3.org/2000/svg" width="24" height="24" viewBox="0 0 24 24">
  <title>cloudy</title>
  <g id="Duotone">
    <polygon points="16.5 17.501 15 14.501 20 14.501 22.5 12.001 21 8.501 18.5 8.501 16 3.501 12 3.501 9.5 6.501 6 6.501 2.5 11.001 6 14.501 8.333 14.501 7.5 15.501 4 15.501 0.5 20.001 4 23.501 18 23.501 20.5 21.001 19 17.501 16.5 17.501" fill="#fff"/>
    <polygon points="4 23.501 0.5 20.001 3.5 20.001 5 21.501 16.75 21.501 18 20.501 19 17.501 20.5 21.001 18 23.501 4 23.501" fill="#cce7ff"/>
    <polygon points="6.5 14.501 6 14.501 2.5 11.001 5.5 11.001 7 12.501 8 12.501 6.5 14.501" fill="#cce7ff"/>
    <polygon points="17.499 12.501 18.75 12.501 20 11.501 21 8.501 22.5 12.001 20 14.501 17.5 14.501 17.499 12.501" fill="#cce7ff"/>
    <polygon points="19 17.501 16.5 17.501 14 12.501 10 12.501 7.5 15.501 4 15.501 0.5 20.001 4 23.501 18 23.501 20.5 21.001 19 17.501" fill="none" stroke="#1078ff" stroke-linejoin="round"/>
    <line x1="13.5" y1="17.501" x2="16.5" y2="17.501" fill="none" stroke="#1078ff" stroke-linecap="round" stroke-linejoin="round"/>
    <polyline points="17.5 14.501 20 14.501 22.5 12.001 21 8.501 18.5 8.501 16 3.501 12 3.501 9.5 6.501 6 6.501 2.5 11.001 5 13.501" fill="none" stroke="#1078ff" stroke-linecap="round" stroke-linejoin="round"/>
    <line x1="15.5" y1="8.501" x2="18.5" y2="8.501" fill="none" stroke="#1078ff" stroke-linecap="round" stroke-linejoin="round"/>
  </g>
  <g id="Frames-24px">
    <rect width="24" height="24" fill="none"/>
  </g>
</svg>
