<svg xmlns="http://www.w3.org/2000/svg" width="24" height="24" viewBox="0 0 24 24">
  <title>cloud-wind-3</title>
  <g id="Duotone">
    <polygon points="15.5 14.501 20 14.501 22.5 12.001 21 8.501 18.5 8.501 16 3.501 12 3.501 9.5 6.501 6 6.501 2.5 11.001 6 14.501 15.5 14.501" fill="#fff"/>
    <polygon points="6 14.501 2.5 11.001 5.5 11.001 7 12.501 18.75 12.501 20 11.501 21 8.501 22.5 12.001 20 14.501 6 14.501" fill="#cce7ff"/>
    <polyline points="0.5 16.501 13.925 16.501 15 15.001 14 13.501 12.5 13.501" fill="none" stroke="#1078ff" stroke-linecap="round" stroke-linejoin="round"/>
    <polyline points="0.5 18.501 8.925 18.501 10 20.001 9 21.501 7.5 21.501" fill="none" stroke="#1078ff" stroke-linecap="round" stroke-linejoin="round"/>
    <line x1="15.5" y1="8.501" x2="18.5" y2="8.501" fill="none" stroke="#1078ff" stroke-linecap="round" stroke-linejoin="round"/>
    <polyline points="17.5 14.501 20 14.501 22.5 12.001 21 8.501 18.5 8.501 16 3.501 12 3.501 9.5 6.501 6 6.501 2.5 11.001 5 13.501" fill="none" stroke="#1078ff" stroke-linecap="round" stroke-linejoin="round"/>
  </g>
  <g id="Frames-24px">
    <rect width="24" height="24" fill="none"/>
  </g>
</svg>
