<svg xmlns="http://www.w3.org/2000/svg" width="24" height="24" viewBox="0 0 24 24">
  <title>day-snow-storm</title>
  <g id="Duotone">
    <polygon points="15.5 16.501 20 16.501 22.5 14.001 21 10.501 18.5 10.501 16 5.501 12 5.501 9.5 8.501 6 8.501 2.5 13.001 6 16.501 15.5 16.501" fill="#fff"/>
    <polygon points="7.5 6.501 7.5 5.155 5.5 4.001 3.5 5.155 3.5 7.346 4.012 7.641 5.5 6.501 7.5 6.501" fill="#cce7ff"/>
    <polygon points="6 16.501 2.5 13.001 5.5 13.001 7 14.501 18.75 14.501 20 13.501 21 10.501 22.5 14.001 20 16.501 6 16.501" fill="#cce7ff"/>
    <polyline points="12 18.501 9.5 20.501 12.5 20.501 10 22.501" fill="none" stroke="#1078ff" stroke-linecap="round" stroke-linejoin="round"/>
    <line x1="5.5" y1="1.501" x2="5.5" y2="0.501" fill="none" stroke="#1078ff" stroke-linecap="round" stroke-linejoin="round"/>
    <line x1="0.5" y1="6.501" x2="1.5" y2="6.501" fill="none" stroke="#1078ff" stroke-linecap="round" stroke-linejoin="round"/>
    <line x1="1.5" y1="10.501" x2="2.318" y2="9.683" fill="none" stroke="#1078ff" stroke-linecap="round" stroke-linejoin="round"/>
    <line x1="9.5" y1="2.501" x2="8.682" y2="3.319" fill="none" stroke="#1078ff" stroke-linecap="round" stroke-linejoin="round"/>
    <line x1="1.5" y1="2.501" x2="2.318" y2="3.319" fill="none" stroke="#1078ff" stroke-linecap="round" stroke-linejoin="round"/>
    <polyline points="4.012 7.641 3.5 7.346 3.5 5.155 5.5 4.001 7.5 5.155 7.5 6.501" fill="none" stroke="#1078ff" stroke-linecap="round" stroke-linejoin="round"/>
    <path d="M16,21a.2.2,0,0,0-.141.059l-.8.8a.2.2,0,0,0,0,.283l.8.8a.2.2,0,0,0,.283,0l.8-.8a.2.2,0,0,0,0-.283l-.8-.8A.2.2,0,0,0,16,21Z" fill="#1078ff"/>
    <path d="M4,21a.2.2,0,0,0-.141.059l-.8.8a.2.2,0,0,0,0,.283l.8.8a.2.2,0,0,0,.283,0l.8-.8a.2.2,0,0,0,0-.283l-.8-.8A.2.2,0,0,0,4,21Z" fill="#1078ff"/>
    <path d="M6,18a.2.2,0,0,0-.141.059l-.8.8a.2.2,0,0,0,0,.283l.8.8a.2.2,0,0,0,.283,0l.8-.8a.2.2,0,0,0,0-.283l-.8-.8A.2.2,0,0,0,6,18Z" fill="#1078ff"/>
    <path d="M18,18a.2.2,0,0,0-.141.059l-.8.8a.2.2,0,0,0,0,.283l.8.8a.2.2,0,0,0,.283,0l.8-.8a.2.2,0,0,0,0-.283l-.8-.8A.2.2,0,0,0,18,18Z" fill="#1078ff"/>
    <polygon points="21 10.501 18.5 10.501 16 5.501 12 5.501 9.5 8.501 6 8.501 2.5 13.001 6 16.501 20 16.501 22.5 14.001 21 10.501" fill="none" stroke="#1078ff" stroke-linecap="round" stroke-linejoin="round"/>
    <line x1="15.5" y1="10.501" x2="18.5" y2="10.501" fill="none" stroke="#1078ff" stroke-linecap="round" stroke-linejoin="round"/>
  </g>
  <g id="Frames-24px">
    <rect width="24" height="24" fill="none"/>
  </g>
</svg>
