<svg xmlns="http://www.w3.org/2000/svg" width="24" height="24" viewBox="0 0 24 24">
  <title>mobile-sun-1</title>
  <g id="Duotone">
    <rect x="3.5" y="1.501" width="16" height="22" fill="#fff"/>
    <polygon points="13.549 8.196 14.5 8.751 14.5 12.251 11.5 14.001 9.451 12.806 3.5 19.501 19.5 19.501 19.5 1.501 13.549 8.196" fill="#cce7ff"/>
    <rect x="3.5" y="1.501" width="16" height="22" fill="none" stroke="#1078ff" stroke-linecap="round" stroke-linejoin="round"/>
    <line x1="19.5" y1="19.501" x2="3.5" y2="19.501" fill="none" stroke="#1078ff" stroke-linecap="round" stroke-linejoin="round"/>
    <line x1="11.5" y1="4.501" x2="11.5" y2="3.501" fill="none" stroke="#1078ff" stroke-linecap="round" stroke-linejoin="round"/>
    <line x1="11.5" y1="16.501" x2="11.5" y2="17.501" fill="none" stroke="#1078ff" stroke-linecap="round" stroke-linejoin="round"/>
    <line x1="7.257" y1="14.743" x2="6.55" y2="15.45" fill="none" stroke="#1078ff" stroke-linecap="round" stroke-linejoin="round"/>
    <line x1="15.743" y1="6.258" x2="16.45" y2="5.551" fill="none" stroke="#1078ff" stroke-linecap="round" stroke-linejoin="round"/>
    <line x1="7.257" y1="6.258" x2="6.55" y2="5.551" fill="none" stroke="#1078ff" stroke-linecap="round" stroke-linejoin="round"/>
    <line x1="15.743" y1="14.743" x2="16.45" y2="15.45" fill="none" stroke="#1078ff" stroke-linecap="round" stroke-linejoin="round"/>
    <line x1="6.5" y1="10.501" x2="5.5" y2="10.501" fill="none" stroke="#1078ff" stroke-linecap="round" stroke-linejoin="round"/>
    <line x1="16.5" y1="10.501" x2="17.5" y2="10.501" fill="none" stroke="#1078ff" stroke-linecap="round" stroke-linejoin="round"/>
    <polygon points="8.5 8.751 11.5 7.001 14.5 8.751 14.5 12.251 11.5 14.001 8.5 12.251 8.5 8.751" fill="none" stroke="#1078ff" stroke-linecap="round" stroke-linejoin="round"/>
  </g>
  <g id="Frames-24px">
    <rect width="24" height="24" fill="none"/>
  </g>
</svg>
