<svg xmlns="http://www.w3.org/2000/svg" width="24" height="24" viewBox="0 0 24 24">
  <title>mobile-sun-2</title>
  <g id="Duotone">
    <rect x="4.5" y="0.501" width="16" height="23" fill="#fff"/>
    <polygon points="14.017 8.199 14.5 8.501 14.5 10.501 12.5 11.751 11.534 11.147 4.5 19.501 20.5 19.501 20.5 0.501 14.017 8.199" fill="#cce7ff"/>
    <line x1="4.5" y1="19.501" x2="20.5" y2="19.501" fill="none" stroke="#1078ff" stroke-linecap="round" stroke-linejoin="round"/>
    <rect x="4.5" y="0.501" width="16" height="23" fill="none" stroke="#1078ff" stroke-linecap="round" stroke-linejoin="round"/>
    <line x1="11.5" y1="21.501" x2="13.5" y2="21.501" fill="none" stroke="#1078ff" stroke-linecap="round" stroke-linejoin="round"/>
    <line x1="12.5" y1="4.501" x2="12.5" y2="3.501" fill="none" stroke="#1078ff" stroke-linecap="round" stroke-linejoin="round"/>
    <line x1="7.5" y1="9.501" x2="8.5" y2="9.501" fill="none" stroke="#1078ff" stroke-linecap="round" stroke-linejoin="round"/>
    <line x1="17.5" y1="9.501" x2="16.5" y2="9.501" fill="none" stroke="#1078ff" stroke-linecap="round" stroke-linejoin="round"/>
    <line x1="8.5" y1="5.501" x2="9.318" y2="6.319" fill="none" stroke="#1078ff" stroke-linecap="round" stroke-linejoin="round"/>
    <line x1="16.5" y1="5.501" x2="15.682" y2="6.319" fill="none" stroke="#1078ff" stroke-linecap="round" stroke-linejoin="round"/>
    <line x1="8.5" y1="13.501" x2="9.318" y2="12.683" fill="none" stroke="#1078ff" stroke-linecap="round" stroke-linejoin="round"/>
    <line x1="16.5" y1="13.501" x2="15.682" y2="12.683" fill="none" stroke="#1078ff" stroke-linecap="round" stroke-linejoin="round"/>
    <line x1="12.5" y1="14.501" x2="12.5" y2="15.501" fill="none" stroke="#1078ff" stroke-linecap="round" stroke-linejoin="round"/>
    <polygon points="14.5 10.501 12.5 11.751 10.5 10.501 10.5 8.501 12.5 7.251 14.5 8.501 14.5 10.501" fill="none" stroke="#1078ff" stroke-linecap="round" stroke-linejoin="round"/>
  </g>
  <g id="Frames-24px">
    <rect width="24" height="24" fill="none"/>
  </g>
</svg>
