<svg xmlns="http://www.w3.org/2000/svg" width="24" height="24" viewBox="0 0 24 24">
  <title>mobile-rain-umbrella</title>
  <g id="Duotone">
    <rect x="4.5" y="0.501" width="16" height="23" fill="#fff"/>
    <polygon points="14.169 8.018 18 11.501 11.237 11.501 4.5 19.501 20.5 19.501 20.5 0.501 14.169 8.018" fill="#cce7ff"/>
    <line x1="10.25" y1="3.501" x2="9.5" y2="4.251" fill="none" stroke="#1078ff" stroke-linecap="round" stroke-linejoin="round"/>
    <line x1="12.75" y1="3.501" x2="12" y2="4.251" fill="none" stroke="#1078ff" stroke-linecap="round" stroke-linejoin="round"/>
    <line x1="15.25" y1="3.501" x2="14.5" y2="4.251" fill="none" stroke="#1078ff" stroke-linecap="round" stroke-linejoin="round"/>
    <polygon points="18 11.501 12.5 6.501 7 11.501 18 11.501" fill="none" stroke="#1078ff" stroke-linecap="round" stroke-linejoin="round"/>
    <polyline points="12.5 11.501 12.5 16.501 10.5 16.501 10.5 15.501" fill="none" stroke="#1078ff" stroke-linecap="round" stroke-linejoin="round"/>
    <line x1="4.5" y1="19.501" x2="20.5" y2="19.501" fill="none" stroke="#1078ff" stroke-linecap="round" stroke-linejoin="round"/>
    <rect x="4.5" y="0.501" width="16" height="23" fill="none" stroke="#1078ff" stroke-linecap="round" stroke-linejoin="round"/>
    <line x1="11.5" y1="21.501" x2="13.5" y2="21.501" fill="none" stroke="#1078ff" stroke-linecap="round" stroke-linejoin="round"/>
  </g>
  <g id="Frames-24px">
    <rect width="24" height="24" fill="none"/>
  </g>
</svg>
