<svg xmlns="http://www.w3.org/2000/svg" width="24" height="24" viewBox="0 0 24 24">
  <title>night-rain-1</title>
  <g id="Duotone">
    <polygon points="15.5 19.501 20 19.501 22.5 17.001 21 13.501 18.5 13.501 16 8.501 12 8.501 9.5 11.501 6 11.501 2.5 16.001 6 19.501 15.5 19.501" fill="#fff"/>
    <polygon points="6 19.501 2.5 16.001 5.5 16.001 7 17.501 18.75 17.501 20 16.501 21 13.501 22.5 17.001 20 19.501 6 19.501" fill="#cce7ff"/>
    <polyline points="4.717 9.802 4.25 7.001 7 3.501 2.5 4.501 0.5 7.251 1 11.251 2.758 12.227" fill="#cce7ff"/>
    <line x1="4.5" y1="23.501" x2="6.5" y2="21.501" fill="none" stroke="#1078ff" stroke-linecap="round" stroke-linejoin="round"/>
    <line x1="8.5" y1="23.501" x2="10.5" y2="21.501" fill="none" stroke="#1078ff" stroke-linecap="round" stroke-linejoin="round"/>
    <line x1="12.5" y1="23.501" x2="14.5" y2="21.501" fill="none" stroke="#1078ff" stroke-linecap="round" stroke-linejoin="round"/>
    <line x1="16.5" y1="23.501" x2="18.5" y2="21.501" fill="none" stroke="#1078ff" stroke-linecap="round" stroke-linejoin="round"/>
    <polygon points="21 13.501 18.5 13.501 16 8.501 12 8.501 9.5 11.501 6 11.501 2.5 16.001 6 19.501 20 19.501 22.5 17.001 21 13.501" fill="none" stroke="#1078ff" stroke-linecap="round" stroke-linejoin="round"/>
    <line x1="15.5" y1="13.501" x2="18.5" y2="13.501" fill="none" stroke="#1078ff" stroke-linecap="round" stroke-linejoin="round"/>
    <polyline points="4.717 9.802 4.25 7.001 7 3.501 2.5 4.501 0.5 7.251 1 11.251 2.758 12.227" fill="none" stroke="#1078ff" stroke-linecap="round" stroke-linejoin="round"/>
  </g>
  <g id="Frames-24px">
    <rect width="24" height="24" fill="none"/>
  </g>
</svg>
