<svg xmlns="http://www.w3.org/2000/svg" width="24" height="24" viewBox="0 0 24 24">
  <title>sun-rise</title>
  <g id="Duotone">
    <polygon points="15.5 12.251 11.5 14.501 7.5 12.251 7.5 7.751 11.5 5.501 15.5 7.751 15.5 12.251" fill="#fff"/>
    <polygon points="15.5 7.751 7.5 12.251 11.5 14.501 15.5 12.251 15.5 7.751" fill="#cce7ff"/>
    <line x1="11.5" y1="3.501" x2="11.5" y2="1.501" fill="none" stroke="#1078ff" stroke-linecap="round" stroke-linejoin="round"/>
    <line x1="11.5" y1="21.501" x2="11.5" y2="16.501" fill="none" stroke="#1078ff" stroke-linecap="round" stroke-linejoin="round"/>
    <line x1="17.5" y1="9.501" x2="19.5" y2="9.501" fill="none" stroke="#1078ff" stroke-linecap="round" stroke-linejoin="round"/>
    <line x1="3.5" y1="9.501" x2="5.5" y2="9.501" fill="none" stroke="#1078ff" stroke-linecap="round" stroke-linejoin="round"/>
    <line x1="15.743" y1="14.501" x2="17.157" y2="15.915" fill="none" stroke="#1078ff" stroke-linecap="round" stroke-linejoin="round"/>
    <line x1="5.843" y1="3.844" x2="7.257" y2="5.258" fill="none" stroke="#1078ff" stroke-linecap="round" stroke-linejoin="round"/>
    <line x1="15.743" y1="5.258" x2="17.157" y2="3.844" fill="none" stroke="#1078ff" stroke-linecap="round" stroke-linejoin="round"/>
    <line x1="5.843" y1="15.915" x2="7.257" y2="14.501" fill="none" stroke="#1078ff" stroke-linecap="round" stroke-linejoin="round"/>
    <polyline points="8.5 20.001 11.5 16.501 14.5 20.001" fill="none" stroke="#1078ff" stroke-linecap="round" stroke-linejoin="round"/>
    <line x1="0.5" y1="23.501" x2="2.5" y2="23.501" fill="none" stroke="#1078ff" stroke-linecap="round" stroke-linejoin="round"/>
    <line x1="20.5" y1="23.501" x2="22.5" y2="23.501" fill="none" stroke="#1078ff" stroke-linecap="round" stroke-linejoin="round"/>
    <line x1="10.5" y1="23.501" x2="12.5" y2="23.501" fill="none" stroke="#1078ff" stroke-linecap="round" stroke-linejoin="round"/>
    <line x1="5.5" y1="23.501" x2="7.5" y2="23.501" fill="none" stroke="#1078ff" stroke-linecap="round" stroke-linejoin="round"/>
    <line x1="15.5" y1="23.501" x2="17.5" y2="23.501" fill="none" stroke="#1078ff" stroke-linecap="round" stroke-linejoin="round"/>
    <polygon points="15.5 12.251 11.5 14.501 7.5 12.251 7.5 7.751 11.5 5.501 15.5 7.751 15.5 12.251" fill="none" stroke="#1078ff" stroke-linejoin="round"/>
  </g>
  <g id="Frames-24px">
    <rect width="24" height="24" fill="none"/>
  </g>
</svg>
