<svg xmlns="http://www.w3.org/2000/svg" width="24" height="24" viewBox="0 0 24 24">
  <title>temperature-celcius</title>
  <g id="Duotone">
    <polygon points="21.5 18.001 11.5 23.501 1.5 18.001 1.5 7.001 11.5 1.501 21.5 7.001 21.5 18.001" fill="#fff"/>
    <polygon points="1.5 18.001 3.5 16.501 11.5 21.001 19.5 16.501 21.5 18.001 11.5 23.501 1.5 18.001" fill="#cce7ff"/>
    <polyline points="17 9.501 16 7.501 12 7.501 10 12.501 12 17.501 16 17.501 17 15.501" fill="none" stroke="#1078ff" stroke-linecap="round" stroke-linejoin="round"/>
    <rect x="5.939" y="7.94" width="2.121" height="2.121" transform="translate(-4.314 7.586) rotate(-45)" fill="none" stroke="#1078ff" stroke-linecap="round" stroke-linejoin="round"/>
    <polygon points="21.5 18.001 11.5 23.501 1.5 18.001 1.5 7.001 11.5 1.501 21.5 7.001 21.5 18.001" fill="none" stroke="#1078ff" stroke-linejoin="round"/>
  </g>
  <g id="Frames-24px">
    <rect width="24" height="24" fill="none"/>
  </g>
</svg>
