<svg xmlns="http://www.w3.org/2000/svg" width="24" height="24" viewBox="0 0 24 24">
  <title>thermometer-medium</title>
  <g id="Duotone">
    <polygon points="13.5 15.626 13.5 3.501 11.5 1.501 9.5 3.501 9.5 15.626 7.5 16.751 7.5 21.251 11.5 23.501 15.5 21.251 15.5 16.751 13.5 15.626" fill="#fff"/>
    <polygon points="13.5 18.001 9.5 20.001 11.5 21.251 13.5 20.001 13.5 18.001" fill="#cce7ff"/>
    <polygon points="11.5 21.251 9.5 20.001 9.5 18.001 11.5 16.751 13.5 18.001 13.5 20.001 11.5 21.251" fill="none" stroke="#1078ff" stroke-linecap="round" stroke-linejoin="round"/>
    <line x1="11.5" y1="8.501" x2="11.5" y2="16.751" fill="none" stroke="#1078ff" stroke-linecap="round" stroke-linejoin="round"/>
    <polygon points="13.5 15.626 13.5 3.501 11.5 1.501 9.5 3.501 9.5 15.626 7.5 16.751 7.5 21.251 11.5 23.501 15.5 21.251 15.5 16.751 13.5 15.626" fill="none" stroke="#1078ff" stroke-linejoin="round"/>
    <path d="M17,7a.2.2,0,0,0-.141.059l-.8.8a.2.2,0,0,0,0,.283l.8.8a.2.2,0,0,0,.283,0l.8-.8a.2.2,0,0,0,0-.283l-.8-.8A.2.2,0,0,0,17,7Z" fill="#1078ff"/>
    <path d="M17,10a.2.2,0,0,0-.141.059l-.8.8a.2.2,0,0,0,0,.283l.8.8a.2.2,0,0,0,.283,0l.8-.8a.2.2,0,0,0,0-.283l-.8-.8A.2.2,0,0,0,17,10Z" fill="#1078ff"/>
  </g>
  <g id="Frames-24px">
    <rect width="24" height="24" fill="none"/>
  </g>
</svg>
