<svg xmlns="http://www.w3.org/2000/svg" width="24" height="24" viewBox="0 0 24 24">
  <title>house-book</title>
  <g id="Duotone">
    <polygon points="4.5 4.5 2.5 2.5 2.5 21.5 4.5 23.5 21.5 23.5 21.5 4.5 4.5 4.5" fill="#fff"/>
    <polygon points="4.5 23.5 2.5 21.5 2.5 2.5 4.5 4.5 4.5 23.5" fill="#cce7ff"/>
    <rect x="11.5" y="15.5" width="2" height="3" fill="#cce7ff"/>
    <polygon points="8.5 14 12.5 11 16.5 14.001 16.5 11.501 12.5 8.5 8.5 11.5 8.5 14" fill="#cce7ff"/>
    <polyline points="21.5 0.5 4.5 0.5 2.5 2.5 4.5 4.5 21.5 4.5 21.5 23.5 4.5 23.5 2.5 21.5 2.5 2.5" fill="none" stroke="#1078ff" stroke-linecap="round" stroke-linejoin="round"/>
    <line x1="6" y1="2.5" x2="20.5" y2="2.5" fill="none" stroke="#1078ff" stroke-linecap="round" stroke-linejoin="round"/>
    <line x1="1.5" y1="7.5" x2="3.5" y2="7.5" fill="none" stroke="#1078ff" stroke-linecap="round" stroke-linejoin="round"/>
    <line x1="1.5" y1="10.5" x2="3.5" y2="10.5" fill="none" stroke="#1078ff" stroke-linecap="round" stroke-linejoin="round"/>
    <line x1="1.5" y1="13.5" x2="3.5" y2="13.5" fill="none" stroke="#1078ff" stroke-linecap="round" stroke-linejoin="round"/>
    <line x1="1.5" y1="16.5" x2="3.5" y2="16.5" fill="none" stroke="#1078ff" stroke-linecap="round" stroke-linejoin="round"/>
    <line x1="1.5" y1="19.5" x2="3.5" y2="19.5" fill="none" stroke="#1078ff" stroke-linecap="round" stroke-linejoin="round"/>
    <polygon points="8.5 11.5 8.499 18.5 16.5 18.5 16.5 11.501 12.5 8.5 8.5 11.5" fill="none" stroke="#1078ff" stroke-linecap="round" stroke-linejoin="round"/>
    <polyline points="6.499 13 12.5 8.5 18.5 13" fill="none" stroke="#1078ff" stroke-linecap="round" stroke-linejoin="round"/>
    <rect x="11.5" y="15.5" width="2" height="3" fill="none" stroke="#1078ff" stroke-linecap="round" stroke-linejoin="round"/>
  </g>
  <g id="Frames-24px">
    <rect width="24" height="24" fill="none"/>
  </g>
</svg>
