<svg xmlns="http://www.w3.org/2000/svg" width="24" height="24" viewBox="0 0 24 24">
  <title>house-remove</title>
  <g id="Duotone">
    <polygon points="17.5 12 17.5 5.24 10 0.5 2.5 5.24 2.5 17.5 12.5 17.5 12.5 20.35 17.5 23 22.5 20.35 22.5 14.65 17.5 12" fill="#fff"/>
    <polygon points="11.5 8 10 9 8.5 8 8.5 6.5 10 5.5 11.5 6.5 11.5 8" fill="#cce7ff"/>
    <polygon points="10 0.5 2.5 5.24 2.5 8.24 10 3.5 17.5 8.24 17.5 5.24 10 0.5" fill="#cce7ff"/>
    <polygon points="22.5 14.65 12.5 20.35 17.5 23 22.5 20.35 22.5 14.65" fill="#cce7ff"/>
    <g id="_Group_" data-name="&lt;Group&gt;">
      <polyline points="2.5 5.24 2.5 17.5 10.5 17.5" fill="none" stroke="#1078ff" stroke-linecap="round" stroke-linejoin="round"/>
    </g>
    <g id="_Group_2" data-name="&lt;Group&gt;">
      <line x1="17.5" y1="5.24" x2="17.5" y2="9.5" fill="none" stroke="#1078ff" stroke-linecap="round" stroke-linejoin="round"/>
    </g>
    <polyline points="19.5 6.5 10 0.5 0.5 6.5" fill="none" stroke="#1078ff" stroke-linecap="round" stroke-linejoin="round"/>
    <polygon points="11.5 8 10 9 8.5 8 8.5 6.5 10 5.5 11.5 6.5 11.5 8" fill="none" stroke="#1078ff" stroke-linecap="round" stroke-linejoin="round"/>
    <g>
      <line x1="19.5" y1="15.5" x2="15.5" y2="19.5" fill="none" stroke="#1078ff" stroke-linecap="round" stroke-linejoin="round"/>
      <line x1="19.5" y1="19.5" x2="15.5" y2="15.5" fill="none" stroke="#1078ff" stroke-linecap="round" stroke-linejoin="round"/>
    </g>
    <polygon points="12.5 14.65 17.5 12 22.5 14.65 22.5 20.35 17.5 23 12.5 20.35 12.5 14.65" fill="none" stroke="#1078ff" stroke-linecap="round" stroke-linejoin="round"/>
  </g>
  <g id="Frames-24px">
    <rect width="24" height="24" fill="none"/>
  </g>
</svg>
