<svg xmlns="http://www.w3.org/2000/svg" width="24" height="24" viewBox="0 0 24 24">
  <title>house-setting</title>
  <g id="Duotone">
    <path d="M23.5,15l-1-1.5-2.5,1-.5-3h-2V5.24L10,.5,2.5,5.24V17.5H14.99L13.5,19l1,1.5,2.5-1,.5,3h2l.5-3,2.5,1,1-1.5-1.987-2Zm-5,3.5-1-1v-1l1-1L20,17Z" fill="#fff"/>
    <polygon points="11.5 8 10 9 8.5 8 8.5 6.5 10 5.5 11.5 6.5 11.5 8" fill="#cce7ff"/>
    <polygon points="10 0.5 2.5 5.24 2.5 8.24 10 3.5 17.5 8.24 17.5 5.24 10 0.5" fill="#cce7ff"/>
    <polygon points="23.5 15 22.5 13.5 21.304 13.978 19.141 16.141 20 17 18.5 18.5 17.641 17.641 14.971 20.311 17 19.5 17.5 22.5 19.5 22.5 20 19.5 22.5 20.5 23.5 19 21.513 17 23.5 15" fill="#cce7ff"/>
    <rect x="17.439" y="15.939" width="2.121" height="2.121" transform="translate(-6.602 18.061) rotate(-45)" fill="none" stroke="#1078ff" stroke-linecap="round" stroke-linejoin="round"/>
    <polygon points="19.5 22.5 20 19.5 22.5 20.5 23.5 19 21.513 17 23.5 15 22.5 13.5 20 14.5 19.5 11.5 17.5 11.5 17 14.5 14.5 13.5 13.5 15 15.487 17 13.5 19 14.5 20.5 17 19.5 17.5 22.5 19.5 22.5" fill="none" stroke="#1078ff" stroke-linecap="round" stroke-linejoin="round"/>
    <g id="_Group_" data-name="&lt;Group&gt;">
      <polyline points="2.5 5.24 2.5 17.5 11.5 17.5" fill="none" stroke="#1078ff" stroke-linecap="round" stroke-linejoin="round"/>
    </g>
    <g id="_Group_2" data-name="&lt;Group&gt;">
      <line x1="17.5" y1="5.24" x2="17.5" y2="9.5" fill="none" stroke="#1078ff" stroke-linecap="round" stroke-linejoin="round"/>
    </g>
    <polyline points="19.5 6.5 10 0.5 0.5 6.5" fill="none" stroke="#1078ff" stroke-linecap="round" stroke-linejoin="round"/>
    <polygon points="11.5 8 10 9 8.5 8 8.5 6.5 10 5.5 11.5 6.5 11.5 8" fill="none" stroke="#1078ff" stroke-linecap="round" stroke-linejoin="round"/>
  </g>
  <g id="Frames-24px">
    <rect width="24" height="24" fill="none"/>
  </g>
</svg>
