<?xml version="1.0" encoding="utf-8"?>
<!-- Generator: Adobe Illustrator 21.0.2, SVG Export Plug-In . SVG Version: 6.00 Build 0)  -->
<svg version="1.1" xmlns="http://www.w3.org/2000/svg" xmlns:xlink="http://www.w3.org/1999/xlink" x="0px" y="0px"
	 viewBox="0 0 24 24" style="enable-background:new 0 0 24 24;" xml:space="preserve">
<style type="text/css">
	.st0{fill:#FFFFFF;}
	.st1{fill:none;stroke:#CCE7FF;stroke-linecap:round;stroke-linejoin:round;stroke-miterlimit:10;}
	.st2{fill:#CCE7FF;}
	.st3{fill:none;stroke:#1078FF;stroke-linecap:round;stroke-linejoin:round;stroke-miterlimit:10;}
	.st4{fill:#CCE7FF;stroke:#1078FF;stroke-linecap:round;stroke-linejoin:round;stroke-miterlimit:10;}
	.st5{fill:none;}
</style>
<g id="Duotone">
	<polyline class="st3" points="11.4,9.2 11,7.4 16.8,1.5 21.3,2.7 22.5,7.2 16.6,13 14.8,12.6 	"/>
	<polyline class="st3" points="11.6,15.8 12,17.6 6.2,23.5 1.7,22.3 0.5,17.8 6.4,12 8.2,12.4 	"/>
	<g>
		<line class="st3" x1="6.5" y1="7.5" x2="3.5" y2="4.5"/>
		<line class="st3" x1="8.5" y1="5.5" x2="8.5" y2="1.5"/>
		<line class="st3" x1="4.5" y1="9.5" x2="0.5" y2="9.5"/>
	</g>
	<g>
		<line class="st3" x1="16.5" y1="17.5" x2="19.5" y2="20.5"/>
		<line class="st3" x1="18.5" y1="15.5" x2="22.5" y2="15.5"/>
		<line class="st3" x1="14.5" y1="19.5" x2="14.5" y2="23.5"/>
	</g>
</g>
<g id="Frames-24px">
	<rect class="st5" width="24" height="24"/>
</g>
</svg>
