<?xml version="1.0" encoding="utf-8"?>
<!-- Generator: Adobe Illustrator 21.0.2, SVG Export Plug-In . SVG Version: 6.00 Build 0)  -->
<svg version="1.1" xmlns="http://www.w3.org/2000/svg" xmlns:xlink="http://www.w3.org/1999/xlink" x="0px" y="0px"
	 viewBox="0 0 24 24" style="enable-background:new 0 0 24 24;" xml:space="preserve">
<style type="text/css">
	.st0{fill:#FFFFFF;}
	.st1{fill:none;stroke:#CCE7FF;stroke-linecap:round;stroke-linejoin:round;stroke-miterlimit:10;}
	.st2{fill:#CCE7FF;}
	.st3{fill:none;stroke:#1078FF;stroke-linecap:round;stroke-linejoin:round;stroke-miterlimit:10;}
	.st4{fill:#CCE7FF;stroke:#1078FF;stroke-linecap:round;stroke-linejoin:round;stroke-miterlimit:10;}
	.st5{fill:none;}
</style>
<g id="Duotone">
	<polygon class="st0" points="23.5,6.5 23,3 19.5,2.5 6,16 5.8,17.5 0.5,17.5 0.5,23.5 19.5,23.5 19.5,17.5 12.5,17.5 	"/>
	<g>
		<polygon class="st2" points="5.8,17.5 0.5,17.5 0.5,19.5 5.6,19.5 		"/>
		<polygon class="st2" points="10.5,19.5 19.5,19.5 19.5,17.5 12.5,17.5 		"/>
	</g>
	<polygon class="st2" points="5.6,20.5 10,20 21.5,8.5 19.5,6.5 	"/>
	<polygon class="st2" points="19.5,6.5 21.5,8.5 23.5,6.5 23,3.1 	"/>
	<polyline class="st3" points="15.5,17.5 19.5,17.5 19.5,23.5 0.5,23.5 0.5,17.5 3.5,17.5 	"/>
	<polyline class="st3" points="17.5,4.5 19.5,2.5 23,3 23.5,6.5 21.5,8.5 	"/>
	<polygon class="st3" points="17.5,4.5 6,16 5.5,20.5 10,20 21.5,8.5 	"/>
	<line class="st3" x1="6" y1="16" x2="10" y2="20"/>
	<line class="st3" x1="5.5" y1="20.5" x2="4.5" y2="21.5"/>
	<polyline class="st3" points="17.5,4.5 16,3 11,8 	"/>
</g>
<g id="Frames-24px">
	<rect class="st5" width="24" height="24"/>
</g>
</svg>
