<?xml version="1.0" encoding="utf-8"?>
<!-- Generator: Adobe Illustrator 21.0.2, SVG Export Plug-In . SVG Version: 6.00 Build 0)  -->
<svg version="1.1" xmlns="http://www.w3.org/2000/svg" xmlns:xlink="http://www.w3.org/1999/xlink" x="0px" y="0px"
	 viewBox="0 0 24 24" style="enable-background:new 0 0 24 24;" xml:space="preserve">
<style type="text/css">
	.st0{fill:#FFFFFF;}
	.st1{fill:none;stroke:#CCE7FF;stroke-linecap:round;stroke-linejoin:round;stroke-miterlimit:10;}
	.st2{fill:#CCE7FF;}
	.st3{fill:none;stroke:#1078FF;stroke-linecap:round;stroke-linejoin:round;stroke-miterlimit:10;}
	.st4{fill:#CCE7FF;stroke:#1078FF;stroke-linecap:round;stroke-linejoin:round;stroke-miterlimit:10;}
	.st5{fill:none;}
</style>
<g id="Duotone">
	<polygon class="st0" points="16.5,11.5 12.5,11.5 12.5,7.5 19.5,0.5 23.5,0.5 23.5,4.5 	"/>
	<polygon class="st0" points="6.5,15.5 4.5,13.5 15.5,13.5 13.5,15.5 	"/>
	<polygon class="st0" points="6.5,15.5 0.5,23.5 19.5,23.5 13.5,15.5 	"/>
	<polygon class="st2" points="8,13.5 10,15.5 13.5,15.5 15.5,13.5 	"/>
	<polygon class="st2" points="13.5,15.5 11.5,15.5 5.5,23.5 19.5,23.5 	"/>
	<polygon class="st3" points="16.5,11.5 12.5,11.5 12.5,7.5 19.5,0.5 23.5,0.5 23.5,4.5 	"/>
	<line class="st3" x1="8" y1="17.5" x2="5.2" y2="21.2"/>
	<line class="st3" x1="20" y1="4" x2="10.5" y2="13.5"/>
	<polygon class="st3" points="6.5,15.5 0.5,23.5 19.5,23.5 13.5,15.5 	"/>
	<polygon class="st3" points="6.5,15.5 4.5,13.5 15.5,13.5 13.5,15.5 	"/>
</g>
<g id="Frames-24px">
	<rect class="st5" width="24" height="24"/>
</g>
</svg>
