<?xml version="1.0" encoding="utf-8"?>
<!-- Generator: Adobe Illustrator 21.0.2, SVG Export Plug-In . SVG Version: 6.00 Build 0)  -->
<svg version="1.1" xmlns="http://www.w3.org/2000/svg" xmlns:xlink="http://www.w3.org/1999/xlink" x="0px" y="0px"
	 viewBox="0 0 24 24" style="enable-background:new 0 0 24 24;" xml:space="preserve">
<style type="text/css">
	.st0{fill:#FFFFFF;}
	.st1{fill:none;stroke:#CCE7FF;stroke-linecap:round;stroke-linejoin:round;stroke-miterlimit:10;}
	.st2{fill:#CCE7FF;}
	.st3{fill:none;stroke:#1078FF;stroke-linecap:round;stroke-linejoin:round;stroke-miterlimit:10;}
	.st4{fill:#CCE7FF;stroke:#1078FF;stroke-linecap:round;stroke-linejoin:round;stroke-miterlimit:10;}
	.st5{fill:none;}
</style>
<g id="Duotone">
	<polygon class="st0" points="16.7,13.1 6.4,15.9 0.5,10 2.5,2.5 10,0.5 15.9,6.4 13.1,16.7 20,23.5 23.5,23.5 23.5,20 	"/>
	<polygon class="st2" points="10,0.6 4.5,13.9 6.4,15.9 13.8,13.8 15.9,6.4 	"/>
	<polygon class="st3" points="16.7,13.1 6.4,15.9 0.5,10 2.5,2.5 10,0.5 15.9,6.4 13.1,16.7 20,23.5 23.5,23.5 23.5,20 	"/>
	<line class="st3" x1="14.9" y1="18.6" x2="18.6" y2="14.9"/>
</g>
<g id="Frames-24px">
	<rect x="0" class="st5" width="24" height="24"/>
</g>
</svg>
