<?xml version="1.0" encoding="utf-8"?>
<!-- Generator: Adobe Illustrator 21.0.2, SVG Export Plug-In . SVG Version: 6.00 Build 0)  -->
<svg version="1.1" xmlns="http://www.w3.org/2000/svg" xmlns:xlink="http://www.w3.org/1999/xlink" x="0px" y="0px"
	 viewBox="0 0 24 24" style="enable-background:new 0 0 24 24;" xml:space="preserve">
<style type="text/css">
	.st0{fill:#FFFFFF;}
	.st1{fill:none;stroke:#CCE7FF;stroke-linecap:round;stroke-linejoin:round;stroke-miterlimit:10;}
	.st2{fill:#CCE7FF;}
	.st3{fill:none;stroke:#1078FF;stroke-linecap:round;stroke-linejoin:round;stroke-miterlimit:10;}
	.st4{fill:#CCE7FF;stroke:#1078FF;stroke-linecap:round;stroke-linejoin:round;stroke-miterlimit:10;}
	.st5{fill:none;}
</style>
<g id="Duotone">
	<polygon class="st0" points="16,17.5 7.5,17.5 0.5,12 7,6.5 16,6.5 22.5,12 	"/>
	<path class="st2" d="M11.5,6.5l-5,4v3l5,4l5-4v-3L11.5,6.5z M11.5,14l-2-2l2-2l2,2L11.5,14z"/>
	<line class="st3" x1="11.5" y1="3.5" x2="11.5" y2="0.5"/>
	<line class="st3" x1="17" y1="4" x2="19.5" y2="1.5"/>
	<line class="st3" x1="6" y1="4" x2="3.5" y2="1.5"/>
	<line class="st3" x1="11.5" y1="20.5" x2="11.5" y2="23.5"/>
	<line class="st3" x1="17" y1="20" x2="19.5" y2="22.5"/>
	<line class="st3" x1="6" y1="20" x2="3.5" y2="22.5"/>
	<polygon class="st3" points="16,17.5 7.5,17.5 0.5,12 7,6.5 16,6.5 22.5,12 	"/>
	<polygon class="st3" points="6.5,13.5 6.5,10.5 11.5,6.5 16.5,10.5 16.5,13.5 11.5,17.5 	"/>
	<rect x="10.1" y="10.6" transform="matrix(0.7071 0.7071 -0.7071 0.7071 11.8535 -4.617)" class="st3" width="2.8" height="2.8"/>
</g>
<g id="Frames-24px">
	<rect class="st5" width="24" height="24"/>
</g>
</svg>
