<svg xmlns="http://www.w3.org/2000/svg" width="24" height="24" viewBox="0 0 24 24">
  <title>computer-imac-5</title>
  <g id="Duotone">
    <polygon points="15.736 19.889 2.514 21.444 4.014 23.5 17.236 21.944 15.736 19.889" fill="#fff"/>
    <polygon points="20.611 21.425 22.5 21.203 21 18.981 19.111 19.203 20.611 21.425" fill="#fff"/>
    <polygon points="17.5 13.5 17.5 1.5 0.5 3.5 0.5 15.5 8 14.618 8 18.147 11 17.794 11 14.265 17.5 13.5" fill="#fff"/>
    <polygon points="0.5 15.5 17.5 1.5 17.5 13.5 0.5 15.5" fill="#cce7ff"/>
    <polygon points="17.5 13.5 17.5 1.5 0.5 3.5 0.5 15.5 17.5 13.5" fill="none" stroke="#1078ff" stroke-linecap="round" stroke-linejoin="round"/>
    <polygon points="15.736 19.889 2.514 21.444 4.014 23.5 17.236 21.944 15.736 19.889" fill="none" stroke="#1078ff" stroke-linecap="round" stroke-linejoin="round"/>
    <polygon points="20.611 21.425 22.5 21.203 21 18.981 19.111 19.203 20.611 21.425" fill="none" stroke="#1078ff" stroke-linecap="round" stroke-linejoin="round"/>
    <line x1="13.5" y1="17.5" x2="5" y2="18.5" fill="none" stroke="#1078ff" stroke-linecap="round" stroke-linejoin="round"/>
    <polyline points="11 14.265 11 17.794 8 18.147 8 14.618" fill="none" stroke="#1078ff" stroke-linecap="round" stroke-linejoin="round"/>
  </g>
  <g id="Frames-24px">
    <rect width="24" height="24" fill="none"/>
  </g>
</svg>
