<svg xmlns="http://www.w3.org/2000/svg" width="24" height="24" viewBox="0 0 24 24">
  <title>computer-imac-setting</title>
  <g id="Duotone">
    <polygon points="21.5 5.513 22.5 4.417 21.738 3.125 20.26 3.478 18.582 2.579 18.25 1.5 16.75 1.5 16.418 2.579 14.74 3.478 13.262 3.125 12.5 4.417 12.576 4.5 0.5 4.5 0.5 18.5 7.5 18.5 7.5 21 3.5 22.5 3.5 23.5 15.5 23.5 15.5 22.5 11.5 21 11.5 18.5 18.5 18.5 18.5 13.5 18.5 10.687 18.582 10.421 20.26 9.522 21.738 9.875 22.5 8.583 21.5 7.487 21.5 5.513" fill="#fff"/>
    <polygon points="18.25 11.5 16.75 11.5 16.418 10.421 14.74 9.522 13.262 9.875 12.5 8.583 13.358 7.642 0.5 15.5 18.5 15.5 18.5 10.687 18.25 11.5" fill="#cce7ff"/>
    <polyline points="18.5 13.5 18.5 18.5 0.5 18.5 0.5 4.5 10.5 4.5" fill="none" stroke="#1078ff" stroke-linecap="round" stroke-linejoin="round"/>
    <polygon points="15.5 22.5 15.5 23.5 3.5 23.5 3.5 22.5 7.5 21 7.5 18.5 11.5 18.5 11.5 21 15.5 22.5" fill="none" stroke="#1078ff" stroke-linecap="round" stroke-linejoin="round"/>
    <line x1="0.5" y1="15.5" x2="18.5" y2="15.5" fill="none" stroke="#1078ff" stroke-linecap="round" stroke-linejoin="round"/>
    <polygon points="22.5 4.417 21.738 3.125 20.36 3.454 18.818 4.996 19.5 5.382 19.5 7.618 17.5 8.75 15.944 7.87 14.151 9.663 14.74 9.522 16.418 10.421 16.75 11.5 18.25 11.5 18.582 10.421 20.26 9.522 21.738 9.875 22.5 8.583 21.5 7.487 21.5 5.513 22.5 4.417" fill="#cce7ff"/>
    <polygon points="21.5 5.513 22.5 4.417 21.738 3.125 20.26 3.478 18.582 2.579 18.25 1.5 16.75 1.5 16.418 2.579 14.74 3.478 13.262 3.125 12.5 4.417 13.5 5.513 13.5 7.487 12.5 8.583 13.262 9.875 14.74 9.522 16.418 10.421 16.75 11.5 18.25 11.5 18.582 10.421 20.26 9.522 21.738 9.875 22.5 8.583 21.5 7.487 21.5 5.513" fill="none" stroke="#1078ff" stroke-linecap="round" stroke-linejoin="round"/>
    <polygon points="15.5 5.382 17.5 4.25 19.5 5.382 19.5 7.618 17.5 8.75 15.5 7.618 15.5 5.382" fill="none" stroke="#1078ff" stroke-linecap="round" stroke-linejoin="round"/>
  </g>
  <g id="Frames-24px">
    <rect width="24" height="24" fill="none"/>
  </g>
</svg>
