<svg xmlns="http://www.w3.org/2000/svg" width="24" height="24" viewBox="0 0 24 24">
  <title>mask</title>
  <g id="Duotone">
    <path d="M17.922,2.279,16,.5,12,3,8,.5,6.078,2.279.5.5,1.748,7.905,7.672,11.5,12,9.584,16.328,11.5l5.924-3.595L23.5.5ZM6.5,7.5l-3-1.916L8,4.084,11,7.5Zm11,0H13l3-3.416,4.5,1.5Z" fill="#fff"/>
    <path d="M9.144,5.387,11,7.5H6.5L5.261,6.709l-3.514,1.2L7.672,11.5,12,9.584,16.328,11.5l5.924-3.595L23.5.5ZM17.5,7.5H13l3-3.416,4.5,1.5Z" fill="#cce7ff"/>
    <polygon points="17.922 2.279 16 0.5 12 3 8 0.5 6.078 2.279 0.5 0.5 1.748 7.905 7.672 11.5 12 9.584 16.328 11.5 22.252 7.905 23.5 0.5 17.922 2.279" fill="none" stroke="#1078ff" stroke-linecap="round" stroke-linejoin="round"/>
    <line x1="23.5" y1="0.5" x2="23.5" y2="23.5" fill="none" stroke="#1078ff" stroke-linecap="round" stroke-linejoin="round"/>
    <polygon points="8 4.084 3.5 5.584 6.5 7.5 11 7.5 8 4.084" fill="none" stroke="#1078ff" stroke-linecap="round" stroke-linejoin="round"/>
    <polygon points="16 4.084 20.5 5.584 17.5 7.5 13 7.5 16 4.084" fill="none" stroke="#1078ff" stroke-linecap="round" stroke-linejoin="round"/>
  </g>
  <g id="Frames-24px">
    <rect width="24" height="24" fill="none"/>
  </g>
</svg>
