<?xml version="1.0" encoding="utf-8"?>
<!-- Generator: Adobe Illustrator 21.0.2, SVG Export Plug-In . SVG Version: 6.00 Build 0)  -->
<svg version="1.1" xmlns="http://www.w3.org/2000/svg" xmlns:xlink="http://www.w3.org/1999/xlink" x="0px" y="0px"
	 viewBox="0 0 24 24" style="enable-background:new 0 0 24 24;" xml:space="preserve">
<style type="text/css">
	.st0{fill:#FFFFFF;}
	.st1{fill:#CCE7FF;}
	.st2{fill:none;stroke:#1078FF;stroke-linecap:round;stroke-linejoin:round;stroke-miterlimit:10;}
	.st3{fill:#1078FF;}
	.st4{fill:none;}
</style>
<g id="Duotone">
	<rect x="0.5" y="16.5" class="st0" width="22" height="7"/>
	<rect x="0.5" y="21.5" class="st1" width="22" height="2"/>
	<rect x="0.5" y="16.5" class="st2" width="22" height="7"/>
	<line class="st2" x1="3.5" y1="19.5" x2="3.5" y2="21.5"/>
	<line class="st2" x1="5.5" y1="19.5" x2="5.5" y2="21.5"/>
	<line class="st2" x1="7.5" y1="19.5" x2="7.5" y2="21.5"/>
	<g>
		<line class="st2" x1="11.5" y1="1.5" x2="11.5" y2="13.5"/>
		<polyline class="st2" points="7,6 11.5,1.5 16,6 		"/>
	</g>
	<rect x="17.4" y="18.9" transform="matrix(0.7071 -0.7071 0.7071 0.7071 -8.7236 18.9393)" class="st2" width="2.1" height="2.1"/>
</g>
<g id="Frames-24px">
	<rect class="st4" width="24" height="24"/>
</g>
</svg>
