<?xml version="1.0" encoding="utf-8"?>
<!-- Generator: Adobe Illustrator 21.0.2, SVG Export Plug-In . SVG Version: 6.00 Build 0)  -->
<svg version="1.1" xmlns="http://www.w3.org/2000/svg" xmlns:xlink="http://www.w3.org/1999/xlink" x="0px" y="0px"
	 viewBox="0 0 24 24" style="enable-background:new 0 0 24 24;" xml:space="preserve">
<style type="text/css">
	.st0{fill:#FFFFFF;}
	.st1{fill:#CCE7FF;}
	.st2{fill:none;stroke:#1078FF;stroke-linecap:round;stroke-linejoin:round;stroke-miterlimit:10;}
	.st3{fill:#1078FF;}
	.st4{fill:none;}
</style>
<g id="Duotone">
	<polygon class="st0" points="20.5,20.5 20.5,8.5 2.5,8.5 2.5,20.5 0.5,20.5 3.5,23.5 20,23.5 22.5,20.5 	"/>
	<polygon class="st1" points="20.5,20.5 13.5,20.5 11.5,21.5 9.5,20.5 2.5,20.5 20.5,8.5 	"/>
	<polyline class="st2" points="7.5,8.5 2.5,8.5 2.5,20.5 	"/>
	<polyline class="st2" points="20.5,20.5 20.5,8.5 15.5,8.5 	"/>
	<polygon class="st2" points="0.5,20.5 9.5,20.5 11.5,21.5 13.6,20.5 22.5,20.5 20,23.5 3.5,23.5 	"/>
	<g>
		<polyline class="st2" points="18,5.5 14.2,1.5 8.8,1.5 5,5.5 		"/>
		<polyline class="st2" points="16.1,6.2 13.4,3.5 9.6,3.5 6.9,6.2 		"/>
		<polyline class="st2" points="14,7 12.5,5.5 10.5,5.5 9,7 		"/>
		<g>
			<path class="st3" d="M12.1,7.8L12.1,7.8L12.1,7.8 M11.5,7c-0.1,0-0.1,0-0.1,0.1l-0.8,0.8c-0.1,0.1-0.1,0.2,0,0.3l0.8,0.8
				c0,0,0.1,0.1,0.1,0.1c0.1,0,0.1,0,0.1-0.1l0.8-0.8c0.1-0.1,0.1-0.2,0-0.3l-0.8-0.8C11.6,7,11.6,7,11.5,7L11.5,7z"/>
		</g>
	</g>
</g>
<g id="Frames-24px">
	<rect class="st4" width="24" height="24"/>
</g>
</svg>
