<?xml version="1.0" encoding="utf-8"?>
<!-- Generator: Adobe Illustrator 21.0.2, SVG Export Plug-In . SVG Version: 6.00 Build 0)  -->
<svg version="1.1" xmlns="http://www.w3.org/2000/svg" xmlns:xlink="http://www.w3.org/1999/xlink" x="0px" y="0px"
	 viewBox="0 0 24 24" style="enable-background:new 0 0 24 24;" xml:space="preserve">
<style type="text/css">
	.st0{fill:#FFFFFF;}
	.st1{fill:#CCE7FF;}
	.st2{fill:none;stroke:#1078FF;stroke-linecap:round;stroke-linejoin:round;stroke-miterlimit:10;}
	.st3{fill:#1078FF;}
	.st4{fill:none;}
</style>
<g id="Duotone">
	<polygon class="st0" points="20.5,13.5 20.5,0.5 2.5,0.5 2.5,13.5 9.5,13.5 9.5,15 7.5,16.5 15.5,16.5 13.5,15 13.5,13.5 	"/>
	<polygon class="st1" points="20.5,10.5 2.5,10.5 20.5,0.5 	"/>
	
		<rect x="10.1" y="20.1" transform="matrix(0.7071 -0.7071 0.7071 0.7071 -11.8345 14.4289)" class="st1" width="2.8" height="2.8"/>
	<rect x="2.5" y="0.5" class="st2" width="18" height="13"/>
	<line class="st2" x1="2.5" y1="10.5" x2="20.5" y2="10.5"/>
	<polyline class="st2" points="13.5,13.5 13.5,15 15.5,16.5 7.5,16.5 9.5,15 9.5,13.5 	"/>
	<line class="st2" x1="11.5" y1="16.5" x2="11.5" y2="19.5"/>
	<line class="st2" x1="0.5" y1="21.5" x2="9.5" y2="21.5"/>
	<line class="st2" x1="13.5" y1="21.5" x2="22.5" y2="21.5"/>
	
		<rect x="10.1" y="20.1" transform="matrix(0.7071 -0.7071 0.7071 0.7071 -11.8345 14.4289)" class="st2" width="2.8" height="2.8"/>
</g>
<g id="Frames-24px">
	<rect class="st4" width="24" height="24"/>
</g>
</svg>
