<?xml version="1.0" encoding="utf-8"?>
<!-- Generator: Adobe Illustrator 21.0.2, SVG Export Plug-In . SVG Version: 6.00 Build 0)  -->
<svg version="1.1" xmlns="http://www.w3.org/2000/svg" xmlns:xlink="http://www.w3.org/1999/xlink" x="0px" y="0px"
	 viewBox="0 0 24 24" style="enable-background:new 0 0 24 24;" xml:space="preserve">
<style type="text/css">
	.st0{fill:#FFFFFF;}
	.st1{fill:#CCE7FF;}
	.st2{fill:none;stroke:#1078FF;stroke-linecap:round;stroke-linejoin:round;stroke-miterlimit:10;}
	.st3{fill:#1078FF;}
	.st4{fill:none;}
</style>
<g id="Duotone">
	<rect x="0.5" y="14.5" class="st0" width="10" height="7"/>
	<rect x="14.5" y="1.5" class="st0" width="6" height="10"/>
	<polygon class="st1" points="10.5,19.5 0.5,19.5 10.5,14.5 	"/>
	<polygon class="st1" points="20.5,9.5 14.5,9.5 20.5,1.5 	"/>
	<rect x="0.5" y="14.5" class="st2" width="10" height="7"/>
	<line class="st2" x1="0.5" y1="19.5" x2="10.5" y2="19.5"/>
	<g>
		<polyline class="st2" points="12,4.5 5.5,4.5 5.5,11 		"/>
		<polyline class="st2" points="10,2.5 12,4.5 10,6.5 		"/>
		<polyline class="st2" points="7.5,9 5.5,11 3.5,9 		"/>
	</g>
	<line class="st2" x1="5.5" y1="21.5" x2="5.5" y2="23.5"/>
	<line class="st2" x1="3.5" y1="23.5" x2="7.5" y2="23.5"/>
	<line class="st2" x1="14.5" y1="9.5" x2="20.5" y2="9.5"/>
	<rect x="14.5" y="1.5" class="st2" width="6" height="10"/>
</g>
<g id="Frames-24px">
	<rect class="st4" width="24" height="24"/>
</g>
</svg>
