<?xml version="1.0" encoding="utf-8"?>
<!-- Generator: Adobe Illustrator 21.0.2, SVG Export Plug-In . SVG Version: 6.00 Build 0)  -->
<svg version="1.1" xmlns="http://www.w3.org/2000/svg" xmlns:xlink="http://www.w3.org/1999/xlink" x="0px" y="0px" width="24px"
	 height="24px" viewBox="0 0 24 24" enable-background="new 0 0 24 24" xml:space="preserve">
<g id="Black">
	<g>
		<g>
			<polyline fill="none" stroke="#58595B" stroke-linecap="round" stroke-linejoin="round" stroke-miterlimit="10" points="
				13.5,7.5 15,7.5 16,9.5 15,11.5 13.5,11.5 			"/>
			<polyline fill="none" stroke="#58595B" stroke-linecap="round" stroke-linejoin="round" stroke-miterlimit="10" points="
				13.5,12.5 13.5,1.5 10.5,1.5 5.5,6.5 2,6.5 0.5,9.5 2,12.5 5.5,12.5 10.5,17.5 			"/>
		</g>
		<g>
			<polygon fill="none" stroke="#58595B" stroke-linecap="round" stroke-linejoin="round" stroke-miterlimit="10" points="
				21.5,17.513 22.5,16.417 21.738,15.125 20.26,15.478 18.582,14.579 18.25,13.5 16.75,13.5 16.418,14.579 14.74,15.478 
				13.262,15.125 12.5,16.417 13.5,17.513 13.5,19.487 12.5,20.583 13.262,21.875 14.74,21.522 16.418,22.421 16.75,23.5 
				18.25,23.5 18.582,22.421 20.26,21.522 21.738,21.875 22.5,20.583 21.5,19.487 			"/>
		</g>
		<polygon fill="none" stroke="#58595B" stroke-linecap="round" stroke-linejoin="round" stroke-miterlimit="10" points="19.5,19.5 
			17.5,20.75 15.5,19.5 15.5,17.5 17.5,16.25 19.5,17.5 		"/>
	</g>
</g>
<g id="Frames-24px">
	<rect fill="none" width="24" height="24"/>
</g>
</svg>
