<svg xmlns="http://www.w3.org/2000/svg" width="24" height="24" viewBox="0 0 24 24">
  <title>cursor-arrow-2</title>
  <g id="Duotone">
    <polygon points="12.935 13.935 10.065 23.5 0.5 1.5 22.5 11.065 12.935 13.935" fill="#fff"/>
    <polygon points="12.935 13.935 10.065 23.5 0.5 1.5 12.935 13.935" fill="#cce7ff"/>
    <polygon points="12.935 13.935 10.065 23.5 0.5 1.5 22.5 11.065 12.935 13.935" fill="none" stroke="#1078ff" stroke-linecap="round" stroke-linejoin="round"/>
  </g>
  <g id="Frames-24px">
    <rect width="24" height="24" fill="none"/>
  </g>
</svg>
