<svg xmlns="http://www.w3.org/2000/svg" width="24" height="24" viewBox="0 0 24 24">
  <title>cursor-move-left</title>
  <g id="Duotone">
    <polygon points="17.5 3.5 7.5 3.5 5 8 5 10.769 0.5 12.5 5 14.231 5 17 7.5 21.5 17.5 21.5 22.5 12.5 17.5 3.5" fill="#fff"/>
    <polygon points="10 12.5 13.5 17.5 0.5 12.5 10 12.5" fill="#cce7ff"/>
    <polygon points="10 12.5 13.5 17.5 0.5 12.5 13.5 7.5 10 12.5" fill="none" stroke="#1078ff" stroke-linecap="round" stroke-linejoin="round"/>
    <polyline points="5 17 7.5 21.5 17.5 21.5 22.5 12.5 17.5 3.5 7.5 3.5 5 8" fill="none" stroke="#1078ff" stroke-linecap="round" stroke-linejoin="round"/>
  </g>
  <g id="Frames-24px">
    <rect width="24" height="24" fill="none"/>
  </g>
</svg>
