<svg xmlns="http://www.w3.org/2000/svg" width="24" height="24" viewBox="0 0 24 24">
  <title>cursor-hand-hexagon</title>
  <g id="Duotone">
    <polygon points="21 15 19.5 16 17.5 15 15.5 16 13.5 15 11.5 16 11.5 15.517 15.5 13.25 15.5 4.75 8 0.5 0.5 4.75 0.5 13.25 3.5 14.95 5.724 16.21 5 16.5 4 20.5 5.5 23.5 22.5 23.5 22.5 16 21 15" fill="#fff"/>
    <polygon points="4.25 21 5.5 23.5 22.5 23.5 22.5 21 4.25 21" fill="#cce7ff"/>
    <g>
      <polygon points="11.5 15.517 15.5 13.25 15.5 11.25 11.5 13.517 11.5 15.517" fill="#cce7ff"/>
      <polygon points="7.5 15.5 7.5 15.217 0.5 11.25 0.5 13.25 5.724 16.21 7.5 15.5" fill="#cce7ff"/>
    </g>
    <polyline points="3.499 14.95 0.5 13.25 0.5 4.75 8 0.5 15.5 4.75 15.5 13.25" fill="none" stroke="#1078ff" stroke-linecap="round" stroke-linejoin="round"/>
    <polyline points="7.5 18.5 7.5 7.5 9.5 6.5 11.5 7.5 11.5 16 13.5 15 15.5 16 17.5 15 19.5 16 21 15 22.5 16 22.5 23.5 5.5 23.5 4 20.5 5 16.5 7.5 15.5" fill="none" stroke="#1078ff" stroke-linecap="round" stroke-linejoin="round"/>
  </g>
  <g id="Frames-24px">
    <rect width="24" height="24" fill="none"/>
  </g>
</svg>
