<svg xmlns="http://www.w3.org/2000/svg" width="24" height="24" viewBox="0 0 24 24">
  <title>hand-hexagon</title>
  <g id="Duotone">
    <polyline points="9.5 23.5 9.5 20.5 5.5 14.5 7 13.5 9.5 15.5 9.5 7 11 6 12.5 7 12.5 12.5 18.5 14.5 18.5 18.613 17.5 20.5 17.5 23.5" fill="#fff"/>
    <rect x="9.5" y="20" width="8" height="3.5" fill="#cce7ff"/>
    <polyline points="9.5 23.5 9.5 20.5 5.5 14.5 7 13.5 9.5 15.5 9.5 7 11 6 12.5 7 12.5 12.5 18.5 14.5 18.5 18.613 17.5 20.5 17.5 23.5" fill="none" stroke="#1078ff" stroke-linecap="round" stroke-linejoin="round"/>
    <polyline points="15.5 11.5 15.5 4.75 10 1.5 4.5 4.75 4.5 11.25 5.703 11.961" fill="none" stroke="#1078ff" stroke-linecap="round" stroke-linejoin="round"/>
  </g>
  <g id="Frames-24px">
    <rect width="24" height="24" fill="none"/>
  </g>
</svg>
