<svg xmlns="http://www.w3.org/2000/svg" width="24" height="24" viewBox="0 0 24 24">
  <title>hand-textbox</title>
  <g id="Duotone">
    <polygon points="20.5 8.5 20.5 0.5 2.5 0.5 2.5 8.5 9.5 8.5 9.5 14.5 7 12.5 5.5 13.5 9.5 19.5 9.5 23.5 17.5 23.5 17.5 19.5 18.5 17.613 18.5 13.5 12.5 11.5 12.5 8.5 20.5 8.5" fill="#fff"/>
    <rect x="9.5" y="20" width="8" height="3.5" fill="#cce7ff"/>
    <rect x="2.5" y="0.5" width="18" height="2" fill="#cce7ff"/>
    <polyline points="9.5 23.5 9.5 19.5 5.5 13.5 7 12.5 9.5 14.5 9.5 6 11 5 12.5 6 12.5 11.5 18.5 13.5 18.5 17.613 17.5 19.5 17.5 23.5" fill="none" stroke="#1078ff" stroke-linecap="round" stroke-linejoin="round"/>
    <polyline points="7.5 8.5 2.5 8.5 2.5 0.5 20.5 0.5 20.5 8.5 14.5 8.5" fill="none" stroke="#1078ff" stroke-linecap="round" stroke-linejoin="round"/>
  </g>
  <g id="Frames-24px">
    <rect width="24" height="24" fill="none"/>
  </g>
</svg>
