<?xml version="1.0" encoding="utf-8"?>
<!-- Generator: Adobe Illustrator 21.0.2, SVG Export Plug-In . SVG Version: 6.00 Build 0)  -->
<svg version="1.1" xmlns="http://www.w3.org/2000/svg" xmlns:xlink="http://www.w3.org/1999/xlink" x="0px" y="0px"
	 viewBox="0 0 24 24" style="enable-background:new 0 0 24 24;" xml:space="preserve">
<style type="text/css">
	.st0{fill:#FFFFFF;}
	.st1{fill:#CCE7FF;}
	.st2{fill:none;stroke:#1078FF;stroke-linecap:round;stroke-linejoin:round;stroke-miterlimit:10;}
	.st3{fill:none;stroke:#1078FF;stroke-linejoin:round;stroke-miterlimit:10;}
	.st4{fill:none;}
</style>
<g id="Duotone">
	<polygon class="st0" points="17.5,4 16.5,3.7 16.5,0.5 14.5,1.5 14.5,3.2 14.5,3.2 8.5,1.5 5.5,5.5 8.5,9.5 14,8 14,8 13,17 11,22 
		14.5,23.5 16.5,17 16.5,7.3 17.5,7 	"/>
	<polygon class="st1" points="11,2.2 8.5,1.5 5.5,5.5 8.5,9.5 11,8.8 8.5,5.5 	"/>
	<polygon class="st1" points="14,8 13.8,10.2 16.5,9.5 16.5,7.3 	"/>
	<g>
		<polygon class="st2" points="5.5,5.5 8.5,1.5 17.5,4 17.5,7 8.5,9.5 		"/>
		<polyline class="st2" points="11,8.8 8.5,5.5 11,2.2 		"/>
		<polyline class="st2" points="14,8 13,17 11,22 14.5,23.5 16.5,17 16.5,7.3 		"/>
		<polyline class="st2" points="14.5,3.2 14.5,1.5 16.5,0.5 16.5,3.7 		"/>
	</g>
</g>
<g id="Frames-24px">
	<rect class="st4" width="24" height="24"/>
</g>
</svg>
