<?xml version="1.0" encoding="utf-8"?>
<!-- Generator: Adobe Illustrator 21.0.2, SVG Export Plug-In . SVG Version: 6.00 Build 0)  -->
<svg version="1.1" xmlns="http://www.w3.org/2000/svg" xmlns:xlink="http://www.w3.org/1999/xlink" x="0px" y="0px"
	 viewBox="0 0 24 24" style="enable-background:new 0 0 24 24;" xml:space="preserve">
<style type="text/css">
	.st0{fill:#FFFFFF;}
	.st1{fill:#CCE7FF;}
	.st2{fill:none;stroke:#1078FF;stroke-linecap:round;stroke-linejoin:round;stroke-miterlimit:10;}
	.st3{fill:none;stroke:#1078FF;stroke-linejoin:round;stroke-miterlimit:10;}
	.st4{fill:none;}
</style>
<g id="Duotone">
	<g>
		<polygon class="st0" points="12,0.5 4.5,4 2.5,9.5 2.5,17.5 9.5,23.5 7.5,15 4.5,12.5 4.5,9.5 10.5,10.5 10.5,14 10,15 12,17.5 
			14,15 13.5,14 13.5,10.5 19.5,9.5 19.5,12.5 16.5,15 14.5,23.5 21.5,17.5 21.5,9.5 19.5,4 		"/>
	</g>
	<polygon class="st1" points="14,15 13.5,14 13.5,10.5 19.5,9.5 19.5,12.5 16.5,15 14.5,23.5 21.5,17.5 21.5,12.5 19.5,7 12,3.5 
		4.5,7 2.5,12.5 2.5,17.5 9.5,23.5 7.5,15 4.5,12.5 4.5,9.5 10.5,10.5 10.5,14 10,15 12,17.5 	"/>
	<g>
		<polygon class="st2" points="12,0.5 4.5,4 2.5,9.5 2.5,17.5 9.5,23.5 7.5,15 4.5,12.5 4.5,9.5 10.5,10.5 10.5,14 10,15 12,17.5 
			14,15 13.5,14 13.5,10.5 19.5,9.5 19.5,12.5 16.5,15 14.5,23.5 21.5,17.5 21.5,9.5 19.5,4 		"/>
	</g>
</g>
<g id="Frames-24px">
	<rect class="st4" width="24" height="24"/>
</g>
</svg>
