<?xml version="1.0" encoding="utf-8"?>
<!-- Generator: Adobe Illustrator 21.0.2, SVG Export Plug-In . SVG Version: 6.00 Build 0)  -->
<svg version="1.1" xmlns="http://www.w3.org/2000/svg" xmlns:xlink="http://www.w3.org/1999/xlink" x="0px" y="0px"
	 viewBox="0 0 24 24" style="enable-background:new 0 0 24 24;" xml:space="preserve">
<style type="text/css">
	.st0{fill:#FFFFFF;}
	.st1{fill:#CCE7FF;}
	.st2{fill:none;stroke:#1078FF;stroke-linecap:round;stroke-linejoin:round;stroke-miterlimit:10;}
	.st3{fill:none;stroke:#1078FF;stroke-linejoin:round;stroke-miterlimit:10;}
	.st4{fill:none;}
</style>
<g id="Duotone">
	<polygon class="st0" points="13,13 16,10.5 13.5,8 11,11 7.5,10.5 0.5,18 6,23.5 13.5,16.5 	"/>
	<polygon class="st0" points="23.5,0.5 18.5,4.9 18.5,2.5 15.5,3.9 16,8 20.5,8.5 	"/>
	<polygon class="st1" points="16,10.5 13.5,8 12.2,9.5 14.5,11.8 	"/>
	<polygon class="st1" points="2.1,16.3 7.7,21.9 10.6,19.2 4.8,13.4 	"/>
	<polygon class="st1" points="3.5,21 6,23.5 13.5,16.5 13,13 16,10.5 14.8,9.3 	"/>
	<g>
		<polygon class="st2" points="13,13 16,10.5 13.5,8 11,11 7.5,10.5 0.5,18 6,23.5 13.5,16.5 		"/>
		<line class="st2" x1="12.2" y1="9.5" x2="14.5" y2="11.8"/>
		<line class="st2" x1="4.8" y1="13.4" x2="10.6" y2="19.2"/>
		<line class="st2" x1="2.1" y1="16.3" x2="7.7" y2="21.9"/>
		<polygon class="st2" points="23.5,0.5 18.5,4.9 18.5,2.5 15.5,3.9 16,8 20.5,8.5 		"/>
		<line class="st2" x1="17.5" y1="6.5" x2="14.8" y2="9.3"/>
	</g>
</g>
<g id="Frames-24px">
	<rect class="st4" width="24" height="24"/>
</g>
</svg>
