<?xml version="1.0" encoding="utf-8"?>
<!-- Generator: Adobe Illustrator 21.0.2, SVG Export Plug-In . SVG Version: 6.00 Build 0)  -->
<svg version="1.1" xmlns="http://www.w3.org/2000/svg" xmlns:xlink="http://www.w3.org/1999/xlink" x="0px" y="0px"
	 viewBox="0 0 24 24" style="enable-background:new 0 0 24 24;" xml:space="preserve">
<style type="text/css">
	.st0{fill:#FFFFFF;}
	.st1{fill:#CCE7FF;}
	.st2{fill:none;stroke:#1078FF;stroke-linecap:round;stroke-linejoin:round;stroke-miterlimit:10;}
	.st3{fill:none;stroke:#1078FF;stroke-linejoin:round;stroke-miterlimit:10;}
	.st4{fill:none;}
</style>
<g id="Duotone">
	<g>
		<polygon class="st0" points="0.5,14.2 2.5,17.7 4.5,16.6 4.5,23.5 7.5,21.5 7.5,14.8 11.2,12.7 11.9,10 9.2,9.2 		"/>
		<polygon class="st0" points="21.5,2 12.5,7 14.5,10.5 23.5,5.5 		"/>
	</g>
	<polygon class="st1" points="1.7,16.3 2.5,17.7 11.2,12.7 11.9,10 	"/>
	<polygon class="st1" points="13.6,8.9 14.5,10.5 23.5,5.5 22.6,3.9 	"/>
	<g>
		<polyline class="st2" points="4.5,16.6 4.5,23.5 7.5,21.5 7.5,14.8 		"/>
		<polygon class="st2" points="0.5,14.2 2.5,17.7 11.2,12.7 11.9,10 9.2,9.2 		"/>
		<line class="st2" x1="11.9" y1="10" x2="13.6" y2="9"/>
		<polygon class="st2" points="12.5,7 14.5,10.5 23.5,5.5 21.5,2 		"/>
		<line class="st2" x1="20.3" y1="2.7" x2="19.6" y2="1.5"/>
		<polyline class="st2" points="7.5,17.7 10.2,16.1 10.7,13 		"/>
		<line class="st2" x1="3.7" y1="14.7" x2="5.4" y2="13.7"/>
	</g>
</g>
<g id="Frames-24px">
	<rect class="st4" width="24" height="24"/>
</g>
</svg>
