<?xml version="1.0" encoding="utf-8"?>
<!-- Generator: Adobe Illustrator 21.0.2, SVG Export Plug-In . SVG Version: 6.00 Build 0)  -->
<svg version="1.1" xmlns="http://www.w3.org/2000/svg" xmlns:xlink="http://www.w3.org/1999/xlink" x="0px" y="0px"
	 viewBox="0 0 24 24" style="enable-background:new 0 0 24 24;" xml:space="preserve">
<style type="text/css">
	.st0{fill:#FFFFFF;}
	.st1{fill:#CCE7FF;}
	.st2{fill:none;stroke:#1078FF;stroke-linecap:round;stroke-linejoin:round;stroke-miterlimit:10;}
	.st3{fill:none;stroke:#1078FF;stroke-linejoin:round;stroke-miterlimit:10;}
	.st4{fill:none;}
</style>
<g id="Duotone">
	<polygon class="st0" points="22.5,23.5 0.5,23.5 1.5,20.5 21.5,20.5 	"/>
	<polygon class="st0" points="18.5,20.5 18.5,5 11.5,0.5 4.5,5 4.5,20.5 	"/>
	<polygon class="st1" points="1,22 0.5,23.5 22.5,23.5 22,22 	"/>
	<polygon class="st1" points="11.5,20.5 18.5,20.5 18.5,5 11.5,0.5 	"/>
	<g>
		<line class="st2" x1="11.5" y1="13.5" x2="11.5" y2="8.5"/>
		<line class="st2" x1="7.5" y1="13.5" x2="7.5" y2="8.5"/>
		<polyline class="st2" points="7.5,8.5 9.5,8.5 9.5,10 7.5,11 		"/>
		<line class="st2" x1="9.5" y1="13.5" x2="7.5" y2="11"/>
		<line class="st2" x1="13.5" y1="13.5" x2="13.5" y2="8.5"/>
		<polyline class="st2" points="13.5,8.5 15.5,8.5 15.5,10.5 13.5,11.5 		"/>
		<polygon class="st2" points="22.5,23.5 0.5,23.5 1.5,20.5 21.5,20.5 		"/>
		<polyline class="st2" points="18.5,20.5 18.5,5 11.5,0.5 4.5,5 4.5,20.5 		"/>
	</g>
</g>
<g id="Frames-24px">
	<rect class="st4" width="24" height="24"/>
</g>
</svg>
