<?xml version="1.0" encoding="utf-8"?>
<!-- Generator: Adobe Illustrator 21.0.2, SVG Export Plug-In . SVG Version: 6.00 Build 0)  -->
<svg version="1.1" xmlns="http://www.w3.org/2000/svg" xmlns:xlink="http://www.w3.org/1999/xlink" x="0px" y="0px"
	 viewBox="0 0 24 24" style="enable-background:new 0 0 24 24;" xml:space="preserve">
<style type="text/css">
	.st0{fill:#FFFFFF;}
	.st1{fill:#CCE7FF;}
	.st2{fill:none;stroke:#1078FF;stroke-linecap:round;stroke-linejoin:round;stroke-miterlimit:10;}
	.st3{fill:none;}
</style>
<g id="Duotone">
	<rect x="4.5" y="5.5" class="st0" width="17" height="18"/>
	<polygon class="st1" points="13.5,7 13.5,13 16,11 18.5,13 18.5,7 	"/>
	<polygon class="st1" points="1.5,3.5 1.5,21.5 4.5,23.5 4.5,5.5 	"/>
	<polyline class="st2" points="13.5,5.5 13.5,13 16,11 18.5,13 18.5,5.5 	"/>
	<rect x="4.5" y="5.5" class="st2" width="17" height="18"/>
	<line class="st2" x1="20.5" y1="3.5" x2="5" y2="3.5"/>
	<polyline class="st2" points="21.5,1.5 4.5,1.5 1.5,3.5 4.5,5.5 	"/>
	<polyline class="st2" points="1.5,3.5 1.5,21.5 4.5,23.5 	"/>
</g>
<g id="Frames-24px">
	<rect class="st3" width="24" height="24"/>
</g>
</svg>
