<?xml version="1.0" encoding="utf-8"?>
<!-- Generator: Adobe Illustrator 21.0.2, SVG Export Plug-In . SVG Version: 6.00 Build 0)  -->
<svg version="1.1" xmlns="http://www.w3.org/2000/svg" xmlns:xlink="http://www.w3.org/1999/xlink" x="0px" y="0px"
	 viewBox="0 0 24 24" style="enable-background:new 0 0 24 24;" xml:space="preserve">
<style type="text/css">
	.st0{fill:#FFFFFF;}
	.st1{fill:#CCE7FF;}
	.st2{fill:none;stroke:#1078FF;stroke-linecap:round;stroke-linejoin:round;stroke-miterlimit:10;}
	.st3{fill:none;}
</style>
<g id="Duotone">
	<polygon class="st0" points="19.5,15.5 22.5,12.5 19.5,9.5 19.5,4.5 14.5,4.5 11.5,1.5 8.5,4.5 3.5,4.5 3.5,9.5 0.5,12.5 3.5,15.5 
		3.5,20.5 8.5,20.5 11.5,23.5 14.5,20.5 19.5,20.5 	"/>
	<polygon class="st0" points="19.5,15.5 22.5,12.5 19.5,9.5 19.5,4.5 14.5,4.5 11.5,1.5 8.5,4.5 3.5,4.5 3.5,9.5 0.5,12.5 3.5,15.5 
		3.5,20.5 8.5,20.5 11.5,23.5 14.5,20.5 19.5,20.5 	"/>
	<polygon class="st1" points="17.5,14.7 17.5,18.5 13.7,18.5 11.5,20.7 9.3,18.5 5.5,18.5 5.5,14.7 3.3,12.5 0.5,12.5 3.5,15.5 
		3.5,20.5 8.5,20.5 11.5,23.5 14.5,20.5 19.5,20.5 19.5,15.5 22.5,12.5 19.7,12.5 	"/>
	<polygon class="st2" points="19.5,15.5 22.5,12.5 19.5,9.5 19.5,4.5 14.5,4.5 11.5,1.5 8.5,4.5 3.5,4.5 3.5,9.5 0.5,12.5 3.5,15.5 
		3.5,20.5 8.5,20.5 11.5,23.5 14.5,20.5 19.5,20.5 	"/>
	<g>
		<line class="st2" x1="7" y1="8" x2="16" y2="17"/>
		<line class="st2" x1="16" y1="8" x2="7" y2="17"/>
	</g>
	<polygon class="st2" points="19.5,15.5 22.5,12.5 19.5,9.5 19.5,4.5 14.5,4.5 11.5,1.5 8.5,4.5 3.5,4.5 3.5,9.5 0.5,12.5 3.5,15.5 
		3.5,20.5 8.5,20.5 11.5,23.5 14.5,20.5 19.5,20.5 	"/>
</g>
<g id="Frames-24px">
	<rect class="st3" width="24" height="24"/>
</g>
</svg>
