<?xml version="1.0" encoding="utf-8"?>
<!-- Generator: Adobe Illustrator 21.0.2, SVG Export Plug-In . SVG Version: 6.00 Build 0)  -->
<svg version="1.1" xmlns="http://www.w3.org/2000/svg" xmlns:xlink="http://www.w3.org/1999/xlink" x="0px" y="0px"
	 viewBox="0 0 24 24" style="enable-background:new 0 0 24 24;" xml:space="preserve">
<style type="text/css">
	.st0{fill:#FFFFFF;}
	.st1{fill:#CCE7FF;}
	.st2{fill:none;stroke:#1078FF;stroke-linecap:round;stroke-linejoin:round;stroke-miterlimit:10;}
	.st3{fill:none;stroke:#1078FF;stroke-linejoin:round;stroke-miterlimit:10;}
	.st4{fill:#CCE7FF;stroke:#1078FF;stroke-linejoin:round;stroke-miterlimit:10;}
	.st5{fill:#CCE7FF;stroke:#1078FF;stroke-linecap:round;stroke-linejoin:round;stroke-miterlimit:10;}
	.st6{fill:none;stroke:#1078FF;stroke-miterlimit:10;}
	.st7{fill:none;}
</style>
<g id="Duotone">
	<polygon class="st0" points="11.5,7.5 11.5,3.5 6,1.5 0.5,3.5 0.5,7.5 0.5,21.3 6,23.5 11.5,21.3 11.5,19.5 19.5,19.5 19.5,14.5 
		22.5,11.6 22.5,7.5 	"/>
	<polygon class="st1" points="6,9.5 6,23.5 11.5,21.3 11.5,7.5 	"/>
	<polygon class="st1" points="11.5,3.5 0.5,7.5 6,9.5 11.5,7.5 	"/>
	<polygon class="st1" points="22.5,7.5 11.5,19.5 19.5,19.5 19.5,14.5 22.5,11.6 	"/>
	<polyline class="st2" points="11.5,7.5 22.5,7.5 22.5,11.6 19.5,14.5 19.5,19.5 11.5,19.5 	"/>
	<polygon class="st3" points="11.5,7.5 6,9.5 0.5,7.5 0.5,3.5 6,1.5 11.5,3.5 	"/>
	<polyline class="st3" points="11.5,7.5 11.5,21.3 6,23.5 0.5,21.3 0.5,7.5 	"/>
	<line class="st2" x1="13.5" y1="9.5" x2="13.5" y2="10.5"/>
	<line class="st2" x1="16.5" y1="9.5" x2="16.5" y2="10.5"/>
	<line class="st2" x1="19.5" y1="9.5" x2="19.5" y2="10.5"/>
	<line class="st2" x1="13.5" y1="16.5" x2="13.5" y2="17.5"/>
	<line class="st2" x1="16.5" y1="16.5" x2="16.5" y2="17.5"/>
	<line class="st2" x1="3.5" y1="22.5" x2="3.5" y2="15.5"/>
	<line class="st2" x1="3.5" y1="13.5" x2="3.5" y2="12.5"/>
	<polygon class="st2" points="6,4.3 4,5.5 6,6.8 8,5.5 	"/>
</g>
<g id="Frames-24px">
	<rect class="st7" width="24" height="24"/>
</g>
</svg>
