<?xml version="1.0" encoding="utf-8"?>
<!-- Generator: Adobe Illustrator 21.0.2, SVG Export Plug-In . SVG Version: 6.00 Build 0)  -->
<svg version="1.1" xmlns="http://www.w3.org/2000/svg" xmlns:xlink="http://www.w3.org/1999/xlink" x="0px" y="0px"
	 viewBox="0 0 24 24" style="enable-background:new 0 0 24 24;" xml:space="preserve">
<style type="text/css">
	.st0{fill:#FFFFFF;}
	.st1{fill:#CCE7FF;}
	.st2{fill:none;stroke:#1078FF;stroke-linecap:round;stroke-linejoin:round;stroke-miterlimit:10;}
	.st3{fill:none;stroke:#1078FF;stroke-linejoin:round;stroke-miterlimit:10;}
	.st4{fill:#CCE7FF;stroke:#1078FF;stroke-linejoin:round;stroke-miterlimit:10;}
	.st5{fill:#CCE7FF;stroke:#1078FF;stroke-linecap:round;stroke-linejoin:round;stroke-miterlimit:10;}
	.st6{fill:none;stroke:#1078FF;stroke-miterlimit:10;}
	.st7{fill:none;}
</style>
<g id="Duotone">
	<polygon class="st0" points="14.5,10.5 13.5,7.5 7.5,7.5 6.5,10.5 0.5,10.5 0.5,23.5 22.5,23.5 22.5,10.5 	"/>
	<polygon class="st1" points="14.5,14.8 6.5,19.3 10.5,21.5 14.5,19.3 	"/>
	<polygon class="st1" points="20.5,21.5 2.5,21.5 0.5,23.5 22.5,23.5 	"/>
	<rect x="0.5" y="10.5" class="st2" width="22" height="13"/>
	<line class="st2" x1="4.5" y1="1.5" x2="4.5" y2="2.5"/>
	<line class="st2" x1="4.5" y1="6.5" x2="4.5" y2="7.5"/>
	<line class="st2" x1="1.5" y1="4.5" x2="2.5" y2="4.5"/>
	<line class="st2" x1="6.5" y1="4.5" x2="7.5" y2="4.5"/>
	<polygon class="st3" points="14.5,10.5 6.5,10.5 7.5,7.5 13.5,7.5 	"/>
	<line class="st2" x1="18.5" y1="8.5" x2="20.5" y2="8.5"/>
	<polygon class="st2" points="14.5,19.3 10.5,21.5 6.5,19.3 6.5,14.8 10.5,12.5 14.5,14.8 	"/>
	<polygon class="st2" points="12.5,18 10.5,19.3 8.5,18 8.5,16 10.5,14.8 12.5,16 	"/>
</g>
<g id="Frames-24px">
	<rect class="st7" width="24" height="24"/>
</g>
</svg>
