<?xml version="1.0" encoding="utf-8"?>
<!-- Generator: Adobe Illustrator 21.0.2, SVG Export Plug-In . SVG Version: 6.00 Build 0)  -->
<svg version="1.1" xmlns="http://www.w3.org/2000/svg" xmlns:xlink="http://www.w3.org/1999/xlink" x="0px" y="0px"
	 viewBox="0 0 24 24" style="enable-background:new 0 0 24 24;" xml:space="preserve">
<style type="text/css">
	.st0{fill:#FFFFFF;}
	.st1{fill:#CCE7FF;}
	.st2{fill:none;stroke:#1078FF;stroke-linecap:round;stroke-linejoin:round;stroke-miterlimit:10;}
	.st3{fill:none;stroke:#1078FF;stroke-linejoin:round;stroke-miterlimit:10;}
	.st4{fill:#CCE7FF;stroke:#1078FF;stroke-linejoin:round;stroke-miterlimit:10;}
	.st5{fill:#CCE7FF;stroke:#1078FF;stroke-linecap:round;stroke-linejoin:round;stroke-miterlimit:10;}
	.st6{fill:none;stroke:#1078FF;stroke-miterlimit:10;}
	.st7{fill:none;}
</style>
<g id="Duotone">
	<polygon class="st0" points="19.5,12.5 19.5,12.5 19.5,2.5 18.5,1.5 4.5,1.5 3.5,2.5 3.5,12.5 3.5,12.5 0.5,15.5 2,20.5 3.5,20.5 
		5.5,20.5 4.5,23.5 18.5,23.5 17.5,20.5 19.5,20.5 21,20.5 22.5,15.5 	"/>
	<polygon class="st1" points="14.5,5.3 8.5,8.8 11.5,10.5 14.5,8.8 	"/>
	<polygon class="st1" points="0.5,15.5 22.5,15.5 21,20.5 19.5,20.5 18.5,17.5 4.5,17.5 3.5,20.5 2,20.5 	"/>
	<polygon class="st1" points="16.5,17.5 5.2,21.5 17.8,21.5 	"/>
	<polygon class="st3" points="19.5,12.5 3.5,12.5 3.5,2.5 4.5,1.5 18.5,1.5 19.5,2.5 	"/>
	<polygon class="st3" points="22.5,15.5 0.5,15.5 3.5,12.5 19.5,12.5 	"/>
	<polyline class="st2" points="3.5,20.5 2,20.5 0.5,15.5 22.5,15.5 21,20.5 19.5,20.5 	"/>
	<line class="st3" x1="9.5" y1="4.7" x2="9.5" y2="1.5"/>
	<line class="st3" x1="9.5" y1="12.5" x2="9.5" y2="9.3"/>
	<line class="st3" x1="13.5" y1="4.7" x2="13.5" y2="1.5"/>
	<line class="st3" x1="13.5" y1="12.5" x2="13.5" y2="9.3"/>
	<line class="st2" x1="16.5" y1="3.5" x2="17.5" y2="3.5"/>
	<line class="st2" x1="4.5" y1="17.5" x2="18.5" y2="17.5"/>
	<polygon class="st2" points="18.5,23.5 4.5,23.5 6.5,17.5 16.5,17.5 	"/>
	<line class="st2" x1="5.2" y1="21.5" x2="17.8" y2="21.5"/>
	<polyline class="st2" points="10,7 10,6 11,5.5 	"/>
	<polygon class="st2" points="8.5,5.3 11.5,3.5 14.5,5.3 14.5,8.8 11.5,10.5 8.5,8.8 	"/>
</g>
<g id="Frames-24px">
	<rect class="st7" width="24" height="24"/>
</g>
</svg>
