<svg xmlns="http://www.w3.org/2000/svg" width="24" height="24" viewBox="0 0 24 24">
  <title>business-suitcase-2</title>
  <g id="Duotone">
    <polygon points="22.5 6.5 0.5 6.5 0.5 11 1.5 11.294 1.5 11.294 1.5 22.5 21.5 22.5 21.5 11.294 21.5 11.294 22.5 11 22.5 6.5" fill="#fff"/>
    <polygon points="22.5 8.5 0.5 8.5 0.5 11 1.5 11.294 1.5 11.294 1.5 13.294 9.5 15.647 9.647 15.647 9.5 15.5 9.5 11.5 13.5 11.5 13.5 15.5 13.353 15.647 13.5 15.647 21.5 13.294 21.5 11.294 21.5 11.294 22.5 11 22.5 8.5" fill="#cce7ff"/>
    <g>
      <polygon points="16 6.5 7 6.5 8 3.5 15 3.5 16 6.5" fill="none" stroke="#1078ff" stroke-linecap="round" stroke-linejoin="round"/>
      <line x1="11.5" y1="14.5" x2="11.5" y2="13.5" fill="none" stroke="#1078ff" stroke-linecap="round" stroke-linejoin="round"/>
      <polyline points="1.5 11.294 1.5 22.5 21.5 22.5 21.5 11.294" fill="none" stroke="#1078ff" stroke-linecap="round" stroke-linejoin="round"/>
      <polygon points="13.5 15.5 11.5 17.5 9.5 15.5 9.5 11.5 13.5 11.5 13.5 15.5" fill="none" stroke="#1078ff" stroke-linecap="round" stroke-linejoin="round"/>
      <polyline points="13.5 13.647 22.5 11 22.5 6.5 0.5 6.5 0.5 11 9.5 13.647" fill="none" stroke="#1078ff" stroke-linecap="round" stroke-linejoin="round"/>
    </g>
  </g>
  <g id="Frames-24px">
    <rect width="24" height="24" fill="none"/>
  </g>
</svg>
