<?xml version="1.0" encoding="utf-8"?>
<!-- Generator: Adobe Illustrator 21.0.2, SVG Export Plug-In . SVG Version: 6.00 Build 0)  -->
<svg version="1.1" xmlns="http://www.w3.org/2000/svg" xmlns:xlink="http://www.w3.org/1999/xlink" x="0px" y="0px" width="24px"
	 height="24px" viewBox="0 0 24 24" enable-background="new 0 0 24 24" xml:space="preserve">
<g id="Black">
	<g>
		<g>
			<g>
				<line fill="none" stroke="#58595B" stroke-linecap="round" stroke-miterlimit="10" x1="2.5" y1="5.5" x2="3.5" y2="5.5"/>
				<line fill="none" stroke="#58595B" stroke-linecap="round" stroke-miterlimit="10" x1="5.5" y1="5.5" x2="6.5" y2="5.5"/>
				<line fill="none" stroke="#58595B" stroke-linecap="round" stroke-miterlimit="10" x1="8.5" y1="5.5" x2="9.5" y2="5.5"/>
				
					<rect x="0.5" y="3.5" fill="none" stroke="#58595B" stroke-linecap="round" stroke-linejoin="round" stroke-miterlimit="10" width="23" height="18"/>
				
					<line fill="none" stroke="#58595B" stroke-linecap="round" stroke-linejoin="round" stroke-miterlimit="10" x1="0.5" y1="7.5" x2="23.5" y2="7.5"/>
			</g>
		</g>
		<g>
			<polyline fill="none" stroke="#58595B" stroke-linecap="round" stroke-linejoin="round" stroke-miterlimit="10" points="
				14.5,19.5 10.5,19.5 7.5,16 7.5,13 10.5,10.5 14.5,10.5 16.5,12.5 16.5,16 14.5,17.5 11.5,17.5 10.5,16.5 10.5,15 14,14.5 
				14,17.5 			"/>
			<polyline fill="none" stroke="#58595B" stroke-linecap="round" stroke-linejoin="round" stroke-miterlimit="10" points="
				10.5,12.5 13,12.5 14,13.5 14,14.5 			"/>
		</g>
	</g>
</g>
<g id="Frames-24px">
	<rect fill="none" width="24" height="24"/>
</g>
</svg>
