<?xml version="1.0" encoding="utf-8"?>
<!-- Generator: Adobe Illustrator 21.0.2, SVG Export Plug-In . SVG Version: 6.00 Build 0)  -->
<svg version="1.1" xmlns="http://www.w3.org/2000/svg" xmlns:xlink="http://www.w3.org/1999/xlink" x="0px" y="0px" width="24px"
	 height="24px" viewBox="0 0 24 24" enable-background="new 0 0 24 24" xml:space="preserve">
<g id="Black">
	<g>
		<polygon fill="none" stroke="#58595B" stroke-linejoin="round" stroke-miterlimit="10" points="16.5,14.25 15,15.25 13.5,14.25 
			13.5,12.75 15,11.75 16.5,12.75 		"/>
		<polyline fill="none" stroke="#58595B" stroke-linejoin="round" stroke-miterlimit="10" points="17.515,16.963 19,23.75 15,21.25 
			11,23.75 12.485,16.963 		"/>
		<g>
			<line fill="none" stroke="#58595B" stroke-linecap="round" stroke-miterlimit="10" x1="2.5" y1="2.5" x2="3.5" y2="2.5"/>
			<line fill="none" stroke="#58595B" stroke-linecap="round" stroke-miterlimit="10" x1="5.5" y1="2.5" x2="6.5" y2="2.5"/>
			<line fill="none" stroke="#58595B" stroke-linecap="round" stroke-miterlimit="10" x1="8.5" y1="2.5" x2="9.5" y2="2.5"/>
			<polyline fill="none" stroke="#58595B" stroke-linecap="round" stroke-linejoin="round" stroke-miterlimit="10" points="
				8.5,18.5 0.5,18.5 0.5,0.5 23.5,0.5 23.5,18.5 21,18.5 			"/>
			
				<line fill="none" stroke="#58595B" stroke-linecap="round" stroke-linejoin="round" stroke-miterlimit="10" x1="0.5" y1="4.5" x2="23.5" y2="4.5"/>
		</g>
		<polygon fill="none" stroke="#58595B" stroke-linejoin="round" stroke-miterlimit="10" points="19.5,15.75 15,18.5 10.5,15.75 
			10.5,11.25 15,8.5 19.5,11.25 		"/>
	</g>
</g>
<g id="Frames-24px">
	<rect fill="none" width="24" height="24"/>
</g>
</svg>
