<?xml version="1.0" encoding="utf-8"?>
<!-- Generator: Adobe Illustrator 21.0.2, SVG Export Plug-In . SVG Version: 6.00 Build 0)  -->
<svg version="1.1" xmlns="http://www.w3.org/2000/svg" xmlns:xlink="http://www.w3.org/1999/xlink" x="0px" y="0px" width="24px"
	 height="24px" viewBox="0 0 24 24" enable-background="new 0 0 24 24" xml:space="preserve">
<g id="Black">
	<g>
		
			<rect x="12.939" y="9.439" transform="matrix(0.7071 0.7071 -0.7071 0.7071 11.5251 -6.8241)" fill="none" stroke="#58595B" stroke-linecap="round" stroke-linejoin="round" stroke-miterlimit="10" width="2.121" height="2.121"/>
		
			<rect x="7.439" y="17.439" transform="matrix(0.7071 0.7071 -0.7071 0.7071 15.5711 -0.5919)" fill="none" stroke="#58595B" stroke-linecap="round" stroke-linejoin="round" stroke-miterlimit="10" width="2.121" height="2.121"/>
		<polyline fill="none" stroke="#58595B" stroke-linecap="round" stroke-linejoin="round" stroke-miterlimit="10" points="
			12.5,10.5 8.5,10.5 8.5,12.5 		"/>
		<polyline fill="none" stroke="#58595B" stroke-linecap="round" stroke-linejoin="round" stroke-miterlimit="10" points="
			15.5,10.5 19.5,10.5 19.5,12.5 		"/>
		
			<rect x="7.5" y="12.5" fill="none" stroke="#58595B" stroke-linecap="round" stroke-linejoin="round" stroke-miterlimit="10" width="2" height="2"/>
		
			<rect x="12.5" y="17.5" fill="none" stroke="#58595B" stroke-linecap="round" stroke-linejoin="round" stroke-miterlimit="10" width="2" height="2"/>
		
			<rect x="18.5" y="12.5" fill="none" stroke="#58595B" stroke-linecap="round" stroke-linejoin="round" stroke-miterlimit="10" width="2" height="2"/>
		
			<line fill="none" stroke="#58595B" stroke-linecap="round" stroke-linejoin="round" stroke-miterlimit="10" x1="8.5" y1="14.5" x2="8.5" y2="17"/>
		
			<rect x="2.5" y="17.5" transform="matrix(-1 -1.224647e-16 1.224647e-16 -1 7 37)" fill="none" stroke="#58595B" stroke-linecap="round" stroke-linejoin="round" stroke-miterlimit="10" width="2" height="2"/>
		<g>
			<g>
				<line fill="none" stroke="#58595B" stroke-linecap="round" stroke-miterlimit="10" x1="2.5" y1="5.5" x2="3.5" y2="5.5"/>
				<line fill="none" stroke="#58595B" stroke-linecap="round" stroke-miterlimit="10" x1="5.5" y1="5.5" x2="6.5" y2="5.5"/>
				<line fill="none" stroke="#58595B" stroke-linecap="round" stroke-miterlimit="10" x1="8.5" y1="5.5" x2="9.5" y2="5.5"/>
				
					<rect x="0.5" y="3.5" fill="none" stroke="#58595B" stroke-linecap="round" stroke-linejoin="round" stroke-miterlimit="10" width="23" height="18"/>
				
					<line fill="none" stroke="#58595B" stroke-linecap="round" stroke-linejoin="round" stroke-miterlimit="10" x1="0.5" y1="7.5" x2="23.5" y2="7.5"/>
			</g>
		</g>
		
			<line fill="none" stroke="#58595B" stroke-linecap="round" stroke-linejoin="round" stroke-miterlimit="10" x1="4.5" y1="18.5" x2="7" y2="18.5"/>
		
			<line fill="none" stroke="#58595B" stroke-linecap="round" stroke-linejoin="round" stroke-miterlimit="10" x1="10" y1="18.5" x2="12.5" y2="18.5"/>
	</g>
</g>
<g id="Frames-24px">
	<rect fill="none" width="24" height="24"/>
</g>
</svg>
