<svg xmlns="http://www.w3.org/2000/svg" width="24" height="24" viewBox="0 0 24 24">
  <title>cat</title>
  <g id="Duotone">
    <polygon points="4.5 0.52 9 5.52 12 4.02 15 5.52 19.5 0.52 23.5 18.02 12 23.52 0.5 18.02 4.5 0.52" fill="#fff"/>
    <path d="M20.3,4.016,16,8.5l-4-2-4,2L3.7,4.016.5,18,12,23.5,23.5,18ZM12,20,9.5,16.5h5Z" fill="#cce7ff"/>
    <line x1="0.5" y1="11.5" x2="5.5" y2="13.5" fill="none" stroke="#1078ff" stroke-linecap="round" stroke-linejoin="round"/>
    <line x1="0.5" y1="15.5" x2="4.5" y2="15.5" fill="none" stroke="#1078ff" stroke-linecap="round" stroke-linejoin="round"/>
    <line x1="1" y1="19" x2="5.5" y2="17.5" fill="none" stroke="#1078ff" stroke-linecap="round" stroke-linejoin="round"/>
    <polygon points="12 20 9.5 16.5 14.5 16.5 12 20" fill="none" stroke="#1078ff" stroke-linecap="round" stroke-linejoin="round"/>
    <line x1="8.5" y1="11.5" x2="8.5" y2="13.5" fill="none" stroke="#1078ff" stroke-linecap="round" stroke-linejoin="round"/>
    <polyline points="19.5 20 12 23.5 4.5 20" fill="none" stroke="#1078ff" stroke-linecap="round" stroke-linejoin="round"/>
    <polyline points="21.5 9.5 19.5 0.5 15 5.5 12 4 9 5.5 4.5 0.5 2.5 9.5" fill="none" stroke="#1078ff" stroke-linecap="round" stroke-linejoin="round"/>
    <line x1="23.5" y1="11.5" x2="18.5" y2="13.5" fill="none" stroke="#1078ff" stroke-linecap="round" stroke-linejoin="round"/>
    <line x1="23.5" y1="15.5" x2="19.5" y2="15.5" fill="none" stroke="#1078ff" stroke-linecap="round" stroke-linejoin="round"/>
    <line x1="23" y1="19" x2="18.5" y2="17.5" fill="none" stroke="#1078ff" stroke-linecap="round" stroke-linejoin="round"/>
    <line x1="15.5" y1="11.5" x2="15.5" y2="13.5" fill="none" stroke="#1078ff" stroke-linecap="round" stroke-linejoin="round"/>
  </g>
  <g id="Frames-24px">
    <rect width="24" height="24" fill="none"/>
  </g>
</svg>
