<?xml version="1.0" encoding="utf-8"?>
<!-- Generator: Adobe Illustrator 21.0.2, SVG Export Plug-In . SVG Version: 6.00 Build 0)  -->
<svg version="1.1" xmlns="http://www.w3.org/2000/svg" xmlns:xlink="http://www.w3.org/1999/xlink" x="0px" y="0px"
	 viewBox="0 0 24 24" style="enable-background:new 0 0 24 24;" xml:space="preserve">
<style type="text/css">
	.st0{fill:#FFFFFF;}
	.st1{fill:#CCE7FF;}
	.st2{fill:none;stroke:#1078FF;stroke-linecap:round;stroke-linejoin:round;stroke-miterlimit:10;}
	.st3{fill:none;stroke:#1078FF;stroke-width:0.9847;stroke-linecap:round;stroke-linejoin:round;stroke-miterlimit:10;}
	.st4{fill:#1078FF;}
	.st5{fill:none;}
</style>
<g id="Duotone">
	<rect x="0.5" y="0.5" class="st0" width="23" height="23"/>
	<polygon class="st1" points="19.5,19.5 14.5,19.5 14.5,14.5 9.5,14.5 9.5,19.5 4.5,19.5 4.5,4.5 9.5,4.5 9.5,9.5 14.5,9.5 
		14.5,4.5 19.5,4.5 	"/>
	<polygon class="st1" points="0.5,23.5 3,21 21,21 21,3 23.5,0.5 23.5,23.5 	"/>
	<g>
		<rect x="0.5" y="0.5" class="st2" width="23" height="23"/>
		<polygon class="st2" points="19.5,19.5 14.5,19.5 14.5,14.5 9.5,14.5 9.5,19.5 4.5,19.5 4.5,4.5 9.5,4.5 9.5,9.5 14.5,9.5 
			14.5,4.5 19.5,4.5 		"/>
	</g>
</g>
<g id="Frames-24px">
	<rect class="st5" width="24" height="24"/>
</g>
</svg>
