<?xml version="1.0" encoding="utf-8"?>
<!-- Generator: Adobe Illustrator 21.0.2, SVG Export Plug-In . SVG Version: 6.00 Build 0)  -->
<svg version="1.1" xmlns="http://www.w3.org/2000/svg" xmlns:xlink="http://www.w3.org/1999/xlink" x="0px" y="0px"
	 viewBox="0 0 24 24" style="enable-background:new 0 0 24 24;" xml:space="preserve">
<style type="text/css">
	.st0{fill:#FFFFFF;}
	.st1{fill:#CCE7FF;}
	.st2{fill:none;stroke:#1078FF;stroke-linecap:round;stroke-linejoin:round;stroke-miterlimit:10;}
	.st3{fill:none;stroke:#1078FF;stroke-width:0.9847;stroke-linecap:round;stroke-linejoin:round;stroke-miterlimit:10;}
	.st4{fill:#1078FF;}
	.st5{fill:none;}
</style>
<g id="Duotone">
	<polygon class="st0" points="15.1,5 19.5,2.5 23.5,5 19.5,7.5 	"/>
	<polygon class="st0" points="13.5,13.5 16.5,15.5 19.5,13.5 16.5,11.5 	"/>
	<polygon class="st0" points="16.5,20.5 19.5,22.5 22.5,20.5 19.5,18.5 	"/>
	<polygon class="st1" points="23.5,5 19.5,7.5 15.1,5 	"/>
	<polygon class="st1" points="13.5,13.5 16.5,15.5 19.5,13.5 	"/>
	<polygon class="st1" points="16.5,20.5 19.5,22.5 22.5,20.5 	"/>
	<g>
		<polyline class="st2" points="15.1,5 11.5,3 7.5,5.5 3.5,3 0.5,4.5 		"/>
		<polygon class="st2" points="15.1,5 19.5,2.5 23.5,5 19.5,7.5 		"/>
		<polygon class="st2" points="13.5,13.5 16.5,15.5 19.5,13.5 16.5,11.5 		"/>
		<polyline class="st2" points="13.5,13.5 10.5,11.5 7,14 4,12 2.5,13 		"/>
		<polygon class="st2" points="16.5,20.5 19.5,22.5 22.5,20.5 19.5,18.5 		"/>
		<polyline class="st2" points="16.5,20.5 13.5,18.5 10,21 7,19 5.5,20 		"/>
	</g>
</g>
<g id="Frames-24px">
	<rect class="st5" width="24" height="24"/>
</g>
</svg>
