<?xml version="1.0" encoding="utf-8"?>
<!-- Generator: Adobe Illustrator 21.0.2, SVG Export Plug-In . SVG Version: 6.00 Build 0)  -->
<svg version="1.1" xmlns="http://www.w3.org/2000/svg" xmlns:xlink="http://www.w3.org/1999/xlink" x="0px" y="0px"
	 viewBox="0 0 24 24" style="enable-background:new 0 0 24 24;" xml:space="preserve">
<style type="text/css">
	.st0{fill:#FFFFFF;}
	.st1{fill:#CCE7FF;}
	.st2{fill:none;stroke:#1078FF;stroke-linecap:round;stroke-linejoin:round;stroke-miterlimit:10;}
	.st3{fill:none;stroke:#1078FF;stroke-width:0.9847;stroke-linecap:round;stroke-linejoin:round;stroke-miterlimit:10;}
	.st4{fill:#1078FF;}
	.st5{fill:none;}
</style>
<g id="Duotone">
	<rect x="4.8" y="9.3" transform="matrix(0.7071 -0.7071 0.7071 0.7071 -5.4706 11.7929)" class="st0" width="13.4" height="6.4"/>
	<polygon class="st1" points="5.5,16 4,20 8.1,18.6 	"/>
	<rect x="5.9" y="12" transform="matrix(0.7071 -0.7071 0.7071 0.7071 -5.9366 12.9179)" class="st1" width="13.4" height="3.2"/>
	<rect x="6.2" y="12.7" transform="matrix(0.7071 -0.7071 0.7071 0.7071 -8.8456 10.3949)" class="st1" width="3.9" height="6.4"/>
	<g>
		<rect x="4.8" y="9.3" transform="matrix(0.7071 -0.7071 0.7071 0.7071 -5.4706 11.7929)" class="st2" width="13.4" height="6.4"/>
		<line class="st2" x1="7.3" y1="12.2" x2="11.8" y2="16.7"/>
		<polyline class="st2" points="5.5,16 4,20 8.1,18.6 		"/>
		<line class="st2" x1="4" y1="20" x2="0.5" y2="23.5"/>
		<line class="st2" x1="9.5" y1="14.5" x2="19.5" y2="4.5"/>
		<line class="st2" x1="17.5" y1="2.5" x2="21.5" y2="6.5"/>
		<polyline class="st2" points="14,5.5 13,2.5 10,1.5 7.5,4 8.5,7 11.5,8 		"/>
		<polyline class="st2" points="18.5,10 21.5,11 22.5,14 20,16.5 17,15.5 16,12.5 		"/>
	</g>
</g>
<g id="Frames-24px">
	<rect class="st5" width="24" height="24"/>
</g>
</svg>
