<?xml version="1.0" encoding="utf-8"?>
<!-- Generator: Adobe Illustrator 21.0.2, SVG Export Plug-In . SVG Version: 6.00 Build 0)  -->
<svg version="1.1" xmlns="http://www.w3.org/2000/svg" xmlns:xlink="http://www.w3.org/1999/xlink" x="0px" y="0px"
	 viewBox="0 0 24 24" style="enable-background:new 0 0 24 24;" xml:space="preserve">
<style type="text/css">
	.st0{fill:#FFFFFF;}
	.st1{fill:#CCE7FF;}
	.st2{fill:none;stroke:#1078FF;stroke-linecap:round;stroke-linejoin:round;stroke-miterlimit:10;}
	.st3{fill:none;}
</style>
<g id="Duotone">
	<polygon class="st0" points="22.5,2.5 11.5,5 0.5,2.5 0.5,18.5 9.7,20.5 11.5,21 13.2,20.6 16.5,22.5 20.5,20.3 20.5,19 22.5,18.5 
			"/>
	<polygon class="st1" points="20.5,15.8 20.5,20.3 16.5,22.5 12.5,20.3 	"/>
	<polygon class="st1" points="12.5,20.3 12.5,15.8 13.5,15.2 13.5,4.5 11.5,5 9.5,4.5 9.5,20.5 9.7,20.5 11.5,21 13.2,20.6 	"/>
	<g>
		<polyline class="st2" points="14.5,17.5 14.5,16.5 18.5,16.5 18.5,17.5 		"/>
		<line class="st2" x1="16.5" y1="16.5" x2="16.5" y2="20.5"/>
		<polygon class="st2" points="12.5,15.8 16.5,13.5 20.5,15.8 20.5,20.3 16.5,22.5 12.5,20.3 		"/>
		<g>
			<line class="st2" x1="23.5" y1="22" x2="20.5" y2="20.3"/>
		</g>
		<line class="st2" x1="3.5" y1="7.1" x2="8.8" y2="8.4"/>
		<line class="st2" x1="3.5" y1="10" x2="8.8" y2="11.3"/>
		<line class="st2" x1="3.5" y1="12.9" x2="8.8" y2="14.1"/>
		<line class="st2" x1="3.5" y1="15.8" x2="8.8" y2="17"/>
		<polyline class="st2" points="22.5,18.5 22.5,2.5 11.5,5 0.5,2.5 0.5,18.5 9.7,20.5 		"/>
		<line class="st2" x1="19.5" y1="7.1" x2="14.3" y2="8.4"/>
		<line class="st2" x1="19.5" y1="10" x2="14.3" y2="11.3"/>
		<line class="st2" x1="11.5" y1="5" x2="11.5" y2="13.5"/>
	</g>
</g>
<g id="Frames-24px">
	<rect class="st3" width="24" height="24"/>
</g>
</svg>
