<?xml version="1.0" encoding="utf-8"?>
<!-- Generator: Adobe Illustrator 21.0.2, SVG Export Plug-In . SVG Version: 6.00 Build 0)  -->
<svg version="1.1" xmlns="http://www.w3.org/2000/svg" xmlns:xlink="http://www.w3.org/1999/xlink" x="0px" y="0px"
	 viewBox="0 0 24 24" style="enable-background:new 0 0 24 24;" xml:space="preserve">
<style type="text/css">
	.st0{fill:#FFFFFF;}
	.st1{fill:#CCE7FF;}
	.st2{fill:none;stroke:#1078FF;stroke-linecap:round;stroke-linejoin:round;stroke-miterlimit:10;}
	.st3{fill:none;stroke:#1078FF;stroke-linecap:round;stroke-miterlimit:10;}
	.st4{fill:none;stroke:#1078FF;stroke-linejoin:round;stroke-miterlimit:10;}
	.st5{fill:none;}
</style>
<g id="Duotone">
	<polygon class="st0" points="20.5,10.5 20.5,0.5 0.5,0.5 0.5,15.5 18,15.5 16,17.5 13,17.5 11.5,19 11.5,22.5 15,22.5 23.5,14 
		23.5,10.5 	"/>
	<polygon class="st1" points="18.5,13.5 0.5,13.5 0.5,15.5 18,15.5 18.5,15 	"/>
	<rect x="0.5" y="3.5" class="st1" width="20" height="3"/>
	<polygon class="st1" points="23.5,10.5 23.5,14 15,22.5 11.5,22.5 	"/>
	<g>
		<polyline class="st2" points="11.5,15.5 0.5,15.5 0.5,0.5 20.5,0.5 20.5,8.5 		"/>
		<line class="st2" x1="0.5" y1="3.5" x2="20.5" y2="3.5"/>
		<line class="st2" x1="0.5" y1="6.5" x2="20.5" y2="6.5"/>
		<line class="st2" x1="3.5" y1="10.5" x2="5.5" y2="10.5"/>
		<line class="st2" x1="7.5" y1="10.5" x2="12.5" y2="10.5"/>
		<line class="st2" x1="4.5" y1="12.5" x2="3.5" y2="12.5"/>
		<line class="st2" x1="10.5" y1="12.5" x2="6.5" y2="12.5"/>
		<polygon class="st2" points="15,22.5 11.5,22.5 11.5,19 13,17.5 16,17.5 18.5,15 18.5,12 20,10.5 23.5,10.5 23.5,14 		"/>
	</g>
</g>
<g id="Frames-24px">
	<rect class="st5" width="24" height="24"/>
</g>
</svg>
