<?xml version="1.0" encoding="utf-8"?>
<!-- Generator: Adobe Illustrator 21.0.2, SVG Export Plug-In . SVG Version: 6.00 Build 0)  -->
<svg version="1.1" xmlns="http://www.w3.org/2000/svg" xmlns:xlink="http://www.w3.org/1999/xlink" x="0px" y="0px"
	 viewBox="0 0 24 24" style="enable-background:new 0 0 24 24;" xml:space="preserve">
<style type="text/css">
	.st0{fill:#FFFFFF;}
	.st1{fill:#CCE7FF;}
	.st2{fill:none;stroke:#1078FF;stroke-linecap:round;stroke-linejoin:round;stroke-miterlimit:10;}
	.st3{fill:none;stroke:#1078FF;stroke-linecap:round;stroke-miterlimit:10;}
	.st4{fill:none;stroke:#1078FF;stroke-linejoin:round;stroke-miterlimit:10;}
	.st5{fill:none;}
</style>
<g id="Duotone">
	<rect x="0.5" y="4.5" class="st0" width="22" height="16"/>
	<rect x="0.5" y="18.5" class="st1" width="22" height="2"/>
	<polygon class="st1" points="15.5,9.5 12.5,9.5 11.3,11.4 10,9.5 7,9.5 5,12.5 7,15.5 10,15.5 11.3,13.6 12.5,15.5 15.5,15.5 
		17.5,12.5 	"/>
	<g>
		<rect x="0.5" y="4.5" class="st2" width="22" height="16"/>
		<polygon class="st4" points="15.5,9.5 12.5,9.5 11.3,11.4 10,9.5 7,9.5 5,12.5 7,15.5 10,15.5 11.3,13.6 12.5,15.5 15.5,15.5 
			17.5,12.5 		"/>
	</g>
</g>
<g id="Frames-24px">
	<rect class="st5" width="24" height="24"/>
</g>
</svg>
