<?xml version="1.0" encoding="utf-8"?>
<!-- Generator: Adobe Illustrator 21.0.2, SVG Export Plug-In . SVG Version: 6.00 Build 0)  -->
<svg version="1.1" xmlns="http://www.w3.org/2000/svg" xmlns:xlink="http://www.w3.org/1999/xlink" x="0px" y="0px"
	 viewBox="0 0 24 24" style="enable-background:new 0 0 24 24;" xml:space="preserve">
<style type="text/css">
	.st0{fill:#FFFFFF;}
	.st1{fill:#CCE7FF;}
	.st2{fill:none;stroke:#1078FF;stroke-linecap:round;stroke-linejoin:round;stroke-miterlimit:10;}
	.st3{fill:none;stroke:#1078FF;stroke-linecap:round;stroke-miterlimit:10;}
	.st4{fill:none;stroke:#1078FF;stroke-linejoin:round;stroke-miterlimit:10;}
	.st5{fill:none;}
</style>
<g id="Duotone">
	<polygon class="st0" points="21.5,15.5 21.5,0.5 0.5,0.5 0.5,17.5 12.5,17.5 12.5,23.5 23.5,23.5 23.5,15.5 	"/>
	<rect x="12.5" y="17.5" class="st1" width="11" height="2"/>
	<polygon class="st1" points="21.5,4.5 0.5,17.5 12.5,17.5 12.5,15.5 21.5,15.5 	"/>
	<g>
		<polyline class="st2" points="10.5,17.5 0.5,17.5 0.5,0.5 21.5,0.5 21.5,13.5 		"/>
		<line class="st2" x1="0.5" y1="4.5" x2="21.5" y2="4.5"/>
		<line class="st2" x1="2.5" y1="2.5" x2="3.5" y2="2.5"/>
		<line class="st2" x1="5.5" y1="2.5" x2="6.5" y2="2.5"/>
		<line class="st2" x1="8.5" y1="2.5" x2="9.5" y2="2.5"/>
		<g>
			<rect x="12.5" y="15.5" class="st2" width="11" height="8"/>
			<rect x="12.5" y="17.5" class="st2" width="11" height="2"/>
			<line class="st2" x1="14.5" y1="21.5" x2="15.5" y2="21.5"/>
			<line class="st2" x1="17.5" y1="21.5" x2="19.5" y2="21.5"/>
		</g>
		<g>
			<polyline class="st2" points="12.5,8.5 9.3,8.5 8.5,9.5 9.3,10.5 11.8,10.5 12.5,11.5 11.8,12.5 8.5,12.5 			"/>
			<line class="st2" x1="10.5" y1="8.5" x2="10.5" y2="7.5"/>
			<line class="st2" x1="10.5" y1="13.5" x2="10.5" y2="12.5"/>
		</g>
	</g>
</g>
<g id="Frames-24px">
	<rect class="st5" width="24" height="24"/>
</g>
</svg>
