<?xml version="1.0" encoding="utf-8"?>
<!-- Generator: Adobe Illustrator 21.0.2, SVG Export Plug-In . SVG Version: 6.00 Build 0)  -->
<svg version="1.1" xmlns="http://www.w3.org/2000/svg" xmlns:xlink="http://www.w3.org/1999/xlink" x="0px" y="0px"
	 viewBox="0 0 24 24" style="enable-background:new 0 0 24 24;" xml:space="preserve">
<style type="text/css">
	.st0{fill:#FFFFFF;}
	.st1{fill:#CCE7FF;}
	.st2{fill:none;stroke:#1078FF;stroke-linecap:round;stroke-linejoin:round;stroke-miterlimit:10;}
	.st3{fill:none;stroke:#1078FF;stroke-linecap:round;stroke-miterlimit:10;}
	.st4{fill:none;stroke:#1078FF;stroke-linejoin:round;stroke-miterlimit:10;}
	.st5{fill:none;}
</style>
<g id="Duotone">
	<polygon class="st0" points="21.4,12.5 20.5,13.4 20.5,2.5 0.5,2.5 0.5,17.5 16.4,17.5 14.1,19.8 13.5,22.5 16.2,21.9 23.5,14.6 	
		"/>
	<polygon class="st1" points="18.4,15.5 0.5,15.5 0.5,17.5 16.4,17.5 	"/>
	<rect x="0.5" y="5.5" class="st1" width="20" height="3"/>
	<g>
		<polygon class="st1" points="22.4,13.6 23.5,14.6 16.2,21.9 13.5,22.5 		"/>
	</g>
	<g>
		<g>
			<polyline class="st2" points="12.5,17.5 0.5,17.5 0.5,2.5 20.5,2.5 20.5,10.5 			"/>
			<line class="st2" x1="0.5" y1="5.5" x2="20.5" y2="5.5"/>
			<line class="st2" x1="0.5" y1="8.5" x2="20.5" y2="8.5"/>
			<line class="st2" x1="3.5" y1="12.5" x2="5.5" y2="12.5"/>
			<line class="st2" x1="7.5" y1="12.5" x2="12.5" y2="12.5"/>
			<line class="st2" x1="4.5" y1="14.5" x2="3.5" y2="14.5"/>
			<line class="st2" x1="10.5" y1="14.5" x2="6.5" y2="14.5"/>
		</g>
		<g>
			<polygon class="st2" points="14.1,19.8 21.4,12.5 23.5,14.6 16.2,21.9 13.5,22.5 			"/>
		</g>
	</g>
</g>
<g id="Frames-24px">
	<rect class="st5" width="24" height="24"/>
</g>
</svg>
