<?xml version="1.0" encoding="utf-8"?>
<!-- Generator: Adobe Illustrator 21.0.2, SVG Export Plug-In . SVG Version: 6.00 Build 0)  -->
<svg version="1.1" xmlns="http://www.w3.org/2000/svg" xmlns:xlink="http://www.w3.org/1999/xlink" x="0px" y="0px"
	 viewBox="0 0 24 24" style="enable-background:new 0 0 24 24;" xml:space="preserve">
<style type="text/css">
	.st0{fill:#FFFFFF;}
	.st1{fill:#CCE7FF;}
	.st2{fill:none;stroke:#1078FF;stroke-linecap:round;stroke-linejoin:round;stroke-miterlimit:10;}
	.st3{fill:#1078FF;}
	.st4{fill:none;}
</style>
<g id="Duotone">
	<rect x="7.5" y="1.5" class="st0" width="9" height="10"/>
	<rect x="13.5" y="13.5" class="st0" width="9" height="10"/>
	<rect x="1.5" y="13.5" class="st0" width="9" height="10"/>
	<polygon class="st1" points="16.5,11.5 7.5,11.5 16.5,1.5 	"/>
	<polygon class="st1" points="22.5,23.5 13.5,23.5 22.5,13.5 	"/>
	<polygon class="st1" points="10.5,23.5 1.5,23.5 10.5,13.5 	"/>
	<line class="st2" x1="4.5" y1="21.5" x2="4.5" y2="15.5"/>
	<polyline class="st2" points="4.5,15.5 7.5,15.5 7.5,17 4.5,18.5 	"/>
	<polyline class="st2" points="4.5,21.5 7.5,21.5 7.5,19.5 4.5,18.5 	"/>
	<polyline class="st2" points="19.5,15.5 17.5,15.5 16.5,18.5 17.5,21.5 19.5,21.5 	"/>
	<polyline class="st2" points="10.5,9.5 10.5,5 12,3.5 13.5,5 13.5,9.5 	"/>
	<line class="st2" x1="10.5" y1="7.5" x2="13.5" y2="7.5"/>
	<rect x="1.5" y="13.5" class="st2" width="9" height="10"/>
	<rect x="7.5" y="1.5" class="st2" width="9" height="10"/>
	<rect x="13.5" y="13.5" class="st2" width="9" height="10"/>
</g>
<g id="Frames-24px">
	<rect class="st4" width="24" height="24"/>
</g>
</svg>
