<svg xmlns="http://www.w3.org/2000/svg" width="24" height="24" viewBox="0 0 24 24">
  <title>bus-1</title>
  <g id="Duotone">
    <rect x="2.5" y="3.5" width="14" height="18" fill="#fff"/>
    <polygon points="23 18 20 18 19.5 11.5 23.5 11.5 23 18" fill="#fff"/>
    <polygon points="2.5 13.5 9.5 16.5 16.5 13.5 16.5 6.5 2.5 13.5" fill="#cce7ff"/>
    <polyline points="4.5 21.5 4.5 23 5.5 23.5 6.5 23 6.5 21.5" fill="#cce7ff"/>
    <polyline points="12.5 21.5 12.5 23 13.5 23.5 14.5 23 14.5 21.5" fill="#cce7ff"/>
    <polygon points="23 18 20 18 23.5 11.5 23 18" fill="#cce7ff"/>
    <rect x="2.5" y="3.5" width="14" height="18" fill="none" stroke="#1078ff" stroke-linecap="round" stroke-linejoin="round"/>
    <polyline points="2.5 13.5 9.5 16.5 16.5 13.5" fill="none" stroke="#1078ff" stroke-linecap="round" stroke-linejoin="round"/>
    <polygon points="23 18 20 18 19.5 11.5 23.5 11.5 23 18" fill="none" stroke="#1078ff" stroke-linecap="round" stroke-linejoin="round"/>
    <line x1="4.5" y1="19.5" x2="6.5" y2="19.5" fill="none" stroke="#1078ff" stroke-linecap="round" stroke-linejoin="round"/>
    <line x1="12.5" y1="19.5" x2="14.5" y2="19.5" fill="none" stroke="#1078ff" stroke-linecap="round" stroke-linejoin="round"/>
    <polyline points="0.5 8.5 0.5 6.5 2.5 6.5 16.5 6.5" fill="none" stroke="#1078ff" stroke-linecap="round" stroke-linejoin="round"/>
    <polyline points="18.5 8.5 18.5 6.5 16.5 6.5 2.5 6.5" fill="none" stroke="#1078ff" stroke-linecap="round" stroke-linejoin="round"/>
    <polyline points="4.5 21.5 4.5 23 5.5 23.5 6.5 23 6.5 21.5" fill="none" stroke="#1078ff" stroke-linecap="round" stroke-linejoin="round"/>
    <polyline points="12.5 21.5 12.5 23 13.5 23.5 14.5 23 14.5 21.5" fill="none" stroke="#1078ff" stroke-linecap="round" stroke-linejoin="round"/>
    <line x1="21.5" y1="18" x2="21.5" y2="23.5" fill="none" stroke="#1078ff" stroke-linecap="round" stroke-linejoin="round"/>
  </g>
  <g id="Frames-24px">
    <rect width="24" height="24" fill="none"/>
  </g>
</svg>
