<svg xmlns="http://www.w3.org/2000/svg" width="24" height="24" viewBox="0 0 24 24">
  <title>bus-4</title>
  <g id="Duotone">
    <polygon points="18.5 11.5 18.5 5.034 16.996 1.5 5.996 1.5 4.5 5.034 4.5 11.5 2.5 12.5 2.5 18.5 20.5 18.5 20.5 12.5 18.5 11.5" fill="#fff"/>
    <polygon points="11.5 5.5 11.5 11.563 4.5 11.563 11.5 5.5" fill="#cce7ff"/>
    <polygon points="18.5 5.5 18.5 11.563 11.5 11.563 18.5 5.5" fill="#cce7ff"/>
    <polyline points="4.496 20.5 4.496 22.5 5.996 23.5 7.496 22.5 7.496 20.5" fill="#cce7ff"/>
    <polyline points="15.496 20.5 15.496 22.5 16.996 23.5 18.496 22.5 18.496 20.5" fill="#cce7ff"/>
    <polygon points="7.496 16 5.996 17 4.496 16 4.496 14.5 5.996 13.5 7.496 14.5 7.496 16" fill="#cce7ff"/>
    <polygon points="18.496 16 16.996 17 15.496 16 15.496 14.5 16.996 13.5 18.496 14.5 18.496 16" fill="#cce7ff"/>
    <polygon points="1.496 20.5 2.496 20.5 21.496 20.5 21.5 20 21.496 18.5 1.496 18.5 1.496 20.5" fill="#cce7ff"/>
    <polygon points="0.5 9 2.5 9.5 2.5 5.5 0.5 5.5 0.5 9" fill="#cce7ff"/>
    <polygon points="20.5 9.5 22.5 9 22.5 5.5 20.5 5.5 20.5 9.5" fill="#cce7ff"/>
    <polyline points="4.5 11.5 4.5 5.034 5.996 1.5 16.996 1.5 18.5 5.034 18.5 11.5" fill="none" stroke="#1078ff" stroke-linecap="round" stroke-linejoin="round"/>
    <polygon points="0.5 9 2.5 9.5 2.5 5.5 0.5 5.5 0.5 9" fill="none" stroke="#1078ff" stroke-linecap="round" stroke-linejoin="round"/>
    <polygon points="20.5 9.5 22.5 9 22.5 5.5 20.5 5.5 20.5 9.5" fill="none" stroke="#1078ff" stroke-linecap="round" stroke-linejoin="round"/>
    <polygon points="1.496 20.5 2.496 20.5 21.496 20.5 21.5 20 21.496 18.5 1.496 18.5 1.496 20.5" fill="none" stroke="#1078ff" stroke-linecap="round" stroke-linejoin="round"/>
    <line x1="20.437" y1="5.5" x2="2.5" y2="5.5" fill="none" stroke="#1078ff" stroke-linecap="round" stroke-linejoin="round"/>
    <line x1="11.5" y1="5.5" x2="11.5" y2="11.5" fill="none" stroke="#1078ff" stroke-linecap="round" stroke-linejoin="round"/>
    <line x1="9.5" y1="14.5" x2="13.516" y2="14.5" fill="none" stroke="#1078ff" stroke-linecap="round" stroke-linejoin="round"/>
    <line x1="9.5" y1="16.5" x2="13.516" y2="16.5" fill="none" stroke="#1078ff" stroke-linecap="round" stroke-linejoin="round"/>
    <polygon points="2.5 12.5 4.5 11.5 18.5 11.5 20.5 12.5 20.5 18.5 2.5 18.5 2.5 12.5" fill="none" stroke="#1078ff" stroke-linecap="round" stroke-linejoin="round"/>
    <line x1="20.5" y1="9.5" x2="18.5" y2="11.5" fill="none" stroke="#1078ff" stroke-linecap="round" stroke-linejoin="round"/>
    <line x1="2.5" y1="9.5" x2="4.5" y2="11.5" fill="none" stroke="#1078ff" stroke-linecap="round" stroke-linejoin="round"/>
    <polygon points="7.496 16 5.996 17 4.496 16 4.496 14.5 5.996 13.5 7.496 14.5 7.496 16" fill="none" stroke="#1078ff" stroke-linecap="round" stroke-linejoin="round"/>
    <polygon points="18.496 16 16.996 17 15.496 16 15.496 14.5 16.996 13.5 18.496 14.5 18.496 16" fill="none" stroke="#1078ff" stroke-linecap="round" stroke-linejoin="round"/>
    <line x1="7.496" y1="3.5" x2="8.496" y2="3.5" fill="none" stroke="#1078ff" stroke-linecap="round" stroke-linejoin="round"/>
    <line x1="14.496" y1="3.5" x2="15.496" y2="3.5" fill="none" stroke="#1078ff" stroke-linecap="round" stroke-linejoin="round"/>
    <polyline points="4.496 20.5 4.496 22.5 5.996 23.5 7.496 22.5 7.496 20.5" fill="none" stroke="#1078ff" stroke-linecap="round" stroke-linejoin="round"/>
    <polyline points="15.496 20.5 15.496 22.5 16.996 23.5 18.496 22.5 18.496 20.5" fill="none" stroke="#1078ff" stroke-linecap="round" stroke-linejoin="round"/>
  </g>
  <g id="Frames-24px">
    <rect width="24" height="24" fill="none"/>
  </g>
</svg>
