<svg xmlns="http://www.w3.org/2000/svg" width="24" height="24" viewBox="0 0 24 24">
  <title>car-8</title>
  <g id="Duotone">
    <polygon points="22.5 21.5 23.5 12.5 19 5.5 9 5.5 1.5 12.5 0.5 21.5 2.5 21.5 22.5 21.5" fill="#fff"/>
    <polygon points="6.5 22.25 4.5 23.5 2.5 22.25 2.5 20.25 4.5 19 6.5 20.25 6.5 22.25" fill="#cce7ff"/>
    <polygon points="22.5 22.25 20.5 23.5 18.5 22.25 18.5 20.25 20.5 19 22.5 20.25 22.5 22.25" fill="#cce7ff"/>
    <polygon points="7.429 12.5 16.5 12.5 12.72 7.208 7.429 12.5" fill="#cce7ff"/>
    <polyline points="1.278 14.5 4.5 14.5 3.5 16.5 1.056 16.5" fill="#cce7ff"/>
    <polygon points="18.5 22.25 20.5 23.5 22.5 22.25 22.5 20.25 20.5 19 18.5 20.25 18.5 22.25" fill="none" stroke="#1078ff" stroke-linecap="round" stroke-linejoin="round"/>
    <polygon points="2.5 22.25 4.5 23.5 6.5 22.25 6.5 20.25 4.5 19 2.5 20.25 2.5 22.25" fill="none" stroke="#1078ff" stroke-linecap="round" stroke-linejoin="round"/>
    <polyline points="22.5 20.25 23.5 12.5 19 5.5 9 5.5 1.5 12.5 0.5 21.5 2.5 21.5" fill="none" stroke="#1078ff" stroke-linecap="round" stroke-linejoin="round"/>
    <line x1="6.5" y1="21.5" x2="18.5" y2="21.5" fill="none" stroke="#1078ff" stroke-linecap="round" stroke-linejoin="round"/>
    <polyline points="11.5 5.5 16.5 12.5 1.5 12.5" fill="none" stroke="#1078ff" stroke-linecap="round" stroke-linejoin="round"/>
    <polyline points="16.5 12.5 15 17 6.5 21" fill="none" stroke="#1078ff" stroke-linecap="round" stroke-linejoin="round"/>
    <line x1="19" y1="5.5" x2="21.5" y2="5.5" fill="none" stroke="#1078ff" stroke-linecap="round" stroke-linejoin="round"/>
    <polyline points="1.278 14.5 4.5 14.5 3.5 16.5 1.056 16.5" fill="none" stroke="#1078ff" stroke-linecap="round" stroke-linejoin="round"/>
    <line x1="12.5" y1="15.5" x2="10.5" y2="15.5" fill="none" stroke="#1078ff" stroke-linecap="round" stroke-linejoin="round"/>
  </g>
  <g id="Frames-24px">
    <rect width="24" height="24" fill="none"/>
  </g>
</svg>
