<svg xmlns="http://www.w3.org/2000/svg" width="24" height="24" viewBox="0 0 24 24">
  <title>car-music</title>
  <g id="Duotone">
    <polygon points="16.5 0.5 5.5 0.5 2.5 5.5 2.5 10.5 19.5 10.5 19.5 5.5 16.5 0.5" fill="#fff"/>
    <polygon points="16.5 18.5 12.5 18.5 12.5 22.5 16.5 21.5 16.5 18.5" fill="#fff"/>
    <polygon points="23.5 16.5 19.5 16.5 19.5 20.421 23.5 19.167 23.5 16.5" fill="#fff"/>
    <polygon points="19.5 5.5 2.5 5.5 16.5 0.5 19.5 5.5" fill="#cce7ff"/>
    <polyline points="6.5 10.5 6.5 12.5 3.5 12.5 3.5 10.5" fill="#cce7ff"/>
    <polygon points="16.5 18.5 12.5 22.5 16.5 21.5 16.5 18.5" fill="#cce7ff"/>
    <polygon points="23.5 16.5 19.5 20.421 23.5 19.167 23.5 16.5" fill="#cce7ff"/>
    <polygon points="19.5 5.5 2.5 5.5 5.5 0.5 16.5 0.5 19.5 5.5" fill="none" stroke="#1078ff" stroke-linecap="round" stroke-linejoin="round"/>
    <polyline points="6.5 10.5 6.5 12.5 3.5 12.5 3.5 10.5" fill="none" stroke="#1078ff" stroke-linecap="round" stroke-linejoin="round"/>
    <polyline points="2.5 8.501 19.5 8.501 19.5 5.5 2.5 5.5 2.5 10.5 15.5 10.5" fill="none" stroke="#1078ff" stroke-linecap="round" stroke-linejoin="round"/>
    <line x1="2.5" y1="5.5" x2="0.5" y2="4.5" fill="none" stroke="#1078ff" stroke-linecap="round" stroke-linejoin="round"/>
    <line x1="19.5" y1="5.5" x2="21.5" y2="4.5" fill="none" stroke="#1078ff" stroke-linecap="round" stroke-linejoin="round"/>
    <polyline points="16.5 18.5 12.5 18.5 12.5 22.5 16.5 21.5" fill="none" stroke="#1078ff" stroke-linecap="round" stroke-linejoin="round"/>
    <line x1="23.5" y1="10" x2="23.5" y2="19.167" fill="none" stroke="#1078ff" stroke-linecap="round" stroke-linejoin="round"/>
    <line x1="16.5" y1="12.717" x2="23.5" y2="10" fill="none" stroke="#1078ff" stroke-linecap="round" stroke-linejoin="round"/>
    <line x1="16.5" y1="21.5" x2="16.5" y2="12.667" fill="none" stroke="#1078ff" stroke-linecap="round" stroke-linejoin="round"/>
    <polyline points="23.5 16.5 19.5 16.5 19.5 20.421 23.5 19.167" fill="none" stroke="#1078ff" stroke-linecap="round" stroke-linejoin="round"/>
  </g>
  <g id="Frames-24px">
    <rect width="24" height="24" fill="none"/>
  </g>
</svg>
