<svg xmlns="http://www.w3.org/2000/svg" width="24" height="24" viewBox="0 0 24 24">
  <title>car-check</title>
  <g id="Duotone">
    <polygon points="16.5 0.5 5.5 0.5 2.5 5.5 2.5 10.5 19.5 10.5 19.5 5.5 16.5 0.5" fill="#fff"/>
    <polygon points="12.5 13.65 17.5 11 22.5 13.65 22.5 19.35 17.5 22 12.5 19.35 12.5 13.65" fill="#fff"/>
    <polygon points="19.5 5.5 2.5 5.5 16.5 0.5 19.5 5.5" fill="#cce7ff"/>
    <polyline points="6.5 10.5 6.5 12.5 3.5 12.5 3.5 10.5" fill="#cce7ff"/>
    <polygon points="22.5 13.65 22.5 19.35 17.5 22 12.5 19.35 22.5 13.65" fill="#cce7ff"/>
    <g>
      <g>
        <g>
          <polyline points="13.5 10.5 2.5 10.5 2.5 5.5 19.5 5.5 19.5 9.5" fill="none" stroke="#1078ff" stroke-linecap="round" stroke-linejoin="round"/>
          <polygon points="19.5 5.5 2.5 5.5 5.5 0.5 16.5 0.5 19.5 5.5" fill="none" stroke="#1078ff" stroke-linecap="round" stroke-linejoin="round"/>
          <polyline points="6.5 10.5 6.5 12.5 3.5 12.5 3.5 10.5" fill="none" stroke="#1078ff" stroke-linecap="round" stroke-linejoin="round"/>
          <line x1="2.5" y1="8.501" x2="19.5" y2="8.501" fill="none" stroke="#1078ff" stroke-linecap="round" stroke-linejoin="round"/>
        </g>
        <line x1="2.5" y1="5.5" x2="0.5" y2="4.5" fill="none" stroke="#1078ff" stroke-linecap="round" stroke-linejoin="round"/>
        <line x1="19.5" y1="5.5" x2="21.5" y2="4.5" fill="none" stroke="#1078ff" stroke-linecap="round" stroke-linejoin="round"/>
      </g>
      <g>
        <polyline points="15.5 16.5 17 18 19.5 15" fill="none" stroke="#1078ff" stroke-linecap="round" stroke-linejoin="round"/>
        <polygon points="12.5 13.65 17.5 11 22.5 13.65 22.5 19.35 17.5 22 12.5 19.35 12.5 13.65" fill="none" stroke="#1078ff" stroke-linecap="round" stroke-linejoin="round"/>
      </g>
    </g>
  </g>
  <g id="Frames-24px">
    <rect width="24" height="24" fill="none"/>
  </g>
</svg>
