<svg xmlns="http://www.w3.org/2000/svg" width="24" height="24" viewBox="0 0 24 24">
  <title>segway</title>
  <g id="Duotone">
    <polygon points="19.5 15 17.5 16 17.5 19.5 15 17.5 12.5 17.5 12.5 3 10.5 3 10.5 17.5 7.5 17.5 5.5 19.5 5.5 16 3.5 15 1.5 16 1.5 22.5 3.5 23.5 5.5 22.5 5.5 21.5 17.5 21.5 17.5 22.5 19.5 23.5 21.5 22.5 21.5 16 19.5 15" fill="#fff"/>
    <polygon points="1.5 19.5 1.5 22.5 3.5 23.5 5.5 22.5 5.5 21.5 5.5 19.5 1.5 19.5" fill="#cce7ff"/>
    <polygon points="17.5 19.5 17.5 22.5 19.5 23.5 21.5 22.5 21.5 21.5 21.5 19.5 17.5 19.5" fill="#cce7ff"/>
    <polygon points="5.5 22.5 3.5 23.5 1.5 22.5 1.5 16 3.5 15 5.5 16 5.5 22.5" fill="none" stroke="#1078ff" stroke-linecap="round" stroke-linejoin="round"/>
    <polygon points="21.5 22.5 19.5 23.5 17.5 22.5 17.5 16 19.5 15 21.5 16 21.5 22.5" fill="none" stroke="#1078ff" stroke-linecap="round" stroke-linejoin="round"/>
    <polyline points="18 3.5 11.5 0.5 5 3.5" fill="none" stroke="#1078ff" stroke-linecap="round" stroke-linejoin="round"/>
    <line x1="13" y1="19.5" x2="12.5" y2="3" fill="none" stroke="#1078ff" stroke-linecap="round" stroke-linejoin="round"/>
    <line x1="10.5" y1="3" x2="10" y2="19.5" fill="none" stroke="#1078ff" stroke-linecap="round" stroke-linejoin="round"/>
    <line x1="5.5" y1="21.5" x2="17.5" y2="21.5" fill="none" stroke="#1078ff" stroke-linecap="round" stroke-linejoin="round"/>
    <polyline points="10.061 17.5 7.5 17.5 5.5 19.5" fill="none" stroke="#1078ff" stroke-linecap="round" stroke-linejoin="round"/>
    <polyline points="12.958 17.5 15 17.5 17.5 19.5" fill="none" stroke="#1078ff" stroke-linecap="round" stroke-linejoin="round"/>
    <line x1="5.501" y1="19.5" x2="17.5" y2="19.5" fill="none" stroke="#1078ff" stroke-linecap="round" stroke-linejoin="round"/>
  </g>
  <g id="Frames-24px">
    <rect width="24" height="24" fill="none"/>
  </g>
</svg>
