<svg xmlns="http://www.w3.org/2000/svg" width="24" height="24" viewBox="0 0 24 24">
  <title>taxi-2</title>
  <g id="Duotone">
    <polygon points="4.5 14 2.5 15 0.5 14 0.5 11.5 2.5 10.5 4.5 11.5 4.5 14" fill="#fff"/>
    <polygon points="22.5 14 20.5 15 18.5 14 18.5 11.5 20.5 10.5 22.5 11.5 22.5 14" fill="#fff"/>
    <polygon points="20.5 15 19.5 11 17.5 5.5 14 5.5 13 2.5 10 2.5 9 5.5 5.5 5.5 3.5 11 2.5 15 1 18.5 22 18.5 20.5 15" fill="#fff"/>
    <polyline points="21.5 20.5 21.5 22.501 19.5 23.5 17.5 22.501 17.5 20.5" fill="#cce7ff"/>
    <polyline points="5.5 20.5 5.5 22.501 3.5 23.5 1.5 22.501 1.5 20.5" fill="#cce7ff"/>
    <rect x="0.5" y="18.5" width="22" height="2" fill="#cce7ff"/>
    <polygon points="17 18.5 6 18.5 7 14.5 16 14.5 17 18.5" fill="#cce7ff"/>
    <polygon points="22.5 14 20.5 15 18.5 14 22.5 11.5 22.5 14" fill="#cce7ff"/>
    <polygon points="4.5 14 2.5 15 0.5 14 4.5 11.5 4.5 14" fill="#cce7ff"/>
    <polygon points="3.5 11 11.5 9.5 19.5 11 17.5 5.5 3.5 11" fill="#cce7ff"/>
    <polygon points="9.5 4 9 5.5 14 5.5 13.5 4 9.5 4" fill="#cce7ff"/>
    <polyline points="21.5 20.5 21.5 22.501 19.5 23.5 17.5 22.501 17.5 20.5" fill="none" stroke="#1078ff" stroke-linecap="round" stroke-linejoin="round"/>
    <polyline points="5.5 20.5 5.5 22.501 3.5 23.5 1.5 22.501 1.5 20.5" fill="none" stroke="#1078ff" stroke-linecap="round" stroke-linejoin="round"/>
    <rect x="0.5" y="18.5" width="22" height="2" fill="none" stroke="#1078ff" stroke-linecap="round" stroke-linejoin="round"/>
    <line x1="1" y1="18.5" x2="2.5" y2="15" fill="none" stroke="#1078ff" stroke-linecap="round" stroke-linejoin="round"/>
    <polygon points="3.5 11 11.5 9.5 19.5 11 17.5 5.5 11 5.5 5.5 5.5 3.5 11" fill="none" stroke="#1078ff" stroke-linecap="round" stroke-linejoin="round"/>
    <polygon points="14 5.5 9 5.5 10 2.5 13 2.5 14 5.5" fill="none" stroke="#1078ff" stroke-linecap="round" stroke-linejoin="round"/>
    <line x1="10.5" y1="12.5" x2="12.5" y2="12.5" fill="none" stroke="#1078ff" stroke-linecap="round" stroke-linejoin="round"/>
    <line x1="22" y1="18.5" x2="20.5" y2="15" fill="none" stroke="#1078ff" stroke-linecap="round" stroke-linejoin="round"/>
    <polygon points="17 18.5 6 18.5 7 14.5 16 14.5 17 18.5" fill="none" stroke="#1078ff" stroke-linecap="round" stroke-linejoin="round"/>
    <line x1="10.5" y1="14.5" x2="10.5" y2="18.5" fill="none" stroke="#1078ff" stroke-linecap="round" stroke-linejoin="round"/>
    <line x1="8.5" y1="14.5" x2="8.5" y2="18.5" fill="none" stroke="#1078ff" stroke-linecap="round" stroke-linejoin="round"/>
    <line x1="14.5" y1="14.5" x2="14.5" y2="18.5" fill="none" stroke="#1078ff" stroke-linecap="round" stroke-linejoin="round"/>
    <line x1="12.5" y1="14.5" x2="12.5" y2="18.5" fill="none" stroke="#1078ff" stroke-linecap="round" stroke-linejoin="round"/>
    <polygon points="4.5 14 2.5 15 0.5 14 0.5 11.5 2.5 10.5 4.5 11.5 4.5 14" fill="none" stroke="#1078ff" stroke-linecap="round" stroke-linejoin="round"/>
    <polygon points="22.5 14 20.5 15 18.5 14 18.5 11.5 20.5 10.5 22.5 11.5 22.5 14" fill="none" stroke="#1078ff" stroke-linecap="round" stroke-linejoin="round"/>
  </g>
  <g id="Frames-24px">
    <rect width="24" height="24" fill="none"/>
  </g>
</svg>
