<svg xmlns="http://www.w3.org/2000/svg" width="24" height="24" viewBox="0 0 24 24">
  <title>train-4</title>
  <g id="Duotone">
    <polygon points="11.536 9.323 11 4.5 8 4.5 7.464 9.323 4.5 11.25 4.5 16.25 7.808 18.5 11.192 18.5 14.5 16.25 14.5 11.25 11.536 9.323" fill="#fff"/>
    <polygon points="6.5 2.5 8 4.5 11 4.5 12.5 2.5 6.5 2.5" fill="#cce7ff"/>
    <polygon points="11.5 15 9.5 16 7.5 15 11.5 13 11.5 15" fill="#cce7ff"/>
    <polygon points="4 18.5 1.5 20.5 9.5 23.5 17.5 20.5 15 18.5 4 18.5" fill="#cce7ff"/>
    <polygon points="4.5 16.25 4.5 15 8.5 16.5 10.5 16.5 14.5 15 14.5 16.25 11.192 18.5 7.808 18.5 4.5 16.25" fill="#cce7ff"/>
    <polyline points="7.464 9.323 8 4.5 11 4.5 11.536 9.323" fill="none" stroke="#1078ff" stroke-linecap="round" stroke-linejoin="round"/>
    <polygon points="6.5 2.5 8 4.5 11 4.5 12.5 2.5 6.5 2.5" fill="none" stroke="#1078ff" stroke-linecap="round" stroke-linejoin="round"/>
    <polygon points="4 18.5 1.5 20.5 9.5 23.5 17.5 20.5 15 18.5 4 18.5" fill="none" stroke="#1078ff" stroke-linecap="round" stroke-linejoin="round"/>
    <line x1="9.5" y1="20" x2="9.5" y2="21.5" fill="none" stroke="#1078ff" stroke-linecap="round" stroke-linejoin="round"/>
    <line x1="11.5" y1="20" x2="11.5" y2="21" fill="none" stroke="#1078ff" stroke-linecap="round" stroke-linejoin="round"/>
    <line x1="13.5" y1="20" x2="13.5" y2="20.5" fill="none" stroke="#1078ff" stroke-linecap="round" stroke-linejoin="round"/>
    <line x1="7.5" y1="20" x2="7.5" y2="21" fill="none" stroke="#1078ff" stroke-linecap="round" stroke-linejoin="round"/>
    <line x1="5.5" y1="20" x2="5.5" y2="20.5" fill="none" stroke="#1078ff" stroke-linecap="round" stroke-linejoin="round"/>
    <polygon points="11.5 15 9.5 16 7.5 15 7.5 13 9.5 12 11.5 13 11.5 15" fill="none" stroke="#1078ff" stroke-linecap="round" stroke-linejoin="round"/>
    <polygon points="11.192 18.5 14.5 16.25 14.5 11.25 9.5 8 4.5 11.25 4.5 16.25 7.808 18.5 11.192 18.5" fill="none" stroke="#1078ff" stroke-linecap="round" stroke-linejoin="round"/>
    <polyline points="14 1.5 15 0.5 17 2.5 19 0.5 21 2.5 22.5 0.5" fill="none" stroke="#1078ff" stroke-linecap="round" stroke-linejoin="round"/>
  </g>
  <g id="Frames-24px">
    <rect width="24" height="24" fill="none"/>
  </g>
</svg>
