<svg xmlns="http://www.w3.org/2000/svg" width="24" height="24" viewBox="0 0 24 24">
  <title>video-meeting</title>
  <g id="Icons-DuoTone">
    <polygon points="15.5 11.113 15.5 5.5 0.5 5.5 0.5 19.5 15.5 19.5 15.5 14.887 22.5 17.954 22.5 8.046 15.5 11.113" fill="#fff"/>
    <polygon points="0.5 13 0.5 19.5 15.5 19.5 15.5 14.887 22.5 17.954 22.5 13 0.5 13" fill="#cce7ff"/>
    <polygon points="15.5 11.113 15.5 5.5 0.5 5.5 0.5 19.5 15.5 19.5 15.5 14.887 22.5 17.954 22.5 8.046 15.5 11.113" fill="none" stroke="#1078ff" stroke-linecap="round" stroke-linejoin="round"/>
  </g>
  <g id="Frames-24px">
    <rect width="24" height="24" fill="none"/>
  </g>
</svg>
