<svg xmlns="http://www.w3.org/2000/svg" width="24" height="24" viewBox="0 0 24 24">
  <title>video-meeting-computer</title>
  <g id="Icons-DuoTone">
    <polygon points="20.5 3.5 20.5 1.5 13.5 1.5 13.5 4.5 0.5 4.5 0.5 20.5 20.5 20.5 20.5 7.5 20.5 5.5 23.5 6.5 23.5 2.5 20.5 3.5" fill="#fff"/>
    <polyline points="12.5 20.5 12.5 21.5 15 23.5 6 23.5 8.5 21.5 8.5 20.5" fill="#fff"/>
    <polygon points="13.5 4.5 13.5 7.5 20.5 7.5 20.5 5.5 23.5 6.5 23.5 4.5 13.5 4.5" fill="#cce7ff"/>
    <polygon points="15.885 7.5 11.5 10.35 11.5 12 8.5 13.5 7.457 12.978 0.5 17.5 3.5 17.5 3.5 16 8.5 14.5 13.5 16 13.5 17.5 20.5 17.5 20.5 7.5 15.885 7.5" fill="#cce7ff"/>
    <polygon points="11.5 12 8.5 13.5 5.5 12 5.5 8 8.5 6.5 11.5 8 11.5 12" fill="none" stroke="#1078ff" stroke-linecap="round" stroke-linejoin="round"/>
    <polyline points="13.5 17.5 13.5 16 8.5 14.5 3.5 16 3.5 17.5" fill="none" stroke="#1078ff" stroke-linecap="round" stroke-linejoin="round"/>
    <polyline points="20.5 10.5 20.5 20.5 0.5 20.5 0.5 4.5 10.5 4.5" fill="none" stroke="#1078ff" stroke-linecap="round" stroke-linejoin="round"/>
    <line x1="0.5" y1="17.5" x2="20.5" y2="17.5" fill="none" stroke="#1078ff" stroke-linecap="round" stroke-linejoin="round"/>
    <polyline points="12.5 20.5 12.5 21.5 15 23.5 6 23.5 8.5 21.5 8.5 20.5" fill="none" stroke="#1078ff" stroke-linecap="round" stroke-linejoin="round"/>
    <polygon points="23.5 2.5 20.5 3.5 20.5 1.5 13.5 1.5 13.5 7.5 20.5 7.5 20.5 5.5 23.5 6.5 23.5 2.5" fill="none" stroke="#1078ff" stroke-linecap="round" stroke-linejoin="round"/>
    <polygon points="11.5 9.5 8 9.5 5.5 8 8.5 6.5 11.5 8 11.5 9.5" fill="#cce7ff"/>
    <polygon points="11.5 9.5 8 9.5 5.5 8 8.5 6.5 11.5 8 11.5 9.5" fill="none" stroke="#1078ff" stroke-linecap="round" stroke-linejoin="round"/>
  </g>
  <g id="Frames-24px">
    <rect width="24" height="24" fill="none"/>
  </g>
</svg>
