<svg xmlns="http://www.w3.org/2000/svg" width="24" height="24" viewBox="0 0 24 24">
  <title>video-meeting-hexagon</title>
  <g id="Icons-DuoTone">
    <polygon points="21.5 18 11.5 23.5 1.5 18 1.5 7 11.5 1.5 21.5 7 21.5 18" fill="#fff"/>
    <polygon points="19.385 16.663 11.5 21 3.615 16.663 1.5 18 11.5 23.5 21.5 18 19.385 16.663" fill="#cce7ff"/>
    <polygon points="6.5 12 6.5 15.501 13.5 15.501 13.5 13.001 16.5 14.501 16.5 12 6.5 12" fill="#cce7ff"/>
    <polygon points="16.5 9.501 13.5 11.001 13.5 8.501 6.5 8.501 6.5 15.501 13.5 15.501 13.5 13.001 16.5 14.501 16.5 9.501" fill="none" stroke="#1078ff" stroke-linecap="round" stroke-linejoin="round"/>
    <polygon points="21.5 18 11.5 23.5 1.5 18 1.5 7 11.5 1.5 21.5 7 21.5 18" fill="none" stroke="#1078ff" stroke-linecap="round" stroke-linejoin="round"/>
  </g>
  <g id="Frames-24px">
    <rect width="24" height="24" fill="none"/>
  </g>
</svg>
