<svg xmlns="http://www.w3.org/2000/svg" width="24" height="24" viewBox="0 0 24 24">
  <title>video-meeting-group</title>
  <g id="Icons-DuoTone">
    <rect x="1.5" y="0.5" width="20" height="13" fill="#fff"/>
    <polygon points="5.5 19.5 3.5 20.5 1.5 19.5 1.5 17 3.5 16 5.5 17 5.5 19.5" fill="#fff"/>
    <polygon points="6.5 23.5 5.5 21.5 1.5 21.5 0.5 23.5 6.5 23.5" fill="#fff"/>
    <polygon points="13.5 19.5 11.5 20.5 9.5 19.5 9.5 17 11.5 16 13.5 17 13.5 19.5" fill="#fff"/>
    <polygon points="14.5 23.5 13.5 21.5 9.5 21.5 8.5 23.5 14.5 23.5" fill="#fff"/>
    <polygon points="21.5 19.5 19.5 20.5 17.5 19.5 17.5 17 19.5 16 21.5 17 21.5 19.5" fill="#fff"/>
    <polygon points="22.5 23.5 21.5 21.5 17.5 21.5 16.5 23.5 22.5 23.5" fill="#fff"/>
    <polygon points="3.5 23.5 6.5 23.5 5.5 21.5 3.5 21.5 3.5 23.5" fill="#cce7ff"/>
    <polygon points="3.5 16 5.5 17 5.5 19.5 3.5 20.5 3.5 16" fill="#cce7ff"/>
    <polygon points="11.5 23.5 14.5 23.5 13.5 21.5 11.5 21.5 11.5 23.5" fill="#cce7ff"/>
    <polygon points="11.5 16 13.5 17 13.5 19.5 11.5 20.5 11.5 16" fill="#cce7ff"/>
    <polygon points="19.5 23.5 22.5 23.5 21.5 21.5 19.5 21.5 19.5 23.5" fill="#cce7ff"/>
    <polygon points="19.5 16 21.5 17 21.5 19.5 19.5 20.5 19.5 16" fill="#cce7ff"/>
    <polygon points="14.5 5.05 14.5 8 11.5 9.5 9.326 8.413 1.5 13.5 6.5 13.5 6.5 12 11.5 10.5 16.5 12 16.5 13.5 21.5 13.5 21.5 0.5 14.5 5.05" fill="#cce7ff"/>
    <polygon points="5.5 19.5 3.5 20.5 1.5 19.5 1.5 17 3.5 16 5.5 17 5.5 19.5" fill="none" stroke="#1078ff" stroke-linecap="round" stroke-linejoin="round"/>
    <polygon points="6.5 23.5 5.5 21.5 1.5 21.5 0.5 23.5 6.5 23.5" fill="none" stroke="#1078ff" stroke-linecap="round" stroke-linejoin="round"/>
    <polygon points="14.5 8 11.5 9.5 8.5 8 8.5 4 11.5 2.5 14.5 4 14.5 8" fill="none" stroke="#1078ff" stroke-linecap="round" stroke-linejoin="round"/>
    <polyline points="16.5 13.5 16.5 12 11.5 10.5 6.5 12 6.5 13.5" fill="none" stroke="#1078ff" stroke-linecap="round" stroke-linejoin="round"/>
    <polygon points="14.5 5.5 11 5.5 8.5 4 11.5 2.5 14.5 4 14.5 5.5" fill="#cce7ff"/>
    <polygon points="14.5 5.5 11 5.5 8.5 4 11.5 2.5 14.5 4 14.5 5.5" fill="none" stroke="#1078ff" stroke-linecap="round" stroke-linejoin="round"/>
    <polygon points="13.5 19.5 11.5 20.5 9.5 19.5 9.5 17 11.5 16 13.5 17 13.5 19.5" fill="none" stroke="#1078ff" stroke-linecap="round" stroke-linejoin="round"/>
    <polygon points="14.5 23.5 13.5 21.5 9.5 21.5 8.5 23.5 14.5 23.5" fill="none" stroke="#1078ff" stroke-linecap="round" stroke-linejoin="round"/>
    <polygon points="21.5 19.5 19.5 20.5 17.5 19.5 17.5 17 19.5 16 21.5 17 21.5 19.5" fill="none" stroke="#1078ff" stroke-linecap="round" stroke-linejoin="round"/>
    <polygon points="22.5 23.5 21.5 21.5 17.5 21.5 16.5 23.5 22.5 23.5" fill="none" stroke="#1078ff" stroke-linecap="round" stroke-linejoin="round"/>
    <rect x="1.5" y="0.5" width="20" height="13" fill="none" stroke="#1078ff" stroke-linecap="round" stroke-linejoin="round"/>
  </g>
  <g id="Frames-24px">
    <rect width="24" height="24" fill="none"/>
  </g>
</svg>
