<?xml version="1.0" encoding="utf-8"?>
<!-- Generator: Adobe Illustrator 21.0.2, SVG Export Plug-In . SVG Version: 6.00 Build 0)  -->
<svg version="1.1" xmlns="http://www.w3.org/2000/svg" xmlns:xlink="http://www.w3.org/1999/xlink" x="0px" y="0px" width="24px"
	 height="24px" viewBox="0 0 24 24" enable-background="new 0 0 24 24" xml:space="preserve">
<g id="Black">
	<g>
		<g>
			
				<rect x="0.5" y="1.5" fill="none" stroke="#58595B" stroke-linecap="round" stroke-linejoin="round" stroke-miterlimit="10" width="22" height="17"/>
			
				<line fill="none" stroke="#58595B" stroke-linecap="round" stroke-linejoin="round" stroke-miterlimit="10" x1="0.5" y1="15.5" x2="22.5" y2="15.5"/>
			<polygon fill="none" stroke="#58595B" stroke-linecap="round" stroke-linejoin="round" stroke-miterlimit="10" points="
				17.5,22.5 17.5,23.5 5.5,23.5 5.5,22.5 9.5,21 9.5,18.5 13.5,18.5 13.5,21 			"/>
		</g>
		<g>
			<g>
				<polyline fill="none" stroke="#58595B" stroke-linecap="round" stroke-linejoin="round" stroke-miterlimit="10" points="
					18.001,8.501 14.193,4.501 8.808,4.501 5.001,8.501 				"/>
				<polyline fill="none" stroke="#58595B" stroke-linecap="round" stroke-linejoin="round" stroke-miterlimit="10" points="
					16.104,9.23 13.364,6.501 9.637,6.501 6.898,9.23 				"/>
				<polyline fill="none" stroke="#58595B" stroke-linecap="round" stroke-linejoin="round" stroke-miterlimit="10" points="
					14.047,10.047 12.501,8.501 10.501,8.501 8.954,10.047 				"/>
				<g>
					<path fill="#58595B" d="M12.066,10.766h0.005H12.066 M11.5,10.001c-0.051,0-0.102,0.019-0.141,0.059l-0.799,0.799
						c-0.078,0.078-0.078,0.205,0,0.283l0.799,0.799c0.039,0.039,0.09,0.059,0.141,0.059s0.102-0.019,0.141-0.059l0.799-0.799
						c0.078-0.078,0.078-0.205,0-0.283l-0.799-0.799C11.602,10.02,11.551,10.001,11.5,10.001L11.5,10.001z"/>
				</g>
			</g>
		</g>
	</g>
</g>
<g id="Frames-24px">
	<rect fill="none" width="24" height="24"/>
</g>
</svg>
