<?xml version="1.0" encoding="utf-8"?>
<!-- Generator: Adobe Illustrator 21.0.2, SVG Export Plug-In . SVG Version: 6.00 Build 0)  -->
<svg version="1.1" xmlns="http://www.w3.org/2000/svg" xmlns:xlink="http://www.w3.org/1999/xlink" x="0px" y="0px" width="24px"
	 height="24px" viewBox="0 0 24 24" enable-background="new 0 0 24 24" xml:space="preserve">
<g id="Black">
	<g>
		<g>
			<polyline fill="none" stroke="#58595B" stroke-linecap="round" stroke-linejoin="round" stroke-miterlimit="10" points="
				18.5,13.5 18.5,18.5 0.5,18.5 0.5,4.5 10.5,4.5 			"/>
			<polygon fill="none" stroke="#58595B" stroke-linecap="round" stroke-linejoin="round" stroke-miterlimit="10" points="
				15.5,22.5 15.5,23.5 3.5,23.5 3.5,22.5 7.5,21 7.5,18.5 11.5,18.5 11.5,21 			"/>
			
				<line fill="none" stroke="#58595B" stroke-linecap="round" stroke-linejoin="round" stroke-miterlimit="10" x1="0.5" y1="15.5" x2="18.5" y2="15.5"/>
		</g>
		<g>
			<polygon fill="none" stroke="#58595B" stroke-linecap="round" stroke-linejoin="round" stroke-miterlimit="10" points="
				15.5,5.382 17.5,4.25 19.5,5.382 19.5,7.618 17.5,8.75 15.5,7.618 			"/>
			<polygon fill="none" stroke="#58595B" stroke-linecap="round" stroke-linejoin="round" stroke-miterlimit="10" points="
				21.5,5.513 22.5,4.417 21.738,3.125 20.26,3.478 18.582,2.579 18.25,1.5 16.75,1.5 16.418,2.579 14.74,3.478 13.262,3.125 
				12.5,4.417 13.5,5.513 13.5,7.487 12.5,8.583 13.262,9.875 14.74,9.522 16.418,10.421 16.75,11.5 18.25,11.5 18.582,10.421 
				20.26,9.522 21.738,9.875 22.5,8.583 21.5,7.487 			"/>
		</g>
	</g>
</g>
<g id="Frames-24px">
	<rect fill="none" width="24" height="24"/>
</g>
</svg>
