<?xml version="1.0" encoding="utf-8"?>
<!-- Generator: Adobe Illustrator 21.0.2, SVG Export Plug-In . SVG Version: 6.00 Build 0)  -->
<svg version="1.1" xmlns="http://www.w3.org/2000/svg" xmlns:xlink="http://www.w3.org/1999/xlink" x="0px" y="0px" width="24px"
	 height="24px" viewBox="0 0 24 24" enable-background="new 0 0 24 24" xml:space="preserve">
<g id="Black">
	<g>
		<polyline fill="none" stroke="#58595B" stroke-linecap="round" stroke-linejoin="round" stroke-miterlimit="10" points="9,10.515 
			11.5,8.515 14,10.515 		"/>
		
			<line fill="none" stroke="#58595B" stroke-linecap="round" stroke-linejoin="round" stroke-miterlimit="10" x1="11.5" y1="8.515" x2="11.5" y2="7.015"/>
		<polyline fill="none" stroke="#58595B" stroke-linecap="round" stroke-linejoin="round" stroke-miterlimit="10" points="
			11.5,7.015 9.5,5.015 9.5,1.515 13.5,1.515 13.5,5.015 11.5,7.015 		"/>
		
			<line fill="none" stroke="#58595B" stroke-linecap="round" stroke-linejoin="round" stroke-miterlimit="10" x1="9.5" y1="3.515" x2="13.5" y2="3.515"/>
		
			<line fill="none" stroke="#58595B" stroke-linecap="round" stroke-linejoin="round" stroke-miterlimit="10" x1="7.5" y1="10.515" x2="7.5" y2="23.529"/>
		
			<line fill="none" stroke="#58595B" stroke-linecap="round" stroke-linejoin="round" stroke-miterlimit="10" x1="11.5" y1="19.529" x2="11.5" y2="23.529"/>
		
			<line fill="none" stroke="#58595B" stroke-linecap="round" stroke-linejoin="round" stroke-miterlimit="10" x1="11.5" y1="10.515" x2="11.5" y2="14.515"/>
		
			<line fill="none" stroke="#58595B" stroke-linecap="round" stroke-linejoin="round" stroke-miterlimit="10" x1="4.5" y1="11.915" x2="4.5" y2="22.129"/>
		<polygon fill="none" stroke="#58595B" stroke-linecap="round" stroke-linejoin="round" stroke-miterlimit="10" points="19,12.265 
			16.5,10.515 11.5,10.515 6.5,10.515 4,12.265 1.5,14.015 1.5,20.029 6.5,23.529 11.5,23.544 16.5,23.529 21.5,20.029 21.5,14.015 
					"/>
		
			<line fill="none" stroke="#58595B" stroke-linecap="round" stroke-linejoin="round" stroke-miterlimit="10" x1="15.5" y1="10.515" x2="15.5" y2="23.529"/>
		
			<line fill="none" stroke="#58595B" stroke-linecap="round" stroke-linejoin="round" stroke-miterlimit="10" x1="18.5" y1="11.915" x2="18.5" y2="22.129"/>
		<g>
			<path fill="#58595B" d="M12.01,16.818h0.005H12.01 M11.5,16.029c-0.072,0-0.143,0.027-0.197,0.081l-0.721,0.721
				c-0.108,0.108-0.108,0.286,0,0.395l0.721,0.721c0.054,0.054,0.126,0.081,0.197,0.081c0.071,0,0.143-0.027,0.197-0.081
				l0.721-0.721c0.109-0.108,0.109-0.286,0-0.395l-0.721-0.721C11.643,16.056,11.571,16.029,11.5,16.029L11.5,16.029z"/>
		</g>
	</g>
</g>
<g id="Frames-24px">
	<rect fill="none" width="24" height="24"/>
</g>
</svg>
