<?xml version="1.0" encoding="utf-8"?>
<!-- Generator: Adobe Illustrator 21.0.2, SVG Export Plug-In . SVG Version: 6.00 Build 0)  -->
<svg version="1.1" xmlns="http://www.w3.org/2000/svg" xmlns:xlink="http://www.w3.org/1999/xlink" x="0px" y="0px" width="24px"
	 height="24px" viewBox="0 0 24 24" enable-background="new 0 0 24 24" xml:space="preserve">
<g id="Black">
	<g>
		<polygon fill="none" stroke="#58595B" stroke-linecap="round" stroke-linejoin="round" stroke-miterlimit="10" points="15.5,22.5 
			13,20.5 9,20.5 6.5,22.5 6.5,23.5 15.5,23.5 		"/>
		<polyline fill="none" stroke="#58595B" stroke-linecap="round" stroke-linejoin="round" stroke-miterlimit="10" points="
			15.841,8.426 13,20.5 9,20.5 5,3.5 		"/>
		<polygon fill="none" stroke="#58595B" stroke-linecap="round" stroke-linejoin="round" stroke-miterlimit="10" points="16.5,0.5 
			6,0.5 5,3.5 10,3.5 11.5,5 13,3.5 14.5,3.5 15.5,8 17.5,10.5 18.5,8.5 18.5,3.5 		"/>
		<polygon fill="none" stroke="#58595B" stroke-linecap="round" stroke-linejoin="round" stroke-miterlimit="10" points="17.5,17 
			16,15.5 17.5,12.5 19,15.5 		"/>
		<g>
			<path fill="#58595B" d="M10.01,8.288h0.005H10.01 M9.5,7.5c-0.072,0-0.143,0.027-0.197,0.081L8.581,8.303
				c-0.108,0.108-0.108,0.286,0,0.395l0.721,0.721C9.357,9.473,9.428,9.5,9.5,9.5c0.071,0,0.143-0.027,0.197-0.081l0.721-0.721
				c0.108-0.108,0.108-0.286,0-0.395L9.697,7.581C9.643,7.527,9.571,7.5,9.5,7.5L9.5,7.5z"/>
		</g>
		<g>
			<path fill="#58595B" d="M13.01,10.288h0.005H13.01 M12.5,9.5c-0.072,0-0.143,0.027-0.197,0.081l-0.721,0.721
				c-0.109,0.108-0.109,0.286,0,0.395l0.721,0.721c0.054,0.054,0.126,0.081,0.197,0.081c0.071,0,0.143-0.027,0.197-0.081
				l0.721-0.721c0.108-0.108,0.108-0.286,0-0.395l-0.721-0.721C12.643,9.527,12.571,9.5,12.5,9.5L12.5,9.5z"/>
		</g>
		<g>
			<path fill="#58595B" d="M10.51,12.788h0.005H10.51 M10,12c-0.072,0-0.143,0.027-0.197,0.081l-0.721,0.721
				c-0.108,0.108-0.108,0.286,0,0.395l0.721,0.721C9.857,13.973,9.928,14,10,14c0.071,0,0.143-0.027,0.197-0.081l0.721-0.721
				c0.108-0.108,0.108-0.286,0-0.395l-0.721-0.721C10.143,12.027,10.071,12,10,12L10,12z"/>
		</g>
	</g>
</g>
<g id="Frames-24px">
	<rect fill="none" width="24" height="24"/>
</g>
</svg>
