<?xml version="1.0" encoding="utf-8"?>
<!-- Generator: Adobe Illustrator 21.0.2, SVG Export Plug-In . SVG Version: 6.00 Build 0)  -->
<svg version="1.1" xmlns="http://www.w3.org/2000/svg" xmlns:xlink="http://www.w3.org/1999/xlink" x="0px" y="0px"
	 viewBox="0 0 24 24" style="enable-background:new 0 0 24 24;" xml:space="preserve">
<style type="text/css">
	.st0{fill:#FFFFFF;}
	.st1{fill:#CCE7FF;}
	.st2{fill:none;stroke:#1078FF;stroke-linecap:round;stroke-linejoin:round;stroke-miterlimit:10;}
	.st3{fill:none;stroke:#1078FF;stroke-linejoin:round;stroke-miterlimit:10;}
	.st4{fill:none;stroke:#1078FF;stroke-linecap:round;stroke-miterlimit:10;}
	.st5{fill:none;}
</style>
<g id="Duotone">
	<polyline class="st0" points="10.5,21 14.5,23.5 6.5,23.5 10.5,21 	"/>
	<polygon class="st0" points="10.5,16.5 16.5,12.5 16.5,7.5 10.5,3.5 4.5,7.5 4.5,12.5 	"/>
	<polygon class="st1" points="16.5,12.5 16.5,7.5 10.5,3.5 10.5,16.5 	"/>
	<polygon class="st2" points="10.5,16.5 16.5,12.5 16.5,7.5 10.5,3.5 4.5,7.5 4.5,12.5 	"/>
	<polyline class="st2" points="7.5,18.5 13.5,18.5 19.5,14.5 19.5,5.5 13.5,1.5 7.5,1.5 	"/>
	<line class="st2" x1="4.5" y1="8.5" x2="16.5" y2="8.5"/>
	<line class="st2" x1="4.5" y1="11.5" x2="16.5" y2="11.5"/>
	<line class="st2" x1="12.5" y1="4.8" x2="12.5" y2="15.2"/>
	<line class="st2" x1="8.5" y1="4.8" x2="8.5" y2="15.2"/>
	<line class="st2" x1="10.5" y1="16.5" x2="10.5" y2="21"/>
	<polyline class="st2" points="10.5,21 14.5,23.5 6.5,23.5 10.5,21 	"/>
	<line class="st2" x1="10.5" y1="3.5" x2="10.5" y2="0.5"/>
</g>
<g id="Frames-24px">
	<rect class="st5" width="24" height="24"/>
</g>
</svg>
