<?xml version="1.0" encoding="utf-8"?>
<!-- Generator: Adobe Illustrator 21.0.2, SVG Export Plug-In . SVG Version: 6.00 Build 0)  -->
<svg version="1.1" xmlns="http://www.w3.org/2000/svg" xmlns:xlink="http://www.w3.org/1999/xlink" x="0px" y="0px"
	 viewBox="0 0 24 24" style="enable-background:new 0 0 24 24;" xml:space="preserve">
<style type="text/css">
	.st0{fill:#FFFFFF;}
	.st1{fill:#CCE7FF;}
	.st2{fill:none;stroke:#1078FF;stroke-linecap:round;stroke-linejoin:round;stroke-miterlimit:10;}
	.st3{fill:none;stroke:#1078FF;stroke-linejoin:round;stroke-miterlimit:10;}
	.st4{fill:none;stroke:#1078FF;stroke-linecap:round;stroke-miterlimit:10;}
	.st5{fill:none;}
</style>
<g id="Duotone">
	<polygon class="st0" points="12,19 16.5,12 16.5,8.5 12,5 7.5,8.5 7.5,12 	"/>
	<polygon class="st1" points="12,5 12,8.5 13.5,9.5 13.5,10.5 12,11.5 12,19 16.5,12 16.5,8.5 	"/>
	<polygon class="st2" points="12,19 16.5,12 16.5,8.5 12,5 7.5,8.5 7.5,12 	"/>
	<polygon class="st2" points="13.5,10.5 12,11.5 10.5,10.5 10.5,9.5 12,8.5 13.5,9.5 	"/>
	<polyline class="st2" points="20.5,6 12,1.5 3.5,6 3.5,12.5 	"/>
	<polyline class="st2" points="1,10 3.5,12.5 6,10 	"/>
	<polyline class="st2" points="3.5,18 12,22.5 20.5,18 20.5,11.5 	"/>
	<polyline class="st2" points="23,14 20.5,11.5 18,14 	"/>
</g>
<g id="Frames-24px">
	<rect class="st5" width="24" height="24"/>
</g>
</svg>
