<?xml version="1.0" encoding="utf-8"?>
<!-- Generator: Adobe Illustrator 21.0.2, SVG Export Plug-In . SVG Version: 6.00 Build 0)  -->
<svg version="1.1" xmlns="http://www.w3.org/2000/svg" xmlns:xlink="http://www.w3.org/1999/xlink" x="0px" y="0px"
	 viewBox="0 0 24 24" style="enable-background:new 0 0 24 24;" xml:space="preserve">
<style type="text/css">
	.st0{fill:#FFFFFF;}
	.st1{fill:#CCE7FF;}
	.st2{fill:none;stroke:#1078FF;stroke-linecap:round;stroke-linejoin:round;stroke-miterlimit:10;}
	.st3{fill:none;stroke:#1078FF;stroke-linejoin:round;stroke-miterlimit:10;}
	.st4{fill:none;stroke:#1078FF;stroke-linecap:round;stroke-miterlimit:10;}
	.st5{fill:none;}
</style>
<g id="Duotone">
	<polygon class="st0" points="21.5,5.4 14.5,0.5 7.5,5.4 0.5,0.5 0.5,16.1 7.5,21 11.5,18.3 11.5,21.5 15.5,23.5 19.5,21.5 19.5,19 
		21.5,20.5 	"/>
	<polygon class="st1" points="19.5,16.5 19.5,21.5 15.5,23.5 11.5,21.5 	"/>
	<polygon class="st1" points="11.5,16.5 14.5,15 14.5,0.5 7.5,5.4 7.5,21 11.5,18.3 	"/>
	<polyline class="st2" points="9.5,19.6 7.5,21 0.5,16.1 0.5,0.5 7.5,5.4 14.5,0.5 21.5,5.4 21.5,14.5 	"/>
	<line class="st2" x1="7.5" y1="5.4" x2="7.5" y2="21"/>
	<line class="st2" x1="14.5" y1="11.5" x2="14.5" y2="0.5"/>
	<line class="st4" x1="23.5" y1="23.5" x2="19.5" y2="21.3"/>
	<polygon class="st2" points="11.5,16.5 15.5,14.5 19.5,16.5 19.5,21.5 15.5,23.5 11.5,21.5 	"/>
</g>
<g id="Frames-24px">
	<rect class="st5" width="24" height="24"/>
</g>
</svg>
