<?xml version="1.0" encoding="utf-8"?>
<!-- Generator: Adobe Illustrator 21.0.2, SVG Export Plug-In . SVG Version: 6.00 Build 0)  -->
<svg version="1.1" xmlns="http://www.w3.org/2000/svg" xmlns:xlink="http://www.w3.org/1999/xlink" x="0px" y="0px"
	 viewBox="0 0 24 24" style="enable-background:new 0 0 24 24;" xml:space="preserve">
<style type="text/css">
	.st0{fill:#FFFFFF;}
	.st1{fill:#CCE7FF;}
	.st2{fill:none;stroke:#1078FF;stroke-linecap:round;stroke-linejoin:round;stroke-miterlimit:10;}
	.st3{fill:#1078FF;}
	.st4{fill:none;}
</style>
<g id="Duotone_1_">
	<polygon class="st0" points="13.5,8 13.5,2.5 14.5,2.5 14.5,0.5 8.5,0.5 8.5,2.5 9.5,2.5 9.5,8 5.5,11.5 5.5,23.5 17.5,23.5 
		17.5,11.5 	"/>
	<polygon class="st1" points="13.5,8 13.5,2.5 11.5,2.5 11.5,15 13.5,13.5 15.5,16 11.5,20 11.5,23.5 17.5,23.5 17.5,11.5 	"/>
	<g>
		<rect x="8.5" y="0.5" class="st2" width="6" height="2"/>
		<polyline class="st2" points="9.5,2.5 9.5,8 5.5,11.5 5.5,23.5 17.5,23.5 17.5,11.5 13.5,8 13.5,2.5 		"/>
		<polygon class="st2" points="11.5,20 15.5,16 13.5,13.5 11.5,15 9.5,13.5 7.5,16 		"/>
	</g>
</g>
<g id="Frames-24px">
	<rect class="st4" width="24" height="24"/>
</g>
</svg>
