<?xml version="1.0" encoding="utf-8"?>
<!-- Generator: Adobe Illustrator 21.0.2, SVG Export Plug-In . SVG Version: 6.00 Build 0)  -->
<svg version="1.1" xmlns="http://www.w3.org/2000/svg" xmlns:xlink="http://www.w3.org/1999/xlink" x="0px" y="0px"
	 viewBox="0 0 24 24" style="enable-background:new 0 0 24 24;" xml:space="preserve">
<style type="text/css">
	.st0{fill:#FFFFFF;}
	.st1{fill:#CCE7FF;}
	.st2{fill:none;stroke:#1078FF;stroke-linecap:round;stroke-linejoin:round;stroke-miterlimit:10;}
	.st3{fill:#1078FF;}
	.st4{fill:none;}
</style>
<g id="Duotone_1_">
	<polygon class="st0" points="15,23.5 8,23.5 5.5,9.9 9.5,6 9.5,0.5 13.5,0.5 13.5,6 17.5,9.9 	"/>
	<polygon class="st1" points="5.8,11.5 8,23.5 15,23.5 17.2,11.5 	"/>
	<rect x="9.5" y="0.5" class="st1" width="4" height="3"/>
	<g>
		<line class="st2" x1="17.2" y1="11.5" x2="5.8" y2="11.5"/>
		<polygon class="st2" points="15,23.5 8,23.5 5.5,9.9 9.5,6 9.5,0.5 13.5,0.5 13.5,6 17.5,9.9 		"/>
		<line class="st2" x1="9.5" y1="3.5" x2="13.5" y2="3.5"/>
	</g>
</g>
<g id="Frames-24px">
	<rect class="st4" width="24" height="24"/>
</g>
</svg>
