<?xml version="1.0" encoding="utf-8"?>
<!-- Generator: Adobe Illustrator 21.0.2, SVG Export Plug-In . SVG Version: 6.00 Build 0)  -->
<svg version="1.1" xmlns="http://www.w3.org/2000/svg" xmlns:xlink="http://www.w3.org/1999/xlink" x="0px" y="0px"
	 viewBox="0 0 24 24" style="enable-background:new 0 0 24 24;" xml:space="preserve">
<style type="text/css">
	.st0{fill:#FFFFFF;}
	.st1{fill:#CCE7FF;}
	.st2{fill:none;stroke:#1078FF;stroke-linecap:round;stroke-linejoin:round;stroke-miterlimit:10;}
	.st3{fill:#1078FF;}
	.st4{fill:none;}
</style>
<g id="Duotone_1_">
	<polygon class="st0" points="17.5,0.5 6.5,0.5 2.5,3 6,21.5 10,23.5 14,23.5 18,21.5 21.5,3 	"/>
	<polygon class="st1" points="17.5,5.5 12,5.5 12,23.5 14,23.5 18,21.5 21.5,3 	"/>
	<g>
		<polygon class="st2" points="17.5,5.5 21.5,3 17.5,0.5 6.5,0.5 2.5,3 6.5,5.5 		"/>
		<polyline class="st2" points="21.5,3 18,21.5 14,23.5 10,23.5 6,21.5 2.5,3 		"/>
		<polyline class="st2" points="20,11 16,13.5 12,11.5 8,13.5 4,11 		"/>
		<line class="st2" x1="8" y1="13.5" x2="9" y2="23"/>
		<line class="st2" x1="16" y1="13.5" x2="15" y2="23"/>
	</g>
</g>
<g id="Frames-24px">
	<rect class="st4" width="24" height="24"/>
</g>
</svg>
