<?xml version="1.0" encoding="utf-8"?>
<!-- Generator: Adobe Illustrator 21.0.2, SVG Export Plug-In . SVG Version: 6.00 Build 0)  -->
<svg version="1.1" xmlns="http://www.w3.org/2000/svg" xmlns:xlink="http://www.w3.org/1999/xlink" x="0px" y="0px"
	 viewBox="0 0 24 24" style="enable-background:new 0 0 24 24;" xml:space="preserve">
<style type="text/css">
	.st0{fill:#FFFFFF;}
	.st1{fill:#CCE7FF;}
	.st2{fill:none;stroke:#1078FF;stroke-linecap:round;stroke-linejoin:round;stroke-miterlimit:10;}
	.st3{fill:#1078FF;}
	.st4{fill:none;}
</style>
<g id="Duotone_1_">
	<polygon class="st0" points="8.5,3 8.5,0.5 3.5,0.5 3.5,3 4.5,2.7 1.5,12.5 3,19.6 1.5,23.5 10.5,23.5 9,19.6 10.5,12.5 7.5,2.7 	
		"/>
	<polygon class="st0" points="20.5,3 20.5,0.5 15.5,0.5 15.5,3 16.5,2.7 13.5,12.5 15,19.6 13.5,23.5 22.5,23.5 21,19.6 22.5,12.5 
		19.5,2.7 	"/>
	<polygon class="st1" points="9,7.5 3,7.5 1.5,12.5 3,19.6 1.5,23.5 10.5,23.5 9,19.6 10.5,12.5 	"/>
	<polygon class="st1" points="21,7.5 15,7.5 13.5,12.5 15,19.6 13.5,23.5 22.5,23.5 21,19.6 22.5,12.5 	"/>
	<g>
		<polyline class="st2" points="7.5,2.7 10.5,12.5 9,19.6 10.5,23.5 1.5,23.5 3,19.6 1.5,12.5 4.5,2.7 		"/>
		<line class="st2" x1="3" y1="7.5" x2="9" y2="7.5"/>
		<polygon class="st2" points="8.5,3 7,2.5 6,3 5,2.5 3.5,3 3.5,0.5 8.5,0.5 		"/>
		<g>
			<path class="st3" d="M5.5,11.8L5.5,11.8L5.5,11.8 M5,11c-0.1,0-0.1,0-0.2,0.1l-0.7,0.7c-0.1,0.1-0.1,0.3,0,0.4l0.7,0.7
				C4.9,13,4.9,13,5,13c0.1,0,0.1,0,0.2-0.1l0.7-0.7c0.1-0.1,0.1-0.3,0-0.4l-0.7-0.7C5.1,11,5.1,11,5,11L5,11z"/>
		</g>
		<g>
			<path class="st3" d="M8.5,13.8L8.5,13.8L8.5,13.8 M8,13c-0.1,0-0.1,0-0.2,0.1l-0.7,0.7c-0.1,0.1-0.1,0.3,0,0.4l0.7,0.7
				C7.9,15,7.9,15,8,15c0.1,0,0.1,0,0.2-0.1l0.7-0.7c0.1-0.1,0.1-0.3,0-0.4l-0.7-0.7C8.1,13,8.1,13,8,13L8,13z"/>
		</g>
		<g>
			<path class="st3" d="M5.5,16.8L5.5,16.8L5.5,16.8 M5,16c-0.1,0-0.1,0-0.2,0.1l-0.7,0.7c-0.1,0.1-0.1,0.3,0,0.4l0.7,0.7
				C4.9,18,4.9,18,5,18c0.1,0,0.1,0,0.2-0.1l0.7-0.7c0.1-0.1,0.1-0.3,0-0.4l-0.7-0.7C5.1,16,5.1,16,5,16L5,16z"/>
		</g>
		<polyline class="st2" points="19.5,2.7 22.5,12.5 21,19.6 22.5,23.5 13.5,23.5 15,19.6 13.5,12.5 16.5,2.7 		"/>
		<line class="st2" x1="15" y1="7.5" x2="21" y2="7.5"/>
		<polygon class="st2" points="20.5,3 19,2.5 18,3 17,2.5 15.5,3 15.5,0.5 20.5,0.5 		"/>
		<g>
			<path class="st3" d="M17.5,11.8L17.5,11.8L17.5,11.8 M17,11c-0.1,0-0.1,0-0.2,0.1l-0.7,0.7c-0.1,0.1-0.1,0.3,0,0.4l0.7,0.7
				C16.9,13,16.9,13,17,13c0.1,0,0.1,0,0.2-0.1l0.7-0.7c0.1-0.1,0.1-0.3,0-0.4l-0.7-0.7C17.1,11,17.1,11,17,11L17,11z"/>
		</g>
		<g>
			<path class="st3" d="M20.5,13.8L20.5,13.8L20.5,13.8 M20,13c-0.1,0-0.1,0-0.2,0.1l-0.7,0.7c-0.1,0.1-0.1,0.3,0,0.4l0.7,0.7
				C19.9,15,19.9,15,20,15c0.1,0,0.1,0,0.2-0.1l0.7-0.7c0.1-0.1,0.1-0.3,0-0.4l-0.7-0.7C20.1,13,20.1,13,20,13L20,13z"/>
		</g>
		<g>
			<path class="st3" d="M17.5,16.8L17.5,16.8L17.5,16.8 M17,16c-0.1,0-0.1,0-0.2,0.1l-0.7,0.7c-0.1,0.1-0.1,0.3,0,0.4l0.7,0.7
				C16.9,18,16.9,18,17,18c0.1,0,0.1,0,0.2-0.1l0.7-0.7c0.1-0.1,0.1-0.3,0-0.4l-0.7-0.7C17.1,16,17.1,16,17,16L17,16z"/>
		</g>
	</g>
</g>
<g id="Frames-24px">
	<rect class="st4" width="24" height="24"/>
</g>
</svg>
