<?xml version="1.0" encoding="utf-8"?>
<!-- Generator: Adobe Illustrator 21.0.2, SVG Export Plug-In . SVG Version: 6.00 Build 0)  -->
<svg version="1.1" xmlns="http://www.w3.org/2000/svg" xmlns:xlink="http://www.w3.org/1999/xlink" x="0px" y="0px"
	 viewBox="0 0 24 24" style="enable-background:new 0 0 24 24;" xml:space="preserve">
<style type="text/css">
	.st0{fill:#FFFFFF;}
	.st1{fill:#CCE7FF;}
	.st2{fill:none;stroke:#1078FF;stroke-linecap:round;stroke-linejoin:round;stroke-miterlimit:10;}
	.st3{fill:none;}
</style>
<g id="Duotone">
	<polygon class="st0" points="3.5,9 11.5,4 19.5,9 19.5,17 11.5,22 3.5,17 	"/>
	<polygon class="st0" points="6.5,2 2.5,1.5 0.5,4 0.5,7 8,3.5 	"/>
	<polygon class="st0" points="16.5,2 20.5,1.5 22.5,4 22.5,7 15,3.5 	"/>
	<polygon class="st1" points="19.5,9 19.5,17 11.5,22 3.5,17 	"/>
	<line class="st2" x1="11.5" y1="1.5" x2="11.5" y2="4"/>
	<line class="st2" x1="9.5" y1="1.5" x2="13.5" y2="1.5"/>
	<polyline class="st2" points="11.5,8.5 11.5,13 14,14.5 	"/>
	<polygon class="st2" points="3.5,9 11.5,4 19.5,9 19.5,17 11.5,22 3.5,17 	"/>
	<polygon class="st2" points="6.5,2 2.5,1.5 0.5,4 0.5,7 8,3.5 	"/>
	<polygon class="st2" points="16.5,2 20.5,1.5 22.5,4 22.5,7 15,3.5 	"/>
	<line class="st2" x1="7.8" y1="19.7" x2="4" y2="23.5"/>
	<line class="st2" x1="15.2" y1="19.7" x2="19" y2="23.5"/>
</g>
<g id="Frames-24px">
	<rect class="st3" width="24" height="24"/>
</g>
</svg>
