<?xml version="1.0" encoding="utf-8"?>
<!-- Generator: Adobe Illustrator 21.0.2, SVG Export Plug-In . SVG Version: 6.00 Build 0)  -->
<svg version="1.1" xmlns="http://www.w3.org/2000/svg" xmlns:xlink="http://www.w3.org/1999/xlink" x="0px" y="0px"
	 viewBox="0 0 24 24" style="enable-background:new 0 0 24 24;" xml:space="preserve">
<style type="text/css">
	.st0{fill:#FFFFFF;}
	.st1{fill:#CCE7FF;}
	.st2{fill:none;stroke:#1078FF;stroke-linecap:round;stroke-linejoin:round;stroke-miterlimit:10;}
	.st3{fill:none;}
</style>
<g id="Duotone">
	<polygon class="st0" points="23.5,0.5 20.5,0.5 13.5,8.7 13.5,8.7 9.8,7.1 4.4,11.1 0.5,11.5 5.1,16.1 4,17.1 4.7,19.3 6.9,20 
		7.9,18.9 12.5,23.5 12.9,19.6 16.9,14.2 15.3,10.5 23.5,3.5 	"/>
	<polygon class="st1" points="14.7,9.3 6.5,17.5 12.5,23.5 12.9,19.6 16.9,14.2 14.7,9.3 	"/>
	<polyline class="st2" points="15.3,10.5 23.5,3.5 23.5,0.5 20.5,0.5 13.5,8.7 	"/>
	<polygon class="st2" points="12.5,23.5 12.9,19.6 16.9,14.2 14.7,9.3 9.8,7.1 4.4,11.1 0.5,11.5 	"/>
	<line class="st2" x1="12.9" y1="19.6" x2="4.4" y2="11.1"/>
	<polyline class="st2" points="7.9,18.9 6.9,20 4.7,19.3 4,17.1 5.1,16.1 	"/>
</g>
<g id="Frames-24px">
	<rect class="st3" width="24" height="24"/>
</g>
</svg>
