<?xml version="1.0" encoding="utf-8"?>
<!-- Generator: Adobe Illustrator 21.0.2, SVG Export Plug-In . SVG Version: 6.00 Build 0)  -->
<svg version="1.1" xmlns="http://www.w3.org/2000/svg" xmlns:xlink="http://www.w3.org/1999/xlink" x="0px" y="0px"
	 viewBox="0 0 24 24" style="enable-background:new 0 0 24 24;" xml:space="preserve">
<style type="text/css">
	.st0{fill:#FFFFFF;}
	.st1{fill:#CCE7FF;}
	.st2{fill:none;stroke:#1078FF;stroke-linecap:round;stroke-linejoin:round;stroke-miterlimit:10;}
	.st3{fill:none;}
</style>
<g id="Duotone">
	<g>
		<polygon class="st0" points="17.5,15 12,12.5 6.5,15 6.5,20.5 4,23.5 20,23.5 17.5,20.5 		"/>
		<polygon class="st0" points="17.5,4.5 20,1.5 4,1.5 6.5,4.5 6.5,10 12,12.5 17.5,10 		"/>
	</g>
	<polygon class="st1" points="8,20.5 12,15.5 16,20.5 	"/>
	<polygon class="st1" points="12,1.5 20,1.5 17.5,4.5 12,4.5 	"/>
	<polygon class="st1" points="12,23.5 20,23.5 17.5,20.5 12,20.5 	"/>
	<polygon class="st2" points="6.5,20.5 17.5,20.5 17.5,15 6.5,10 6.5,4.5 17.5,4.5 17.5,10 6.5,15 	"/>
	<polygon class="st2" points="17.5,4.5 6.5,4.5 4,1.5 20,1.5 	"/>
	<polygon class="st2" points="20,23.5 4,23.5 6.5,20.5 17.5,20.5 	"/>
	<polygon class="st2" points="8,20.5 12,15.5 16,20.5 	"/>
</g>
<g id="Frames-24px">
	<rect class="st3" width="24" height="24"/>
</g>
</svg>
