<?xml version="1.0" encoding="utf-8"?>
<!-- Generator: Adobe Illustrator 21.0.2, SVG Export Plug-In . SVG Version: 6.00 Build 0)  -->
<svg version="1.1" xmlns="http://www.w3.org/2000/svg" xmlns:xlink="http://www.w3.org/1999/xlink" x="0px" y="0px"
	 viewBox="0 0 24 24" style="enable-background:new 0 0 24 24;" xml:space="preserve">
<style type="text/css">
	.st0{fill:#FFFFFF;}
	.st1{fill:#CCE7FF;}
	.st2{fill:none;stroke:#1078FF;stroke-linecap:round;stroke-linejoin:round;stroke-miterlimit:10;}
	.st3{fill:none;}
</style>
<g id="Duotone">
	<polygon class="st0" points="3.5,9.9 11.5,5.5 19.5,9.9 19.5,19.1 11.5,23.5 3.5,19.1 	"/>
	<polygon class="st1" points="19.5,9.9 19.5,19.1 11.5,23.5 3.5,19.1 	"/>
	<polygon class="st1" points="9.5,3.5 8,1.5 15,1.5 13.5,3.5 	"/>
	<line class="st2" x1="16.5" y1="5" x2="19.5" y2="7"/>
	<polygon class="st2" points="9.5,3.5 8,1.5 15,1.5 13.5,3.5 	"/>
	<line class="st2" x1="11.5" y1="14.5" x2="7.5" y2="18.5"/>
	<line class="st2" x1="18" y1="6" x2="16.5" y2="8.2"/>
	<line class="st2" x1="11.5" y1="5.5" x2="11.5" y2="3.5"/>
	<polygon class="st2" points="3.5,9.9 11.5,5.5 19.5,9.9 19.5,19.1 11.5,23.5 3.5,19.1 	"/>
	<line class="st2" x1="6.5" y1="14.5" x2="7.5" y2="14.5"/>
	<line class="st2" x1="11.5" y1="19.5" x2="11.5" y2="18.5"/>
	<line class="st2" x1="15" y1="18" x2="14.3" y2="17.3"/>
	<line class="st2" x1="16.5" y1="14.5" x2="15.5" y2="14.5"/>
	<line class="st2" x1="15" y1="11" x2="14.3" y2="11.7"/>
	<line class="st2" x1="11.5" y1="9.5" x2="11.5" y2="10.5"/>
	<line class="st2" x1="8" y1="11" x2="8.7" y2="11.7"/>
</g>
<g id="Frames-24px">
	<rect class="st3" width="24" height="24"/>
</g>
</svg>
