<?xml version="1.0" encoding="utf-8"?>
<!-- Generator: Adobe Illustrator 21.0.2, SVG Export Plug-In . SVG Version: 6.00 Build 0)  -->
<svg version="1.1" xmlns="http://www.w3.org/2000/svg" xmlns:xlink="http://www.w3.org/1999/xlink" x="0px" y="0px" width="24px"
	 height="24px" viewBox="0 0 24 24" enable-background="new 0 0 24 24" xml:space="preserve">
<g id="Black">
	<g>
		<g>
			<polygon fill="none" stroke="#58595B" stroke-linecap="round" stroke-linejoin="round" stroke-miterlimit="10" points="14.5,2.5 
				13.5,0.5 9.5,0.5 8.5,2.5 1.5,2.5 1.5,13.5 8,13.5 11.5,22.5 15,13.5 21.5,13.5 21.5,2.5 			"/>
			<polygon fill="none" stroke="#58595B" stroke-linejoin="round" stroke-miterlimit="10" points="15.5,10.25 11.5,12.5 7.5,10.25 
				7.5,5.75 11.5,3.5 15.5,5.75 			"/>
		</g>
		<g>
			<path fill="#58595B" d="M18.999,4.001c-0.051,0-0.102,0.02-0.141,0.059l-0.799,0.799c-0.078,0.078-0.078,0.205,0,0.283
				l0.799,0.799C18.897,5.981,18.948,6,18.999,6c0.051,0,0.102-0.019,0.141-0.059l0.799-0.799c0.078-0.078,0.078-0.205,0-0.283
				L19.141,4.06C19.102,4.021,19.051,4.001,18.999,4.001L18.999,4.001z"/>
		</g>
	</g>
</g>
<g id="Frames-24px">
	<rect fill="none" width="24" height="24"/>
</g>
</svg>
