<?xml version="1.0" encoding="utf-8"?>
<!-- Generator: Adobe Illustrator 21.0.2, SVG Export Plug-In . SVG Version: 6.00 Build 0)  -->
<svg version="1.1" xmlns="http://www.w3.org/2000/svg" xmlns:xlink="http://www.w3.org/1999/xlink" x="0px" y="0px" width="24px"
	 height="24px" viewBox="0 0 24 24" enable-background="new 0 0 24 24" xml:space="preserve">
<g id="Black">
	<g>
		<g>
			<polyline fill="none" stroke="#58595B" stroke-linecap="round" stroke-linejoin="round" stroke-miterlimit="10" points="22.5,10 
				22.5,23.5 0.5,23.5 0.5,10 			"/>
			<g>
				<line fill="none" stroke="#58595B" stroke-linecap="round" stroke-miterlimit="10" x1="3.5" y1="8" x2="0.5" y2="10"/>
				<line fill="none" stroke="#58595B" stroke-linecap="round" stroke-miterlimit="10" x1="22.5" y1="10" x2="19.5" y2="8"/>
			</g>
			<polyline fill="none" stroke="#58595B" stroke-linecap="round" stroke-miterlimit="10" points="0.5,23.5 8.5,17.5 0.5,10 			"/>
			<polyline fill="none" stroke="#58595B" stroke-linecap="round" stroke-miterlimit="10" points="22.5,23.5 14.5,17.5 22.5,10 			
				"/>
			<polyline fill="none" stroke="#58595B" stroke-linecap="round" stroke-linejoin="round" stroke-miterlimit="10" points="
				3.5,12.812 3.5,1.5 19.5,1.5 19.5,12.812 			"/>
			<line fill="none" stroke="#58595B" stroke-linecap="round" stroke-miterlimit="10" x1="8.5" y1="17.5" x2="14.5" y2="17.5"/>
		</g>
		<polyline fill="none" stroke="#58595B" stroke-linecap="round" stroke-linejoin="round" stroke-miterlimit="10" points="13,9.5 
			14.5,4.5 16.5,4.5 		"/>
		<polyline fill="none" stroke="#58595B" stroke-linecap="round" stroke-linejoin="round" stroke-miterlimit="10" points="13.9,6.5 
			7.5,6.5 8.5,9.5 13,9.5 		"/>
		<g>
			<path fill="#58595B" d="M9.499,11.001c-0.051,0-0.102,0.02-0.141,0.059l-0.799,0.799c-0.078,0.078-0.078,0.205,0,0.283
				l0.799,0.799C9.397,12.981,9.448,13,9.499,13s0.102-0.019,0.141-0.059l0.799-0.799c0.078-0.078,0.078-0.205,0-0.283L9.641,11.06
				C9.602,11.021,9.551,11.001,9.499,11.001L9.499,11.001z"/>
		</g>
		<g>
			<path fill="#58595B" d="M12.499,11.001c-0.051,0-0.102,0.02-0.141,0.059l-0.799,0.799c-0.078,0.078-0.078,0.205,0,0.283
				l0.799,0.799C12.397,12.981,12.448,13,12.499,13s0.102-0.019,0.141-0.059l0.799-0.799c0.078-0.078,0.078-0.205,0-0.283
				l-0.799-0.799C12.602,11.021,12.551,11.001,12.499,11.001L12.499,11.001z"/>
		</g>
	</g>
</g>
<g id="Frames-24px">
	<rect fill="none" width="24" height="24"/>
</g>
</svg>
