<?xml version="1.0" encoding="utf-8"?>
<!-- Generator: Adobe Illustrator 21.0.2, SVG Export Plug-In . SVG Version: 6.00 Build 0)  -->
<svg version="1.1" xmlns="http://www.w3.org/2000/svg" xmlns:xlink="http://www.w3.org/1999/xlink" x="0px" y="0px" width="24px"
	 height="24px" viewBox="0 0 24 24" enable-background="new 0 0 24 24" xml:space="preserve">
<g id="Black">
	<g>
		<polygon fill="none" stroke="#58595B" stroke-linecap="round" stroke-linejoin="round" stroke-miterlimit="10" points="10,9.5 
			1,9.5 5.5,0.5 		"/>
		<line fill="none" stroke="#58595B" stroke-linecap="round" stroke-miterlimit="10" x1="5.5" y1="4" x2="5.5" y2="6"/>
		<line fill="none" stroke="#58595B" stroke-linecap="round" stroke-miterlimit="10" x1="5.5" y1="7.5" x2="5.5" y2="8"/>
	</g>
	<g>
		<polyline fill="none" stroke="#58595B" stroke-linecap="round" stroke-linejoin="round" stroke-miterlimit="10" points="6.5,17.5 
			16.5,17.5 21,3.5 23.5,3 		"/>
		
			<rect x="7.086" y="20.086" transform="matrix(0.7071 -0.7071 0.7071 0.7071 -12.7132 12.3076)" fill="none" stroke="#58595B" stroke-linecap="round" stroke-linejoin="round" stroke-miterlimit="10" width="2.828" height="2.828"/>
		
			<rect x="14.086" y="20.086" transform="matrix(0.7071 -0.7071 0.7071 0.7071 -10.663 17.2574)" fill="none" stroke="#58595B" stroke-linecap="round" stroke-linejoin="round" stroke-miterlimit="10" width="2.828" height="2.828"/>
		
			<line fill="none" stroke="#58595B" stroke-linecap="round" stroke-linejoin="round" stroke-miterlimit="10" x1="11.5" y1="6.5" x2="20.036" y2="6.5"/>
		<polyline fill="none" stroke="#58595B" stroke-linecap="round" stroke-linejoin="round" stroke-miterlimit="10" points="
			17.304,14.999 5,13.5 4.286,11.5 		"/>
	</g>
</g>
<g id="Frames-24px">
	<rect fill="none" width="24" height="24"/>
</g>
</svg>
