<svg xmlns="http://www.w3.org/2000/svg" width="24" height="24" viewBox="0 0 24 24">
  <title>cloud-lock-encrypt</title>
  <g id="Duotone">
    <polygon points="22.5 13 21 8.5 18 8.5 15.5 3.5 10.5 3.5 8 6.5 4 6.5 0.5 12 4 16.5 7.5 16.5 7.5 21.5 15.5 21.5 15.5 16.5 20 16.5 22.5 13" fill="#fff"/>
    <rect x="11.5" y="15.5" width="4" height="6" fill="#cce7ff"/>
    <polygon points="19.5 13 18 14 6 14 4 12 0.5 12 4 16.5 7.5 16.5 7.5 15.5 15.5 15.5 15.5 16.5 20 16.5 22.5 13 19.5 13" fill="#cce7ff"/>
    <g>
      <polyline points="17.5 16.5 20 16.5 22.5 13 21 8.5 18 8.5 15.5 3.5 10.5 3.5 8 6.5 4 6.5 0.5 12 4 16.5 5.5 16.5" fill="none" stroke="#1078ff" stroke-linecap="round" stroke-linejoin="round"/>
      <line x1="14.5" y1="8.5" x2="18" y2="8.5" fill="none" stroke="#1078ff" stroke-linecap="round" stroke-linejoin="round"/>
    </g>
    <polyline points="8.5 15.5 8.5 14 11.5 12.5 14.5 14 14.5 15.5" fill="none" stroke="#1078ff" stroke-linecap="round" stroke-linejoin="round"/>
    <line x1="11.5" y1="19.5" x2="11.5" y2="17.5" fill="none" stroke="#1078ff" stroke-linecap="round" stroke-linejoin="round"/>
    <rect x="7.5" y="15.5" width="8" height="6" fill="none" stroke="#1078ff" stroke-linecap="round" stroke-linejoin="round"/>
  </g>
  <g id="Frames-24px">
    <rect width="24" height="24" fill="none"/>
  </g>
</svg>
