<svg xmlns="http://www.w3.org/2000/svg" width="24" height="24" viewBox="0 0 24 24">
  <title>quote-2</title>
  <g id="Duotone">
    <polygon points="11.499 11.75 6.499 14.5 1.499 11.75 1.499 6.25 6.499 3.5 11.499 6.25 11.499 11.75" fill="#fff"/>
    <polygon points="23.499 11.75 18.499 14.5 13.499 11.75 13.499 6.25 18.499 3.5 23.499 6.25 23.499 11.75" fill="#fff"/>
    <polygon points="6.499 12.5 9.999 10.5 11.499 11.75 6.499 14.5 1.499 11.75 2.999 10.5 6.499 12.5" fill="#cce7ff"/>
    <polygon points="18.499 12.5 21.999 10.5 23.499 11.75 18.499 14.5 13.499 11.75 14.999 10.5 18.499 12.5" fill="#cce7ff"/>
    <g>
      <polyline points="13.499 21.5 14.999 21.5 23.499 16 23.499 11.75" fill="none" stroke="#1078ff" stroke-linecap="round" stroke-linejoin="round"/>
      <polygon points="13.499 6.25 18.499 3.5 23.499 6.25 23.499 11.75 18.499 14.5 13.499 11.75 13.499 6.25" fill="none" stroke="#1078ff" stroke-linejoin="round"/>
      <polyline points="1.499 21.5 2.999 21.5 11.499 16 11.499 11.75" fill="none" stroke="#1078ff" stroke-linecap="round" stroke-linejoin="round"/>
      <polygon points="1.499 6.25 6.499 3.5 11.499 6.25 11.499 11.75 6.499 14.5 1.499 11.75 1.499 6.25" fill="none" stroke="#1078ff" stroke-linejoin="round"/>
    </g>
  </g>
  <g id="Frames-24px">
    <rect width="24" height="24" fill="none"/>
  </g>
</svg>
