<svg xmlns="http://www.w3.org/2000/svg" width="24" height="24" viewBox="0 0 24 24">
  <title>spelling-check-1</title>
  <g id="Duotone">
    <g>
      <polyline points="23.499 9.5 12.72 23.515 7.842 18.395" fill="none" stroke="#1078ff" stroke-linecap="round" stroke-linejoin="round"/>
      <g>
        <polyline points="2.499 15.5 2.499 4.266 6.999 0.376 11.499 4.484 11.499 15.5" fill="none" stroke="#1078ff" stroke-linecap="round" stroke-linejoin="round"/>
        <line x1="2.499" y1="9.5" x2="11.499" y2="9.5" fill="none" stroke="#1078ff" stroke-linecap="round" stroke-linejoin="round"/>
        <line x1="1.499" y1="15.5" x2="3.499" y2="15.5" fill="none" stroke="#1078ff" stroke-linecap="round" stroke-linejoin="round"/>
        <line x1="10.499" y1="15.5" x2="12.414" y2="15.505" fill="none" stroke="#1078ff" stroke-linecap="round" stroke-linejoin="round"/>
      </g>
    </g>
  </g>
  <g id="Frames-24px">
    <rect width="24" height="24" fill="none"/>
  </g>
</svg>
