<svg xmlns="http://www.w3.org/2000/svg" width="24" height="24" viewBox="0 0 24 24">
  <title>superscript</title>
  <g id="Duotone">
    <g>
      <g>
        <line x1="0.499" y1="7.5" x2="16.499" y2="23.5" fill="none" stroke="#1078ff" stroke-linecap="round" stroke-linejoin="round"/>
        <line x1="16.499" y1="7.5" x2="0.499" y2="23.5" fill="none" stroke="#1078ff" stroke-linecap="round" stroke-linejoin="round"/>
      </g>
      <polyline points="23.499 7.5 19.499 7.5 19.499 5.5 23.499 3.5 23.499 1.5 21.499 0.5 19.499 1.5 19.499 3" fill="none" stroke="#1078ff" stroke-linecap="round" stroke-linejoin="round"/>
    </g>
  </g>
  <g id="Frames-24px">
    <rect width="24" height="24" fill="none"/>
  </g>
</svg>
