<svg xmlns="http://www.w3.org/2000/svg" width="24" height="24" viewBox="0 0 24 24">
  <title>bank-2</title>
  <g id="Duotone">
    <polygon points="22.5 21.499 21.5 21.499 20.5 19.499 20.5 9.499 21.5 9.499 22.5 7.499 12 0.499 1.5 7.499 2.5 9.499 3.5 9.499 3.5 19.499 2.5 21.499 1.5 21.499 0.5 23.499 23.5 23.499 22.5 21.499" fill="#fff"/>
    <rect x="5.5" y="9.499" width="3" height="10" fill="#cce7ff"/>
    <rect x="10.5" y="9.499" width="3" height="10" fill="#cce7ff"/>
    <rect x="15.5" y="9.499" width="3" height="10" fill="#cce7ff"/>
    <polygon points="15.375 2.749 13.2 4.199 13.5 4.499 12 5.999 11.4 5.399 8.25 7.499 22.5 7.499 15.375 2.749" fill="#cce7ff"/>
    <polygon points="21.5 21.499 2 21.499 3.5 19.499 20.5 19.499 21.5 21.499" fill="none" stroke="#1078ff" stroke-linecap="round" stroke-linejoin="round"/>
    <rect x="3.5" y="9.499" width="17" height="10" fill="none" stroke="#1078ff" stroke-linecap="round" stroke-linejoin="round"/>
    <line x1="23.5" y1="23.499" x2="0.5" y2="23.499" fill="none" stroke="#1078ff" stroke-linecap="round" stroke-linejoin="round"/>
    <line x1="22.5" y1="21.499" x2="1.5" y2="21.499" fill="none" stroke="#1078ff" stroke-linecap="round" stroke-linejoin="round"/>
    <line x1="5.5" y1="9.499" x2="5.5" y2="19.499" fill="none" stroke="#1078ff" stroke-linecap="round" stroke-linejoin="round"/>
    <line x1="10.5" y1="9.499" x2="10.5" y2="19.499" fill="none" stroke="#1078ff" stroke-linecap="round" stroke-linejoin="round"/>
    <line x1="8.5" y1="9.499" x2="8.5" y2="19.499" fill="none" stroke="#1078ff" stroke-linecap="round" stroke-linejoin="round"/>
    <line x1="13.5" y1="9.499" x2="13.5" y2="19.499" fill="none" stroke="#1078ff" stroke-linecap="round" stroke-linejoin="round"/>
    <line x1="15.5" y1="9.499" x2="15.5" y2="19.499" fill="none" stroke="#1078ff" stroke-linecap="round" stroke-linejoin="round"/>
    <line x1="18.5" y1="9.499" x2="18.5" y2="19.499" fill="none" stroke="#1078ff" stroke-linecap="round" stroke-linejoin="round"/>
    <polygon points="22.5 7.499 1.5 7.499 2.5 9.499 22 9.499 22.5 7.499" fill="none" stroke="#1078ff" stroke-linecap="round" stroke-linejoin="round"/>
    <polygon points="22.5 7.499 1.5 7.499 12 0.499 22.5 7.499" fill="none" stroke="#1078ff" stroke-linecap="round" stroke-linejoin="round"/>
    <line x1="3.5" y1="17.499" x2="5.5" y2="17.499" fill="none" stroke="#1078ff" stroke-linecap="round" stroke-linejoin="round"/>
    <line x1="8.5" y1="17.499" x2="10.5" y2="17.499" fill="none" stroke="#1078ff" stroke-linecap="round" stroke-linejoin="round"/>
    <line x1="13.5" y1="17.499" x2="15.5" y2="17.499" fill="none" stroke="#1078ff" stroke-linecap="round" stroke-linejoin="round"/>
    <line x1="18.5" y1="17.499" x2="20.5" y2="17.499" fill="none" stroke="#1078ff" stroke-linecap="round" stroke-linejoin="round"/>
    <rect x="10.939" y="3.439" width="2.121" height="2.121" transform="translate(0.333 9.803) rotate(-45)" fill="none" stroke="#1078ff" stroke-linecap="round" stroke-linejoin="round"/>
  </g>
  <g id="Frames-24px">
    <rect width="24" height="24" fill="none"/>
  </g>
</svg>
