<svg xmlns="http://www.w3.org/2000/svg" width="24" height="24" viewBox="0 0 24 24">
  <title>building-6</title>
  <g id="Duotone">
    <polygon points="16.5 23.499 8.5 23.499 8.5 6.499 12.5 1.999 16.5 6.499 16.5 23.499" fill="#fff"/>
    <polygon points="21 10.999 18.5 13.499 18.5 23.499 23.5 23.499 23.5 13.499 21 10.999" fill="#fff"/>
    <polygon points="6.5 23.499 6.5 10.499 0.5 12.999 0.5 23.499 6.5 23.499" fill="#fff"/>
    <polygon points="16.5 23.499 8.5 23.499 16.5 6.499 16.5 23.499" fill="#cce7ff"/>
    <polygon points="6.5 10.499 0.5 23.499 6.5 23.499 6.5 10.499" fill="#cce7ff"/>
    <polyline points="8.5 23.499 15.5 18.499 9.5 14.499 15.5 10.499 8.5 6.499" fill="none" stroke="#1078ff" stroke-linecap="round" stroke-linejoin="round"/>
    <polygon points="16.5 23.499 8.5 23.499 8.5 6.499 12.5 1.999 16.5 6.499 16.5 23.499" fill="none" stroke="#1078ff" stroke-linecap="round" stroke-linejoin="round"/>
    <line x1="12.5" y1="1.999" x2="12.5" y2="0.499" fill="none" stroke="#1078ff" stroke-linecap="round" stroke-linejoin="round"/>
    <line x1="8.5" y1="6.499" x2="16.5" y2="6.499" fill="none" stroke="#1078ff" stroke-linecap="round" stroke-linejoin="round"/>
    <polygon points="6.5 23.499 6.5 10.499 0.5 12.999 0.5 23.499 6.5 23.499" fill="none" stroke="#1078ff" stroke-linecap="round" stroke-linejoin="round"/>
    <line x1="2.5" y1="23.499" x2="2.5" y2="15.499" fill="none" stroke="#1078ff" stroke-linecap="round" stroke-linejoin="round"/>
    <line x1="4.5" y1="23.499" x2="4.5" y2="15.499" fill="none" stroke="#1078ff" stroke-linecap="round" stroke-linejoin="round"/>
    <polyline points="23.5 13.499 23.5 23.499 18.5 23.499 18.5 13.499" fill="none" stroke="#1078ff" stroke-linecap="round" stroke-linejoin="round"/>
    <line x1="18.5" y1="13.499" x2="23.5" y2="13.499" fill="none" stroke="#1078ff" stroke-linecap="round" stroke-linejoin="round"/>
    <line x1="18.5" y1="15.499" x2="23.5" y2="15.499" fill="none" stroke="#1078ff" stroke-linecap="round" stroke-linejoin="round"/>
    <line x1="18.5" y1="17.499" x2="23.5" y2="17.499" fill="none" stroke="#1078ff" stroke-linecap="round" stroke-linejoin="round"/>
    <line x1="18.5" y1="19.499" x2="23.5" y2="19.499" fill="none" stroke="#1078ff" stroke-linecap="round" stroke-linejoin="round"/>
    <line x1="18.5" y1="21.499" x2="23.5" y2="21.499" fill="none" stroke="#1078ff" stroke-linecap="round" stroke-linejoin="round"/>
    <polyline points="18.5 13.499 21 10.999 23.5 13.499" fill="none" stroke="#1078ff" stroke-linecap="round" stroke-linejoin="round"/>
  </g>
  <g id="Frames-24px">
    <rect width="24" height="24" fill="none"/>
  </g>
</svg>
