<svg xmlns="http://www.w3.org/2000/svg" width="24" height="24" viewBox="0 0 24 24">
  <title>clock-tower</title>
  <g id="Duotone">
    <g>
      <rect x="5.5" y="8.499" width="12" height="12" fill="#fff"/>
      <polygon points="11.5 0.499 9 5.499 14 5.499 11.5 0.499" fill="#fff"/>
    </g>
    <polygon points="15.5 12.499 7.5 16.499 11.5 18.499 15.5 16.499 15.5 12.499" fill="#cce7ff"/>
    <rect x="6.5" y="20.499" width="10" height="3" fill="#cce7ff"/>
    <polygon points="5.5 8.499 17.5 8.499 14 5.499 9 5.499 5.5 8.499" fill="#cce7ff"/>
    <line x1="14" y1="5.499" x2="17.5" y2="8.499" fill="none" stroke="#1078ff" stroke-linecap="round" stroke-linejoin="round"/>
    <line x1="5.5" y1="8.499" x2="9" y2="5.499" fill="none" stroke="#1078ff" stroke-linecap="round" stroke-linejoin="round"/>
    <rect x="5.5" y="8.499" width="12" height="12" fill="none" stroke="#1078ff" stroke-linecap="round" stroke-linejoin="round"/>
    <polyline points="11.5 12.499 11.5 14.499 13.5 14.499" fill="none" stroke="#1078ff" stroke-linecap="round" stroke-linejoin="round"/>
    <polygon points="9 5.499 11.5 0.499 14 5.499 9 5.499" fill="none" stroke="#1078ff" stroke-linecap="round" stroke-linejoin="round"/>
    <rect x="6.5" y="20.499" width="10" height="3" fill="none" stroke="#1078ff" stroke-linecap="round" stroke-linejoin="round"/>
    <polygon points="15.5 16.499 11.5 18.499 7.5 16.499 7.5 12.499 11.5 10.499 15.5 12.499 15.5 16.499" fill="none" stroke="#1078ff" stroke-linecap="round" stroke-linejoin="round"/>
    <line x1="9.5" y1="23.499" x2="9.5" y2="20.499" fill="none" stroke="#1078ff" stroke-linecap="round" stroke-linejoin="round"/>
    <line x1="13.5" y1="23.499" x2="13.5" y2="20.499" fill="none" stroke="#1078ff" stroke-linecap="round" stroke-linejoin="round"/>
  </g>
  <g id="Frames-24px">
    <rect width="24" height="24" fill="none"/>
  </g>
</svg>
