<svg xmlns="http://www.w3.org/2000/svg" width="24" height="24" viewBox="0 0 24 24">
  <title>lighthouse</title>
  <g id="Duotone">
    <polygon points="14.5 8.499 14.5 5.499 12.5 1.999 10.5 5.499 10.5 8.499 5.75 22.749 6.5 23.499 8.5 21.499 10.5 23.499 12.5 21.499 14.5 23.499 16.5 21.499 18.5 23.499 19.25 22.749 14.5 8.499" fill="#fff"/>
    <polygon points="7.167 18.499 17.833 18.499 16.167 13.499 8.833 13.499 7.167 18.499" fill="#cce7ff"/>
    <rect x="10.5" y="5.499" width="4" height="3" fill="#cce7ff"/>
    <polyline points="2.5 23.499 4.5 21.499 6.5 23.499 8.5 21.499 10.5 23.499 12.5 21.499 14.5 23.499 16.5 21.499 18.5 23.499 20.5 21.499 22.5 23.499" fill="none" stroke="#1078ff" stroke-linecap="round" stroke-linejoin="round"/>
    <line x1="8" y1="8.499" x2="10.5" y2="8.499" fill="none" stroke="#1078ff" stroke-linecap="round" stroke-linejoin="round"/>
    <polyline points="19.25 22.749 14.5 8.499 10.5 8.499 5.75 22.749" fill="none" stroke="#1078ff" stroke-linecap="round" stroke-linejoin="round"/>
    <line x1="17" y1="8.499" x2="14.5" y2="8.499" fill="none" stroke="#1078ff" stroke-linecap="round" stroke-linejoin="round"/>
    <polyline points="14.5 8.499 14.5 5.499 12.5 5.499 10.5 5.499 10.5 8.499" fill="none" stroke="#1078ff" stroke-linecap="round" stroke-linejoin="round"/>
    <polyline points="14.5 5.499 12.5 1.999 10.5 5.499" fill="none" stroke="#1078ff" stroke-linecap="round" stroke-linejoin="round"/>
    <line x1="12.5" y1="0.499" x2="12.5" y2="1.999" fill="none" stroke="#1078ff" stroke-linecap="round" stroke-linejoin="round"/>
    <line x1="7.167" y1="18.499" x2="17.833" y2="18.499" fill="none" stroke="#1078ff" stroke-linecap="round" stroke-linejoin="round"/>
    <line x1="8.833" y1="13.499" x2="16.167" y2="13.499" fill="none" stroke="#1078ff" stroke-linecap="round" stroke-linejoin="round"/>
    <line x1="12.5" y1="16.499" x2="12.5" y2="15.499" fill="none" stroke="#1078ff" stroke-linecap="round" stroke-linejoin="round"/>
    <line x1="12.5" y1="11.499" x2="12.5" y2="10.499" fill="none" stroke="#1078ff" stroke-linecap="round" stroke-linejoin="round"/>
    <polyline points="4.5 0.499 6 1.999 7.5 0.499" fill="none" stroke="#1078ff" stroke-linecap="round" stroke-linejoin="round"/>
    <polyline points="1.5 3.999 3 5.499 4.5 3.999" fill="none" stroke="#1078ff" stroke-linecap="round" stroke-linejoin="round"/>
  </g>
  <g id="Frames-24px">
    <rect width="24" height="24" fill="none"/>
  </g>
</svg>
