<svg xmlns="http://www.w3.org/2000/svg" width="24" height="24" viewBox="0 0 24 24">
  <title>sunset</title>
  <g id="Duotone">
    <polyline points="5.5 15.499 5.5 11.249 11.5 7.499 17.5 11.249 17.5 15.499" fill="#fff"/>
    <polygon points="5.5 13.749 5.5 15.499 17.5 15.499 17.5 13.749 11.5 9.999 5.5 13.749" fill="#cce7ff"/>
    <polyline points="5.5 15.499 5.5 11.249 11.5 7.499 17.5 11.249 17.5 15.499" fill="none" stroke="#1078ff" stroke-linecap="round" stroke-linejoin="round"/>
    <polyline points="0.5 21.699 4.5 18.499 4.5 22.499 9.5 18.499 9.5 22.499 14.5 18.499 14.5 22.499 19.5 18.499 19.5 22.499 22.5 19.299" fill="none" stroke="#1078ff" stroke-linecap="round" stroke-linejoin="round"/>
    <line x1="11.5" y1="5.499" x2="11.5" y2="4.999" fill="none" stroke="#1078ff" stroke-linecap="round" stroke-linejoin="round"/>
    <line x1="11.5" y1="2.999" x2="11.5" y2="2.499" fill="none" stroke="#1078ff" stroke-linecap="round" stroke-linejoin="round"/>
    <line x1="19.5" y1="11.499" x2="20" y2="11.499" fill="none" stroke="#1078ff" stroke-linecap="round" stroke-linejoin="round"/>
    <line x1="22" y1="11.499" x2="22.5" y2="11.499" fill="none" stroke="#1078ff" stroke-linecap="round" stroke-linejoin="round"/>
    <line x1="0.5" y1="11.499" x2="1" y2="11.499" fill="none" stroke="#1078ff" stroke-linecap="round" stroke-linejoin="round"/>
    <line x1="3" y1="11.499" x2="3.5" y2="11.499" fill="none" stroke="#1078ff" stroke-linecap="round" stroke-linejoin="round"/>
    <line x1="4" y1="4.999" x2="4.353" y2="5.353" fill="none" stroke="#1078ff" stroke-linecap="round" stroke-linejoin="round"/>
    <line x1="5.768" y1="6.767" x2="6.121" y2="7.12" fill="none" stroke="#1078ff" stroke-linecap="round" stroke-linejoin="round"/>
    <line x1="19" y1="4.999" x2="18.646" y2="5.353" fill="none" stroke="#1078ff" stroke-linecap="round" stroke-linejoin="round"/>
    <line x1="17.232" y1="6.767" x2="16.879" y2="7.12" fill="none" stroke="#1078ff" stroke-linecap="round" stroke-linejoin="round"/>
  </g>
  <g id="Frames-24px">
    <rect width="24" height="24" fill="none"/>
  </g>
</svg>
