<svg xmlns="http://www.w3.org/2000/svg" width="24" height="24" viewBox="0 0 24 24">
  <title>washington-monument</title>
  <g id="Duotone">
    <polygon points="16 5.499 14.5 3.499 16 1.999 17 0.499 18.5 0.499 20 1.999 22 1.999 23.5 3.499 22 5.499 16 5.499" fill="#fff"/>
    <polygon points="11 4.999 8.5 0.999 6 4.999 5 20.499 12 20.499 11 4.999" fill="#fff"/>
    <rect x="3.5" y="20.499" width="10" height="3" fill="#fff"/>
    <polygon points="12 20.499 11 4.999 8.5 0.999 8.5 20.499 12 20.499" fill="#cce7ff"/>
    <polygon points="16 5.499 14.5 3.499 16 1.999 17 0.499 18.5 0.499 20 1.999 22 1.999 23.5 3.499 22 5.499 16 5.499" fill="none" stroke="#1078ff" stroke-linecap="round" stroke-linejoin="round"/>
    <polygon points="11 4.999 8.5 0.999 6 4.999 5 20.499 12 20.499 11 4.999" fill="none" stroke="#1078ff" stroke-linecap="round" stroke-linejoin="round"/>
    <line x1="0.5" y1="23.499" x2="23.5" y2="23.499" fill="none" stroke="#1078ff" stroke-linecap="round" stroke-linejoin="round"/>
    <rect x="3.5" y="20.499" width="10" height="3" fill="none" stroke="#1078ff" stroke-linecap="round" stroke-linejoin="round"/>
    <line x1="8.5" y1="0.999" x2="8.5" y2="20.499" fill="none" stroke="#1078ff" stroke-linecap="round" stroke-linejoin="round"/>
  </g>
  <g id="Frames-24px">
    <rect width="24" height="24" fill="none"/>
  </g>
</svg>
