<?xml version="1.0" encoding="utf-8"?>
<!-- Generator: Adobe Illustrator 21.0.2, SVG Export Plug-In . SVG Version: 6.00 Build 0)  -->
<svg version="1.1" xmlns="http://www.w3.org/2000/svg" xmlns:xlink="http://www.w3.org/1999/xlink" x="0px" y="0px" width="24px"
	 height="24px" viewBox="0 0 24 24" enable-background="new 0 0 24 24" xml:space="preserve">
<g id="Black">
	<g>
		<g>
			<polygon fill="none" stroke="#58595B" stroke-linecap="round" stroke-linejoin="round" stroke-miterlimit="10" points="
				6.5,10.882 8.5,9.75 10.5,10.882 10.5,13.118 8.5,14.25 6.5,13.118 			"/>
			<polygon fill="none" stroke="#58595B" stroke-linecap="round" stroke-linejoin="round" stroke-miterlimit="10" points="
				12.5,11.013 13.5,9.917 12.738,8.625 11.26,8.978 9.582,8.079 9.25,7 7.75,7 7.418,8.079 5.74,8.978 4.262,8.625 3.5,9.917 
				4.5,11.013 4.5,12.987 3.5,14.083 4.262,15.375 5.74,15.022 7.418,15.921 7.75,17 9.25,17 9.582,15.921 11.26,15.022 
				12.738,15.375 13.5,14.083 12.5,12.987 			"/>
		</g>
		<polygon fill="none" stroke="#58595B" stroke-linecap="round" stroke-linejoin="round" stroke-miterlimit="10" points="
			16.5,16.75 8.5,21 0.5,16.75 0.5,7.25 8.5,3 16.5,7.25 		"/>
		
			<line fill="none" stroke="#58595B" stroke-linecap="round" stroke-linejoin="round" stroke-miterlimit="10" x1="23.51" y1="20.912" x2="16.5" y2="16.75"/>
	</g>
</g>
<g id="Frames-24px">
	<rect fill="none" width="24" height="24"/>
</g>
</svg>
