<?xml version="1.0" encoding="utf-8"?>
<!-- Generator: Adobe Illustrator 21.0.2, SVG Export Plug-In . SVG Version: 6.00 Build 0)  -->
<svg version="1.1" xmlns="http://www.w3.org/2000/svg" xmlns:xlink="http://www.w3.org/1999/xlink" x="0px" y="0px" width="24px"
	 height="24px" viewBox="0 0 24 24" enable-background="new 0 0 24 24" xml:space="preserve">
<g id="Black">
	<g>
		<polygon fill="none" stroke="#58595B" stroke-linecap="round" stroke-linejoin="round" stroke-miterlimit="10" points="
			3.622,10.173 0.5,7.051 1.259,4.34 4.143,7.224 6.224,5.143 3.341,2.259 6.051,1.5 9.173,4.622 8.347,7.265 16.735,15.653 
			19.378,14.827 22.5,17.949 21.741,20.659 18.857,17.776 16.776,19.857 19.659,22.741 16.949,23.5 13.827,20.377 14.653,17.735 
			6.265,9.347 		"/>
		<g>
			<polygon fill="none" stroke="#58595B" stroke-linecap="round" stroke-linejoin="round" stroke-miterlimit="10" points="
				11.5,10.418 13.582,12.5 16.735,9.347 19.377,10.173 22.5,7.051 21.741,4.34 18.857,7.224 16.776,5.143 19.659,2.259 16.949,1.5 
				13.827,4.622 14.653,7.265 			"/>
			<polygon fill="none" stroke="#58595B" stroke-linecap="round" stroke-linejoin="round" stroke-miterlimit="10" points="
				11.5,14.581 9.418,12.5 6.265,15.653 3.622,14.827 0.5,17.949 1.259,20.659 4.143,17.776 6.224,19.857 3.341,22.741 6.051,23.5 
				9.173,20.377 8.347,17.735 			"/>
		</g>
	</g>
</g>
<g id="Frames-24px">
	<rect fill="none" width="24" height="24"/>
</g>
</svg>
