<svg xmlns="http://www.w3.org/2000/svg" width="24" height="24" viewBox="0 0 24 24">
  <title>control-previous</title>
  <g id="Duotone">
    <polygon points="21.5 18 11.5 23.5 1.5 18 1.5 7 11.5 1.5 21.5 7 21.5 18" fill="#fff"/>
    <polygon points="10.5 12.5 15.5 15.5 15.5 12.5 10.5 12.5" fill="#cce7ff"/>
    <polygon points="1.5 18 3.5 16.5 11.5 21 19.5 16.5 21.5 18 11.5 23.5 1.5 18" fill="#cce7ff"/>
    <g>
      <g>
        <polygon points="15.5 15.5 15.5 9.5 10.5 12.5 15.5 15.5" fill="none" stroke="#1078ff" stroke-linejoin="round"/>
        <line x1="8.5" y1="9.5" x2="8.5" y2="15.5" fill="none" stroke="#1078ff" stroke-linecap="round" stroke-linejoin="round"/>
      </g>
      <polygon points="21.5 18 11.5 23.5 1.5 18 1.5 7 11.5 1.5 21.5 7 21.5 18" fill="none" stroke="#1078ff" stroke-linejoin="round"/>
    </g>
  </g>
  <g id="Frames-24px">
    <rect width="24" height="24" fill="none"/>
  </g>
</svg>
