<svg xmlns="http://www.w3.org/2000/svg" width="24" height="24" viewBox="0 0 24 24">
  <title>bubble-chat-text-question</title>
  <g id="Duotone">
    <polygon points="20.5 15.125 20.5 1.5 0.5 1.5 0.5 20.5 5.5 15.5 12.5 15.5 15.833 15.5 14.5 16.25 14.5 20.75 18.5 23 22.5 20.75 22.5 16.25 20.5 15.125" fill="#fff"/>
    <polygon points="4.5 13.5 0.5 17.5 0.5 20.5 5.5 15.5 12.5 15.5 12.5 13.5 4.5 13.5" fill="#cce7ff"/>
    <polygon points="22.5 16.25 22.5 20.75 18.5 23 14.5 20.75 22.5 16.25" fill="#cce7ff"/>
    <g>
      <polyline points="12.5 15.5 5.5 15.5 0.5 20.5 0.5 1.5 20.5 1.5 20.5 12.5" fill="none" stroke="#1078ff" stroke-linecap="round" stroke-linejoin="round"/>
      <line x1="4.5" y1="5.5" x2="16.5" y2="5.5" fill="none" stroke="#1078ff" stroke-linecap="round" stroke-linejoin="round"/>
      <line x1="4.5" y1="8.5" x2="16.5" y2="8.5" fill="none" stroke="#1078ff" stroke-linecap="round" stroke-linejoin="round"/>
      <line x1="4.5" y1="11.5" x2="10.5" y2="11.5" fill="none" stroke="#1078ff" stroke-linecap="round" stroke-linejoin="round"/>
    </g>
    <polygon points="22.5 20.75 18.5 23 14.5 20.75 14.5 16.25 18.5 14 22.5 16.25 22.5 20.75" fill="none" stroke="#1078ff" stroke-linecap="round" stroke-linejoin="round"/>
    <polyline points="16.5 17.5 16.5 17 18.5 16 20.5 17 20.5 18 18.5 19 18.5 19.5" fill="none" stroke="#1078ff" stroke-linecap="round" stroke-linejoin="round"/>
    <line x1="18.5" y1="21" x2="18.5" y2="21" fill="none" stroke="#1078ff" stroke-linecap="round" stroke-linejoin="round"/>
  </g>
  <g id="Frames-24px">
    <rect width="24" height="24" fill="none"/>
  </g>
</svg>
