<svg xmlns="http://www.w3.org/2000/svg" width="24" height="24" viewBox="0 0 24 24">
  <title>bubble-chat-favorite-heart-3</title>
  <g id="Duotone">
    <polygon points="22.5 5.326 11.5 1.5 0.5 5.326 0.5 16.804 9.5 19.5 9.5 23.5 22.5 16.804 22.5 5.326" fill="#fff"/>
    <polygon points="20 4.5 20 14.848 9.5 20.256 9.5 23.544 22.5 16.848 22.5 5.37 20 4.5" fill="#cce7ff"/>
    <polygon points="17 10 14.5 6.5 11.5 9 11.5 15.5 17 10" fill="#cce7ff"/>
    <polygon points="22.5 5.326 11.5 1.5 0.5 5.326 0.5 16.804 9.5 19.5 9.5 23.5 22.5 16.804 22.5 5.326" fill="none" stroke="#1078ff" stroke-linecap="round" stroke-linejoin="round"/>
    <polygon points="11.5 15.5 17 10 14.5 6.5 11.5 9 8.5 6.5 6 10 11.5 15.5" fill="none" stroke="#1078ff" stroke-linecap="round" stroke-linejoin="round"/>
  </g>
  <g id="Frames-24px">
    <rect width="24" height="24" fill="none"/>
  </g>
</svg>
