<svg xmlns="http://www.w3.org/2000/svg" width="24" height="24" viewBox="0 0 24 24">
  <title>bubble-chat-favorite-heart-2</title>
  <g id="Duotone">
    <polygon points="23.5 16.5 5.5 16.5 0.5 21.5 0.5 0.5 23.5 0.5 23.5 16.5" fill="#fff"/>
    <polygon points="4.5 14.5 0.5 18.5 0.5 21.5 5.5 16.5 23.5 16.5 23.5 14.5 4.5 14.5" fill="#cce7ff"/>
    <polygon points="18 8 15.5 4.5 12.5 7 12.5 13.5 18 8" fill="#cce7ff"/>
    <polygon points="23.5 16.5 5.5 16.5 0.5 21.5 0.5 0.5 23.5 0.5 23.5 16.5" fill="none" stroke="#1078ff" stroke-linecap="round" stroke-linejoin="round"/>
    <polygon points="12.5 13.5 18 8 15.5 4.5 12.5 7 9.5 4.5 7 8 12.5 13.5" fill="none" stroke="#1078ff" stroke-linecap="round" stroke-linejoin="round"/>
  </g>
  <g id="Frames-24px">
    <rect width="24" height="24" fill="none"/>
  </g>
</svg>
