<svg xmlns="http://www.w3.org/2000/svg" width="24" height="24" viewBox="0 0 24 24">
  <title>bubble-chat-typing-1</title>
  <g id="Duotone">
    <polygon points="23.5 16.5 5.5 16.5 0.5 21.5 0.5 0.5 23.5 0.5 23.5 16.5" fill="#fff"/>
    <polygon points="4.5 14.5 0.5 18.5 0.5 21.5 5.5 16.5 23.5 16.5 23.5 14.5 4.5 14.5" fill="#cce7ff"/>
    <rect x="5.439" y="7.94" width="2.122" height="2.121" transform="translate(-4.461 7.234) rotate(-45.01)" fill="#cce7ff"/>
    <rect x="11.439" y="7.94" width="2.122" height="2.121" transform="translate(-2.702 11.477) rotate(-45.01)" fill="#cce7ff"/>
    <rect x="17.439" y="7.94" width="2.121" height="2.121" transform="translate(-0.944 15.721) rotate(-45.01)" fill="#cce7ff"/>
    <rect x="5.439" y="7.94" width="2.122" height="2.121" transform="translate(-4.461 7.234) rotate(-45.01)" fill="none" stroke="#1078ff" stroke-linecap="round" stroke-linejoin="round"/>
    <rect x="11.439" y="7.94" width="2.122" height="2.121" transform="translate(-2.702 11.477) rotate(-45.01)" fill="none" stroke="#1078ff" stroke-linecap="round" stroke-linejoin="round"/>
    <rect x="17.439" y="7.94" width="2.121" height="2.121" transform="translate(-0.944 15.721) rotate(-45.01)" fill="none" stroke="#1078ff" stroke-linecap="round" stroke-linejoin="round"/>
    <polygon points="23.5 16.5 5.5 16.5 0.5 21.5 0.5 0.5 23.5 0.5 23.5 16.5" fill="none" stroke="#1078ff" stroke-linecap="round" stroke-linejoin="round"/>
  </g>
  <g id="Frames-24px">
    <rect width="24" height="24" fill="none"/>
  </g>
</svg>
