<svg xmlns="http://www.w3.org/2000/svg" width="24" height="24" viewBox="0 0 24 24">
  <title>bubble-chat-double-warning-question-1</title>
  <g id="Duotone">
    <polygon points="16.5 11.5 15.833 11.767 18.5 9.5 18.5 5.413 9.5 1.5 0.5 5.413 0.5 13.239 6.5 15.587 6.5 19.5 8.5 18 10.5 16.3 10.5 19.5 17.5 23.5 17.5 20.5 22.5 19 22.5 13.9 16.5 11.5" fill="#fff"/>
    <polygon points="16 22.643 17.5 23.5 17.5 20.5 22.5 19 22.5 13.9 21 13.3 21 17.5 16 19 16 22.643" fill="#cce7ff"/>
    <polyline points="18.5 9.5 18.5 5.413 9.5 1.5 0.5 5.413 0.5 13.239 6.5 15.587 6.5 19.5 8.5 18" fill="none" stroke="#1078ff" stroke-linecap="round" stroke-linejoin="round"/>
    <polygon points="10.5 13.9 16.5 11.5 22.5 13.9 22.5 19 17.5 20.5 17.5 23.5 10.5 19.5 10.5 13.9" fill="none" stroke="#1078ff" stroke-linecap="round" stroke-linejoin="round"/>
    <line x1="16.5" y1="14" x2="16.5" y2="16.5" fill="none" stroke="#1078ff" stroke-linecap="round" stroke-linejoin="round"/>
    <polyline points="7.5 6.5 7.5 5.298 9.5 4 11.5 5.298 11.5 7.298 9.5 9 9.5 9.5" fill="none" stroke="#1078ff" stroke-linecap="round" stroke-linejoin="round"/>
    <line x1="9.5" y1="11.5" x2="9.5" y2="12" fill="none" stroke="#1078ff" stroke-linecap="round" stroke-linejoin="round"/>
    <line x1="16.5" y1="18.5" x2="16.5" y2="19" fill="none" stroke="#1078ff" stroke-linecap="round" stroke-linejoin="round"/>
  </g>
  <g id="Frames-24px">
    <rect width="24" height="24" fill="none"/>
  </g>
</svg>
