<svg xmlns="http://www.w3.org/2000/svg" width="24" height="24" viewBox="0 0 24 24">
  <title>bubble-chat-1</title>
  <g id="Duotone">
    <polygon points="22.5 16.5 5.5 16.5 0.5 21.5 0.5 1.5 22.5 1.5 22.5 16.5" fill="#fff"/>
    <polygon points="4.5 14.5 0.5 18.5 0.5 21.5 5.5 16.5 22.5 16.5 22.5 14.5 4.5 14.5" fill="#cce7ff"/>
    <polygon points="22.5 16.5 5.5 16.5 0.5 21.5 0.5 1.5 22.5 1.5 22.5 16.5" fill="none" stroke="#1078ff" stroke-linecap="round" stroke-linejoin="round"/>
  </g>
  <g id="Frames-24px">
    <rect width="24" height="24" fill="none"/>
  </g>
</svg>
