<svg xmlns="http://www.w3.org/2000/svg" width="24" height="24" viewBox="0 0 24 24">
  <title>bubble-chat-warning-1</title>
  <g id="Duotone">
    <polygon points="23.5 16.5 5.5 16.5 0.5 21.5 0.5 0.5 23.5 0.5 23.5 16.5" fill="#fff"/>
    <polygon points="4.5 14.5 0.5 18.5 0.5 21.5 5.5 16.5 23.5 16.5 23.5 14.5 4.5 14.5" fill="#cce7ff"/>
    <g>
      <polygon points="11.5 10.5 13.5 10.5 14 3.5 11 3.5 11.5 10.5" fill="#cce7ff"/>
      <rect x="11.5" y="12.5" width="2" height="2" fill="#cce7ff"/>
    </g>
    <g>
      <polygon points="11.5 10.5 13.5 10.5 14 3.5 11 3.5 11.5 10.5" fill="none" stroke="#1078ff" stroke-linecap="round" stroke-linejoin="round"/>
      <rect x="11.5" y="12.5" width="2" height="2" fill="none" stroke="#1078ff" stroke-linecap="round" stroke-linejoin="round"/>
    </g>
    <polygon points="23.5 16.5 5.5 16.5 0.5 21.5 0.5 0.5 23.5 0.5 23.5 16.5" fill="none" stroke="#1078ff" stroke-linecap="round" stroke-linejoin="round"/>
  </g>
  <g id="Frames-24px">
    <rect width="24" height="24" fill="none"/>
  </g>
</svg>
