<svg xmlns="http://www.w3.org/2000/svg" width="24" height="24" viewBox="0 0 24 24">
  <title>bubble-chat-typing-3</title>
  <g id="Duotone">
    <polygon points="22.5 5.326 11.5 1.5 0.5 5.326 0.5 16.804 9.5 19.5 9.5 23.5 22.5 16.804 22.5 5.326" fill="#fff"/>
    <polygon points="20 4.5 20 14.848 9.5 20.256 9.5 23.544 22.5 16.848 22.5 5.37 20 4.5" fill="#cce7ff"/>
    <rect x="4.439" y="9.44" width="2.122" height="2.121" transform="translate(-5.814 6.966) rotate(-45.01)" fill="#cce7ff"/>
    <rect x="10.439" y="9.44" width="2.122" height="2.121" transform="translate(-4.056 11.21) rotate(-45.01)" fill="#cce7ff"/>
    <rect x="16.439" y="9.44" width="2.121" height="2.121" transform="translate(-2.298 15.453) rotate(-45.01)" fill="#cce7ff"/>
    <polygon points="22.5 5.326 11.5 1.5 0.5 5.326 0.5 16.804 9.5 19.5 9.5 23.5 22.5 16.804 22.5 5.326" fill="none" stroke="#1078ff" stroke-linecap="round" stroke-linejoin="round"/>
    <rect x="4.439" y="9.44" width="2.122" height="2.121" transform="translate(-5.814 6.966) rotate(-45.01)" fill="none" stroke="#1078ff" stroke-linecap="round" stroke-linejoin="round"/>
    <rect x="10.439" y="9.44" width="2.122" height="2.121" transform="translate(-4.056 11.21) rotate(-45.01)" fill="none" stroke="#1078ff" stroke-linecap="round" stroke-linejoin="round"/>
    <rect x="16.439" y="9.44" width="2.121" height="2.121" transform="translate(-2.298 15.453) rotate(-45.01)" fill="none" stroke="#1078ff" stroke-linecap="round" stroke-linejoin="round"/>
  </g>
  <g id="Frames-24px">
    <rect width="24" height="24" fill="none"/>
  </g>
</svg>
