<svg xmlns="http://www.w3.org/2000/svg" width="24" height="24" viewBox="0 0 24 24">
  <title>bubble-chat-text-edit</title>
  <g id="Duotone">
    <polygon points="20.5 13.621 20.5 1.5 0.5 1.5 0.5 20.5 5.5 15.5 12.5 15.5 18.379 15.5 13.111 20.768 12.5 23.5 15.232 22.889 22.5 15.622 20.5 13.621" fill="#fff"/>
    <polygon points="4.5 13.5 0.5 17.5 0.5 20.5 5.5 15.5 14.5 15.5 14.5 13.5 4.5 13.5" fill="#cce7ff"/>
    <polygon points="21.449 14.571 12.526 23.494 15.232 22.889 22.5 15.622 21.449 14.571" fill="#cce7ff"/>
    <polyline points="14.5 15.5 5.5 15.5 0.5 20.5 0.5 1.5 20.5 1.5 20.5 11.5" fill="none" stroke="#1078ff" stroke-linecap="round" stroke-linejoin="round"/>
    <line x1="4.5" y1="5.5" x2="16.5" y2="5.5" fill="none" stroke="#1078ff" stroke-linecap="round" stroke-linejoin="round"/>
    <line x1="4.5" y1="8.5" x2="16.5" y2="8.5" fill="none" stroke="#1078ff" stroke-linecap="round" stroke-linejoin="round"/>
    <line x1="4.5" y1="11.5" x2="10.5" y2="11.5" fill="none" stroke="#1078ff" stroke-linecap="round" stroke-linejoin="round"/>
    <polygon points="13.111 20.768 20.379 13.5 22.5 15.622 15.232 22.889 12.5 23.5 13.111 20.768" fill="none" stroke="#1078ff" stroke-linecap="round" stroke-linejoin="round"/>
  </g>
  <g id="Frames-24px">
    <rect width="24" height="24" fill="none"/>
  </g>
</svg>
