<svg xmlns="http://www.w3.org/2000/svg" width="24" height="24" viewBox="0 0 24 24">
  <title>bubble-chat-picture-1</title>
  <g id="Duotone">
    <polygon points="23.5 16.5 5.5 16.5 0.5 21.5 0.5 0.5 23.5 0.5 23.5 16.5" fill="#fff"/>
    <polygon points="7.5 4.75 7.5 6.75 5.5 8 3.5 6.75 7.5 4.75" fill="#cce7ff"/>
    <polygon points="4.5 14.5 0.5 18.5 0.5 21.5 5.5 16.5 23.5 16.5 23.5 14.5 4.5 14.5" fill="#cce7ff"/>
    <polygon points="15.911 7.213 13.5 13 11 11.5 9.5 13.5 18.5 13.5 15.911 7.213" fill="#cce7ff"/>
    <polygon points="23.5 16.5 5.5 16.5 0.5 21.5 0.5 0.5 23.5 0.5 23.5 16.5" fill="none" stroke="#1078ff" stroke-linecap="round" stroke-linejoin="round"/>
    <polygon points="7.5 6.75 5.5 8 3.5 6.75 3.5 4.75 5.5 3.5 7.5 4.75 7.5 6.75" fill="none" stroke="#1078ff" stroke-linecap="round" stroke-linejoin="round"/>
    <polygon points="15 5 12.5 11 10 9.5 7 13.5 18.5 13.5 15 5" fill="none" stroke="#1078ff" stroke-linecap="round" stroke-linejoin="round"/>
    <line x1="4.5" y1="13.5" x2="20.5" y2="13.5" fill="none" stroke="#1078ff" stroke-linecap="round" stroke-linejoin="round"/>
    <polygon points="15 5 12.5 11 10 9.5 7 13.5 18.5 13.5 15 5" fill="none" stroke="#1078ff" stroke-linecap="round" stroke-linejoin="round"/>
  </g>
  <g id="Frames-24px">
    <rect width="24" height="24" fill="none"/>
  </g>
</svg>
