<?xml version="1.0" encoding="utf-8"?>
<!-- Generator: Adobe Illustrator 21.0.2, SVG Export Plug-In . SVG Version: 6.00 Build 0)  -->
<svg version="1.1" xmlns="http://www.w3.org/2000/svg" xmlns:xlink="http://www.w3.org/1999/xlink" x="0px" y="0px"
	 viewBox="0 0 24 24" style="enable-background:new 0 0 24 24;" xml:space="preserve">
<style type="text/css">
	.st0{fill:#FFFFFF;}
	.st1{fill:#CCE7FF;}
	.st2{fill:none;stroke:#1078FF;stroke-linecap:round;stroke-linejoin:round;stroke-miterlimit:10;}
	.st3{fill:none;}
</style>
<g id="Duotone">
	<polygon class="st0" points="21.5,18 11.5,23.5 1.5,18 1.5,7 11.5,1.5 21.5,7 	"/>
	<polygon class="st1" points="19.5,16.5 11.5,21 3.5,16.5 1.5,18 11.5,23.5 21.5,18 	"/>
	<g>
		<polygon class="st1" points="12.5,10.5 14.5,5.5 8.5,5.5 10.5,10.5 		"/>
		<polygon class="st1" points="9.3,12.6 3.9,13.4 6.9,18.6 10.3,14.4 		"/>
		<polygon class="st1" points="12.7,14.4 16.1,18.6 19.1,13.4 13.7,12.6 		"/>
	</g>
	<polygon class="st2" points="21.5,18 11.5,23.5 1.5,18 1.5,7 11.5,1.5 21.5,7 	"/>
	<g>
		<polygon class="st2" points="12.5,10.5 14.5,5.5 8.5,5.5 10.5,10.5 		"/>
		<polygon class="st2" points="9.3,12.6 3.9,13.4 6.9,18.6 10.3,14.4 		"/>
		<polygon class="st2" points="12.7,14.4 16.1,18.6 19.1,13.4 13.7,12.6 		"/>
	</g>
</g>
<g id="Frames-24px">
	<rect class="st3" width="24" height="24"/>
</g>
</svg>
