<svg xmlns="http://www.w3.org/2000/svg" width="24" height="24" viewBox="0 0 24 24">
  <title>delivery-truck-6</title>
  <g id="Duotone">
    <rect x="0.5" y="2.5" width="12" height="18" fill="#fff"/>
    <polygon points="23.5 17.5 23.5 12.5 21.5 7.5 14.5 7.5 14.5 17.5 23.5 17.5" fill="#fff"/>
    <polygon points="10.5 14 8.5 12.5 6.5 14 4.5 12.5 2.5 14 0.5 12.5 0.5 14.499 2.5 15.999 4.5 14.499 6.5 15.999 8.5 14.499 10.5 15.999 12.5 14.499 12.5 12.5 10.5 14" fill="#cce7ff"/>
    <polygon points="14.5 17.5 14.5 20.5 17.5 20.5 17.5 22 19 23 20.5 22 20.5 20.5 23.5 20.5 23.5 17.5 14.5 17.5" fill="#cce7ff"/>
    <polygon points="0.5 17.5 0.5 20.5 2.5 20.5 2.5 22 4 23 5.5 22 5.5 20.5 7.5 20.5 7.5 22 9 23 10.5 22 10.5 20.5 12.5 20.5 12.5 17.5 0.5 17.5" fill="#cce7ff"/>
    <polygon points="18.323 12.324 19.5 13.5 21.5 13.5 20.573 9.793 18.323 12.324" fill="#cce7ff"/>
    <polygon points="19 7.5 14.5 7.5 14.5 4.5 19 7.5" fill="#cce7ff"/>
    <g>
      <polyline points="22.5 20.5 23.5 20.5 23.5 18 23.5 12.5 21.5 7.5 14.5 7.5 14.5 20.5" fill="none" stroke="#1078ff" stroke-linecap="round" stroke-linejoin="round"/>
      <polyline points="12.5 20.5 12.5 2.5 0.5 2.5" fill="none" stroke="#1078ff" stroke-linecap="round" stroke-linejoin="round"/>
      <line x1="14.5" y1="19.5" x2="12.5" y2="19.5" fill="none" stroke="#1078ff" stroke-linecap="round" stroke-linejoin="round"/>
      <polyline points="12.5 12.5 10.5 14 8.5 12.5 6.5 14 4.5 12.5 2.5 14 0.5 12.5" fill="none" stroke="#1078ff" stroke-linecap="round" stroke-linejoin="round"/>
      <line x1="8.5" y1="10.5" x2="8.5" y2="4.5" fill="none" stroke="#1078ff" stroke-linecap="round" stroke-linejoin="round"/>
      <line x1="4.5" y1="10.5" x2="4.5" y2="4.5" fill="none" stroke="#1078ff" stroke-linecap="round" stroke-linejoin="round"/>
      <line x1="23.5" y1="17.5" x2="14.5" y2="17.5" fill="none" stroke="#1078ff" stroke-linecap="round" stroke-linejoin="round"/>
      <line x1="12.5" y1="17.5" x2="0.5" y2="17.5" fill="none" stroke="#1078ff" stroke-linecap="round" stroke-linejoin="round"/>
      <line x1="0.5" y1="20.5" x2="1" y2="20.5" fill="none" stroke="#1078ff" stroke-linecap="round" stroke-linejoin="round"/>
      <line x1="23.5" y1="15.5" x2="22" y2="15.5" fill="none" stroke="#1078ff" stroke-linecap="round" stroke-linejoin="round"/>
      <line x1="22.5" y1="7.5" x2="21.5" y2="7.5" fill="none" stroke="#1078ff" stroke-linecap="round" stroke-linejoin="round"/>
      <polygon points="20.5 22 19 23 17.5 22 17.5 20.5 19 19.5 20.5 20.5 20.5 22" fill="none" stroke="#1078ff" stroke-linejoin="round"/>
      <polygon points="10.5 22 9 23 7.5 22 7.5 20.5 9 19.5 10.5 20.5 10.5 22" fill="none" stroke="#1078ff" stroke-linejoin="round"/>
      <polygon points="5.5 22 4 23 2.5 22 2.5 20.5 4 19.5 5.5 20.5 5.5 22" fill="none" stroke="#1078ff" stroke-linejoin="round"/>
      <polygon points="17.5 11.5 19.5 13.5 21.5 13.5 20.5 9.5 17.5 9.5 17.5 11.5" fill="none" stroke="#1078ff" stroke-linecap="round" stroke-linejoin="round"/>
      <polygon points="19 7.5 14.5 7.5 14.5 4.5 19 7.5" fill="none" stroke="#1078ff" stroke-linecap="round" stroke-linejoin="round"/>
    </g>
  </g>
  <g id="Frames-24px">
    <rect width="24" height="24" fill="none"/>
  </g>
</svg>
