<svg xmlns="http://www.w3.org/2000/svg" width="24" height="24" viewBox="0 0 24 24">
  <title>delivery-truck-8</title>
  <g id="Duotone">
    <polygon points="23.5 20.5 23.5 15.5 21 11.5 17.192 11.5 17.5 7.5 2.5 7.5 1.5 20.5 23.5 20.5" fill="#fff"/>
    <polygon points="9.5 22.25 7.5 23.5 5.5 22.25 5.5 19.75 7.5 18.5 9.5 19.75 9.5 22.25" fill="#fff"/>
    <polygon points="19.5 15.5 23.5 15.5 21.622 12.494 19.5 15.5" fill="#cce7ff"/>
    <polygon points="9.5 19.75 9.5 22.25 7.5 23.5 5.5 22.25 9.5 19.75" fill="#cce7ff"/>
    <polygon points="21.5 20.5 21.5 22.25 19.5 23.5 17.5 22.25 17.5 20.5 21.5 20.5" fill="#cce7ff"/>
    <g>
      <polygon points="1.5 20.5 5.5 20.5 5.5 19.75 7.5 18.5 1.654 18.5 1.5 20.5" fill="#cce7ff"/>
      <polygon points="7.5 18.5 9.5 19.75 9.5 20.5 23.5 20.5 23.5 18.5 7.5 18.5" fill="#cce7ff"/>
    </g>
    <g>
      <polyline points="19 11.5 19.5 15.5 23.5 15.5" fill="none" stroke="#1078ff" stroke-linecap="round" stroke-linejoin="round"/>
      <line x1="23.5" y1="18.5" x2="21.5" y2="18.5" fill="none" stroke="#1078ff" stroke-linecap="round" stroke-linejoin="round"/>
      <line x1="11.5" y1="18.5" x2="16.654" y2="18.5" fill="none" stroke="#1078ff" stroke-linecap="round" stroke-linejoin="round"/>
      <line x1="0.5" y1="18.5" x2="3.5" y2="18.5" fill="none" stroke="#1078ff" stroke-linecap="round" stroke-linejoin="round"/>
      <polyline points="5.5 20.5 1.5 20.5 2.5 7.5 17.5 7.5 16.5 20.5 9.5 20.5" fill="none" stroke="#1078ff" stroke-linecap="round" stroke-linejoin="round"/>
      <polyline points="16.5 20.5 23.5 20.5 23.5 15.5 21 11.5 17.192 11.5" fill="none" stroke="#1078ff" stroke-linecap="round" stroke-linejoin="round"/>
      <polygon points="9.5 22.25 7.5 23.5 5.5 22.25 5.5 19.75 7.5 18.5 9.5 19.75 9.5 22.25" fill="none" stroke="#1078ff" stroke-linejoin="round"/>
      <polyline points="21.5 20.5 21.5 22.25 19.5 23.5 17.5 22.25 17.5 20.5" fill="none" stroke="#1078ff" stroke-linejoin="round"/>
    </g>
  </g>
  <g id="Frames-24px">
    <rect width="24" height="24" fill="none"/>
  </g>
</svg>
