<svg xmlns="http://www.w3.org/2000/svg" width="24" height="24" viewBox="0 0 24 24">
  <title>delivery-mobile</title>
  <g id="Duotone">
    <rect x="4.5" y="0.5" width="14" height="23" fill="#fff"/>
    <polygon points="14.63 5.752 16.5 6.5 16.5 12.5 11.5 14.5 8.943 13.47 4.5 19.5 18.5 19.5 18.5 0.5 14.63 5.752" fill="#cce7ff"/>
    <g>
      <polyline points="6.5 6.515 6.5 12.485 11.5 14.5 16.5 12.5 16.5 6.5" fill="none" stroke="#1078ff" stroke-linecap="round" stroke-linejoin="round"/>
      <polyline points="6.5 6.515 11.5 8.5 16.5 6.5" fill="none" stroke="#1078ff" stroke-linecap="round" stroke-linejoin="round"/>
      <line x1="9.095" y1="5.469" x2="14.095" y2="7.454" fill="none" stroke="#1078ff" stroke-linecap="round" stroke-linejoin="round"/>
      <polyline points="6.5 6.515 11.5 4.5 16.5 6.5" fill="none" stroke="#1078ff" stroke-linecap="round" stroke-linejoin="round"/>
      <line x1="11.5" y1="8.5" x2="11.5" y2="14.5" fill="none" stroke="#1078ff" stroke-linecap="round" stroke-linejoin="round"/>
      <line x1="4.5" y1="19.5" x2="18.5" y2="19.5" fill="none" stroke="#1078ff" stroke-linecap="round" stroke-linejoin="round"/>
      <rect x="4.5" y="0.5" width="14" height="23" fill="none" stroke="#1078ff" stroke-linecap="round" stroke-linejoin="round"/>
      <line x1="10.5" y1="21.5" x2="12.5" y2="21.5" fill="none" stroke="#1078ff" stroke-linecap="round" stroke-linejoin="round"/>
    </g>
  </g>
  <g id="Frames-24px">
    <rect width="24" height="24" fill="none"/>
  </g>
</svg>
