<svg xmlns="http://www.w3.org/2000/svg" width="24" height="24" viewBox="0 0 24 24">
  <title>package-alert</title>
  <g id="Duotone">
    <polygon points="23 22.5 19.333 16.5 19.5 16.5 19.5 0.5 0.5 0.5 0.5 16.5 15.667 16.5 12 22.5 23 22.5" fill="#fff"/>
    <polygon points="12.5 6.5 10 5 7.5 6.5 7.5 0.5 12.5 0.5 12.5 6.5" fill="#cce7ff"/>
    <polygon points="23 22.5 17.5 22.5 17.5 13.5 23 22.5" fill="#cce7ff"/>
    <g>
      <polygon points="16.889 14.5 0.5 14.5 0.5 16.5 15.667 16.5 16.889 14.5" fill="#cce7ff"/>
      <polygon points="19.333 16.5 19.5 16.5 19.5 14.5 18.111 14.5 19.333 16.5" fill="#cce7ff"/>
    </g>
    <g>
      <g>
        <line x1="17.5" y1="17" x2="17.5" y2="18.5" fill="none" stroke="#1078ff" stroke-linecap="round" stroke-miterlimit="10"/>
        <line x1="17.5" y1="20" x2="17.5" y2="20.5" fill="none" stroke="#1078ff" stroke-linecap="round" stroke-miterlimit="10"/>
        <polygon points="23 22.5 12 22.5 17.5 13.5 23 22.5" fill="none" stroke="#1078ff" stroke-linejoin="round"/>
      </g>
      <g>
        <polyline points="12.5 16.5 0.5 16.5 0.5 0.5 19.5 0.5 19.5 11.5" fill="none" stroke="#1078ff" stroke-linecap="round" stroke-linejoin="round"/>
        <polygon points="12.5 6.5 10 5 7.5 6.5 7.5 0.5 12.5 0.5 12.5 6.5" fill="none" stroke="#1078ff" stroke-linejoin="round"/>
      </g>
    </g>
  </g>
  <g id="Frames-24px">
    <rect width="24" height="24" fill="none"/>
  </g>
</svg>
