<svg xmlns="http://www.w3.org/2000/svg" width="24" height="24" viewBox="0 0 24 24">
  <title>package-truck</title>
  <g id="Duotone">
    <polygon points="21.833 9.5 22.5 5.5 19.5 5.5 19.5 0.5 3.5 0.5 3.5 5.5 0.5 5.5 1.167 9.5 3.5 9.5 3.5 17.5 2 17.5 3 19.5 7.5 19.5 7.5 21.5 15.5 21.5 15.5 19.5 20 19.5 21 17.5 19.5 17.5 19.5 9.5 21.833 9.5" fill="#fff"/>
    <rect x="5.5" y="12.5" width="12" height="5" fill="#fff"/>
    <rect x="8.5" y="8.5" width="6" height="4" fill="#fff"/>
    <rect x="5.5" y="15.5" width="12" height="2" fill="#cce7ff"/>
    <rect x="3.5" y="2.5" width="16" height="2" fill="#cce7ff"/>
    <rect x="8.5" y="10.5" width="6" height="2" fill="#cce7ff"/>
    <polygon points="7.5 19.5 7.5 22.75 6 23.5 4.5 22.75 4.5 19.5 7.5 19.5" fill="#cce7ff"/>
    <polygon points="18.5 19.5 18.5 22.75 17 23.5 15.5 22.75 15.5 19.5 18.5 19.5" fill="#cce7ff"/>
    <polygon points="3.5 6.5 3.5 17.5 5.5 17.5 5.5 12.5 8.5 12.5 8.5 8.5 14.5 8.5 14.5 12.5 17.5 12.5 17.5 17.5 19.5 17.5 19.5 6.5 3.5 6.5" fill="#cce7ff"/>
    <g>
      <rect x="11.5" y="12.5" width="6" height="5" fill="none" stroke="#1078ff" stroke-linecap="round" stroke-linejoin="round"/>
      <line x1="3.5" y1="2.5" x2="19.5" y2="2.5" fill="none" stroke="#1078ff" stroke-linecap="round" stroke-linejoin="round"/>
      <line x1="3.5" y1="4.5" x2="19.5" y2="4.5" fill="none" stroke="#1078ff" stroke-linecap="round" stroke-linejoin="round"/>
      <polyline points="3.5 17.5 3.5 0.5 19.5 0.5 19.5 17.5" fill="none" stroke="#1078ff" stroke-linecap="round" stroke-linejoin="round"/>
      <line x1="14.5" y1="12.5" x2="14.5" y2="14.5" fill="none" stroke="#1078ff" stroke-linecap="round" stroke-linejoin="round"/>
      <rect x="5.5" y="12.5" width="6" height="5" fill="none" stroke="#1078ff" stroke-linecap="round" stroke-linejoin="round"/>
      <line x1="8.5" y1="12.5" x2="8.5" y2="14.5" fill="none" stroke="#1078ff" stroke-linecap="round" stroke-linejoin="round"/>
      <rect x="8.5" y="8.5" width="6" height="4" fill="none" stroke="#1078ff" stroke-linecap="round" stroke-linejoin="round"/>
      <line x1="11.5" y1="8.5" x2="11.5" y2="10.5" fill="none" stroke="#1078ff" stroke-linecap="round" stroke-linejoin="round"/>
      <line x1="3.5" y1="6.5" x2="19.5" y2="6.5" fill="none" stroke="#1078ff" stroke-linecap="round" stroke-linejoin="round"/>
      <polygon points="3.5 11.5 1.5 11.5 0.5 5.5 3.5 5.5 3.5 11.5" fill="none" stroke="#1078ff" stroke-linecap="round" stroke-linejoin="round"/>
      <polygon points="19.5 11.5 21.5 11.5 22.5 5.5 19.5 5.5 19.5 11.5" fill="none" stroke="#1078ff" stroke-linecap="round" stroke-linejoin="round"/>
      <line x1="19.5" y1="9.5" x2="21.833" y2="9.5" fill="none" stroke="#1078ff" stroke-linecap="round" stroke-linejoin="round"/>
      <line x1="1.167" y1="9.5" x2="3.5" y2="9.5" fill="none" stroke="#1078ff" stroke-linecap="round" stroke-linejoin="round"/>
      <rect x="7.5" y="19.5" width="8" height="2" fill="none" stroke="#1078ff" stroke-linejoin="round"/>
      <polyline points="7.5 19.5 7.5 22.75 6 23.5 4.5 22.75 4.5 19.5" fill="none" stroke="#1078ff" stroke-linejoin="round"/>
      <polyline points="18.5 19.5 18.5 22.75 17 23.5 15.5 22.75 15.5 19.5" fill="none" stroke="#1078ff" stroke-linejoin="round"/>
      <polygon points="20 19.5 3 19.5 2 17.5 21 17.5 20 19.5" fill="none" stroke="#1078ff" stroke-linecap="round" stroke-linejoin="round"/>
    </g>
  </g>
  <g id="Frames-24px">
    <rect width="24" height="24" fill="none"/>
  </g>
</svg>
