<svg xmlns="http://www.w3.org/2000/svg" width="24" height="24" viewBox="0 0 24 24">
  <title>package-forward</title>
  <g id="Duotone">
    <rect x="0.5" y="3.5" width="19" height="16" fill="#fff"/>
    <rect x="0.5" y="17.5" width="19" height="2" fill="#cce7ff"/>
    <polygon points="12.5 9.5 10 8 7.5 9.5 7.5 3.5 12.5 3.5 12.5 9.5" fill="#cce7ff"/>
    <g>
      <g>
        <polyline points="11.5 19.5 0.5 19.5 0.5 3.5 19.5 3.5 19.5 14.5" fill="none" stroke="#1078ff" stroke-linecap="round" stroke-linejoin="round"/>
        <polygon points="12.5 9.5 10 8 7.5 9.5 7.5 3.5 12.5 3.5 12.5 9.5" fill="none" stroke="#1078ff" stroke-linejoin="round"/>
      </g>
      <polyline points="23.5 17.5 17.5 17.5 13.5 21.5" fill="none" stroke="#1078ff" stroke-linecap="round" stroke-linejoin="round"/>
      <polyline points="21.5 19.5 23.5 17.5 21.5 15.5" fill="none" stroke="#1078ff" stroke-linecap="round" stroke-linejoin="round"/>
    </g>
  </g>
  <g id="Frames-24px">
    <rect width="24" height="24" fill="none"/>
  </g>
</svg>
