<svg xmlns="http://www.w3.org/2000/svg" width="24" height="24" viewBox="0 0 24 24">
  <title>package-stack-1</title>
  <g id="Duotone">
    <polygon points="19.5 10.5 17.5 10.5 17.5 3.5 14.5 1.5 7.5 1.5 4.5 3.5 4.5 10.5 3.5 10.5 0.5 12.5 0.5 22.5 11.5 22.5 22.5 22.5 22.5 12.5 19.5 10.5" fill="#fff"/>
    <rect x="0.5" y="20.5" width="22" height="2" fill="#cce7ff"/>
    <polygon points="14.5 1.5 7.5 1.5 4.5 3.5 9.5 3.5 9.5 7.5 11 6.5 12.5 7.5 12.5 3.5 17.5 3.5 14.5 1.5" fill="#cce7ff"/>
    <polygon points="19.5 10.5 3.5 10.5 0.5 12.5 4.5 12.5 4.5 16.5 6 15.5 7.5 16.5 7.5 12.5 15.5 12.5 15.5 16.5 17 15.5 18.5 16.5 18.5 12.5 22.5 12.5 19.5 10.5" fill="#cce7ff"/>
    <g>
      <rect x="0.5" y="12.5" width="11" height="10" fill="none" stroke="#1078ff" stroke-linecap="round" stroke-linejoin="round"/>
      <rect x="11.5" y="12.5" width="11" height="10" fill="none" stroke="#1078ff" stroke-linecap="round" stroke-linejoin="round"/>
      <rect x="4.5" y="3.5" width="13" height="9" fill="none" stroke="#1078ff" stroke-linecap="round" stroke-linejoin="round"/>
      <polygon points="17.5 3.5 4.5 3.5 7.5 1.5 14.5 1.5 17.5 3.5" fill="none" stroke="#1078ff" stroke-linecap="round" stroke-linejoin="round"/>
      <polyline points="0.5 12.5 3.5 10.5 4.5 10.5" fill="none" stroke="#1078ff" stroke-linecap="round" stroke-linejoin="round"/>
      <polyline points="22.5 12.5 19.5 10.5 17.5 10.5" fill="none" stroke="#1078ff" stroke-linecap="round" stroke-linejoin="round"/>
      <polygon points="12.5 7.5 11 6.5 9.5 7.5 9.5 3.5 12.5 3.5 12.5 7.5" fill="none" stroke="#1078ff" stroke-linecap="round" stroke-linejoin="round"/>
      <polygon points="7.5 16.5 6 15.5 4.5 16.5 4.5 12.5 7.5 12.5 7.5 16.5" fill="none" stroke="#1078ff" stroke-linecap="round" stroke-linejoin="round"/>
      <polygon points="18.5 16.5 17 15.5 15.5 16.5 15.5 12.5 18.5 12.5 18.5 16.5" fill="none" stroke="#1078ff" stroke-linecap="round" stroke-linejoin="round"/>
    </g>
  </g>
  <g id="Frames-24px">
    <rect width="24" height="24" fill="none"/>
  </g>
</svg>
