<svg xmlns="http://www.w3.org/2000/svg" width="24" height="24" viewBox="0 0 24 24">
  <title>package-barcode</title>
  <g id="Duotone">
    <rect x="1.5" y="2.5" width="21" height="20" fill="#fff"/>
    <rect x="1.5" y="20.5" width="21" height="2" fill="#cce7ff"/>
    <polygon points="14.5 8.5 12 7 9.5 8.5 9.5 2.5 14.5 2.5 14.5 8.5" fill="#cce7ff"/>
    <g>
      <line x1="12.5" y1="16.5" x2="12.5" y2="14.5" fill="none" stroke="#1078ff" stroke-linecap="round" stroke-linejoin="round"/>
      <line x1="12.5" y1="19.5" x2="12.5" y2="18.5" fill="none" stroke="#1078ff" stroke-linecap="round" stroke-linejoin="round"/>
      <line x1="10.5" y1="16.5" x2="10.5" y2="14.5" fill="none" stroke="#1078ff" stroke-linecap="round" stroke-linejoin="round"/>
      <line x1="10.5" y1="19.5" x2="10.5" y2="18.5" fill="none" stroke="#1078ff" stroke-linecap="round" stroke-linejoin="round"/>
      <line x1="14.5" y1="19.5" x2="14.5" y2="14.5" fill="none" stroke="#1078ff" stroke-linecap="round" stroke-linejoin="round"/>
      <line x1="18.5" y1="19.5" x2="18.5" y2="14.5" fill="none" stroke="#1078ff" stroke-linecap="round" stroke-linejoin="round"/>
      <line x1="16.5" y1="19.5" x2="16.5" y2="18.5" fill="none" stroke="#1078ff" stroke-linecap="round" stroke-linejoin="round"/>
      <line x1="16.5" y1="16.5" x2="16.5" y2="14.5" fill="none" stroke="#1078ff" stroke-linecap="round" stroke-linejoin="round"/>
      <rect x="1.5" y="2.5" width="21" height="20" fill="none" stroke="#1078ff" stroke-linejoin="round"/>
      <polygon points="14.5 8.5 12 7 9.5 8.5 9.5 2.5 14.5 2.5 14.5 8.5" fill="none" stroke="#1078ff" stroke-linejoin="round"/>
    </g>
  </g>
  <g id="Frames-24px">
    <rect width="24" height="24" fill="none"/>
  </g>
</svg>
