<svg xmlns="http://www.w3.org/2000/svg" width="24" height="24" viewBox="0 0 24 24">
  <title>sign-fragile-1</title>
  <g id="Duotone">
    <polygon points="11.5 17 4 11.5 6 0.5 17 0.5 19 11.5 11.5 17" fill="#fff"/>
    <polygon points="11.5 0.5 17 0.5 19 11.5 11.5 17 11.5 0.5" fill="#cce7ff"/>
    <g>
      <line x1="11.5" y1="23.5" x2="11.5" y2="17" fill="none" stroke="#1078ff" stroke-linecap="round" stroke-linejoin="round"/>
      <line x1="7.5" y1="23.5" x2="15.5" y2="23.5" fill="none" stroke="#1078ff" stroke-linecap="round" stroke-linejoin="round"/>
      <polyline points="8.5 0.5 8.5 3 11 5 8.5 7.5 8.5 9.5" fill="none" stroke="#1078ff" stroke-linecap="round" stroke-linejoin="round"/>
      <polygon points="11.5 17 4 11.5 6 0.5 17 0.5 19 11.5 11.5 17" fill="none" stroke="#1078ff" stroke-linecap="round" stroke-linejoin="round"/>
    </g>
  </g>
  <g id="Frames-24px">
    <rect width="24" height="24" fill="none"/>
  </g>
</svg>
