<?xml version="1.0" encoding="utf-8"?>
<!-- Generator: Adobe Illustrator 21.0.2, SVG Export Plug-In . SVG Version: 6.00 Build 0)  -->
<svg version="1.1" xmlns="http://www.w3.org/2000/svg" xmlns:xlink="http://www.w3.org/1999/xlink" x="0px" y="0px" width="24px"
	 height="24px" viewBox="0 0 24 24" enable-background="new 0 0 24 24" xml:space="preserve">
<g id="Black">
	<g>
		<g>
			<polyline fill="none" stroke="#58595B" stroke-linecap="round" stroke-linejoin="round" stroke-miterlimit="10" points="
				16.5,5.5 19.5,5.5 19.5,23.5 5.5,23.5 5.5,5.5 8.5,5.5 			"/>
			
				<line fill="none" stroke="#58595B" stroke-linecap="round" stroke-linejoin="round" stroke-miterlimit="10" x1="5.5" y1="9.5" x2="19.5" y2="9.5"/>
		</g>
		
			<rect x="11.44" y="4.939" transform="matrix(0.7071 -0.7071 0.7071 0.7071 -0.5814 10.5964)" fill="none" stroke="#58595B" stroke-linecap="round" stroke-linejoin="round" stroke-miterlimit="10" width="2.121" height="2.121"/>
		
			<line fill="none" stroke="#58595B" stroke-linecap="round" stroke-linejoin="round" stroke-miterlimit="10" x1="12.5" y1="1.5" x2="12.5" y2="0.5"/>
		
			<line fill="none" stroke="#58595B" stroke-linecap="round" stroke-linejoin="round" stroke-miterlimit="10" x1="8.887" y1="3.5" x2="8" y2="3.038"/>
		
			<line fill="none" stroke="#58595B" stroke-linecap="round" stroke-linejoin="round" stroke-miterlimit="10" x1="16.113" y1="3.5" x2="17" y2="3.038"/>
		
			<line fill="none" stroke="#58595B" stroke-linecap="round" stroke-linejoin="round" stroke-miterlimit="10" x1="10.383" y1="2.25" x2="10" y2="1.326"/>
		
			<line fill="none" stroke="#58595B" stroke-linecap="round" stroke-linejoin="round" stroke-miterlimit="10" x1="14.618" y1="2.174" x2="15" y2="1.25"/>
		<g id="XMLID_5_">
			<g>
				<polygon fill="none" stroke="#58595B" stroke-linejoin="round" stroke-miterlimit="10" points="15.5,17 12.5,18.5 9.5,17 
					9.5,13 12.5,11.5 15.5,13 				"/>
				<g>
					<polyline fill="none" stroke="#58595B" stroke-linejoin="round" stroke-miterlimit="10" points="9.5,13 12,14.5 15.5,14.5 
											"/>
				</g>
				<polyline fill="none" stroke="#58595B" stroke-linecap="round" stroke-linejoin="round" stroke-miterlimit="10" points="
					17.5,23.5 17.5,21 12.5,19.5 7.5,21 7.5,23.5 				"/>
			</g>
		</g>
	</g>
</g>
<g id="Frames-24px">
	<rect fill="none" width="24" height="24"/>
</g>
</svg>
