<?xml version="1.0" encoding="utf-8"?>
<!-- Generator: Adobe Illustrator 21.0.2, SVG Export Plug-In . SVG Version: 6.00 Build 0)  -->
<svg version="1.1" xmlns="http://www.w3.org/2000/svg" xmlns:xlink="http://www.w3.org/1999/xlink" x="0px" y="0px" width="24px"
	 height="24px" viewBox="0 0 24 24" enable-background="new 0 0 24 24" xml:space="preserve">
<g id="Black">
	<g>
		<g>
			<line fill="none" stroke="#58595B" stroke-linejoin="round" stroke-miterlimit="10" x1="22.5" y1="14.5" x2="18.5" y2="14.5"/>
			<polyline fill="none" stroke="#58595B" stroke-linejoin="round" stroke-miterlimit="10" points="3,10.5 7,14.5 10.5,14.5 			"/>
			
				<line fill="none" stroke="#58595B" stroke-linecap="round" stroke-linejoin="round" stroke-miterlimit="10" x1="18.5" y1="12.5" x2="20.5" y2="12.5"/>
			<line fill="none" stroke="#58595B" stroke-linejoin="round" stroke-miterlimit="10" x1="0.5" y1="17.5" x2="6.5" y2="23.5"/>
			<polygon fill="none" stroke="#58595B" stroke-linecap="round" stroke-linejoin="round" stroke-miterlimit="10" points="
				20.5,10.5 13.5,10.5 14.5,7.5 19.5,7.5 			"/>
			<rect x="0.5" y="10.5" fill="none" stroke="#58595B" stroke-linejoin="round" stroke-miterlimit="10" width="22" height="13"/>
		</g>
		<polygon fill="none" stroke="#58595B" stroke-linecap="round" stroke-linejoin="round" stroke-miterlimit="10" points="18.5,19 
			14.5,21.25 10.5,19 10.5,14.5 14.5,12.25 18.5,14.5 		"/>
		<polyline fill="none" stroke="#58595B" stroke-linecap="round" stroke-linejoin="round" stroke-miterlimit="10" points="
			12.5,17.75 12.5,15.75 14.5,14.5 		"/>
	</g>
</g>
<g id="Frames-24px">
	<rect fill="none" width="24" height="24"/>
</g>
</svg>
