<?xml version="1.0" encoding="utf-8"?>
<!-- Generator: Adobe Illustrator 21.0.0, SVG Export Plug-In . SVG Version: 6.00 Build 0)  -->
<svg version="1.1" id="Layer_1" xmlns="http://www.w3.org/2000/svg" xmlns:xlink="http://www.w3.org/1999/xlink" x="0px" y="0px"
	 width="24px" height="24px" viewBox="0 0 24 24" enable-background="new 0 0 24 24" xml:space="preserve">
<title>cassette-tape-2</title>
<g id="Duotone">
	<rect x="0.5" y="4.5" fill="#FFFFFF" width="22" height="16"/>
	<polygon fill="#CCE7FF" points="3,10.5 4.5,13.5 18.5,13.5 20,10.5 	"/>
	<g>
		<polygon fill="#CCE7FF" points="0.5,18 0.5,20.5 6.5,20.5 8.167,18 		"/>
		<polygon fill="#CCE7FF" points="14.833,18 16.5,20.5 22.5,20.5 22.5,18 		"/>
	</g>
	<line fill="none" stroke="#1078FF" stroke-linecap="round" stroke-linejoin="round" x1="8.5" y1="7.5" x2="14.5" y2="7.5"/>
	<rect x="0.5" y="4.5" fill="none" stroke="#1078FF" stroke-linecap="round" stroke-linejoin="round" width="22" height="16"/>
	<polygon fill="none" stroke="#1078FF" stroke-linecap="round" stroke-linejoin="round" points="8.5,7.5 10,10.5 8.5,13.5 4.5,13.5 
		3,10.5 4.5,7.5 	"/>
	<line fill="none" stroke="#1078FF" stroke-linecap="round" stroke-linejoin="round" x1="8.5" y1="13.5" x2="14.5" y2="13.5"/>
	<polygon fill="#FFFFFF" stroke="#1078FF" stroke-linecap="round" stroke-linejoin="round" points="6.5,20.5 8.5,17.5 14.5,17.5 
		16.5,20.5 	"/>
	<polygon fill="none" stroke="#1078FF" stroke-linecap="round" stroke-linejoin="round" points="18.5,7.5 20,10.5 18.5,13.5 
		14.5,13.5 13,10.5 14.5,7.5 	"/>
	<line fill="none" stroke="#1078FF" stroke-linecap="round" stroke-linejoin="round" x1="7.5" y1="9.5" x2="5.5" y2="11.5"/>
	<line fill="none" stroke="#1078FF" stroke-linecap="round" stroke-linejoin="round" x1="5.5" y1="9.5" x2="7.5" y2="11.5"/>
	<line fill="none" stroke="#1078FF" stroke-linecap="round" stroke-linejoin="round" x1="17.5" y1="9.5" x2="15.5" y2="11.5"/>
	<line fill="none" stroke="#1078FF" stroke-linecap="round" stroke-linejoin="round" x1="15.5" y1="9.5" x2="17.5" y2="11.5"/>
	<line fill="none" stroke="#1078FF" stroke-linecap="round" stroke-linejoin="round" x1="9.5" y1="20.5" x2="9.5" y2="19.5"/>
	<line fill="none" stroke="#1078FF" stroke-linecap="round" stroke-linejoin="round" x1="11.5" y1="20.5" x2="11.5" y2="19.5"/>
	<line fill="none" stroke="#1078FF" stroke-linecap="round" stroke-linejoin="round" x1="13.5" y1="20.5" x2="13.5" y2="19.5"/>
</g>
<g id="Frames-24px">
	<rect fill="none" width="24" height="24"/>
</g>
</svg>
