<svg xmlns="http://www.w3.org/2000/svg" width="24" height="24" viewBox="0 0 24 24">
  <title>gramophone-3</title>
  <g id="Duotone">
    <rect x="5.5" y="16.5" width="12" height="5" fill="#fff"/>
    <polygon points="0.5 1.5 0.5 13.5 16 7.5 0.5 1.5" fill="#fff"/>
    <polygon points="17.5 21.5 19 23.5 4 23.5 5.5 21.5 5.5 19 17.5 19 17.5 21.5" fill="#cce7ff"/>
    <polygon points="0.5 4.193 0.5 13.5 12.521 8.847 0.5 4.193" fill="#cce7ff"/>
    <rect x="5.5" y="16.5" width="12" height="5" fill="none" stroke="#1078ff" stroke-linecap="round" stroke-linejoin="round"/>
    <polyline points="5.5 21.471 4 23.5 19 23.5 17.5 21.486" fill="none" stroke="#1078ff" stroke-linecap="round" stroke-linejoin="round"/>
    <line x1="4.5" y1="14.5" x2="18.5" y2="14.5" fill="none" stroke="#1078ff" stroke-linecap="round" stroke-linejoin="round"/>
    <line x1="11.5" y1="16.5" x2="11.5" y2="13.5" fill="none" stroke="#1078ff" stroke-linecap="round" stroke-linejoin="round"/>
    <polyline points="17.5 18.5 20.5 18.5 20.5 20.5 22.5 20.5" fill="none" stroke="#1078ff" stroke-linecap="round" stroke-linejoin="round"/>
    <polygon points="0.5 1.5 0.5 13.5 16 7.5 0.5 1.5" fill="none" stroke="#1078ff" stroke-linecap="round" stroke-linejoin="round"/>
    <polyline points="16 7.5 20 7.5 22.5 10 20 12.5 15.5 12.5" fill="none" stroke="#1078ff" stroke-linecap="round" stroke-linejoin="round"/>
    <line x1="3.5" y1="2.661" x2="3.5" y2="12.339" fill="none" stroke="#1078ff" stroke-linecap="round" stroke-linejoin="round"/>
  </g>
  <g id="Frames-24px">
    <rect width="24" height="24" fill="none"/>
  </g>
</svg>
