<?xml version="1.0" encoding="utf-8"?>
<!-- Generator: Adobe Illustrator 21.0.0, SVG Export Plug-In . SVG Version: 6.00 Build 0)  -->
<svg version="1.1" id="Layer_1" xmlns="http://www.w3.org/2000/svg" xmlns:xlink="http://www.w3.org/1999/xlink" x="0px" y="0px"
	 width="24px" height="24px" viewBox="0 0 24 24" enable-background="new 0 0 24 24" xml:space="preserve">
<title>mp3-player-2</title>
<g id="Duotone">
	<rect x="0.5" y="3.5" fill="#FFFFFF" width="12" height="20"/>
	<polygon fill="#FFFFFF" points="22.5,17.5 21.5,17.5 20.5,16.5 20.5,13.5 21.5,12.5 22.5,12.5 	"/>
	<polygon fill="#FFFFFF" points="18,23.5 17.289,22.797 17.282,21.382 19.393,19.25 20.807,19.243 21.518,19.947 	"/>
	<polygon fill="#CCE7FF" points="9,18 6.5,19.5 4,18 2.5,19.25 6.5,21.5 10.5,19.25 	"/>
	<polygon fill="#CCE7FF" points="12.5,3.5 0.5,10.5 12.5,10.5 	"/>
	<rect x="0.5" y="3.5" fill="none" stroke="#1078FF" stroke-linecap="round" stroke-linejoin="round" width="12" height="20"/>
	<polygon fill="none" stroke="#1078FF" stroke-linejoin="round" points="2.5,14.75 6.5,12.5 10.5,14.75 10.5,19.25 6.5,21.5 
		2.5,19.25 	"/>
	<line fill="none" stroke="#1078FF" stroke-linejoin="round" x1="0.5" y1="10.5" x2="12.5" y2="10.5"/>
	<polyline fill="none" stroke="#1078FF" stroke-linecap="round" stroke-linejoin="round" points="9.5,3.5 11.5,1.5 21,1.5 22.5,3 
		21,4.5 18.5,4.5 17,6 18.5,7.5 21.5,7.5 22.5,9 21.5,10.5 17,10.5 14.5,12 14.5,14 15.5,15 	"/>
	<polygon fill="none" stroke="#1078FF" stroke-linecap="round" stroke-linejoin="round" points="22.5,17.5 21.5,17.5 20.5,16.5 
		20.5,13.5 21.5,12.5 22.5,12.5 	"/>
	<polygon fill="#CCE7FF" stroke="#1078FF" stroke-linecap="round" stroke-linejoin="round" points="20.5,16.5 17.5,16 17.5,14 
		20.5,13.5 	"/>
	<polygon fill="none" stroke="#1078FF" stroke-linecap="round" stroke-linejoin="round" points="18,23.5 17.289,22.797 
		17.282,21.382 19.393,19.25 20.807,19.243 21.518,19.947 	"/>
	<polygon fill="#CCE7FF" stroke="#1078FF" stroke-linecap="round" stroke-linejoin="round" points="17.282,21.382 15.502,18.916 
		16.909,17.495 19.393,19.25 	"/>
	<line fill="none" stroke="#1078FF" stroke-linecap="round" stroke-linejoin="round" x1="7" y1="6" x2="10" y2="9"/>
	<line fill="none" stroke="#1078FF" stroke-linecap="round" stroke-linejoin="round" x1="9.5" y1="5.5" x2="10.5" y2="6.5"/>
	<path fill="#1078FF" d="M6.5,16c-0.053,0-0.104,0.021-0.141,0.059l-0.8,0.8c-0.078,0.078-0.078,0.205,0,0.283c0,0,0,0,0,0l0.8,0.8
		c0.078,0.078,0.205,0.078,0.283,0c0,0,0,0,0,0l0.8-0.8c0.078-0.078,0.078-0.205,0-0.283c0,0,0,0,0,0l-0.8-0.8
		C6.604,16.021,6.553,16,6.5,16z"/>
</g>
<g id="Frames-24px">
	<rect fill="none" width="24" height="24"/>
</g>
</svg>
