<svg xmlns="http://www.w3.org/2000/svg" width="24" height="24" viewBox="0 0 24 24">
  <title>music-player-cd</title>
  <g id="Duotone">
    <rect x="0.5" y="15.5" width="22" height="6" fill="#fff"/>
    <polyline points="1.5 13.5 1.5 10 7.5 6.5 13.5 10 13.5 13.5" fill="#fff"/>
    <rect x="0.5" y="18.5" width="22" height="3" fill="#cce7ff"/>
    <polygon points="13.5 13.5 13.5 10 10.658 8.342 7.808 11.192 9.5 12.25 9.5 13.5 13.5 13.5" fill="#cce7ff"/>
    <polyline points="17.5 9.5 15.5 9.5 15.5 12 17.5 11" fill="#cce7ff"/>
    <polyline points="22.5 7.5 20.5 7.5 20.5 10 22.5 9" fill="#cce7ff"/>
    <rect x="0.5" y="15.5" width="22" height="6" fill="none" stroke="#1078ff" stroke-linejoin="round"/>
    <line x1="4.5" y1="18.5" x2="11.5" y2="18.5" fill="none" stroke="#1078ff" stroke-linecap="round" stroke-linejoin="round"/>
    <line x1="3" y1="21.5" x2="1.5" y2="23.5" fill="none" stroke="#1078ff" stroke-linecap="round" stroke-linejoin="round"/>
    <line x1="20" y1="21.5" x2="21.5" y2="23.5" fill="none" stroke="#1078ff" stroke-linecap="round" stroke-linejoin="round"/>
    <line x1="17.5" y1="17.5" x2="17.5" y2="19.5" fill="none" stroke="#1078ff" stroke-linecap="round" stroke-linejoin="round"/>
    <line x1="19.5" y1="17.5" x2="19.5" y2="19.5" fill="none" stroke="#1078ff" stroke-linecap="round" stroke-linejoin="round"/>
    <polyline points="17.5 9.5 15.5 9.5 15.5 12 17.5 11" fill="none" stroke="#1078ff" stroke-linecap="round" stroke-linejoin="round"/>
    <polyline points="22.5 7.5 20.5 7.5 20.5 10 22.5 9" fill="none" stroke="#1078ff" stroke-linecap="round" stroke-linejoin="round"/>
    <polyline points="22.5 9 22.5 1.5 17.5 3.5 17.5 11" fill="none" stroke="#1078ff" stroke-linecap="round" stroke-linejoin="round"/>
    <polyline points="5.5 13.5 5.5 12.25 7.5 11 9.5 12.25 9.5 13.5" fill="none" stroke="#1078ff" stroke-linecap="round" stroke-linejoin="round"/>
    <polyline points="1.5 13.5 1.5 10 7.5 6.5 13.5 10 13.5 13.5" fill="none" stroke="#1078ff" stroke-linecap="round" stroke-linejoin="round"/>
  </g>
  <g id="Frames-24px">
    <rect width="24" height="24" fill="none"/>
  </g>
</svg>
